{
      "mean": {
               "handler": "f_mean", 
               "apply": ["rawx", "rawy", "rawz"],
               "paras": {}
               },
      "std": {
            "handler": "f_std", 
            "apply": ["rawx", "rawy", "rawz"],
            "paras": {}
      },
      "median": {
            "handler": "median", 
            "apply": ["rawx", "rawy", "rawz"],
            "paras": {}
      },
      "max": {
            "handler": "max", 
            "apply": ["rawx", "rawy", "rawz"],
            "paras": {}
      },
      "min": {
            "handler": "min", 
            "apply": ["rawx", "rawy", "rawz"],
            "paras": {}
      },
      "skew": {
            "handler": "f_skew", 
            "apply": ["rawx", "rawy", "rawz"],
            "paras": {}
      },
      "kurtosis": {
            "handler": "f_kurtosis", 
            "apply": ["rawx", "rawy", "rawz"],
            "paras": {}
      },
      "percentile": {
            "handler": "f_percentile", 
            "apply": ["rawx", "rawy", "rawz"],
            "paras": {"q": 90}
      },
      "snr": {
            "handler": "f_snr", 
            "apply": ["rawx", "rawy", "rawz"],
            "paras": {}
      },
      "peak-peak amplitude": {
            "handler": "f_pppeakamplitude", 
            "apply": ["rawx", "rawy", "rawz"],
            "paras": {"q": 90}
      },
      "peak rate": {
            "handler": "f_peakrate", 
            "apply": ["rawx", "rawy", "rawz"],
            "paras": {"q": 0.25, "sigma": 5.0}
      },
      "correlation": {
            "handler": "f_correlation", 
            "apply": ["rawx", "rawy", "rawz"],
            "paras": {"with": ["rawy", "rawz", "rawx"], "type": "pearson"}
      },
      "rms": {
            "handler": "f_rms", 
            "apply": ["rawx", "rawy", "rawz"],
            "paras": {}
      },
      "slope": {
            "handler": "f_slope", 
            "apply": ["rawx", "rawy", "rawz"],
            "paras": {}
      },
      "MSE": {
            "handler": "f_mse", 
            "apply": ["rawx", "rawy", "rawz"],
            "paras": {}
      },
      "R squared": {
            "handler": "f_rsquared", 
            "apply": ["rawx", "rawy", "rawz"],
            "paras": {}
      },
      "axes crossing rate": {
            "handler": "f_axescrossrate", 
            "apply": ["rawx", "rawy", "rawz"],
            "paras": {"with":["rawy", "rawz", "rawx"], "q": 0.25}
      }
}