segment,STARTTIME,ENDTIME,seg duration,session,sensor,inside puff/puff duration,inside puff/segment duration,prototypical?,puff index,puff side,car percentage,talk percentage,unknown percentage,drinking percentage,reading percentage,eating percentage,smoking percentage,computer percentage,phone percentage,walking percentage,superposition percentage,name,target
0,2012-02-08 11:26:10,2012-02-08 11:26:22.975000,12.975,4,NDW,,,,,,,,,,,,,,,,,others,0
1,2012-02-08 11:26:16.500000,2012-02-08 11:26:29.475000,12.975,4,NDW,,,,,,,,,,,,,,,,,others,0
2,2012-02-08 11:26:23,2012-02-08 11:26:35.975000,12.975,4,NDW,,,,,,,,,,,,,,,0.3834296724470135,,walking,1
3,2012-02-08 11:26:29.500000,2012-02-08 11:26:42.475000,12.975,4,NDW,,,,,,,,,,,,,,,0.884393063583815,,walking,1
4,2012-02-08 11:26:36,2012-02-08 11:26:48.975000,12.975,4,NDW,,,,,,,,,,,,,,,1.0,,walking,1
5,2012-02-08 11:26:42.500000,2012-02-08 11:26:55.475000,12.975,4,NDW,,,,,,,,,,,,,,,0.6551059730250481,,walking,1
6,2012-02-08 11:26:49,2012-02-08 11:27:01.975000,12.975,4,NDW,,,,,,,,,,,,,,,0.15414258188824664,,rest,-1
7,2012-02-08 11:26:55.500000,2012-02-08 11:27:08.475000,12.975,4,NDW,,,,,,,,,,,,,,,,,rest,-1
8,2012-02-08 11:27:02,2012-02-08 11:27:14.975000,12.975,4,NDW,,,,,,,,,,,,,,,,,rest,-1
9,2012-02-08 11:27:08.500000,2012-02-08 11:27:21.475000,12.975,4,NDW,,,,,,,,,,,,,,,,,rest,-1
10,2012-02-08 11:27:15,2012-02-08 11:27:27.975000,12.975,4,NDW,,,,,,,,,,,,,,,,,others,0
11,2012-02-08 11:27:21.500000,2012-02-08 11:27:34.475000,12.975,4,NDW,,,,,,,,,,,,,,,,,others,0
12,2012-02-08 11:27:28,2012-02-08 11:27:40.975000,12.975,4,NDW,,,,,,,,,,,,,,,,,others,0
13,2012-02-08 11:27:34.500000,2012-02-08 11:27:47.475000,12.975,4,NDW,,,,,,,,,,,,,,,,,rest,-1
14,2012-02-08 11:27:41,2012-02-08 11:27:53.975000,12.975,4,NDW,,,,,,,,,,,,,,,,,rest,-1
15,2012-02-08 11:27:47.500000,2012-02-08 11:28:00.475000,12.975,4,NDW,,,,,,,,,,,,,,,0.23121387283236994,,rest,-1
16,2012-02-08 11:27:54,2012-02-08 11:28:06.975000,12.975,4,NDW,,,,,,,,,,,,,,,0.23121387283236994,,rest,-1
17,2012-02-08 11:28:00.500000,2012-02-08 11:28:13.475000,12.975,4,NDW,,,,,,,,,,,,,,,,,rest,-1
18,2012-02-08 11:28:07,2012-02-08 11:28:19.975000,12.975,4,NDW,,,,,,,,,,,,,,,,,rest,-1
19,2012-02-08 11:28:13.500000,2012-02-08 11:28:26.475000,12.975,4,NDW,,,,,,,,,,,,,,,,,rest,-1
20,2012-02-08 11:28:20,2012-02-08 11:28:32.975000,12.975,4,NDW,,,,,,,,,,,,,,,,,rest,-1
21,2012-02-08 11:28:26.500000,2012-02-08 11:28:39.475000,12.975,4,NDW,,,,,,,,,,,,,,,,,rest,-1
22,2012-02-08 11:28:33,2012-02-08 11:28:45.975000,12.975,4,NDW,,,,,,,,,,,,,,,,,rest,-1
23,2012-02-08 11:28:39.500000,2012-02-08 11:28:52.475000,12.975,4,NDW,,,,,,,,,,,,,,,,,rest,-1
24,2012-02-08 11:28:46,2012-02-08 11:28:58.975000,12.975,4,NDW,,,,,,,,,,,,,,,,,others,0
25,2012-02-08 11:28:52.500000,2012-02-08 11:29:05.475000,12.975,4,NDW,,,,,,,,,,,,,,,,,others,0
26,2012-02-08 11:28:59,2012-02-08 11:29:11.975000,12.975,4,NDW,,,,,,,,,,,,,,,,,others,0
27,2012-02-08 11:29:05.500000,2012-02-08 11:29:18.475000,12.975,4,NDW,,,,,,,,,,,,,,,,,others,0
28,2012-02-08 11:29:12,2012-02-08 11:29:24.975000,12.975,4,NDW,,,,,,,,,,,,,,,,,others,0
29,2012-02-08 11:29:18.500000,2012-02-08 11:29:31.475000,12.975,4,NDW,,,,,,,,,,,,,,,,,rest,-1
30,2012-02-08 11:29:25,2012-02-08 11:29:37.975000,12.975,4,NDW,,,,,,,,,,,,,,,,,others,0
31,2012-02-08 11:29:31.500000,2012-02-08 11:29:44.475000,12.975,4,NDW,,,,,,,,,,,,,,,,,others,0
32,2012-02-08 11:29:38,2012-02-08 11:29:50.975000,12.975,4,NDW,,,,,,,,,,,,,,,0.4605009633911368,,walking,1
33,2012-02-08 11:29:44.500000,2012-02-08 11:29:57.475000,12.975,4,NDW,,,,,,,,,,,,,,,0.9614643545279383,,walking,1
34,2012-02-08 11:29:51,2012-02-08 11:30:03.975000,12.975,4,NDW,,,,,,,,,,,,,,,1.0,,walking,1
35,2012-02-08 11:29:57.500000,2012-02-08 11:30:10.475000,12.975,4,NDW,,,,,,,,0.19075144508670522,,,,,,,0.8092485549132948,,walking,1
36,2012-02-08 11:30:04,2012-02-08 11:30:16.975000,12.975,4,NDW,,,,,,,,0.6917148362235067,,,,,,,0.3082851637764933,,walking,1
37,2012-02-08 11:30:10.500000,2012-02-08 11:30:23.475000,12.975,4,NDW,,,,,,,,1.0,,,,,,,,,others,0
38,2012-02-08 11:30:17,2012-02-08 11:30:29.975000,12.975,4,NDW,,,,,,,,1.0,,,,,,,,,others,0
39,2012-02-08 11:30:23.500000,2012-02-08 11:30:36.475000,12.975,4,NDW,,,,,,,,1.0,,,,,,,,,others,0
40,2012-02-08 11:30:30,2012-02-08 11:30:42.975000,12.975,4,NDW,,,,,,,,0.6936416184971098,,,,,,,0.3834296724470135,,walking,1
41,2012-02-08 11:30:36.500000,2012-02-08 11:30:49.475000,12.975,4,NDW,,,,,,,,0.1926782273603083,,,,,,,0.884393063583815,,walking,1
42,2012-02-08 11:30:43,2012-02-08 11:30:55.975000,12.975,4,NDW,,,,,,,,,,,,,,,1.0,,walking,1
43,2012-02-08 11:30:49.500000,2012-02-08 11:31:02.475000,12.975,4,NDW,,,,,,,,,,,,,,,0.5780346820809249,,walking,1
44,2012-02-08 11:30:56,2012-02-08 11:31:08.975000,12.975,4,NDW,,,,,,,,,0.3834296724470135,,,,,,0.07707129094412332,,drinking,8
45,2012-02-08 11:31:02.500000,2012-02-08 11:31:15.475000,12.975,4,NDW,,,,,,,,,0.4624277456647399,,,,,,,,drinking,8
46,2012-02-08 11:31:09,2012-02-08 11:31:21.975000,12.975,4,NDW,,,,,,,,,0.07707129094412332,,,,,,,,others,0
47,2012-02-08 11:31:15.500000,2012-02-08 11:31:28.475000,12.975,4,NDW,,,,,,,,,,,,,,,,,others,0
48,2012-02-08 11:31:22,2012-02-08 11:31:34.975000,12.975,4,NDW,,,,,,,,,,,,,,,,,others,0
49,2012-02-08 11:31:28.500000,2012-02-08 11:31:41.475000,12.975,4,NDW,,,,,,,,,,,,,,,,,others,0
50,2012-02-08 11:31:35,2012-02-08 11:31:47.975000,12.975,4,NDW,,,,,,,,,,,,,,,,,rest,-1
51,2012-02-08 11:31:41.500000,2012-02-08 11:31:54.475000,12.975,4,NDW,,,,,,,,,,,,,,,,,rest,-1
52,2012-02-08 11:31:48,2012-02-08 11:32:00.975000,12.975,4,NDW,,,,,,,,,,,,,,,,,rest,-1
53,2012-02-08 11:31:54.500000,2012-02-08 11:32:07.475000,12.975,4,NDW,,,,,,,,,,,,,,,,,rest,-1
54,2012-02-08 11:32:01,2012-02-08 11:32:13.975000,12.975,4,NDW,,,,,,,,,,,,,,,,,rest,-1
55,2012-02-08 11:32:07.500000,2012-02-08 11:32:20.475000,12.975,4,NDW,,,,,,,,,,,,,,,,,rest,-1
56,2012-02-08 11:32:14,2012-02-08 11:32:26.975000,12.975,4,NDW,,,,,,,,,,,,,,,,,others,0
57,2012-02-08 11:32:20.500000,2012-02-08 11:32:33.475000,12.975,4,NDW,,,,,,,,,,,,,,,,,others,0
58,2012-02-08 11:32:27,2012-02-08 11:32:39.975000,12.975,4,NDW,,,,,,,,,,,,0.4605009633911368,,,,,others,0
59,2012-02-08 11:32:33.500000,2012-02-08 11:32:46.475000,12.975,4,NDW,,,,,,,,,,,,0.9614643545279383,,,,,others,0
60,2012-02-08 11:32:40,2012-02-08 11:32:52.975000,12.975,4,NDW,,,,,,,,,,,,1.0,,,,,others,0
61,2012-02-08 11:32:46.500000,2012-02-08 11:32:59.475000,12.975,4,NDW,,,,,,,,,,,,1.0,,,,,others,0
62,2012-02-08 11:32:53,2012-02-08 11:33:05.975000,12.975,4,NDW,,,,,,,,,,,,1.0,,,,,others,0
63,2012-02-08 11:32:59.500000,2012-02-08 11:33:12.475000,12.975,4,NDW,,,,,,,,,,,,1.0,,,,,others,0
64,2012-02-08 11:33:06,2012-02-08 11:33:18.975000,12.975,4,NDW,,,,,,,,,,,,1.0,,,,,rest,-1
65,2012-02-08 11:33:12.500000,2012-02-08 11:33:25.475000,12.975,4,NDW,,,,,,,,,,,,1.0,,,,,rest,-1
66,2012-02-08 11:33:19,2012-02-08 11:33:31.975000,12.975,4,NDW,,,,,,,,,,,,1.0,,,,,rest,-1
67,2012-02-08 11:33:25.500000,2012-02-08 11:33:38.475000,12.975,4,NDW,,,,,,,,,,,,1.0,,,,,rest,-1
68,2012-02-08 11:33:32,2012-02-08 11:33:44.975000,12.975,4,NDW,,,,,,,,,,,,1.0,,,,,rest,-1
69,2012-02-08 11:33:38.500000,2012-02-08 11:33:51.475000,12.975,4,NDW,,,,,,,,,,,,1.0,,,,,others,0
70,2012-02-08 11:33:45,2012-02-08 11:33:57.975000,12.975,4,NDW,,,,,,,,,,,,1.0,,,,,others,0
71,2012-02-08 11:33:51.500000,2012-02-08 11:34:04.475000,12.975,4,NDW,,,,,,,,,,,,1.0,,,,,rest,-1
72,2012-02-08 11:33:58,2012-02-08 11:34:10.975000,12.975,4,NDW,,,,,,,,,,,,1.0,,,,,rest,-1
73,2012-02-08 11:34:04.500000,2012-02-08 11:34:17.475000,12.975,4,NDW,,,,,,,,,,,,1.0,,,,,rest,-1
74,2012-02-08 11:34:11,2012-02-08 11:34:23.975000,12.975,4,NDW,,,,,,,,,,,,1.0,,,,,rest,-1
75,2012-02-08 11:34:17.500000,2012-02-08 11:34:30.475000,12.975,4,NDW,,,,,,,,,,,,1.0,,,,,rest,-1
76,2012-02-08 11:34:24,2012-02-08 11:34:36.975000,12.975,4,NDW,,,,,,,,,,,,1.0,,,,,rest,-1
77,2012-02-08 11:34:30.500000,2012-02-08 11:34:43.475000,12.975,4,NDW,,,,,,,,,,,,1.0,,,,,rest,-1
78,2012-02-08 11:34:37,2012-02-08 11:34:49.975000,12.975,4,NDW,,,,,,,,,,,,1.0,,,,,rest,-1
79,2012-02-08 11:34:43.500000,2012-02-08 11:34:56.475000,12.975,4,NDW,,,,,,,,,,,,1.0,,,,,rest,-1
80,2012-02-08 11:34:50,2012-02-08 11:35:02.975000,12.975,4,NDW,,,,,,,,,,,,1.0,,,,,rest,-1
81,2012-02-08 11:34:56.500000,2012-02-08 11:35:09.475000,12.975,4,NDW,,,,,,,,,,,,1.0,,,,,rest,-1
82,2012-02-08 11:35:03,2012-02-08 11:35:15.975000,12.975,4,NDW,,,,,,,,,,,,1.0,,,,,rest,-1
83,2012-02-08 11:35:09.500000,2012-02-08 11:35:22.475000,12.975,4,NDW,,,,,,,,,,,,1.0,,,,,rest,-1
84,2012-02-08 11:35:16,2012-02-08 11:35:28.975000,12.975,4,NDW,,,,,,,,,,,,1.0,,,,,others,0
85,2012-02-08 11:35:22.500000,2012-02-08 11:35:35.475000,12.975,4,NDW,,,,,,,,,,,,1.0,,,,,others,0
86,2012-02-08 11:35:29,2012-02-08 11:35:41.975000,12.975,4,NDW,,,,,,,,,,,,1.0,,,,,others,0
87,2012-02-08 11:35:35.500000,2012-02-08 11:35:48.475000,12.975,4,NDW,,,,,,,,,,,,1.0,,,,,rest,-1
88,2012-02-08 11:35:42,2012-02-08 11:35:54.975000,12.975,4,NDW,,,,,,,,,,,,1.0,,,,,others,0
89,2012-02-08 11:35:48.500000,2012-02-08 11:36:01.475000,12.975,4,NDW,,,,,,,,,,,,1.0,,,,,others,0
90,2012-02-08 11:35:55,2012-02-08 11:36:07.975000,12.975,4,NDW,,,,,,,,,,,,1.0,,,,,rest,-1
91,2012-02-08 11:36:01.500000,2012-02-08 11:36:14.475000,12.975,4,NDW,,,,,,,,,,,,1.0,,,,,rest,-1
92,2012-02-08 11:36:08,2012-02-08 11:36:20.975000,12.975,4,NDW,,,,,,,,,,,,1.0,,,,,rest,-1
93,2012-02-08 11:36:14.500000,2012-02-08 11:36:27.475000,12.975,4,NDW,,,,,,,,,,,,1.0,,,,,others,0
94,2012-02-08 11:36:21,2012-02-08 11:36:33.975000,12.975,4,NDW,,,,,,,,,,,,1.0,,,,,others,0
95,2012-02-08 11:36:27.500000,2012-02-08 11:36:40.475000,12.975,4,NDW,,,,,,,,,,,,1.0,,,,,others,0
96,2012-02-08 11:36:34,2012-02-08 11:36:46.975000,12.975,4,NDW,,,,,,,,,,,,1.0,,,,,others,0
97,2012-02-08 11:36:40.500000,2012-02-08 11:36:53.475000,12.975,4,NDW,,,,,,,,,,,,1.0,,,,,others,0
98,2012-02-08 11:36:47,2012-02-08 11:36:59.975000,12.975,4,NDW,,,,,,,,,,,,1.0,,,,,others,0
99,2012-02-08 11:36:53.500000,2012-02-08 11:37:06.475000,12.975,4,NDW,,,,,,,,,,,,1.0,,,,,others,0
100,2012-02-08 11:37:00,2012-02-08 11:37:12.975000,12.975,4,NDW,,,,,,,,,,,,1.0,,,,,others,0
101,2012-02-08 11:37:06.500000,2012-02-08 11:37:19.475000,12.975,4,NDW,,,,,,,,,0.3448940269749518,,,1.0,,,,0.3448940269749518,drinking,8
102,2012-02-08 11:37:13,2012-02-08 11:37:25.975000,12.975,4,NDW,,,,,,,,,0.5394990366088632,,,1.0,,,,0.5394990366088632,drinking,8
103,2012-02-08 11:37:19.500000,2012-02-08 11:37:32.475000,12.975,4,NDW,,,,,,,,,0.1926782273603083,,,1.0,,,,0.1926782273603083,others,0
104,2012-02-08 11:37:26,2012-02-08 11:37:38.975000,12.975,4,NDW,,,,,,,,,,,,1.0,,,,,rest,-1
105,2012-02-08 11:37:32.500000,2012-02-08 11:37:45.475000,12.975,4,NDW,,,,,,,,,,,,1.0,,,,,rest,-1
106,2012-02-08 11:37:39,2012-02-08 11:37:51.975000,12.975,4,NDW,,,,,,,,,,,,1.0,,,,,rest,-1
107,2012-02-08 11:37:45.500000,2012-02-08 11:37:58.475000,12.975,4,NDW,,,,,,,,,,,,1.0,,,,,others,0
108,2012-02-08 11:37:52,2012-02-08 11:38:04.975000,12.975,4,NDW,,,,,,,,,,,,1.0,,,,,others,0
109,2012-02-08 11:37:58.500000,2012-02-08 11:38:11.475000,12.975,4,NDW,,,,,,,,,,,,1.0,,,,,others,0
110,2012-02-08 11:38:05,2012-02-08 11:38:17.975000,12.975,4,NDW,,,,,,,,,,,,1.0,,,,,others,0
111,2012-02-08 11:38:11.500000,2012-02-08 11:38:24.475000,12.975,4,NDW,,,,,,,,,,,,1.0,,,,,rest,-1
112,2012-02-08 11:38:18,2012-02-08 11:38:30.975000,12.975,4,NDW,,,,,,,,,,,,1.0,,,,,rest,-1
113,2012-02-08 11:38:24.500000,2012-02-08 11:38:37.475000,12.975,4,NDW,,,,,,,,,,,,1.0,,,,,rest,-1
114,2012-02-08 11:38:31,2012-02-08 11:38:43.975000,12.975,4,NDW,,,,,,,,,,,,1.0,,,,,rest,-1
115,2012-02-08 11:38:37.500000,2012-02-08 11:38:50.475000,12.975,4,NDW,,,,,,,,,,,,1.0,,,,,rest,-1
116,2012-02-08 11:38:44,2012-02-08 11:38:56.975000,12.975,4,NDW,,,,,,,,,,,,1.0,,,,,rest,-1
117,2012-02-08 11:38:50.500000,2012-02-08 11:39:03.475000,12.975,4,NDW,,,,,,,,,,,,1.0,,,,,rest,-1
118,2012-02-08 11:38:57,2012-02-08 11:39:09.975000,12.975,4,NDW,,,,,,,,,,,,1.0,,,,,rest,-1
119,2012-02-08 11:39:03.500000,2012-02-08 11:39:16.475000,12.975,4,NDW,,,,,,,,,,,,1.0,,,,,rest,-1
120,2012-02-08 11:39:10,2012-02-08 11:39:22.975000,12.975,4,NDW,,,,,,,,,,,,1.0,,,,,rest,-1
121,2012-02-08 11:39:16.500000,2012-02-08 11:39:29.475000,12.975,4,NDW,,,,,,,,,,,,1.0,,,,,rest,-1
122,2012-02-08 11:39:23,2012-02-08 11:39:35.975000,12.975,4,NDW,,,,,,,,,,,,1.0,,,,,rest,-1
123,2012-02-08 11:39:29.500000,2012-02-08 11:39:42.475000,12.975,4,NDW,,,,,,,,,,,,1.0,,,,,rest,-1
124,2012-02-08 11:39:36,2012-02-08 11:39:48.975000,12.975,4,NDW,,,,,,,,,,,,1.0,,,,,rest,-1
125,2012-02-08 11:39:42.500000,2012-02-08 11:39:55.475000,12.975,4,NDW,,,,,,,,,,,,1.0,,,,,rest,-1
126,2012-02-08 11:39:49,2012-02-08 11:40:01.975000,12.975,4,NDW,,,,,,,,,,,,1.0,,,,,rest,-1
127,2012-02-08 11:39:55.500000,2012-02-08 11:40:08.475000,12.975,4,NDW,,,,,,,,,,,,1.0,,,,,others,0
128,2012-02-08 11:40:02,2012-02-08 11:40:14.975000,12.975,4,NDW,,,,,,,,,,,,1.0,,,,,others,0
129,2012-02-08 11:40:08.500000,2012-02-08 11:40:21.475000,12.975,4,NDW,,,,,,,,,,,,1.0,,,,,rest,-1
130,2012-02-08 11:40:15,2012-02-08 11:40:27.975000,12.975,4,NDW,,,,,,,,,,,,1.0,,,,,rest,-1
131,2012-02-08 11:40:21.500000,2012-02-08 11:40:34.475000,12.975,4,NDW,,,,,,,,,,,,1.0,,,,,others,0
132,2012-02-08 11:40:28,2012-02-08 11:40:40.975000,12.975,4,NDW,,,,,,,,,0.23121387283236994,,,1.0,,,,0.23121387283236994,others,0
133,2012-02-08 11:40:34.500000,2012-02-08 11:40:47.475000,12.975,4,NDW,,,,,,,,,0.23121387283236994,,,1.0,,,,0.23121387283236994,others,0
134,2012-02-08 11:40:41,2012-02-08 11:40:53.975000,12.975,4,NDW,,,,,,,,,,,,1.0,,,,,others,0
135,2012-02-08 11:40:47.500000,2012-02-08 11:41:00.475000,12.975,4,NDW,,,,,,,,,,,,0.9633911368015414,,,0.49903660886319845,0.4624277456647399,walking,1
136,2012-02-08 11:40:54,2012-02-08 11:41:06.975000,12.975,4,NDW,,,,,,,,,,,,0.4624277456647399,,,1.0,0.4624277456647399,walking,1
137,2012-02-08 11:41:00.500000,2012-02-08 11:41:13.475000,12.975,4,NDW,,,,,,,,,,,,,,,1.0,,walking,1
138,2012-02-08 11:41:07,2012-02-08 11:41:19.975000,12.975,4,NDW,,,,,,,,,,,,,,,1.0,,walking,1
139,2012-02-08 11:41:13.500000,2012-02-08 11:41:26.475000,12.975,4,NDW,,,,,,,,,,,,,,,1.0,,walking,1
140,2012-02-08 11:41:20,2012-02-08 11:41:32.975000,12.975,4,NDW,,,,,,,,,,,,,,,0.8477842003853565,,walking,1
141,2012-02-08 11:41:26.500000,2012-02-08 11:41:39.475000,12.975,4,NDW,,,,,,,,,,,,,,,0.3468208092485549,,walking,1
142,2012-02-08 11:41:33,2012-02-08 11:41:45.975000,12.975,4,NDW,,,,,,,,,,,,,,,,,others,0
143,2012-02-08 11:41:39.500000,2012-02-08 11:41:52.475000,12.975,4,NDW,,,,,,,,0.19075144508670522,,,,,,,0.19075144508670522,,others,0
144,2012-02-08 11:41:46,2012-02-08 11:41:58.975000,12.975,4,NDW,,,,,,,,0.6917148362235067,,,,,,,0.6917148362235067,,walking,1
145,2012-02-08 11:41:52.500000,2012-02-08 11:42:05.475000,12.975,4,NDW,,,,,,,,1.0,,,,,,,0.7321772639691715,,walking,1
146,2012-02-08 11:41:59,2012-02-08 11:42:11.975000,12.975,4,NDW,,,,,,,,1.0,,,,,,,0.23121387283236994,,others,0
147,2012-02-08 11:42:05.500000,2012-02-08 11:42:18.475000,12.975,4,NDW,,,,,,,,1.0,,,,,,,,,others,0
148,2012-02-08 11:42:12,2012-02-08 11:42:24.975000,12.975,4,NDW,,,,,,,,1.0,,,,,,,0.07514450867052024,,others,0
149,2012-02-08 11:42:18.500000,2012-02-08 11:42:31.475000,12.975,4,NDW,,,,,,,,1.0,,,,,,,0.5761078998073218,,walking,1
150,2012-02-08 11:42:25,2012-02-08 11:42:37.975000,12.975,4,NDW,,,,,,,,1.0,,,,,,,0.6165703275529866,,walking,1
151,2012-02-08 11:42:31.500000,2012-02-08 11:42:44.475000,12.975,4,NDW,,,,,,,,1.0,,,,,,,0.2697495183044316,,others,0
152,2012-02-08 11:42:38,2012-02-08 11:42:50.975000,12.975,4,NDW,,,,,,,,1.0,,,,,,,0.15414258188824664,,others,0
153,2012-02-08 11:42:44.500000,2012-02-08 11:42:57.475000,12.975,4,NDW,,,,,,,,1.0,,,,,,,,,others,0
154,2012-02-08 11:42:51,2012-02-08 11:43:03.975000,12.975,4,NDW,,,,,,,,1.0,,,,,,,,,others,0
155,2012-02-08 11:42:57.500000,2012-02-08 11:43:10.475000,12.975,4,NDW,,,,,,,,1.0,,,,,,,0.19075144508670522,,others,0
156,2012-02-08 11:43:04,2012-02-08 11:43:16.975000,12.975,4,NDW,,,,,,,,1.0,,,,,,,0.6917148362235067,,walking,1
157,2012-02-08 11:43:10.500000,2012-02-08 11:43:23.475000,12.975,4,NDW,,,,,,,,1.0,,,,,,,1.0,,walking,1
158,2012-02-08 11:43:17,2012-02-08 11:43:29.975000,12.975,4,NDW,,,,,,,,1.0,,,,,,,1.0,,walking,1
159,2012-02-08 11:43:23.500000,2012-02-08 11:43:36.475000,12.975,4,NDW,,,,,,,,0.8092485549132948,,,,,,,0.7321772639691715,,walking,1
160,2012-02-08 11:43:30,2012-02-08 11:43:42.975000,12.975,4,NDW,,,,,,,,0.3082851637764933,,,,,,,0.23121387283236994,,others,0
161,2012-02-08 11:43:36.500000,2012-02-08 11:43:49.475000,12.975,4,NDW,,,,,,,,,,,,,,,,,others,0
162,2012-02-08 11:43:43,2012-02-08 11:43:55.975000,12.975,4,NDW,,,,,,,,,,,0.07514450867052024,,,,,,rest,-1
163,2012-02-08 11:43:49.500000,2012-02-08 11:44:02.475000,12.975,4,NDW,,,,,,,,,,,0.5761078998073218,,,,,,eating,2
164,2012-02-08 11:43:56,2012-02-08 11:44:08.975000,12.975,4,NDW,,,,,,,,,,,1.0,,,,,,eating,2
165,2012-02-08 11:44:02.500000,2012-02-08 11:44:15.475000,12.975,4,NDW,,,,,,,,,,,1.0,,,,,,eating,2
166,2012-02-08 11:44:09,2012-02-08 11:44:21.975000,12.975,4,NDW,,,,,,,,,,,1.0,,,,,,eating,2
167,2012-02-08 11:44:15.500000,2012-02-08 11:44:28.475000,12.975,4,NDW,,,,,,,,,,,1.0,,,,,,eating,2
168,2012-02-08 11:44:22,2012-02-08 11:44:34.975000,12.975,4,NDW,,,,,,,,,,,1.0,,,,,,eating,2
169,2012-02-08 11:44:28.500000,2012-02-08 11:44:41.475000,12.975,4,NDW,,,,,,,,,,,1.0,,,,,,eating,2
170,2012-02-08 11:44:35,2012-02-08 11:44:47.975000,12.975,4,NDW,,,,,,,,,,,1.0,,,,,,rest,-1
171,2012-02-08 11:44:41.500000,2012-02-08 11:44:54.475000,12.975,4,NDW,,,,,,,,,,,1.0,,,,,,eating,2
172,2012-02-08 11:44:48,2012-02-08 11:45:00.975000,12.975,4,NDW,,,,,,,,,,,1.0,,,,,,eating,2
173,2012-02-08 11:44:54.500000,2012-02-08 11:45:07.475000,12.975,4,NDW,,,,,,,,,,,1.0,,,,,,eating,2
174,2012-02-08 11:45:01,2012-02-08 11:45:13.975000,12.975,4,NDW,,,,,,,,,,,1.0,,,,,,rest,-1
175,2012-02-08 11:45:07.500000,2012-02-08 11:45:20.475000,12.975,4,NDW,,,,,,,,,,,1.0,,,,,,rest,-1
176,2012-02-08 11:45:14,2012-02-08 11:45:26.975000,12.975,4,NDW,,,,,,,,,,,1.0,,,,,,eating,2
177,2012-02-08 11:45:20.500000,2012-02-08 11:45:33.475000,12.975,4,NDW,,,,,,,,,,,1.0,,,,,,eating,2
178,2012-02-08 11:45:27,2012-02-08 11:45:39.975000,12.975,4,NDW,,,,,,,,,,,1.0,,,,,,eating,2
179,2012-02-08 11:45:33.500000,2012-02-08 11:45:46.475000,12.975,4,NDW,,,,,,,,,,,1.0,,,,,,eating,2
180,2012-02-08 11:45:40,2012-02-08 11:45:52.975000,12.975,4,NDW,,,,,,,,,,,1.0,,,,,,eating,2
181,2012-02-08 11:45:46.500000,2012-02-08 11:45:59.475000,12.975,4,NDW,,,,,,,,,,,1.0,,,,,,eating,2
182,2012-02-08 11:45:53,2012-02-08 11:46:05.975000,12.975,4,NDW,,,,,,,,,,,1.0,,,,,,eating,2
183,2012-02-08 11:45:59.500000,2012-02-08 11:46:12.475000,12.975,4,NDW,,,,,,,,,,,1.0,,,,,,eating,2
184,2012-02-08 11:46:06,2012-02-08 11:46:18.975000,12.975,4,NDW,,,,,,,,,,,1.0,,,,,,eating,2
185,2012-02-08 11:46:12.500000,2012-02-08 11:46:25.475000,12.975,4,NDW,,,,,,,,,,,1.0,,,,,,eating,2
186,2012-02-08 11:46:19,2012-02-08 11:46:31.975000,12.975,4,NDW,,,,,,,,,,,1.0,,,,,,rest,-1
187,2012-02-08 11:46:25.500000,2012-02-08 11:46:38.475000,12.975,4,NDW,,,,,,,,,,,1.0,,,,,,eating,2
188,2012-02-08 11:46:32,2012-02-08 11:46:44.975000,12.975,4,NDW,,,,,,,,,,,1.0,,,,,,eating,2
189,2012-02-08 11:46:38.500000,2012-02-08 11:46:51.475000,12.975,4,NDW,,,,,,,,,,,1.0,,,,,,rest,-1
190,2012-02-08 11:46:45,2012-02-08 11:46:57.975000,12.975,4,NDW,,,,,,,,,,,1.0,,,,,,eating,2
191,2012-02-08 11:46:51.500000,2012-02-08 11:47:04.475000,12.975,4,NDW,,,,,,,,,,,1.0,,,,,,eating,2
192,2012-02-08 11:46:58,2012-02-08 11:47:10.975000,12.975,4,NDW,,,,,,,,,,,1.0,,,,,,eating,2
193,2012-02-08 11:47:04.500000,2012-02-08 11:47:17.475000,12.975,4,NDW,,,,,,,,,,,1.0,,,,,,eating,2
194,2012-02-08 11:47:11,2012-02-08 11:47:23.975000,12.975,4,NDW,,,,,,,,,,,1.0,,,,,,eating,2
195,2012-02-08 11:47:17.500000,2012-02-08 11:47:30.475000,12.975,4,NDW,,,,,,,,,,,1.0,,,,,,eating,2
196,2012-02-08 11:47:24,2012-02-08 11:47:36.975000,12.975,4,NDW,,,,,,,,,,,1.0,,,,,,eating,2
197,2012-02-08 11:47:30.500000,2012-02-08 11:47:43.475000,12.975,4,NDW,,,,,,,,,,,1.0,,,,,,eating,2
198,2012-02-08 11:47:37,2012-02-08 11:47:49.975000,12.975,4,NDW,,,,,,,,,,,1.0,,,,,,eating,2
199,2012-02-08 11:47:43.500000,2012-02-08 11:47:56.475000,12.975,4,NDW,,,,,,,,,,,1.0,,,,,,eating,2
200,2012-02-08 11:47:50,2012-02-08 11:48:02.975000,12.975,4,NDW,,,,,,,,,,,1.0,,,,,,rest,-1
201,2012-02-08 11:47:56.500000,2012-02-08 11:48:09.475000,12.975,4,NDW,,,,,,,,,,,1.0,,,,,,rest,-1
202,2012-02-08 11:48:03,2012-02-08 11:48:15.975000,12.975,4,NDW,,,,,,,,,,,1.0,,,,,,rest,-1
203,2012-02-08 11:48:09.500000,2012-02-08 11:48:22.475000,12.975,4,NDW,,,,,,,,,,,1.0,,,,,,rest,-1
204,2012-02-08 11:48:16,2012-02-08 11:48:28.975000,12.975,4,NDW,,,,,,,,,,,1.0,,,,,,rest,-1
205,2012-02-08 11:48:22.500000,2012-02-08 11:48:35.475000,12.975,4,NDW,,,,,,,,,,,1.0,,,,,,rest,-1
206,2012-02-08 11:48:29,2012-02-08 11:48:41.975000,12.975,4,NDW,,,,,,,,,,,1.0,,,,,,eating,2
207,2012-02-08 11:48:35.500000,2012-02-08 11:48:48.475000,12.975,4,NDW,,,,,,,,,,,1.0,,,,,,eating,2
208,2012-02-08 11:48:42,2012-02-08 11:48:54.975000,12.975,4,NDW,,,,,,,,,,,1.0,,,,,,eating,2
209,2012-02-08 11:48:48.500000,2012-02-08 11:49:01.475000,12.975,4,NDW,,,,,,,,,,,1.0,,,,,,eating,2
210,2012-02-08 11:48:55,2012-02-08 11:49:07.975000,12.975,4,NDW,,,,,,,,,,,1.0,,,,,,eating,2
211,2012-02-08 11:49:01.500000,2012-02-08 11:49:14.475000,12.975,4,NDW,,,,,,,,,,,1.0,,,,,,eating,2
212,2012-02-08 11:49:08,2012-02-08 11:49:20.975000,12.975,4,NDW,,,,,,,,,,,1.0,,,,,,eating,2
213,2012-02-08 11:49:14.500000,2012-02-08 11:49:27.475000,12.975,4,NDW,,,,,,,,,,,1.0,,,,,,eating,2
214,2012-02-08 11:49:21,2012-02-08 11:49:33.975000,12.975,4,NDW,,,,,,,,,,,1.0,,,,,,eating,2
215,2012-02-08 11:49:27.500000,2012-02-08 11:49:40.475000,12.975,4,NDW,,,,,,,,,,,1.0,,,,,,rest,-1
216,2012-02-08 11:49:34,2012-02-08 11:49:46.975000,12.975,4,NDW,,,,,,,,,,,1.0,,,,,,rest,-1
217,2012-02-08 11:49:40.500000,2012-02-08 11:49:53.475000,12.975,4,NDW,,,,,,,,,,,1.0,,,,,,rest,-1
218,2012-02-08 11:49:47,2012-02-08 11:49:59.975000,12.975,4,NDW,,,,,,,,,,,1.0,,,,,,rest,-1
219,2012-02-08 11:49:53.500000,2012-02-08 11:50:06.475000,12.975,4,NDW,,,,,,,,,,,1.0,,,,,,rest,-1
220,2012-02-08 11:50:00,2012-02-08 11:50:12.975000,12.975,4,NDW,,,,,,,,,,,1.0,,,,,,rest,-1
221,2012-02-08 11:50:06.500000,2012-02-08 11:50:19.475000,12.975,4,NDW,,,,,,,,,,,1.0,,,,,,eating,2
222,2012-02-08 11:50:13,2012-02-08 11:50:25.975000,12.975,4,NDW,,,,,,,,,,,1.0,,,,,,eating,2
223,2012-02-08 11:50:19.500000,2012-02-08 11:50:32.475000,12.975,4,NDW,,,,,,,,,,,1.0,,,,,,eating,2
224,2012-02-08 11:50:26,2012-02-08 11:50:38.975000,12.975,4,NDW,,,,,,,,,,,1.0,,,,,,eating,2
225,2012-02-08 11:50:32.500000,2012-02-08 11:50:45.475000,12.975,4,NDW,,,,,,,,,,,1.0,,,,,,eating,2
226,2012-02-08 11:50:39,2012-02-08 11:50:51.975000,12.975,4,NDW,,,,,,,,,,,1.0,,,,,,eating,2
227,2012-02-08 11:50:45.500000,2012-02-08 11:50:58.475000,12.975,4,NDW,,,,,,,,,,,1.0,,,,,,eating,2
228,2012-02-08 11:50:52,2012-02-08 11:51:04.975000,12.975,4,NDW,,,,,,,,,,,1.0,,,,,,rest,-1
229,2012-02-08 11:50:58.500000,2012-02-08 11:51:11.475000,12.975,4,NDW,,,,,,,,,,,1.0,,,,,,rest,-1
230,2012-02-08 11:51:05,2012-02-08 11:51:17.975000,12.975,4,NDW,,,,,,,,,,,1.0,,,,,,rest,-1
231,2012-02-08 11:51:11.500000,2012-02-08 11:51:24.475000,12.975,4,NDW,,,,,,,,,,,1.0,,,,,,rest,-1
232,2012-02-08 11:51:18,2012-02-08 11:51:30.975000,12.975,4,NDW,,,,,,,,,,,1.0,,,,,,eating,2
233,2012-02-08 11:51:24.500000,2012-02-08 11:51:37.475000,12.975,4,NDW,,,,,,,,,,,1.0,,,,,,eating,2
234,2012-02-08 11:51:31,2012-02-08 11:51:43.975000,12.975,4,NDW,,,,,,,,,,,1.0,,,,,,eating,2
235,2012-02-08 11:51:37.500000,2012-02-08 11:51:50.475000,12.975,4,NDW,,,,,,,,,,,1.0,,,,,,eating,2
236,2012-02-08 11:51:44,2012-02-08 11:51:56.975000,12.975,4,NDW,,,,,,,,,,,1.0,,,,,,eating,2
237,2012-02-08 11:51:50.500000,2012-02-08 11:52:03.475000,12.975,4,NDW,,,,,,,,,,,1.0,,,,,,eating,2
238,2012-02-08 11:51:57,2012-02-08 11:52:09.975000,12.975,4,NDW,,,,,,,,,,,1.0,,,,,,eating,2
239,2012-02-08 11:52:03.500000,2012-02-08 11:52:16.475000,12.975,4,NDW,,,,,,,,,,,1.0,,,,,,eating,2
240,2012-02-08 11:52:10,2012-02-08 11:52:22.975000,12.975,4,NDW,,,,,,,,,,,1.0,,,,,,eating,2
241,2012-02-08 11:52:16.500000,2012-02-08 11:52:29.475000,12.975,4,NDW,,,,,,,,,,,1.0,,,,,,eating,2
242,2012-02-08 11:52:23,2012-02-08 11:52:35.975000,12.975,4,NDW,,,,,,,,,,,1.0,,,,,,eating,2
243,2012-02-08 11:52:29.500000,2012-02-08 11:52:42.475000,12.975,4,NDW,,,,,,,,,,,1.0,,,,,,rest,-1
244,2012-02-08 11:52:36,2012-02-08 11:52:48.975000,12.975,4,NDW,,,,,,,,,,,1.0,,,,,,eating,2
245,2012-02-08 11:52:42.500000,2012-02-08 11:52:55.475000,12.975,4,NDW,,,,,,,,,,,1.0,,,,,,eating,2
246,2012-02-08 11:52:49,2012-02-08 11:53:01.975000,12.975,4,NDW,,,,,,,,,,,1.0,,,,,,eating,2
247,2012-02-08 11:52:55.500000,2012-02-08 11:53:08.475000,12.975,4,NDW,,,,,,,,,,,1.0,,,,,,eating,2
248,2012-02-08 11:53:02,2012-02-08 11:53:14.975000,12.975,4,NDW,,,,,,,,,,,1.0,,,,,,eating,2
249,2012-02-08 11:53:08.500000,2012-02-08 11:53:21.475000,12.975,4,NDW,,,,,,,,,,,1.0,,,,,,eating,2
250,2012-02-08 11:53:15,2012-02-08 11:53:27.975000,12.975,4,NDW,,,,,,,,,,,1.0,,,,,,eating,2
251,2012-02-08 11:53:21.500000,2012-02-08 11:53:34.475000,12.975,4,NDW,,,,,,,,,,,1.0,,,,,,eating,2
252,2012-02-08 11:53:28,2012-02-08 11:53:40.975000,12.975,4,NDW,,,,,,,,,,,1.0,,,,,,eating,2
253,2012-02-08 11:53:34.500000,2012-02-08 11:53:47.475000,12.975,4,NDW,,,,,,,,,,,1.0,,,,,,eating,2
254,2012-02-08 11:53:41,2012-02-08 11:53:53.975000,12.975,4,NDW,,,,,,,,,,,1.0,,,,,,eating,2
255,2012-02-08 11:53:47.500000,2012-02-08 11:54:00.475000,12.975,4,NDW,,,,,,,,,,,1.0,,,,,,eating,2
256,2012-02-08 11:53:54,2012-02-08 11:54:06.975000,12.975,4,NDW,,,,,,,,,,,1.0,,,,,,eating,2
257,2012-02-08 11:54:00.500000,2012-02-08 11:54:13.475000,12.975,4,NDW,,,,,,,,,,,1.0,,,,,,eating,2
258,2012-02-08 11:54:07,2012-02-08 11:54:19.975000,12.975,4,NDW,,,,,,,,,,,1.0,,,,,,eating,2
259,2012-02-08 11:54:13.500000,2012-02-08 11:54:26.475000,12.975,4,NDW,,,,,,,,,,,1.0,,,,,,eating,2
260,2012-02-08 11:54:20,2012-02-08 11:54:32.975000,12.975,4,NDW,,,,,,,,,,,1.0,,,,,,eating,2
261,2012-02-08 11:54:26.500000,2012-02-08 11:54:39.475000,12.975,4,NDW,,,,,,,,,,,1.0,,,,,,eating,2
262,2012-02-08 11:54:33,2012-02-08 11:54:45.975000,12.975,4,NDW,,,,,,,,,,,1.0,,,,,,rest,-1
263,2012-02-08 11:54:39.500000,2012-02-08 11:54:52.475000,12.975,4,NDW,,,,,,,,,,,1.0,,,,,,eating,2
264,2012-02-08 11:54:46,2012-02-08 11:54:58.975000,12.975,4,NDW,,,,,,,,,,,1.0,,,,,,eating,2
265,2012-02-08 11:54:52.500000,2012-02-08 11:55:05.475000,12.975,4,NDW,,,,,,,,,,,1.0,,,,,,eating,2
266,2012-02-08 11:54:59,2012-02-08 11:55:11.975000,12.975,4,NDW,,,,,,,,,,,1.0,,,,,,eating,2
267,2012-02-08 11:55:05.500000,2012-02-08 11:55:18.475000,12.975,4,NDW,,,,,,,,,,,1.0,,,,,,eating,2
268,2012-02-08 11:55:12,2012-02-08 11:55:24.975000,12.975,4,NDW,,,,,,,,,,,1.0,,,,,,eating,2
269,2012-02-08 11:55:18.500000,2012-02-08 11:55:31.475000,12.975,4,NDW,,,,,,,,,,,1.0,,,,,,eating,2
270,2012-02-08 11:55:25,2012-02-08 11:55:37.975000,12.975,4,NDW,,,,,,,,,,,1.0,,,,,,eating,2
271,2012-02-08 11:55:31.500000,2012-02-08 11:55:44.475000,12.975,4,NDW,,,,,,,,,,,1.0,,,,,,rest,-1
272,2012-02-08 11:55:38,2012-02-08 11:55:50.975000,12.975,4,NDW,,,,,,,,,,,1.0,,,,,,eating,2
273,2012-02-08 11:55:44.500000,2012-02-08 11:55:57.475000,12.975,4,NDW,,,,,,,,,,,1.0,,,,,,eating,2
274,2012-02-08 11:55:51,2012-02-08 11:56:03.975000,12.975,4,NDW,,,,,,,,,,,1.0,,,,,,eating,2
275,2012-02-08 11:55:57.500000,2012-02-08 11:56:10.475000,12.975,4,NDW,,,,,,,,,,,1.0,,,,,,eating,2
276,2012-02-08 11:56:04,2012-02-08 11:56:16.975000,12.975,4,NDW,,,,,,,,,,,1.0,,,,,,eating,2
277,2012-02-08 11:56:10.500000,2012-02-08 11:56:23.475000,12.975,4,NDW,,,,,,,,,,,1.0,,,,,,eating,2
278,2012-02-08 11:56:17,2012-02-08 11:56:29.975000,12.975,4,NDW,,,,,,,,,,,1.0,,,,,,eating,2
279,2012-02-08 11:56:23.500000,2012-02-08 11:56:36.475000,12.975,4,NDW,,,,,,,,,,,1.0,,,,,,eating,2
280,2012-02-08 11:56:30,2012-02-08 11:56:42.975000,12.975,4,NDW,,,,,,,,,,,1.0,,,,,,eating,2
281,2012-02-08 11:56:36.500000,2012-02-08 11:56:49.475000,12.975,4,NDW,,,,,,,,,,,1.0,,,,,,eating,2
282,2012-02-08 11:56:43,2012-02-08 11:56:55.975000,12.975,4,NDW,,,,,,,,,,,1.0,,,,,,eating,2
283,2012-02-08 11:56:49.500000,2012-02-08 11:57:02.475000,12.975,4,NDW,,,,,,,,,,,1.0,,,,,,eating,2
284,2012-02-08 11:56:56,2012-02-08 11:57:08.975000,12.975,4,NDW,,,,,,,,,,,1.0,,,,,,eating,2
285,2012-02-08 11:57:02.500000,2012-02-08 11:57:15.475000,12.975,4,NDW,,,,,,,,,,,1.0,,,,,,eating,2
286,2012-02-08 11:57:09,2012-02-08 11:57:21.975000,12.975,4,NDW,,,,,,,,,,,1.0,,,,,,eating,2
287,2012-02-08 11:57:15.500000,2012-02-08 11:57:28.475000,12.975,4,NDW,,,,,,,,,,,1.0,,,,,,eating,2
288,2012-02-08 11:57:22,2012-02-08 11:57:34.975000,12.975,4,NDW,,,,,,,,,,,1.0,,,,,,rest,-1
289,2012-02-08 11:57:28.500000,2012-02-08 11:57:41.475000,12.975,4,NDW,,,,,,,,,,,1.0,,,,,,eating,2
290,2012-02-08 11:57:35,2012-02-08 11:57:47.975000,12.975,4,NDW,,,,,,,,,,,1.0,,,,,,eating,2
291,2012-02-08 11:57:41.500000,2012-02-08 11:57:54.475000,12.975,4,NDW,,,,,,,,,,,1.0,,,,,,eating,2
292,2012-02-08 11:57:48,2012-02-08 11:58:00.975000,12.975,4,NDW,,,,,,,,,,,1.0,,,,,,eating,2
293,2012-02-08 11:57:54.500000,2012-02-08 11:58:07.475000,12.975,4,NDW,,,,,,,,,,,1.0,,,,,,eating,2
294,2012-02-08 11:58:01,2012-02-08 11:58:13.975000,12.975,4,NDW,,,,,,,,,,,1.0,,,,,,eating,2
295,2012-02-08 11:58:07.500000,2012-02-08 11:58:20.475000,12.975,4,NDW,,,,,,,,,0.036608863198458574,,0.9633911368015414,,,,,,eating,2
296,2012-02-08 11:58:14,2012-02-08 11:58:26.975000,12.975,4,NDW,,,,,,,,,0.4624277456647399,,0.5375722543352601,,,,,,drinking,8
297,2012-02-08 11:58:20.500000,2012-02-08 11:58:33.475000,12.975,4,NDW,,,,,,,,,0.42389210019267826,,0.5761078998073218,,,,,,drinking,8
298,2012-02-08 11:58:27,2012-02-08 11:58:39.975000,12.975,4,NDW,,,,,,,,,,,1.0,,,,,,eating,2
299,2012-02-08 11:58:33.500000,2012-02-08 11:58:46.475000,12.975,4,NDW,,,,,,,,,,,1.0,,,,,,eating,2
300,2012-02-08 11:58:40,2012-02-08 11:58:52.975000,12.975,4,NDW,,,,,,,,,,,1.0,,,,,,rest,-1
301,2012-02-08 11:58:46.500000,2012-02-08 11:58:59.475000,12.975,4,NDW,,,,,,,,,,,1.0,,,,,,rest,-1
302,2012-02-08 11:58:53,2012-02-08 11:59:05.975000,12.975,4,NDW,,,,,,,,,,,1.0,,,,,,eating,2
303,2012-02-08 11:58:59.500000,2012-02-08 11:59:12.475000,12.975,4,NDW,,,,,,,,,,,1.0,,,,,,eating,2
304,2012-02-08 11:59:06,2012-02-08 11:59:18.975000,12.975,4,NDW,,,,,,,,,,,1.0,,,,,,eating,2
305,2012-02-08 11:59:12.500000,2012-02-08 11:59:25.475000,12.975,4,NDW,,,,,,,,,,,1.0,,,,,,eating,2
306,2012-02-08 11:59:19,2012-02-08 11:59:31.975000,12.975,4,NDW,,,,,,,,,,,1.0,,,,,,eating,2
307,2012-02-08 11:59:25.500000,2012-02-08 11:59:38.475000,12.975,4,NDW,,,,,,,,,,,1.0,,,,,,eating,2
308,2012-02-08 11:59:32,2012-02-08 11:59:44.975000,12.975,4,NDW,,,,,,,,,,,1.0,,,,,,eating,2
309,2012-02-08 11:59:38.500000,2012-02-08 11:59:51.475000,12.975,4,NDW,,,,,,,,,,,1.0,,,,,,eating,2
310,2012-02-08 11:59:45,2012-02-08 11:59:57.975000,12.975,4,NDW,,,,,,,,,,,1.0,,,,,,eating,2
311,2012-02-08 11:59:51.500000,2012-02-08 12:00:04.475000,12.975,4,NDW,,,,,,,,,,,1.0,,,,,,eating,2
312,2012-02-08 11:59:58,2012-02-08 12:00:10.975000,12.975,4,NDW,,,,,,,,,,,1.0,,,,,,eating,2
313,2012-02-08 12:00:04.500000,2012-02-08 12:00:17.475000,12.975,4,NDW,,,,,,,,,,,1.0,,,,,,eating,2
314,2012-02-08 12:00:11,2012-02-08 12:00:23.975000,12.975,4,NDW,,,,,,,,,,,1.0,,,,,,eating,2
315,2012-02-08 12:00:17.500000,2012-02-08 12:00:30.475000,12.975,4,NDW,,,,,,,,,,,1.0,,,,,,eating,2
316,2012-02-08 12:00:24,2012-02-08 12:00:36.975000,12.975,4,NDW,,,,,,,,,,,1.0,,,,,,eating,2
317,2012-02-08 12:00:30.500000,2012-02-08 12:00:43.475000,12.975,4,NDW,,,,,,,,,,,1.0,,,,,,eating,2
318,2012-02-08 12:00:37,2012-02-08 12:00:49.975000,12.975,4,NDW,,,,,,,,,,,1.0,,,,,,rest,-1
319,2012-02-08 12:00:43.500000,2012-02-08 12:00:56.475000,12.975,4,NDW,,,,,,,,,,,1.0,,,,,,rest,-1
320,2012-02-08 12:00:50,2012-02-08 12:01:02.975000,12.975,4,NDW,,,,,,,,,,,1.0,,,,,,rest,-1
321,2012-02-08 12:00:56.500000,2012-02-08 12:01:09.475000,12.975,4,NDW,,,,,,,,,,,1.0,,,,,,rest,-1
322,2012-02-08 12:01:03,2012-02-08 12:01:15.975000,12.975,4,NDW,,,,,,,,,,,1.0,,,,,,rest,-1
323,2012-02-08 12:01:09.500000,2012-02-08 12:01:22.475000,12.975,4,NDW,,,,,,,,,,,1.0,,,,,,rest,-1
324,2012-02-08 12:01:16,2012-02-08 12:01:28.975000,12.975,4,NDW,,,,,,,,,,,1.0,,,,,,rest,-1
325,2012-02-08 12:01:22.500000,2012-02-08 12:01:35.475000,12.975,4,NDW,,,,,,,,,,,1.0,,,,,,rest,-1
326,2012-02-08 12:01:29,2012-02-08 12:01:41.975000,12.975,4,NDW,,,,,,,,,,,1.0,,,,,,rest,-1
327,2012-02-08 12:01:35.500000,2012-02-08 12:01:48.475000,12.975,4,NDW,,,,,,,,,,,1.0,,,,,,rest,-1
328,2012-02-08 12:01:42,2012-02-08 12:01:54.975000,12.975,4,NDW,,,,,,,,,,,0.5394990366088632,,,,,,eating,2
329,2012-02-08 12:01:48.500000,2012-02-08 12:02:01.475000,12.975,4,NDW,,,,,,,,,,,0.03853564547206166,,,,0.19075144508670522,,others,0
330,2012-02-08 12:01:55,2012-02-08 12:02:07.975000,12.975,4,NDW,,,,,,,,,,,,,,,0.6917148362235067,,walking,1
331,2012-02-08 12:02:01.500000,2012-02-08 12:02:14.475000,12.975,4,NDW,,,,,,,,,,,,,,,1.0,,walking,1
332,2012-02-08 12:02:08,2012-02-08 12:02:20.975000,12.975,4,NDW,,,,,,,,,,,,,,,1.0,,walking,1
333,2012-02-08 12:02:14.500000,2012-02-08 12:02:27.475000,12.975,4,NDW,,,,,,,,,,,,,,,1.0,,rest,-1
334,2012-02-08 12:02:21,2012-02-08 12:02:33.975000,12.975,4,NDW,,,,,,,,,,,,,,,1.0,,rest,-1
335,2012-02-08 12:02:27.500000,2012-02-08 12:02:40.475000,12.975,4,NDW,,,,,,,,,,,,,,,1.0,,walking,1
336,2012-02-08 12:02:34,2012-02-08 12:02:46.975000,12.975,4,NDW,,,,,,,,,,,,,,,0.6165703275529866,,walking,1
337,2012-02-08 12:02:40.500000,2012-02-08 12:02:53.475000,12.975,4,NDW,,,,,,,,,,,,,,,0.11560693641618497,,others,0
338,2012-02-08 12:02:47,2012-02-08 12:02:59.975000,12.975,4,NDW,,,,,,,,0.3063583815028902,,,,,,,,,others,0
339,2012-02-08 12:02:53.500000,2012-02-08 12:03:06.475000,12.975,4,NDW,,,,,,,,0.3853564547206166,,,,,,,0.3448940269749518,,walking,1
340,2012-02-08 12:03:00,2012-02-08 12:03:12.975000,12.975,4,NDW,,,,,,,,0.07707129094412332,0.15221579961464354,,,,,,0.8458574181117534,,walking,1
341,2012-02-08 12:03:06.500000,2012-02-08 12:03:19.475000,12.975,4,NDW,,,,,,,,,0.15414258188824664,,,,,,0.6551059730250481,,walking,1
342,2012-02-08 12:03:13,2012-02-08 12:03:25.975000,12.975,4,NDW,,,,,,,,,,,,,,,0.15414258188824664,,others,0
343,2012-02-08 12:03:19.500000,2012-02-08 12:03:32.475000,12.975,4,NDW,,,,,,,,,,,,,,,,,others,0
344,2012-02-08 12:03:26,2012-02-08 12:03:38.975000,12.975,4,NDW,,,,,,,,,0.4605009633911368,,,,,,,,drinking,8
345,2012-02-08 12:03:32.500000,2012-02-08 12:03:45.475000,12.975,4,NDW,,,,,,,,,0.5394990366088632,,,,,,,,drinking,8
346,2012-02-08 12:03:39,2012-02-08 12:03:51.975000,12.975,4,NDW,,,,,,,,,0.5375722543352601,,,,,,,,drinking,8
347,2012-02-08 12:03:45.500000,2012-02-08 12:03:58.475000,12.975,4,NDW,,,,,,,,,0.9614643545279383,,,,,,,,drinking,8
348,2012-02-08 12:03:52,2012-02-08 12:04:04.975000,12.975,4,NDW,,,,,,,,,0.8477842003853565,,,0.4605009633911368,,,,0.3082851637764933,drinking,8
349,2012-02-08 12:03:58.500000,2012-02-08 12:04:11.475000,12.975,4,NDW,0.86875,0.2678227360308285,0.0,9.0,left-puff,,,,0.3468208092485549,,,0.9614643545279383,,,,0.3082851637764933,puff,9
350,2012-02-08 12:04:05,2012-02-08 12:04:17.975000,12.975,4,NDW,1.0,0.3082851637764933,0.0,9.0,left-puff,,,,,,,1.0,,,,,puff,9
351,2012-02-08 12:04:11.500000,2012-02-08 12:04:24.475000,12.975,4,NDW,0.125,0.03853564547206166,0.0,9.0,left-puff,,,,,,0.3448940269749518,1.0,,,,0.3448940269749518,eating,2
352,2012-02-08 12:04:18,2012-02-08 12:04:30.975000,12.975,4,NDW,,,,,,,,,,,0.8458574181117534,1.0,,,,0.8458574181117534,eating,2
353,2012-02-08 12:04:24.500000,2012-02-08 12:04:37.475000,12.975,4,NDW,,,,,,,,,,,0.8092485549132948,1.0,,,,0.8092485549132948,eating,2
354,2012-02-08 12:04:31,2012-02-08 12:04:43.975000,12.975,4,NDW,,,,,,,,,0.3834296724470135,,0.3082851637764933,1.0,,,,0.6917148362235067,drinking,8
355,2012-02-08 12:04:37.500000,2012-02-08 12:04:50.475000,12.975,4,NDW,,,,,,,,,0.3853564547206166,,,1.0,,,,0.3853564547206166,drinking,8
356,2012-02-08 12:04:44,2012-02-08 12:04:56.975000,12.975,4,NDW,,,,,,,,,,,,1.0,,,,,others,0
357,2012-02-08 12:04:50.500000,2012-02-08 12:05:03.475000,12.975,4,NDW,,,,,,,,,,,,1.0,,,,,rest,-1
358,2012-02-08 12:04:57,2012-02-08 12:05:09.975000,12.975,4,NDW,,,,,,,,,,,,1.0,,,,,rest,-1
359,2012-02-08 12:05:03.500000,2012-02-08 12:05:16.475000,12.975,4,NDW,,,,,,,,,,,,1.0,,,,,others,0
360,2012-02-08 12:05:10,2012-02-08 12:05:22.975000,12.975,4,NDW,,,,,,,,,,,,1.0,,,,,others,0
361,2012-02-08 12:05:16.500000,2012-02-08 12:05:29.475000,12.975,4,NDW,,,,,,,,,,,,1.0,,,,,others,0
362,2012-02-08 12:05:23,2012-02-08 12:05:35.975000,12.975,4,NDW,,,,,,,,,,,,1.0,,,,,others,0
363,2012-02-08 12:05:29.500000,2012-02-08 12:05:42.475000,12.975,4,NDW,,,,,,,,,,,,1.0,,,,,others,0
364,2012-02-08 12:05:36,2012-02-08 12:05:48.975000,12.975,4,NDW,,,,,,,,,,,,1.0,,,,,others,0
365,2012-02-08 12:05:42.500000,2012-02-08 12:05:55.475000,12.975,4,NDW,,,,,,,,,,,,1.0,,,,,others,0
366,2012-02-08 12:05:49,2012-02-08 12:06:01.975000,12.975,4,NDW,,,,,,,,,,,,1.0,,,,,rest,-1
367,2012-02-08 12:05:55.500000,2012-02-08 12:06:08.475000,12.975,4,NDW,,,,,,,,,,,,1.0,,,,,rest,-1
368,2012-02-08 12:06:02,2012-02-08 12:06:14.975000,12.975,4,NDW,,,,,,,,,,,,1.0,,,,,rest,-1
369,2012-02-08 12:06:08.500000,2012-02-08 12:06:21.475000,12.975,4,NDW,,,,,,,,,,,,1.0,,,,,rest,-1
370,2012-02-08 12:06:15,2012-02-08 12:06:27.975000,12.975,4,NDW,,,,,,,,,,,,1.0,,,,,rest,-1
371,2012-02-08 12:06:21.500000,2012-02-08 12:06:34.475000,12.975,4,NDW,,,,,,,,,,,,1.0,,,,,rest,-1
372,2012-02-08 12:06:28,2012-02-08 12:06:40.975000,12.975,4,NDW,,,,,,,,,,,,1.0,,,,,rest,-1
373,2012-02-08 12:06:34.500000,2012-02-08 12:06:47.475000,12.975,4,NDW,,,,,,,,,,,,1.0,,,,,rest,-1
374,2012-02-08 12:06:41,2012-02-08 12:06:53.975000,12.975,4,NDW,,,,,,,,,,,,1.0,,,,,rest,-1
375,2012-02-08 12:06:47.500000,2012-02-08 12:07:00.475000,12.975,4,NDW,,,,,,,,,,,,1.0,,,,,others,0
376,2012-02-08 12:06:54,2012-02-08 12:07:06.975000,12.975,4,NDW,,,,,,,,,,,,1.0,,,,,others,0
377,2012-02-08 12:07:00.500000,2012-02-08 12:07:13.475000,12.975,4,NDW,,,,,,,,,,,,1.0,,,,,others,0
378,2012-02-08 12:07:07,2012-02-08 12:07:19.975000,12.975,4,NDW,,,,,,,,,,,,1.0,,,,,others,0
379,2012-02-08 12:07:13.500000,2012-02-08 12:07:26.475000,12.975,4,NDW,,,,,,,,,,,,1.0,,0.19075144508670522,,0.19075144508670522,others,0
380,2012-02-08 12:07:20,2012-02-08 12:07:32.975000,12.975,4,NDW,,,,,,,,,,,,1.0,,0.6917148362235067,,0.6917148362235067,phone,3
381,2012-02-08 12:07:26.500000,2012-02-08 12:07:39.475000,12.975,4,NDW,,,,,,,,,,,,1.0,,1.0,,1.0,rest,-1
382,2012-02-08 12:07:33,2012-02-08 12:07:45.975000,12.975,4,NDW,,,,,,,,,,,,1.0,,1.0,,1.0,rest,-1
383,2012-02-08 12:07:39.500000,2012-02-08 12:07:52.475000,12.975,4,NDW,,,,,,,,,,,,1.0,,1.0,,1.0,rest,-1
384,2012-02-08 12:07:46,2012-02-08 12:07:58.975000,12.975,4,NDW,,,,,,,,,,,,1.0,,1.0,,1.0,rest,-1
385,2012-02-08 12:07:52.500000,2012-02-08 12:08:05.475000,12.975,4,NDW,,,,,,,,,,,,1.0,,1.0,,1.0,rest,-1
386,2012-02-08 12:07:59,2012-02-08 12:08:11.975000,12.975,4,NDW,,,,,,,,,,,,1.0,,1.0,,1.0,rest,-1
387,2012-02-08 12:08:05.500000,2012-02-08 12:08:18.475000,12.975,4,NDW,,,,,,,,,,,,1.0,,1.0,,1.0,rest,-1
388,2012-02-08 12:08:12,2012-02-08 12:08:24.975000,12.975,4,NDW,,,,,,,,,,,,1.0,,1.0,,1.0,rest,-1
389,2012-02-08 12:08:18.500000,2012-02-08 12:08:31.475000,12.975,4,NDW,,,,,,,,,,,,1.0,,1.0,,1.0,rest,-1
390,2012-02-08 12:08:25,2012-02-08 12:08:37.975000,12.975,4,NDW,,,,,,,,,,,,1.0,,1.0,,1.0,rest,-1
391,2012-02-08 12:08:31.500000,2012-02-08 12:08:44.475000,12.975,4,NDW,,,,,,,,,,,,1.0,,1.0,,1.0,phone,3
392,2012-02-08 12:08:38,2012-02-08 12:08:50.975000,12.975,4,NDW,,,,,,,,,,,,1.0,,1.0,,1.0,phone,3
393,2012-02-08 12:08:44.500000,2012-02-08 12:08:57.475000,12.975,4,NDW,,,,,,,,,,,,1.0,,1.0,,1.0,phone,3
394,2012-02-08 12:08:51,2012-02-08 12:09:03.975000,12.975,4,NDW,,,,,,,,,,,,1.0,,1.0,,1.0,phone,3
395,2012-02-08 12:08:57.500000,2012-02-08 12:09:10.475000,12.975,4,NDW,,,,,,,,,,,,1.0,,1.0,,1.0,rest,-1
396,2012-02-08 12:09:04,2012-02-08 12:09:16.975000,12.975,4,NDW,,,,,,,,,,,,1.0,,1.0,,1.0,phone,3
397,2012-02-08 12:09:10.500000,2012-02-08 12:09:23.475000,12.975,4,NDW,,,,,,,,,,,,1.0,,0.9633911368015414,,0.9633911368015414,rest,-1
398,2012-02-08 12:09:17,2012-02-08 12:09:29.975000,12.975,4,NDW,,,,,,,,,,,,1.0,,0.4624277456647399,,0.4624277456647399,rest,-1
399,2012-02-08 12:09:23.500000,2012-02-08 12:09:36.475000,12.975,4,NDW,,,,,,,,,,,,1.0,,,,,rest,-1
400,2012-02-08 12:09:30,2012-02-08 12:09:42.975000,12.975,4,NDW,,,,,,,,,,,,1.0,,,,,rest,-1
401,2012-02-08 12:09:36.500000,2012-02-08 12:09:49.475000,12.975,4,NDW,,,,,,,,,,,,1.0,,,,,rest,-1
402,2012-02-08 12:09:43,2012-02-08 12:09:55.975000,12.975,4,NDW,,,,,,,,,,,,1.0,,,,,rest,-1
403,2012-02-08 12:09:49.500000,2012-02-08 12:10:02.475000,12.975,4,NDW,,,,,,,,,,,,1.0,,,,,rest,-1
404,2012-02-08 12:09:56,2012-02-08 12:10:08.975000,12.975,4,NDW,,,,,,,,,,,,1.0,,,,,rest,-1
405,2012-02-08 12:10:02.500000,2012-02-08 12:10:15.475000,12.975,4,NDW,,,,,,,,,,,,1.0,,,,,rest,-1
406,2012-02-08 12:10:09,2012-02-08 12:10:21.975000,12.975,4,NDW,0.23333333333333334,0.09441233140655107,1.0,19.0,left-puff,,,,,,,1.0,,,,,others,0
407,2012-02-08 12:10:15.500000,2012-02-08 12:10:28.475000,12.975,4,NDW,1.0,0.4046242774566474,1.0,19.0,left-puff,,,,,,,1.0,,,,,puff,9
408,2012-02-08 12:10:22,2012-02-08 12:10:34.975000,12.975,4,NDW,0.7619047619047619,0.3082851637764933,1.0,19.0,left-puff,,,,,,,1.0,,,,,puff,9
409,2012-02-08 12:10:28.500000,2012-02-08 12:10:41.475000,12.975,4,NDW,,,,,,,,,,,,1.0,,,,,others,0
410,2012-02-08 12:10:35,2012-02-08 12:10:47.975000,12.975,4,NDW,,,,,,,,,,,,1.0,,,,,rest,-1
411,2012-02-08 12:10:41.500000,2012-02-08 12:10:54.475000,12.975,4,NDW,,,,,,,,,,,,1.0,,,,,rest,-1
412,2012-02-08 12:10:48,2012-02-08 12:11:00.975000,12.975,4,NDW,,,,,,,,,,,,1.0,,,,,rest,-1
413,2012-02-08 12:10:54.500000,2012-02-08 12:11:07.475000,12.975,4,NDW,,,,,,,,,,,,1.0,,,,,rest,-1
414,2012-02-08 12:11:01,2012-02-08 12:11:13.975000,12.975,4,NDW,,,,,,,,,,,,1.0,,,,,rest,-1
415,2012-02-08 12:11:07.500000,2012-02-08 12:11:20.475000,12.975,4,NDW,,,,,,,,,,,,1.0,,,,,rest,-1
416,2012-02-08 12:11:14,2012-02-08 12:11:26.975000,12.975,4,NDW,,,,,,,,,,,,1.0,,,,,rest,-1
417,2012-02-08 12:11:20.500000,2012-02-08 12:11:33.475000,12.975,4,NDW,,,,,,,,,,,,1.0,,,,,rest,-1
418,2012-02-08 12:11:27,2012-02-08 12:11:39.975000,12.975,4,NDW,,,,,,,,,,,,1.0,,,,,rest,-1
419,2012-02-08 12:11:33.500000,2012-02-08 12:11:46.475000,12.975,4,NDW,,,,,,,,,,,,1.0,,,,,rest,-1
420,2012-02-08 12:11:40,2012-02-08 12:11:52.975000,12.975,4,NDW,,,,,,,,,,,,1.0,,,,,rest,-1
421,2012-02-08 12:11:46.500000,2012-02-08 12:11:59.475000,12.975,4,NDW,,,,,,,,,,,,1.0,,,,,rest,-1
422,2012-02-08 12:11:53,2012-02-08 12:12:05.975000,12.975,4,NDW,,,,,,,,,,,,0.7707129094412332,,,,,others,0
423,2012-02-08 12:11:59.500000,2012-02-08 12:12:12.475000,12.975,4,NDW,,,,,,,,,,,,0.2697495183044316,,,,,others,0
424,2012-02-08 12:12:06,2012-02-08 12:12:18.975000,12.975,4,NDW,,,,,,,,,,,,,,,,,others,0
425,2012-02-08 12:12:12.500000,2012-02-08 12:12:25.475000,12.975,4,NDW,,,,,,,,,,,,,,,,,others,0
426,2012-02-08 12:12:19,2012-02-08 12:12:31.975000,12.975,4,NDW,,,,,,,,,,,,,,0.3834296724470135,,,phone,3
427,2012-02-08 12:12:25.500000,2012-02-08 12:12:38.475000,12.975,4,NDW,,,,,,,,,,,,,,0.884393063583815,,,rest,-1
428,2012-02-08 12:12:32,2012-02-08 12:12:44.975000,12.975,4,NDW,,,,,,,,,,,,,,1.0,,,rest,-1
429,2012-02-08 12:12:38.500000,2012-02-08 12:12:51.475000,12.975,4,NDW,,,,,,,,,,,,,,1.0,,,phone,3
430,2012-02-08 12:12:45,2012-02-08 12:12:57.975000,12.975,4,NDW,,,,,,,,,,,,,,1.0,,,phone,3
431,2012-02-08 12:12:51.500000,2012-02-08 12:13:04.475000,12.975,4,NDW,,,,,,,,,,,,,,1.0,,,rest,-1
432,2012-02-08 12:12:58,2012-02-08 12:13:10.975000,12.975,4,NDW,,,,,,,,,,,,,,1.0,,,rest,-1
433,2012-02-08 12:13:04.500000,2012-02-08 12:13:17.475000,12.975,4,NDW,,,,,,,,,,,,,,1.0,,,phone,3
434,2012-02-08 12:13:11,2012-02-08 12:13:23.975000,12.975,4,NDW,,,,,,,,,,,,,,1.0,,,rest,-1
435,2012-02-08 12:13:17.500000,2012-02-08 12:13:30.475000,12.975,4,NDW,,,,,,,,,,,,,,1.0,,,rest,-1
436,2012-02-08 12:13:24,2012-02-08 12:13:36.975000,12.975,4,NDW,,,,,,,,,,,,,,1.0,,,phone,3
437,2012-02-08 12:13:30.500000,2012-02-08 12:13:43.475000,12.975,4,NDW,,,,,,,,,,,,,,1.0,,,phone,3
438,2012-02-08 12:13:37,2012-02-08 12:13:49.975000,12.975,4,NDW,,,,,,,,,,,,,,1.0,,,phone,3
439,2012-02-08 12:13:43.500000,2012-02-08 12:13:56.475000,12.975,4,NDW,,,,,,,,,,,,,,1.0,,,rest,-1
440,2012-02-08 12:13:50,2012-02-08 12:14:02.975000,12.975,4,NDW,,,,,,,,,,,,,,1.0,,,rest,-1
441,2012-02-08 12:13:56.500000,2012-02-08 12:14:09.475000,12.975,4,NDW,,,,,,,,,,,,,,1.0,,,rest,-1
442,2012-02-08 12:14:03,2012-02-08 12:14:15.975000,12.975,4,NDW,,,,,,,,,,,,,,1.0,,,rest,-1
443,2012-02-08 12:14:09.500000,2012-02-08 12:14:22.475000,12.975,4,NDW,,,,,,,,,,,,,,1.0,,,rest,-1
444,2012-02-08 12:14:16,2012-02-08 12:14:28.975000,12.975,4,NDW,,,,,,,,,,,,,,1.0,,,rest,-1
445,2012-02-08 12:14:22.500000,2012-02-08 12:14:35.475000,12.975,4,NDW,,,,,,,,,,,,,,1.0,,,rest,-1
446,2012-02-08 12:14:29,2012-02-08 12:14:41.975000,12.975,4,NDW,,,,,,,,,,,,,,1.0,,,phone,3
447,2012-02-08 12:14:35.500000,2012-02-08 12:14:48.475000,12.975,4,NDW,,,,,,,,,,,,,,1.0,,,phone,3
448,2012-02-08 12:14:42,2012-02-08 12:14:54.975000,12.975,4,NDW,,,,,,,,,,,,,,1.0,,,rest,-1
449,2012-02-08 12:14:48.500000,2012-02-08 12:15:01.475000,12.975,4,NDW,,,,,,,,,,,,,,1.0,,,rest,-1
450,2012-02-08 12:14:55,2012-02-08 12:15:07.975000,12.975,4,NDW,,,,,,,,,,,,,,1.0,,,rest,-1
451,2012-02-08 12:15:01.500000,2012-02-08 12:15:14.475000,12.975,4,NDW,,,,,,,,,,,,,,1.0,,,phone,3
452,2012-02-08 12:15:08,2012-02-08 12:15:20.975000,12.975,4,NDW,,,,,,,,,,,,,,1.0,,,phone,3
453,2012-02-08 12:15:14.500000,2012-02-08 12:15:27.475000,12.975,4,NDW,,,,,,,,,,,,,,1.0,,,rest,-1
454,2012-02-08 12:15:21,2012-02-08 12:15:33.975000,12.975,4,NDW,,,,,,,,,,,,,,1.0,,,rest,-1
455,2012-02-08 12:15:27.500000,2012-02-08 12:15:40.475000,12.975,4,NDW,,,,,,,,,,,,,,1.0,,,rest,-1
456,2012-02-08 12:15:34,2012-02-08 12:15:46.975000,12.975,4,NDW,,,,,,,,,,,,,,1.0,,,rest,-1
457,2012-02-08 12:15:40.500000,2012-02-08 12:15:53.475000,12.975,4,NDW,,,,,,,,,,,,,,1.0,,,phone,3
458,2012-02-08 12:15:47,2012-02-08 12:15:59.975000,12.975,4,NDW,,,,,,,,,,,,,,1.0,,,phone,3
459,2012-02-08 12:15:53.500000,2012-02-08 12:16:06.475000,12.975,4,NDW,,,,,,,,,0.19075144508670522,,,,,0.8092485549132948,,,phone,3
460,2012-02-08 12:16:00,2012-02-08 12:16:12.975000,12.975,4,NDW,,,,,,,,,0.6917148362235067,,,,,0.3082851637764933,,,drinking,8
461,2012-02-08 12:16:06.500000,2012-02-08 12:16:19.475000,12.975,4,NDW,,,,,,,,,1.0,,,,,,,,drinking,8
462,2012-02-08 12:16:13,2012-02-08 12:16:25.975000,12.975,4,NDW,,,,,,,,,1.0,,,,,,,,drinking,8
463,2012-02-08 12:16:19.500000,2012-02-08 12:16:32.475000,12.975,4,NDW,,,,,,,,,1.0,,,,,,,,drinking,8
464,2012-02-08 12:16:26,2012-02-08 12:16:38.975000,12.975,4,NDW,,,,,,,,,1.0,,,,,,,,drinking,8
465,2012-02-08 12:16:32.500000,2012-02-08 12:16:45.475000,12.975,4,NDW,,,,,,,,,0.6551059730250481,,,,,,,,drinking,8
466,2012-02-08 12:16:39,2012-02-08 12:16:51.975000,12.975,4,NDW,,,,,,,,,0.15414258188824664,,,,,,,,others,0
467,2012-02-08 12:16:45.500000,2012-02-08 12:16:58.475000,12.975,4,NDW,,,,,,,,,,,,,,,,,others,0
468,2012-02-08 12:16:52,2012-02-08 12:17:04.975000,12.975,4,NDW,,,,,,,,,,,,,,,,,others,0
469,2012-02-08 12:16:58.500000,2012-02-08 12:17:11.475000,12.975,4,NDW,,,,,,,,,,,,,,,,,others,0
470,2012-02-08 12:17:05,2012-02-08 12:17:17.975000,12.975,4,NDW,,,,,,,,,,,,,,,,,others,0
471,2012-02-08 12:17:11.500000,2012-02-08 12:17:24.475000,12.975,4,NDW,,,,,,,,,,,,,,,,,others,0
472,2012-02-08 12:17:18,2012-02-08 12:17:30.975000,12.975,4,NDW,,,,,,,,,,,,,,,,,others,0
473,2012-02-08 12:17:24.500000,2012-02-08 12:17:37.475000,12.975,4,NDW,,,,,,,,,,,,,,,,,others,0
474,2012-02-08 12:17:31,2012-02-08 12:17:43.975000,12.975,4,NDW,,,,,,,,,,,,,,,,,others,0
475,2012-02-08 12:17:37.500000,2012-02-08 12:17:50.475000,12.975,4,NDW,,,,,,,,,,,,,,,,,others,0
476,2012-02-08 12:17:44,2012-02-08 12:17:56.975000,12.975,4,NDW,,,,,,,,,,,,,,,,,others,0
477,2012-02-08 12:17:50.500000,2012-02-08 12:18:03.475000,12.975,4,NDW,,,,,,,,,,,0.1136801541425819,,,,,,others,0
478,2012-02-08 12:17:57,2012-02-08 12:18:09.975000,12.975,4,NDW,,,,,,,,,,,0.6146435452793835,,,,,,eating,2
479,2012-02-08 12:18:03.500000,2012-02-08 12:18:16.475000,12.975,4,NDW,,,,,,,,,,,1.0,,,,,,eating,2
480,2012-02-08 12:18:10,2012-02-08 12:18:22.975000,12.975,4,NDW,,,,,,,,,,,1.0,,,,,,eating,2
481,2012-02-08 12:18:16.500000,2012-02-08 12:18:29.475000,12.975,4,NDW,,,,,,,,,,,1.0,,,,,,eating,2
482,2012-02-08 12:18:23,2012-02-08 12:18:35.975000,12.975,4,NDW,,,,,,,,,,,1.0,,,,,,eating,2
483,2012-02-08 12:18:29.500000,2012-02-08 12:18:42.475000,12.975,4,NDW,,,,,,,,,,,1.0,,,,,,eating,2
484,2012-02-08 12:18:36,2012-02-08 12:18:48.975000,12.975,4,NDW,,,,,,,,,,,1.0,,,,,,eating,2
485,2012-02-08 12:18:42.500000,2012-02-08 12:18:55.475000,12.975,4,NDW,,,,,,,,,,,1.0,,,,,,eating,2
486,2012-02-08 12:18:49,2012-02-08 12:19:01.975000,12.975,4,NDW,,,,,,,,,,,1.0,,,,,,eating,2
487,2012-02-08 12:18:55.500000,2012-02-08 12:19:08.475000,12.975,4,NDW,,,,,,,,,,,1.0,,,,,,eating,2
488,2012-02-08 12:19:02,2012-02-08 12:19:14.975000,12.975,4,NDW,,,,,,,,,,,0.9248554913294798,0.15221579961464354,0.07514450867052024,,,0.15221579961464354,eating,2
489,2012-02-08 12:19:08.500000,2012-02-08 12:19:21.475000,12.975,4,NDW,,,,,,,,,,,0.42389210019267826,0.653179190751445,0.5761078998073218,,,0.653179190751445,computer,4
490,2012-02-08 12:19:15,2012-02-08 12:19:27.975000,12.975,4,NDW,,,,,,,,,,,,1.0,1.0,,,1.0,computer,4
491,2012-02-08 12:19:21.500000,2012-02-08 12:19:34.475000,12.975,4,NDW,1.0,0.3082851637764933,1.0,22.0,left-puff,,,,,,,1.0,1.0,,,1.0,puff,9
492,2012-02-08 12:19:28,2012-02-08 12:19:40.975000,12.975,4,NDW,1.80625,0.5568400770712909,1.0,22.0,left-puff,,,,,,,1.0,1.0,,,1.0,puff,9
493,2012-02-08 12:19:34.500000,2012-02-08 12:19:47.475000,12.975,4,NDW,1.0,0.2504816955684008,1.0,23.0,left-puff,,,,,,,1.0,1.0,,,1.0,puff,9
494,2012-02-08 12:19:41,2012-02-08 12:19:53.975000,12.975,4,NDW,,,,,,,,,,,,1.0,1.0,,,1.0,rest,-1
495,2012-02-08 12:19:47.500000,2012-02-08 12:20:00.475000,12.975,4,NDW,0.6318181818181818,0.2678227360308285,1.0,24.0,left-puff,,,,,,,1.0,1.0,,,1.0,puff,9
496,2012-02-08 12:19:54,2012-02-08 12:20:06.975000,12.975,4,NDW,1.0,0.42389210019267826,1.0,24.0,left-puff,,,,,,,1.0,1.0,,,1.0,puff,9
497,2012-02-08 12:20:00.500000,2012-02-08 12:20:13.475000,12.975,4,NDW,0.36363636363636365,0.15414258188824664,1.0,24.0,left-puff,,,,,,,1.0,1.0,,,1.0,puff,9
498,2012-02-08 12:20:07,2012-02-08 12:20:19.975000,12.975,4,NDW,,,,,,,,,,,,1.0,1.0,,,1.0,rest,-1
499,2012-02-08 12:20:13.500000,2012-02-08 12:20:26.475000,12.975,4,NDW,,,,,,,,,,,,1.0,1.0,,,1.0,rest,-1
500,2012-02-08 12:20:20,2012-02-08 12:20:32.975000,12.975,4,NDW,1.0,0.1926782273603083,1.0,25.0,left-puff,,,,,,,1.0,1.0,,,1.0,puff,9
501,2012-02-08 12:20:26.500000,2012-02-08 12:20:39.475000,12.975,4,NDW,1.0,0.1926782273603083,1.0,25.0,left-puff,,,,,,,1.0,1.0,,,1.0,puff,9
502,2012-02-08 12:20:33,2012-02-08 12:20:45.975000,12.975,4,NDW,,,,,,,,,,,,1.0,1.0,,,1.0,rest,-1
503,2012-02-08 12:20:39.500000,2012-02-08 12:20:52.475000,12.975,4,NDW,1.0,0.2504816955684008,0.0,26.0,left-puff,,,,,,,1.0,1.0,,,1.0,puff,9
504,2012-02-08 12:20:46,2012-02-08 12:20:58.975000,12.975,4,NDW,1.0,0.2504816955684008,0.0,26.0,left-puff,,,,,,,1.0,1.0,,,1.0,puff,9
505,2012-02-08 12:20:52.500000,2012-02-08 12:21:05.475000,12.975,4,NDW,,,,,,,,,,,,1.0,1.0,,,1.0,computer,4
506,2012-02-08 12:20:59,2012-02-08 12:21:11.975000,12.975,4,NDW,,,,,,,,,,,,1.0,1.0,,,1.0,computer,4
507,2012-02-08 12:21:05.500000,2012-02-08 12:21:18.475000,12.975,4,NDW,0.85,0.22928709055876687,1.0,27.0,left-puff,,,,,,,1.0,1.0,,,1.0,puff,9
508,2012-02-08 12:21:12,2012-02-08 12:21:24.975000,12.975,4,NDW,1.0,0.2697495183044316,1.0,27.0,left-puff,,,,,,,1.0,1.0,,,1.0,puff,9
509,2012-02-08 12:21:18.500000,2012-02-08 12:21:31.475000,12.975,4,NDW,0.42142857142857143,0.1136801541425819,1.0,27.0,left-puff,,,,,,,1.0,1.0,,,1.0,rest,-1
510,2012-02-08 12:21:25,2012-02-08 12:21:37.975000,12.975,4,NDW,1.0,0.3082851637764933,1.0,28.0,left-puff,,,,,,,1.0,1.0,,,1.0,puff,9
511,2012-02-08 12:21:31.500000,2012-02-08 12:21:44.475000,12.975,4,NDW,0.75,0.23121387283236994,1.0,28.0,left-puff,,,,,,,1.0,0.7321772639691715,,,0.7321772639691715,puff,9
512,2012-02-08 12:21:38,2012-02-08 12:21:50.975000,12.975,4,NDW,,,,,,,,,,,,1.0,0.23121387283236994,,,0.23121387283236994,others,0
513,2012-02-08 12:21:44.500000,2012-02-08 12:21:57.475000,12.975,4,NDW,,,,,,,,,,,,1.0,,,,,others,0
514,2012-02-08 12:21:51,2012-02-08 12:22:03.975000,12.975,4,NDW,,,,,,,,,,,,1.0,,,,,others,0
515,2012-02-08 12:21:57.500000,2012-02-08 12:22:10.475000,12.975,4,NDW,,,,,,,,,,,,1.0,,,,,others,0
516,2012-02-08 12:22:04,2012-02-08 12:22:16.975000,12.975,4,NDW,,,,,,,,,,,,1.0,,,,,others,0
517,2012-02-08 12:22:10.500000,2012-02-08 12:22:23.475000,12.975,4,NDW,,,,,,,,,,,,1.0,,,,,others,0
518,2012-02-08 12:22:17,2012-02-08 12:22:29.975000,12.975,4,NDW,,,,,,,,,,,,1.0,,,,,rest,-1
519,2012-02-08 12:22:23.500000,2012-02-08 12:22:36.475000,12.975,4,NDW,,,,,,,,,,,,1.0,,,,,others,0
520,2012-02-08 12:22:30,2012-02-08 12:22:42.975000,12.975,4,NDW,,,,,,,,,,,,1.0,,,,,others,0
521,2012-02-08 12:22:36.500000,2012-02-08 12:22:49.475000,12.975,4,NDW,,,,,,,,,,,,1.0,,,0.1136801541425819,0.1136801541425819,others,0
522,2012-02-08 12:22:43,2012-02-08 12:22:55.975000,12.975,4,NDW,,,,,,,,,,,,1.0,,,0.23121387283236994,0.23121387283236994,others,0
523,2012-02-08 12:22:49.500000,2012-02-08 12:23:02.475000,12.975,4,NDW,,,,,,,,,,,,1.0,,,0.11560693641618497,0.11560693641618497,others,0
524,2012-02-08 12:22:56,2012-02-08 12:23:08.975000,12.975,4,NDW,,,,,,,,,,,,1.0,,,,,rest,-1
525,2012-02-08 12:23:02.500000,2012-02-08 12:23:15.475000,12.975,4,NDW,,,,,,,,,,,,1.0,,,,,others,0
526,2012-02-08 12:23:09,2012-02-08 12:23:21.975000,12.975,4,NDW,,,,,,,,,,,,1.0,,,,,others,0
527,2012-02-08 12:23:15.500000,2012-02-08 12:23:28.475000,12.975,4,NDW,,,,,,,,,,,,1.0,,,,,rest,-1
528,2012-02-08 12:23:22,2012-02-08 12:23:34.975000,12.975,4,NDW,,,,,,,,,,,,1.0,,,,,others,0
529,2012-02-08 12:23:28.500000,2012-02-08 12:23:41.475000,12.975,4,NDW,,,,,,,,,,,,1.0,,,,,others,0
530,2012-02-08 12:23:35,2012-02-08 12:23:47.975000,12.975,4,NDW,,,,,,,,,,,,1.0,,,,,others,0
531,2012-02-08 12:23:41.500000,2012-02-08 12:23:54.475000,12.975,4,NDW,,,,,,,,,,,,1.0,,,,,others,0
532,2012-02-08 12:23:48,2012-02-08 12:24:00.975000,12.975,4,NDW,,,,,,,,,,,,1.0,,,,,rest,-1
533,2012-02-08 12:23:54.500000,2012-02-08 12:24:07.475000,12.975,4,NDW,,,,,,,,,,,,1.0,,,,,rest,-1
534,2012-02-08 12:24:01,2012-02-08 12:24:13.975000,12.975,4,NDW,,,,,,,,,,,,1.0,,,,,rest,-1
535,2012-02-08 12:24:07.500000,2012-02-08 12:24:20.475000,12.975,4,NDW,,,,,,,,,,,,1.0,,,,,others,0
536,2012-02-08 12:24:14,2012-02-08 12:24:26.975000,12.975,4,NDW,,,,,,,,,,,,1.0,,,,,others,0
537,2012-02-08 12:24:20.500000,2012-02-08 12:24:33.475000,12.975,4,NDW,,,,,,,,,,,,1.0,,,,,rest,-1
538,2012-02-08 12:24:27,2012-02-08 12:24:39.975000,12.975,4,NDW,,,,,,,,,,,,1.0,,,,,rest,-1
539,2012-02-08 12:24:33.500000,2012-02-08 12:24:46.475000,12.975,4,NDW,,,,,,,,,,,,1.0,,,,,others,0
540,2012-02-08 12:24:40,2012-02-08 12:24:52.975000,12.975,4,NDW,,,,,,,,,,,,1.0,,,,,others,0
541,2012-02-08 12:24:46.500000,2012-02-08 12:24:59.475000,12.975,4,NDW,,,,,,,,,,,,1.0,,,,,rest,-1
542,2012-02-08 12:24:53,2012-02-08 12:25:05.975000,12.975,4,NDW,,,,,,,,,,,,1.0,,,,,others,0
543,2012-02-08 12:24:59.500000,2012-02-08 12:25:12.475000,12.975,4,NDW,,,,,,,,,,,,1.0,,,,,others,0
544,2012-02-08 12:25:06,2012-02-08 12:25:18.975000,12.975,4,NDW,,,,,,,,,,,,1.0,,,,,others,0
545,2012-02-08 12:25:12.500000,2012-02-08 12:25:25.475000,12.975,4,NDW,,,,,,,,,,,,1.0,,,,,rest,-1
546,2012-02-08 12:25:19,2012-02-08 12:25:31.975000,12.975,4,NDW,,,,,,,,,,,,1.0,,,,,rest,-1
547,2012-02-08 12:25:25.500000,2012-02-08 12:25:38.475000,12.975,4,NDW,,,,,,,,,,,,1.0,,,,,rest,-1
548,2012-02-08 12:25:32,2012-02-08 12:25:44.975000,12.975,4,NDW,,,,,,,,,,,,0.6165703275529866,,,,,others,0
549,2012-02-08 12:25:38.500000,2012-02-08 12:25:51.475000,12.975,4,NDW,,,,,,,,,,,,0.11560693641618497,,,,,others,0
550,2012-02-08 12:25:45,2012-02-08 12:25:57.975000,12.975,4,NDW,,,,,,,,,,,,,,,,,others,0
551,2012-02-08 12:25:51.500000,2012-02-08 12:26:04.475000,12.975,4,NDW,,,,,,,,,,,,,,,,,others,0
552,2012-02-08 12:25:58,2012-02-08 12:26:10.975000,12.975,4,NDW,,,,,,,,,,,,,,,,,others,0
553,2012-02-08 12:26:04.500000,2012-02-08 12:26:17.475000,12.975,4,NDW,,,,,,,,,,,,,,,,,rest,-1
554,2012-02-08 12:26:11,2012-02-08 12:26:23.975000,12.975,4,NDW,,,,,,,,,,,,,,,,,rest,-1
555,2012-02-08 12:26:17.500000,2012-02-08 12:26:30.475000,12.975,4,NDW,,,,,,,,,,,,,,,,,rest,-1
556,2012-02-08 12:26:24,2012-02-08 12:26:36.975000,12.975,4,NDW,,,,,,,,,,,,,,,,,rest,-1
557,2012-02-08 12:26:30.500000,2012-02-08 12:26:43.475000,12.975,4,NDW,,,,,,,,,,,,,,,,,rest,-1
558,2012-02-08 12:26:37,2012-02-08 12:26:49.975000,12.975,4,NDW,,,,,,,,,,,,,,,,,rest,-1
559,2012-02-08 12:26:43.500000,2012-02-08 12:26:56.475000,12.975,4,NDW,,,,,,,,,,,,,,,,,rest,-1
560,2012-02-08 12:26:50,2012-02-08 12:27:02.975000,12.975,4,NDW,,,,,,,,,,,,,,,,,rest,-1
561,2012-02-08 12:26:56.500000,2012-02-08 12:27:09.475000,12.975,4,NDW,,,,,,,,,,,,,,,,,rest,-1
562,2012-02-08 12:27:03,2012-02-08 12:27:15.975000,12.975,4,NDW,,,,,,,,,,,,,,,,,rest,-1
563,2012-02-08 12:27:09.500000,2012-02-08 12:27:22.475000,12.975,4,NDW,,,,,,,,,,,,,,,,,others,0
564,2012-02-08 12:27:16,2012-02-08 12:27:28.975000,12.975,4,NDW,,,,,,,,,,,,,,,,,others,0
565,2012-02-08 12:27:22.500000,2012-02-08 12:27:35.475000,12.975,4,NDW,,,,,,,,,,,,,,,,,others,0
566,2012-02-08 12:27:29,2012-02-08 12:27:41.975000,12.975,4,NDW,,,,,,,,,,,,,,,,,rest,-1
567,2012-02-08 12:27:35.500000,2012-02-08 12:27:48.475000,12.975,4,NDW,,,,,,,,,,,,,,,,,rest,-1
568,2012-02-08 12:27:42,2012-02-08 12:27:54.975000,12.975,4,NDW,,,,,,,,,,,,,,,,,rest,-1
569,2012-02-08 12:27:48.500000,2012-02-08 12:28:01.475000,12.975,4,NDW,,,,,,,,,,,,,,,,,rest,-1
570,2012-02-08 12:27:55,2012-02-08 12:28:07.975000,12.975,4,NDW,,,,,,,,,,,,,,,,,rest,-1
571,2012-02-08 12:28:01.500000,2012-02-08 12:28:14.475000,12.975,4,NDW,,,,,,,,,,,,,,,,,rest,-1
572,2012-02-08 12:28:08,2012-02-08 12:28:20.975000,12.975,4,NDW,,,,,,,,,,,,,,,,,rest,-1
573,2012-02-08 12:28:14.500000,2012-02-08 12:28:27.475000,12.975,4,NDW,,,,,,,,,,,,,,,,,rest,-1
574,2012-02-08 12:28:21,2012-02-08 12:28:33.975000,12.975,4,NDW,,,,,,,,,0.07514450867052024,,,,,,,,rest,-1
575,2012-02-08 12:28:27.500000,2012-02-08 12:28:40.475000,12.975,4,NDW,,,,,,,,,0.3853564547206166,,,,,,,,rest,-1
576,2012-02-08 12:28:34,2012-02-08 12:28:46.975000,12.975,4,NDW,,,,,,,,,0.3082851637764933,,,,,,,,rest,-1
577,2012-02-08 12:28:40.500000,2012-02-08 12:28:53.475000,12.975,4,NDW,,,,,,,,,0.19075144508670522,,,,,,,,rest,-1
578,2012-02-08 12:28:47,2012-02-08 12:28:59.975000,12.975,4,NDW,,,,,,,,,0.6917148362235067,,,,,,,,rest,-1
579,2012-02-08 12:28:53.500000,2012-02-08 12:29:06.475000,12.975,4,NDW,,,,,,,,,1.0,,,,,,,,rest,-1
580,2012-02-08 12:29:00,2012-02-08 12:29:12.975000,12.975,4,NDW,,,,,,,,,0.5394990366088632,,,,,,,,rest,-1
581,2012-02-08 12:29:06.500000,2012-02-08 12:29:19.475000,12.975,4,NDW,,,,,,,,,0.03853564547206166,,,,,,,,others,0
582,2012-02-08 12:29:13,2012-02-08 12:29:25.975000,12.975,4,NDW,,,,,,,,,,,,,,,,,others,0
583,2012-02-08 12:29:19.500000,2012-02-08 12:29:32.475000,12.975,4,NDW,,,,,,,,,,,,,,,,,others,0
584,2012-02-08 12:29:26,2012-02-08 12:29:38.975000,12.975,4,NDW,,,,,,,,,,,,,,,,,rest,-1
585,2012-02-08 12:29:32.500000,2012-02-08 12:29:45.475000,12.975,4,NDW,,,,,,,,,,,,,,,,,others,0
586,2012-02-08 12:29:39,2012-02-08 12:29:51.975000,12.975,4,NDW,,,,,,,,,,,,,,,,,others,0
587,2012-02-08 12:29:45.500000,2012-02-08 12:29:58.475000,12.975,4,NDW,,,,,,,,,,,,,,,,,others,0
588,2012-02-08 12:29:52,2012-02-08 12:30:04.975000,12.975,4,NDW,,,,,,,,,,,,,,,,,others,0
589,2012-02-08 12:29:58.500000,2012-02-08 12:30:11.475000,12.975,4,NDW,,,,,,,,,,,,,,,,,rest,-1
590,2012-02-08 12:30:05,2012-02-08 12:30:17.975000,12.975,4,NDW,,,,,,,,,,,,,,,,,rest,-1
591,2012-02-08 12:30:11.500000,2012-02-08 12:30:24.475000,12.975,4,NDW,,,,,,,,,,,,,,,,,rest,-1
592,2012-02-08 12:30:18,2012-02-08 12:30:30.975000,12.975,4,NDW,,,,,,,,,,,,,,,,,rest,-1
593,2012-02-08 12:30:24.500000,2012-02-08 12:30:37.475000,12.975,4,NDW,,,,,,,,,,,,,,,,,rest,-1
594,2012-02-08 12:30:31,2012-02-08 12:30:43.975000,12.975,4,NDW,,,,,,,,,,,,,,,,,rest,-1
595,2012-02-08 12:30:37.500000,2012-02-08 12:30:50.475000,12.975,4,NDW,,,,,,,,,,,,,,,,,others,0
596,2012-02-08 12:30:44,2012-02-08 12:30:56.975000,12.975,4,NDW,,,,,,,,,,,,,,,,,others,0
597,2012-02-08 12:30:50.500000,2012-02-08 12:31:03.475000,12.975,4,NDW,,,,,,,,,,,,,,,,,others,0
598,2012-02-08 12:30:57,2012-02-08 12:31:09.975000,12.975,4,NDW,,,,,,,,,,,,,,,,,others,0
599,2012-02-08 12:31:03.500000,2012-02-08 12:31:16.475000,12.975,4,NDW,,,,,,,,,,0.49903660886319845,,,,,,,reading,6
600,2012-02-08 12:31:10,2012-02-08 12:31:22.975000,12.975,4,NDW,,,,,,,,,,1.0,,,,,,,reading,6
601,2012-02-08 12:31:16.500000,2012-02-08 12:31:29.475000,12.975,4,NDW,,,,,,,,,,1.0,,,,,,,reading,6
602,2012-02-08 12:31:23,2012-02-08 12:31:35.975000,12.975,4,NDW,,,,,,,,,,1.0,,,,,,,reading,6
603,2012-02-08 12:31:29.500000,2012-02-08 12:31:42.475000,12.975,4,NDW,,,,,,,,,,1.0,,,,,,,rest,-1
604,2012-02-08 12:31:36,2012-02-08 12:31:48.975000,12.975,4,NDW,,,,,,,,,,1.0,,,,,,,rest,-1
605,2012-02-08 12:31:42.500000,2012-02-08 12:31:55.475000,12.975,4,NDW,,,,,,,,,,1.0,,,,,,,reading,6
606,2012-02-08 12:31:49,2012-02-08 12:32:01.975000,12.975,4,NDW,,,,,,,,,,1.0,,,,,,,reading,6
607,2012-02-08 12:31:55.500000,2012-02-08 12:32:08.475000,12.975,4,NDW,,,,,,,,,,1.0,,,,,,,rest,-1
608,2012-02-08 12:32:02,2012-02-08 12:32:14.975000,12.975,4,NDW,,,,,,,,,,1.0,,,,,,,rest,-1
609,2012-02-08 12:32:08.500000,2012-02-08 12:32:21.475000,12.975,4,NDW,,,,,,,,,,1.0,,,,,,,reading,6
610,2012-02-08 12:32:15,2012-02-08 12:32:27.975000,12.975,4,NDW,,,,,,,,,,1.0,,,,,,,reading,6
611,2012-02-08 12:32:21.500000,2012-02-08 12:32:34.475000,12.975,4,NDW,,,,,,,,,,1.0,,,,,,,rest,-1
612,2012-02-08 12:32:28,2012-02-08 12:32:40.975000,12.975,4,NDW,,,,,,,,,,1.0,,,,,,,rest,-1
613,2012-02-08 12:32:34.500000,2012-02-08 12:32:47.475000,12.975,4,NDW,,,,,,,,,,1.0,,,,,,,rest,-1
614,2012-02-08 12:32:41,2012-02-08 12:32:53.975000,12.975,4,NDW,,,,,,,,,,1.0,,,,,,,rest,-1
615,2012-02-08 12:32:47.500000,2012-02-08 12:33:00.475000,12.975,4,NDW,,,,,,,,,,1.0,,,,,,,rest,-1
616,2012-02-08 12:32:54,2012-02-08 12:33:06.975000,12.975,4,NDW,,,,,,,,,,1.0,,,,,,,rest,-1
617,2012-02-08 12:33:00.500000,2012-02-08 12:33:13.475000,12.975,4,NDW,,,,,,,,,,1.0,,,,,,,rest,-1
618,2012-02-08 12:33:07,2012-02-08 12:33:19.975000,12.975,4,NDW,,,,,,,,,,1.0,,,,,,,rest,-1
619,2012-02-08 12:33:13.500000,2012-02-08 12:33:26.475000,12.975,4,NDW,,,,,,,,,,1.0,,,,,,,rest,-1
620,2012-02-08 12:33:20,2012-02-08 12:33:32.975000,12.975,4,NDW,,,,,,,,,,1.0,,,,,,,reading,6
621,2012-02-08 12:33:26.500000,2012-02-08 12:33:39.475000,12.975,4,NDW,,,,,,,,,,1.0,,,,,,,reading,6
622,2012-02-08 12:33:33,2012-02-08 12:33:45.975000,12.975,4,NDW,,,,,,,,,,1.0,,,,,,,rest,-1
623,2012-02-08 12:33:39.500000,2012-02-08 12:33:52.475000,12.975,4,NDW,,,,,,,,,,1.0,,,,,,,rest,-1
624,2012-02-08 12:33:46,2012-02-08 12:33:58.975000,12.975,4,NDW,,,,,,,,,,1.0,,,,,,,rest,-1
625,2012-02-08 12:33:52.500000,2012-02-08 12:34:05.475000,12.975,4,NDW,,,,,,,,,,1.0,,,,,,,rest,-1
626,2012-02-08 12:33:59,2012-02-08 12:34:11.975000,12.975,4,NDW,,,,,,,,,,1.0,,,,,,,reading,6
627,2012-02-08 12:34:05.500000,2012-02-08 12:34:18.475000,12.975,4,NDW,,,,,,,,,,1.0,,,,,,,reading,6
628,2012-02-08 12:34:12,2012-02-08 12:34:24.975000,12.975,4,NDW,,,,,,,,,,1.0,,,,,,,rest,-1
629,2012-02-08 12:34:18.500000,2012-02-08 12:34:31.475000,12.975,4,NDW,,,,,,,,,,0.7321772639691715,,,,,,,rest,-1
630,2012-02-08 12:34:25,2012-02-08 12:34:37.975000,12.975,4,NDW,,,,,,,,,,0.6146435452793835,,,,,,,reading,6
631,2012-02-08 12:34:31.500000,2012-02-08 12:34:44.475000,12.975,4,NDW,,,,,,,,,,0.884393063583815,,,,,,,rest,-1
632,2012-02-08 12:34:38,2012-02-08 12:34:50.975000,12.975,4,NDW,,,,,,,,,,1.0,,,,,,,rest,-1
633,2012-02-08 12:34:44.500000,2012-02-08 12:34:57.475000,12.975,4,NDW,,,,,,,,,,1.0,,,,,,,rest,-1
634,2012-02-08 12:34:51,2012-02-08 12:35:03.975000,12.975,4,NDW,,,,,,,,,,1.0,,,,,,,rest,-1
635,2012-02-08 12:34:57.500000,2012-02-08 12:35:10.475000,12.975,4,NDW,,,,,,,,,,1.0,,,,,,,rest,-1
636,2012-02-08 12:35:04,2012-02-08 12:35:16.975000,12.975,4,NDW,,,,,,,,,,1.0,,,,,,,rest,-1
637,2012-02-08 12:35:10.500000,2012-02-08 12:35:23.475000,12.975,4,NDW,,,,,,,,,,1.0,,,,,,,rest,-1
638,2012-02-08 12:35:17,2012-02-08 12:35:29.975000,12.975,4,NDW,,,,,,,,,,1.0,,,,,,,reading,6
639,2012-02-08 12:35:23.500000,2012-02-08 12:35:36.475000,12.975,4,NDW,,,,,,,,,,1.0,,,,,,,reading,6
640,2012-02-08 12:35:30,2012-02-08 12:35:42.975000,12.975,4,NDW,,,,,,,,,,1.0,,,,,,,rest,-1
641,2012-02-08 12:35:36.500000,2012-02-08 12:35:49.475000,12.975,4,NDW,,,,,,,,,,1.0,,,,,,,rest,-1
642,2012-02-08 12:35:43,2012-02-08 12:35:55.975000,12.975,4,NDW,,,,,,,,,,1.0,,,,,,,rest,-1
643,2012-02-08 12:35:49.500000,2012-02-08 12:36:02.475000,12.975,4,NDW,,,,,,,,,,1.0,,,,,,,reading,6
644,2012-02-08 12:35:56,2012-02-08 12:36:08.975000,12.975,4,NDW,,,,,,,,,,1.0,,,,,,,reading,6
645,2012-02-08 12:36:02.500000,2012-02-08 12:36:15.475000,12.975,4,NDW,,,,,,,,,,1.0,,,,,,,reading,6
646,2012-02-08 12:36:09,2012-02-08 12:36:21.975000,12.975,4,NDW,,,,,,,,,,1.0,,,,,,,reading,6
647,2012-02-08 12:36:15.500000,2012-02-08 12:36:28.475000,12.975,4,NDW,,,,,,,,,,1.0,,,,,,,reading,6
648,2012-02-08 12:36:22,2012-02-08 12:36:34.975000,12.975,4,NDW,,,,,,,,,,1.0,,,,,,,reading,6
649,2012-02-08 12:36:28.500000,2012-02-08 12:36:41.475000,12.975,4,NDW,,,,,,,,,,0.8863198458574182,,,,,,,reading,6
650,2012-02-08 12:36:35,2012-02-08 12:36:47.975000,12.975,4,NDW,,,,,,,,,,0.3853564547206166,,,,,,,reading,6
651,2012-02-08 12:36:41.500000,2012-02-08 12:36:54.475000,12.975,4,NDW,,,,,,,,,,,,,,,,,rest,-1
652,2012-02-08 12:36:48,2012-02-08 12:37:00.975000,12.975,4,NDW,,,,,,,,,,,,,,,,,rest,-1
653,2012-02-08 12:36:54.500000,2012-02-08 12:37:07.475000,12.975,4,NDW,,,,,,,,,,,,,,,,,rest,-1
654,2012-02-08 12:37:01,2012-02-08 12:37:13.975000,12.975,4,NDW,,,,,,,,,,,,,,,,,rest,-1
655,2012-02-08 12:37:07.500000,2012-02-08 12:37:20.475000,12.975,4,NDW,,,,,,,,,,,,,,,,,rest,-1
656,2012-02-08 12:37:14,2012-02-08 12:37:26.975000,12.975,4,NDW,,,,,,,,,,,,,,,,,rest,-1
657,2012-02-08 12:37:20.500000,2012-02-08 12:37:33.475000,12.975,4,NDW,,,,,,,,,,,,,,,,,others,0
658,2012-02-08 12:37:27,2012-02-08 12:37:39.975000,12.975,4,NDW,,,,,,,,,,,,,,,,,others,0
659,2012-02-08 12:37:33.500000,2012-02-08 12:37:46.475000,12.975,4,NDW,,,,,,,,,,,,,,,,,others,0
660,2012-02-08 12:37:40,2012-02-08 12:37:52.975000,12.975,4,NDW,,,,,,,,,,,,,,,,,others,0
661,2012-02-08 12:37:46.500000,2012-02-08 12:37:59.475000,12.975,4,NDW,,,,,,,,,,,,,,,,,others,0
662,2012-02-08 12:37:53,2012-02-08 12:38:05.975000,12.975,4,NDW,,,,,,,,,,,,,,,,,others,0
663,2012-02-08 12:37:59.500000,2012-02-08 12:38:12.475000,12.975,4,NDW,,,,,,,,,,,,,,,,,others,0
664,2012-02-08 12:38:06,2012-02-08 12:38:18.975000,12.975,4,NDW,,,,,,,,,,,,,,,,,others,0
665,2012-02-08 12:38:12.500000,2012-02-08 12:38:25.475000,12.975,4,NDW,,,,,,,,,,,,,,,,,others,0
666,2012-02-08 12:38:19,2012-02-08 12:38:31.975000,12.975,4,NDW,,,,,,,,,,,,,,,,,others,0
667,2012-02-08 12:38:25.500000,2012-02-08 12:38:38.475000,12.975,4,NDW,,,,,,,,,,,,,,,,,others,0
668,2012-02-08 12:38:32,2012-02-08 12:38:44.975000,12.975,4,NDW,,,,,,,,,0.07514450867052024,,,,,,,,others,0
669,2012-02-08 12:38:38.500000,2012-02-08 12:38:51.475000,12.975,4,NDW,,,,,,,,,0.3853564547206166,,,,,,,,drinking,8
670,2012-02-08 12:38:45,2012-02-08 12:38:57.975000,12.975,4,NDW,,,,,,,,,0.4605009633911368,,,,,,,,drinking,8
671,2012-02-08 12:38:51.500000,2012-02-08 12:39:04.475000,12.975,4,NDW,,,,,,,,,0.3853564547206166,,,,,,,,drinking,8
672,2012-02-08 12:38:58,2012-02-08 12:39:10.975000,12.975,4,NDW,,,,,,,,,0.23121387283236994,,,,,,,,others,0
673,2012-02-08 12:39:04.500000,2012-02-08 12:39:17.475000,12.975,4,NDW,,,,,,,,,0.3082851637764933,,,,,,,,drinking,8
674,2012-02-08 12:39:11,2012-02-08 12:39:23.975000,12.975,4,NDW,,,,,,,,,0.3082851637764933,,,,,,,,drinking,8
675,2012-02-08 12:39:17.500000,2012-02-08 12:39:30.475000,12.975,4,NDW,,,,,,,,,,,,,,,,,others,0
676,2012-02-08 12:39:24,2012-02-08 12:39:36.975000,12.975,4,NDW,,,,,,,,,0.3063583815028902,,,,,,,,drinking,8
677,2012-02-08 12:39:30.500000,2012-02-08 12:39:43.475000,12.975,4,NDW,,,,,,,,,0.3082851637764933,,,,,,,,drinking,8
678,2012-02-08 12:39:37,2012-02-08 12:39:49.975000,12.975,4,NDW,,,,,,,,,,,,,,,,,rest,-1
679,2012-02-08 12:39:43.500000,2012-02-08 12:39:56.475000,12.975,4,NDW,,,,,,,,,,,,,,,,,others,0
680,2012-02-08 12:39:50,2012-02-08 12:40:02.975000,12.975,4,NDW,,,,,,,,,,,,,,,,,others,0
681,2012-02-08 12:39:56.500000,2012-02-08 12:40:09.475000,12.975,4,NDW,,,,,,,,,,,,,,,,,others,0
682,2012-02-08 12:40:03,2012-02-08 12:40:15.975000,12.975,4,NDW,,,,,,,,,,,,,,,,,others,0
683,2012-02-08 12:40:09.500000,2012-02-08 12:40:22.475000,12.975,4,NDW,,,,,,,,,,,,,,,,,others,0
684,2012-02-08 12:40:16,2012-02-08 12:40:28.975000,12.975,4,NDW,,,,,,,,,,,,0.15221579961464354,,,,,others,0
685,2012-02-08 12:40:22.500000,2012-02-08 12:40:35.475000,12.975,4,NDW,,,,,,,,,,0.1136801541425819,,0.653179190751445,,,,0.1136801541425819,others,0
686,2012-02-08 12:40:29,2012-02-08 12:40:41.975000,12.975,4,NDW,,,,,,,,,,0.6146435452793835,,1.0,,,,0.6146435452793835,reading,6
687,2012-02-08 12:40:35.500000,2012-02-08 12:40:48.475000,12.975,4,NDW,,,,,,,,,,1.0,,1.0,,,,1.0,reading,6
688,2012-02-08 12:40:42,2012-02-08 12:40:54.975000,12.975,4,NDW,,,,,,,,,,1.0,,1.0,,,,1.0,reading,6
689,2012-02-08 12:40:48.500000,2012-02-08 12:41:01.475000,12.975,4,NDW,,,,,,,,,,1.0,,1.0,,,,1.0,reading,6
690,2012-02-08 12:40:55,2012-02-08 12:41:07.975000,12.975,4,NDW,,,,,,,,,,1.0,,1.0,,,,1.0,reading,6
691,2012-02-08 12:41:01.500000,2012-02-08 12:41:14.475000,12.975,4,NDW,,,,,,,,,,1.0,,1.0,,,,1.0,reading,6
692,2012-02-08 12:41:08,2012-02-08 12:41:20.975000,12.975,4,NDW,,,,,,,,,,1.0,,1.0,,,,1.0,rest,-1
693,2012-02-08 12:41:14.500000,2012-02-08 12:41:27.475000,12.975,4,NDW,,,,,,,,,,1.0,,1.0,,,,1.0,rest,-1
694,2012-02-08 12:41:21,2012-02-08 12:41:33.975000,12.975,4,NDW,,,,,,,,,,1.0,,1.0,,,,1.0,reading,6
695,2012-02-08 12:41:27.500000,2012-02-08 12:41:40.475000,12.975,4,NDW,,,,,,,,,,1.0,,1.0,,,,1.0,reading,6
696,2012-02-08 12:41:34,2012-02-08 12:41:46.975000,12.975,4,NDW,,,,,,,,,,1.0,,1.0,,,,1.0,rest,-1
697,2012-02-08 12:41:40.500000,2012-02-08 12:41:53.475000,12.975,4,NDW,,,,,,,,,,1.0,,1.0,,,,1.0,rest,-1
698,2012-02-08 12:41:47,2012-02-08 12:41:59.975000,12.975,4,NDW,,,,,,,,,,1.0,,1.0,,,,1.0,rest,-1
699,2012-02-08 12:41:53.500000,2012-02-08 12:42:06.475000,12.975,4,NDW,,,,,,,,,,1.0,,1.0,,,,1.0,rest,-1
700,2012-02-08 12:42:00,2012-02-08 12:42:12.975000,12.975,4,NDW,,,,,,,,,,1.0,,1.0,,,,1.0,rest,-1
701,2012-02-08 12:42:06.500000,2012-02-08 12:42:19.475000,12.975,4,NDW,,,,,,,,,,1.0,,1.0,,,,1.0,rest,-1
702,2012-02-08 12:42:13,2012-02-08 12:42:25.975000,12.975,4,NDW,,,,,,,,,,1.0,,1.0,,,,1.0,rest,-1
703,2012-02-08 12:42:19.500000,2012-02-08 12:42:32.475000,12.975,4,NDW,,,,,,,,,,1.0,,1.0,,,,1.0,rest,-1
704,2012-02-08 12:42:26,2012-02-08 12:42:38.975000,12.975,4,NDW,,,,,,,,,,1.0,,1.0,,,,1.0,reading,6
705,2012-02-08 12:42:32.500000,2012-02-08 12:42:45.475000,12.975,4,NDW,,,,,,,,,,1.0,,1.0,,,,1.0,rest,-1
706,2012-02-08 12:42:39,2012-02-08 12:42:51.975000,12.975,4,NDW,,,,,,,,,,1.0,,1.0,,,,1.0,rest,-1
707,2012-02-08 12:42:45.500000,2012-02-08 12:42:58.475000,12.975,4,NDW,,,,,,,,,,1.0,,1.0,,,,1.0,rest,-1
708,2012-02-08 12:42:52,2012-02-08 12:43:04.975000,12.975,4,NDW,,,,,,,,,,1.0,,1.0,,,,1.0,rest,-1
709,2012-02-08 12:42:58.500000,2012-02-08 12:43:11.475000,12.975,4,NDW,,,,,,,,,,1.0,,1.0,,,,1.0,rest,-1
710,2012-02-08 12:43:05,2012-02-08 12:43:17.975000,12.975,4,NDW,,,,,,,,,,1.0,,1.0,,,,1.0,rest,-1
711,2012-02-08 12:43:11.500000,2012-02-08 12:43:24.475000,12.975,4,NDW,,,,,,,,,,1.0,,1.0,,,,1.0,rest,-1
712,2012-02-08 12:43:18,2012-02-08 12:43:30.975000,12.975,4,NDW,,,,,,,,,,1.0,,1.0,,,,1.0,reading,6
713,2012-02-08 12:43:24.500000,2012-02-08 12:43:37.475000,12.975,4,NDW,,,,,,,,,,1.0,,1.0,,,,1.0,reading,6
714,2012-02-08 12:43:31,2012-02-08 12:43:43.975000,12.975,4,NDW,,,,,,,,,,1.0,,1.0,,,,1.0,rest,-1
715,2012-02-08 12:43:37.500000,2012-02-08 12:43:50.475000,12.975,4,NDW,,,,,,,,,,1.0,,1.0,,,,1.0,rest,-1
716,2012-02-08 12:43:44,2012-02-08 12:43:56.975000,12.975,4,NDW,,,,,,,,,,1.0,,1.0,,,,1.0,reading,6
717,2012-02-08 12:43:50.500000,2012-02-08 12:44:03.475000,12.975,4,NDW,,,,,,,,,0.19075144508670522,0.8092485549132948,,1.0,,,,1.0,reading,6
718,2012-02-08 12:43:57,2012-02-08 12:44:09.975000,12.975,4,NDW,,,,,,,,,0.4624277456647399,0.3082851637764933,,1.0,,,,0.7707129094412332,drinking,8
719,2012-02-08 12:44:03.500000,2012-02-08 12:44:16.475000,12.975,4,NDW,,,,,,,,,0.2697495183044316,,,1.0,,,,0.2697495183044316,drinking,8
720,2012-02-08 12:44:10,2012-02-08 12:44:22.975000,12.975,4,NDW,,,,,,,,,,,,1.0,,,,,others,0
721,2012-02-08 12:44:16.500000,2012-02-08 12:44:29.475000,12.975,4,NDW,,,,,,,,,0.19075144508670522,,,1.0,,,,0.19075144508670522,others,0
722,2012-02-08 12:44:23,2012-02-08 12:44:35.975000,12.975,4,NDW,,,,,,,,,0.6917148362235067,,,1.0,,,,0.6917148362235067,drinking,8
723,2012-02-08 12:44:29.500000,2012-02-08 12:44:42.475000,12.975,4,NDW,,,,,,,,,0.6551059730250481,,,1.0,,,,0.6551059730250481,drinking,8
724,2012-02-08 12:44:36,2012-02-08 12:44:48.975000,12.975,4,NDW,,,,,,,,,0.15414258188824664,,,1.0,,,,0.15414258188824664,others,0
725,2012-02-08 12:44:42.500000,2012-02-08 12:44:55.475000,12.975,4,NDW,,,,,,,,,,,,0.7321772639691715,,,,,others,0
726,2012-02-08 12:44:49,2012-02-08 12:45:01.975000,12.975,4,NDW,,,,,,,,,,,,0.23121387283236994,,,,,others,0
727,2012-02-08 12:44:55.500000,2012-02-08 12:45:08.475000,12.975,4,NDW,,,,,,,,,,,,,,,,,others,0
728,2012-02-08 12:45:02,2012-02-08 12:45:14.975000,12.975,4,NDW,,,,,,,,,,,,,,,,,others,0
729,2012-02-08 12:45:08.500000,2012-02-08 12:45:21.475000,12.975,4,NDW,,,,,,,,,,,,,,,0.49903660886319845,,walking,1
730,2012-02-08 12:45:15,2012-02-08 12:45:27.975000,12.975,4,NDW,,,,,,,,,,,,,,,1.0,,walking,1
731,2012-02-08 12:45:21.500000,2012-02-08 12:45:34.475000,12.975,4,NDW,,,,,,,,,,,,,,,1.0,,walking,1
732,2012-02-08 12:45:28,2012-02-08 12:45:40.975000,12.975,4,NDW,,,,,,,,,,,,,,,1.0,,walking,1
733,2012-02-08 12:45:34.500000,2012-02-08 12:45:47.475000,12.975,4,NDW,,,,,,,,,,,,,,,1.0,,walking,1
734,2012-02-08 12:45:41,2012-02-08 12:45:53.975000,12.975,4,NDW,,,,,,,,,,,,,,,1.0,,walking,1
735,2012-02-08 12:45:47.500000,2012-02-08 12:46:00.475000,12.975,4,NDW,,,,,,,,,,,,,,,1.0,,walking,1
736,2012-02-08 12:45:54,2012-02-08 12:46:06.975000,12.975,4,NDW,,,,,,0.22928709055876687,,,,,,,,,0.7707129094412332,,walking,1
737,2012-02-08 12:46:00.500000,2012-02-08 12:46:13.475000,12.975,4,NDW,,,,,,0.7302504816955684,,,,,,,,,0.2697495183044316,,in car,7
738,2012-02-08 12:46:07,2012-02-08 12:46:19.975000,12.975,4,NDW,,,,,,1.0,,,,,,,,,,,in car,7
739,2012-02-08 12:46:13.500000,2012-02-08 12:46:26.475000,12.975,4,NDW,,,,,,1.0,,,,,,0.42196531791907516,,,,0.42196531791907516,in car,7
740,2012-02-08 12:46:20,2012-02-08 12:46:32.975000,12.975,4,NDW,,,,,,1.0,,,,,,0.9229287090558767,,,,0.9229287090558767,in car,7
741,2012-02-08 12:46:26.500000,2012-02-08 12:46:39.475000,12.975,4,NDW,,,,,,1.0,,,,,,1.0,,,,1.0,in car,7
742,2012-02-08 12:46:33,2012-02-08 12:46:45.975000,12.975,4,NDW,,,,,,1.0,,,,,,1.0,,,,1.0,rest,-1
743,2012-02-08 12:46:39.500000,2012-02-08 12:46:52.475000,12.975,4,NDW,,,,,,1.0,,,,,,1.0,,,,1.0,rest,-1
744,2012-02-08 12:46:46,2012-02-08 12:46:58.975000,12.975,4,NDW,,,,,,1.0,,,,,,1.0,,,,1.0,rest,-1
745,2012-02-08 12:46:52.500000,2012-02-08 12:47:05.475000,12.975,4,NDW,,,,,,1.0,,,,,,1.0,,,,1.0,in car,7
746,2012-02-08 12:46:59,2012-02-08 12:47:11.975000,12.975,4,NDW,,,,,,1.0,,,,,,1.0,,,,1.0,in car,7
747,2012-02-08 12:47:05.500000,2012-02-08 12:47:18.475000,12.975,4,NDW,,,,,,1.0,,,,,,1.0,,,,1.0,in car,7
748,2012-02-08 12:47:12,2012-02-08 12:47:24.975000,12.975,4,NDW,,,,,,1.0,,,,,,1.0,,,,1.0,in car,7
749,2012-02-08 12:47:18.500000,2012-02-08 12:47:31.475000,12.975,4,NDW,,,,,,1.0,,,,,,1.0,,,,1.0,in car,7
750,2012-02-08 12:47:25,2012-02-08 12:47:37.975000,12.975,4,NDW,,,,,,1.0,,,,,,1.0,,,,1.0,in car,7
751,2012-02-08 12:47:31.500000,2012-02-08 12:47:44.475000,12.975,4,NDW,,,,,,1.0,,,,,,1.0,,,,1.0,in car,7
752,2012-02-08 12:47:38,2012-02-08 12:47:50.975000,12.975,4,NDW,,,,,,1.0,,,,,,1.0,,,,1.0,in car,7
753,2012-02-08 12:47:44.500000,2012-02-08 12:47:57.475000,12.975,4,NDW,,,,,,1.0,,,,,,1.0,,,,1.0,rest,-1
754,2012-02-08 12:47:51,2012-02-08 12:48:03.975000,12.975,4,NDW,,,,,,1.0,,,,,,1.0,,,,1.0,in car,7
755,2012-02-08 12:47:57.500000,2012-02-08 12:48:10.475000,12.975,4,NDW,,,,,,1.0,,,,,,1.0,,,,1.0,in car,7
756,2012-02-08 12:48:04,2012-02-08 12:48:16.975000,12.975,4,NDW,,,,,,1.0,,,,,,1.0,,,,1.0,in car,7
757,2012-02-08 12:48:10.500000,2012-02-08 12:48:23.475000,12.975,4,NDW,,,,,,1.0,,,,,,1.0,,,,1.0,in car,7
758,2012-02-08 12:48:17,2012-02-08 12:48:29.975000,12.975,4,NDW,,,,,,1.0,,,,,,1.0,,,,1.0,in car,7
759,2012-02-08 12:48:23.500000,2012-02-08 12:48:36.475000,12.975,4,NDW,,,,,,1.0,,,,,,1.0,,,,1.0,rest,-1
760,2012-02-08 12:48:30,2012-02-08 12:48:42.975000,12.975,4,NDW,,,,,,1.0,,,,,,1.0,,,,1.0,rest,-1
761,2012-02-08 12:48:36.500000,2012-02-08 12:48:49.475000,12.975,4,NDW,,,,,,1.0,,,,,,1.0,,,,1.0,rest,-1
762,2012-02-08 12:48:43,2012-02-08 12:48:55.975000,12.975,4,NDW,,,,,,1.0,,,,,,1.0,,,,1.0,in car,7
763,2012-02-08 12:48:49.500000,2012-02-08 12:49:02.475000,12.975,4,NDW,,,,,,1.0,,,,,,1.0,,,,1.0,in car,7
764,2012-02-08 12:48:56,2012-02-08 12:49:08.975000,12.975,4,NDW,,,,,,1.0,,,,,,1.0,,,,1.0,rest,-1
765,2012-02-08 12:49:02.500000,2012-02-08 12:49:15.475000,12.975,4,NDW,,,,,,1.0,,,,,,1.0,,,,1.0,rest,-1
766,2012-02-08 12:49:09,2012-02-08 12:49:21.975000,12.975,4,NDW,,,,,,1.0,,,,,,1.0,,,,1.0,rest,-1
767,2012-02-08 12:49:15.500000,2012-02-08 12:49:28.475000,12.975,4,NDW,,,,,,1.0,,,,,,1.0,,,,1.0,in car,7
768,2012-02-08 12:49:22,2012-02-08 12:49:34.975000,12.975,4,NDW,,,,,,1.0,,,,,,1.0,,,,1.0,rest,-1
769,2012-02-08 12:49:28.500000,2012-02-08 12:49:41.475000,12.975,4,NDW,,,,,,1.0,,,,,,1.0,,,,1.0,rest,-1
770,2012-02-08 12:49:35,2012-02-08 12:49:47.975000,12.975,4,NDW,,,,,,1.0,,,,,,1.0,,,,1.0,in car,7
771,2012-02-08 12:49:41.500000,2012-02-08 12:49:54.475000,12.975,4,NDW,,,,,,1.0,,,,,,1.0,,,,1.0,in car,7
772,2012-02-08 12:49:48,2012-02-08 12:50:00.975000,12.975,4,NDW,,,,,,1.0,,,,,,0.7707129094412332,,,,0.7707129094412332,in car,7
773,2012-02-08 12:49:54.500000,2012-02-08 12:50:07.475000,12.975,4,NDW,,,,,,0.8863198458574182,,,,,,0.2697495183044316,,,,0.2697495183044316,in car,7
774,2012-02-08 12:50:01,2012-02-08 12:50:13.975000,12.975,4,NDW,,,,,,0.3853564547206166,,,,,,,,,0.15221579961464354,,in car,7
775,2012-02-08 12:50:07.500000,2012-02-08 12:50:20.475000,12.975,4,NDW,,,,,,,,,,,,,,,0.653179190751445,,walking,1
776,2012-02-08 12:50:14,2012-02-08 12:50:26.975000,12.975,4,NDW,,,,,,,,,,,,,,,1.0,,walking,1
777,2012-02-08 12:50:20.500000,2012-02-08 12:50:33.475000,12.975,4,NDW,,,,,,,,,,,,,,,1.0,,walking,1
778,2012-02-08 12:50:27,2012-02-08 12:50:39.975000,12.975,4,NDW,,,,,,,,,,,,,,,1.0,,walking,1
779,2012-02-08 12:50:33.500000,2012-02-08 12:50:46.475000,12.975,4,NDW,,,,,,,,,,,,,,,1.0,,walking,1
780,2012-02-08 12:50:40,2012-02-08 12:50:52.975000,12.975,4,NDW,,,,,,,,,,,,,,,1.0,,walking,1
781,2012-02-08 12:50:46.500000,2012-02-08 12:50:59.475000,12.975,4,NDW,,,,,,,,,,,,,,,0.8092485549132948,,walking,1
782,2012-02-08 12:50:53,2012-02-08 12:51:05.975000,12.975,4,NDW,,,,,,,,,,,,,,,0.3082851637764933,,walking,1
783,2012-02-08 12:50:59.500000,2012-02-08 12:51:12.475000,12.975,4,NDW,,,,,,,,,,,,,,,,,others,0
784,2012-02-08 12:51:06,2012-02-08 12:51:18.975000,12.975,4,NDW,,,,,,,,,,,,,,,,,rest,-1
785,2012-02-08 12:51:12.500000,2012-02-08 12:51:25.475000,12.975,4,NDW,,,,,,,,,,,,,,,,,others,0
786,2012-02-08 12:51:19,2012-02-08 12:51:31.975000,12.975,4,NDW,,,,,,,,,,,,,,,,,others,0
787,2012-02-08 12:51:25.500000,2012-02-08 12:51:38.475000,12.975,4,NDW,,,,,,,,,,,,,,,,,others,0
788,2012-02-08 12:51:32,2012-02-08 12:51:44.975000,12.975,4,NDW,,,,,,,,,,,,,,,,,others,0
789,2012-02-08 12:51:38.500000,2012-02-08 12:51:51.475000,12.975,4,NDW,,,,,,,,,,,,,,,,,others,0
790,2012-02-08 12:51:45,2012-02-08 12:51:57.975000,12.975,4,NDW,,,,,,,,,,,,,,,,,rest,-1
791,2012-02-08 12:51:51.500000,2012-02-08 12:52:04.475000,12.975,4,NDW,,,,,,,,,,,,,,,,,rest,-1
792,2012-02-08 12:51:58,2012-02-08 12:52:10.975000,12.975,4,NDW,,,,,,,,,,,,,,,,,others,0
793,2012-02-08 12:52:04.500000,2012-02-08 12:52:17.475000,12.975,4,NDW,,,,,,,,,,,,,,,,,others,0
794,2012-02-08 12:52:11,2012-02-08 12:52:23.975000,12.975,4,NDW,,,,,,,,,,,,,,,,,others,0
795,2012-02-08 12:52:17.500000,2012-02-08 12:52:30.475000,12.975,4,NDW,,,,,,,,,,,,,,,,,rest,-1
796,2012-02-08 12:52:24,2012-02-08 12:52:36.975000,12.975,4,NDW,,,,,,,,,,,,,,,,,rest,-1
797,2012-02-08 12:52:30.500000,2012-02-08 12:52:43.475000,12.975,4,NDW,,,,,,,,,,,,,,,,,others,0
798,2012-02-08 12:52:37,2012-02-08 12:52:49.975000,12.975,4,NDW,,,,,,,,,,,,,,,,,others,0
799,2012-02-08 12:52:43.500000,2012-02-08 12:52:56.475000,12.975,4,NDW,,,,,,,,,,,,,,,,,others,0
800,2012-02-08 12:52:50,2012-02-08 12:53:02.975000,12.975,4,NDW,,,,,,,,,,,,,,,,,others,0
801,2012-02-08 12:52:56.500000,2012-02-08 12:53:09.475000,12.975,4,NDW,,,,,,,,,,,,,,,,,others,0
802,2012-02-08 12:53:03,2012-02-08 12:53:15.975000,12.975,4,NDW,,,,,,,,,,,,,,,,,others,0
803,2012-02-08 12:53:09.500000,2012-02-08 12:53:22.475000,12.975,4,NDW,,,,,,,,,,,,,,,,,rest,-1
804,2012-02-08 12:53:16,2012-02-08 12:53:28.975000,12.975,4,NDW,,,,,,,,,,,,,,,,,rest,-1
805,2012-02-08 12:53:22.500000,2012-02-08 12:53:35.475000,12.975,4,NDW,,,,,,,,,,,,,,,,,others,0
806,2012-02-08 12:53:29,2012-02-08 12:53:41.975000,12.975,4,NDW,,,,,,,,,,,,,,,,,others,0
807,2012-02-08 12:53:35.500000,2012-02-08 12:53:48.475000,12.975,4,NDW,,,,,,,,,,,,,,,,,rest,-1
808,2012-02-08 12:53:42,2012-02-08 12:53:54.975000,12.975,4,NDW,,,,,,,,,,,,,,,,,rest,-1
809,2012-02-08 12:53:48.500000,2012-02-08 12:54:01.475000,12.975,4,NDW,,,,,,,,,,,,,,,,,rest,-1
810,2012-02-08 12:53:55,2012-02-08 12:54:07.975000,12.975,4,NDW,,,,,,,,,,,,,,,,,rest,-1
811,2012-02-08 12:54:01.500000,2012-02-08 12:54:14.475000,12.975,4,NDW,,,,,,,,,,,,,,,,,rest,-1
812,2012-02-08 12:54:08,2012-02-08 12:54:20.975000,12.975,4,NDW,,,,,,,,,,,,,,,,,rest,-1
813,2012-02-08 12:54:14.500000,2012-02-08 12:54:27.475000,12.975,4,NDW,,,,,,,,,,,,,,,,,rest,-1
814,2012-02-08 12:54:21,2012-02-08 12:54:33.975000,12.975,4,NDW,,,,,,,,,,,,,,,,,rest,-1
815,2012-02-08 12:54:27.500000,2012-02-08 12:54:40.475000,12.975,4,NDW,,,,,,,,,,,,,,,,,rest,-1
816,2012-02-08 12:54:34,2012-02-08 12:54:46.975000,12.975,4,NDW,,,,,,,,,,,,,,,,,rest,-1
817,2012-02-08 12:54:40.500000,2012-02-08 12:54:53.475000,12.975,4,NDW,,,,,,,,,,,,,,,,,rest,-1
818,2012-02-08 12:54:47,2012-02-08 12:54:59.975000,12.975,4,NDW,,,,,,,,,,,,,,,,,rest,-1
819,2012-02-08 12:54:53.500000,2012-02-08 12:55:06.475000,12.975,4,NDW,,,,,,,,,,,,,,,,,rest,-1
820,2012-02-08 12:55:00,2012-02-08 12:55:12.975000,12.975,4,NDW,,,,,,,,,,,,,,,,,others,0
821,2012-02-08 12:55:06.500000,2012-02-08 12:55:19.475000,12.975,4,NDW,,,,,,,,,,,,,,,,,rest,-1
822,2012-02-08 12:55:13,2012-02-08 12:55:25.975000,12.975,4,NDW,,,,,,,,,,,,,,,,,others,0
823,2012-02-08 12:55:19.500000,2012-02-08 12:55:32.475000,12.975,4,NDW,,,,,,,,,,,,,,,,,others,0
824,2012-02-08 12:55:26,2012-02-08 12:55:38.975000,12.975,4,NDW,,,,,,,,,,,,,,,,,rest,-1
825,2012-02-08 12:55:32.500000,2012-02-08 12:55:45.475000,12.975,4,NDW,,,,,,,,,,,,,,,,,rest,-1
826,2012-02-08 12:55:39,2012-02-08 12:55:51.975000,12.975,4,NDW,,,,,,,,,,,,,,,,,rest,-1
827,2012-02-08 12:55:45.500000,2012-02-08 12:55:58.475000,12.975,4,NDW,,,,,,,,,,,,,,,,,rest,-1
828,2012-02-08 12:55:52,2012-02-08 12:56:04.975000,12.975,4,NDW,,,,,,,,,,,,,,,,,rest,-1
829,2012-02-08 12:55:58.500000,2012-02-08 12:56:11.475000,12.975,4,NDW,,,,,,,,,,,,,,,,,rest,-1
830,2012-02-08 12:56:05,2012-02-08 12:56:17.975000,12.975,4,NDW,,,,,,,,,,,,,,,,,rest,-1
831,2012-02-08 12:56:11.500000,2012-02-08 12:56:24.475000,12.975,4,NDW,,,,,,,,,,,,,,,,,rest,-1
832,2012-02-08 12:56:18,2012-02-08 12:56:30.975000,12.975,4,NDW,,,,,,,,,,,,,,,,,others,0
833,2012-02-08 12:56:24.500000,2012-02-08 12:56:37.475000,12.975,4,NDW,,,,,,,,,,,,,,,,,rest,-1
834,2012-02-08 12:56:31,2012-02-08 12:56:43.975000,12.975,4,NDW,,,,,,,,,,,,,,,,,rest,-1
835,2012-02-08 12:56:37.500000,2012-02-08 12:56:50.475000,12.975,4,NDW,,,,,,,,,,,,,,,,,rest,-1
836,2012-02-08 12:56:44,2012-02-08 12:56:56.975000,12.975,4,NDW,,,,,,,,,,,,,,,,,rest,-1
837,2012-02-08 12:56:50.500000,2012-02-08 12:57:03.475000,12.975,4,NDW,,,,,,,,,,,,,,,,,rest,-1
838,2012-02-08 12:56:57,2012-02-08 12:57:09.975000,12.975,4,NDW,,,,,,,,,,,,,,,,,rest,-1
839,2012-02-08 12:57:03.500000,2012-02-08 12:57:16.475000,12.975,4,NDW,,,,,,,,,,,,,,,,,rest,-1
840,2012-02-08 12:57:10,2012-02-08 12:57:22.975000,12.975,4,NDW,,,,,,,,,,,,,,,,,others,0
841,2012-02-08 12:57:16.500000,2012-02-08 12:57:29.475000,12.975,4,NDW,,,,,,,,,,,,,,,,,others,0
842,2012-02-08 12:57:23,2012-02-08 12:57:35.975000,12.975,4,NDW,,,,,,,,,,,,,,,,,others,0
843,2012-02-08 12:57:29.500000,2012-02-08 12:57:42.475000,12.975,4,NDW,,,,,,,,,,,,,,,,,rest,-1
844,2012-02-08 12:57:36,2012-02-08 12:57:48.975000,12.975,4,NDW,,,,,,,,,,,,,,,,,others,0
845,2012-02-08 12:57:42.500000,2012-02-08 12:57:55.475000,12.975,4,NDW,,,,,,,,,,,,,,,,,others,0
846,2012-02-08 12:57:49,2012-02-08 12:58:01.975000,12.975,4,NDW,,,,,,,,,,,,,,,,,rest,-1
847,2012-02-08 12:57:55.500000,2012-02-08 12:58:08.475000,12.975,4,NDW,,,,,,,,,,,,,,,,,rest,-1
848,2012-02-08 12:58:02,2012-02-08 12:58:14.975000,12.975,4,NDW,,,,,,,,,,,,,,,,,rest,-1
849,2012-02-08 12:58:08.500000,2012-02-08 12:58:21.475000,12.975,4,NDW,,,,,,,,,,,,,,,,,rest,-1
850,2012-02-08 12:58:15,2012-02-08 12:58:27.975000,12.975,4,NDW,,,,,,,,,,,,,,,,,others,0
851,2012-02-08 12:58:21.500000,2012-02-08 12:58:34.475000,12.975,4,NDW,,,,,,,,,,,,,,,,,others,0
852,2012-02-08 12:58:28,2012-02-08 12:58:40.975000,12.975,4,NDW,,,,,,,,,,,,,,,,,others,0
853,2012-02-08 12:58:34.500000,2012-02-08 12:58:47.475000,12.975,4,NDW,,,,,,,,,,,,,,,,,others,0
854,2012-02-08 12:58:41,2012-02-08 12:58:53.975000,12.975,4,NDW,,,,,,,,,,,,,,,,,rest,-1
855,2012-02-08 12:58:47.500000,2012-02-08 12:59:00.475000,12.975,4,NDW,,,,,,,,,,,,,,,,,rest,-1
856,2012-02-08 12:58:54,2012-02-08 12:59:06.975000,12.975,4,NDW,,,,,,,,,,,,,,,,,rest,-1
857,2012-02-08 12:59:00.500000,2012-02-08 12:59:13.475000,12.975,4,NDW,,,,,,,,,,,,,,,,,rest,-1
858,2012-02-08 12:59:07,2012-02-08 12:59:19.975000,12.975,4,NDW,,,,,,,,,,,,,,,,,rest,-1
859,2012-02-08 12:59:13.500000,2012-02-08 12:59:26.475000,12.975,4,NDW,,,,,,,,,,,,,,,,,rest,-1
860,2012-02-08 12:59:20,2012-02-08 12:59:32.975000,12.975,4,NDW,,,,,,,,,,,,,,,,,rest,-1
861,2012-02-08 12:59:26.500000,2012-02-08 12:59:39.475000,12.975,4,NDW,,,,,,,,,,,,,,,,,others,0
862,2012-02-08 12:59:33,2012-02-08 12:59:45.975000,12.975,4,NDW,,,,,,,,,,,,,,,,,rest,-1
863,2012-02-08 12:59:39.500000,2012-02-08 12:59:52.475000,12.975,4,NDW,,,,,,,,,,,,,,,,,rest,-1
864,2012-02-08 12:59:46,2012-02-08 12:59:58.975000,12.975,4,NDW,,,,,,,,,,,,,,,,,others,0
865,2012-02-08 12:59:52.500000,2012-02-08 13:00:05.475000,12.975,4,NDW,,,,,,,,,,,,,,,,,others,0
866,2012-02-08 12:59:59,2012-02-08 13:00:11.975000,12.975,4,NDW,,,,,,,,,,,,,,,,,others,0
867,2012-02-08 13:00:05.500000,2012-02-08 13:00:18.475000,12.975,4,NDW,,,,,,,,,,,,,,,,,others,0
868,2012-02-08 13:00:12,2012-02-08 13:00:20,8.0,4,NDW,,,,,,,,,,,,,,,,,others,0
869,2012-02-08 13:00:18.500000,2012-02-08 13:00:20,1.5,4,NDW,,,,,,,,,,,,,,,,,rest,-1
