,segment,STARTTIME,ENDTIME,seg duration,session,sensor,inside puff/puff duration,inside puff/segment duration,prototypical?,puff index,puff side,car percentage,talk percentage,unknown percentage,drinking percentage,reading percentage,eating percentage,smoking percentage,computer percentage,phone percentage,walking percentage,superposition percentage,name,target
0,0,2011-12-14 11:27:09,2011-12-14 11:27:21.975000,12.975,3,BFW,,,,,,,,,,,,,,,,,others,0
1,1,2011-12-14 11:27:15.500000,2011-12-14 11:27:28.475000,12.975,3,BFW,,,,,,,,,,,,,,,,,others,0
2,2,2011-12-14 11:27:22,2011-12-14 11:27:34.975000,12.975,3,BFW,,,,,,,,,,,,,,,,,others,0
3,3,2011-12-14 11:27:28.500000,2011-12-14 11:27:41.475000,12.975,3,BFW,,,,,,,,,,,,,,,,,rest,-1
4,4,2011-12-14 11:27:35,2011-12-14 11:27:47.975000,12.975,3,BFW,,,,,,,,,,,,,,,,,others,0
5,5,2011-12-14 11:27:41.500000,2011-12-14 11:27:54.475000,12.975,3,BFW,,,,,,,,,,,,,,,,,others,0
6,6,2011-12-14 11:27:48,2011-12-14 11:28:00.975000,12.975,3,BFW,,,,,,,,,,,,,,,,,others,0
7,7,2011-12-14 11:27:54.500000,2011-12-14 11:28:07.475000,12.975,3,BFW,,,,,,,,,,,,,,,,,others,0
8,8,2011-12-14 11:28:01,2011-12-14 11:28:13.975000,12.975,3,BFW,,,,,,,,,,,,,,,,,others,0
9,9,2011-12-14 11:28:07.500000,2011-12-14 11:28:20.475000,12.975,3,BFW,,,,,,,,,,,,,,,,,others,0
10,10,2011-12-14 11:28:14,2011-12-14 11:28:26.975000,12.975,3,BFW,,,,,,,,,,,,,,,,,others,0
11,11,2011-12-14 11:28:20.500000,2011-12-14 11:28:33.475000,12.975,3,BFW,,,,,,,,,,,,,,,0.2678227360308285,,others,0
12,12,2011-12-14 11:28:27,2011-12-14 11:28:39.975000,12.975,3,BFW,,,,,,,,,,,,,,,0.3853564547206166,,walking,1
13,13,2011-12-14 11:28:33.500000,2011-12-14 11:28:46.475000,12.975,3,BFW,,,,,,,,,,,,,,,0.11560693641618497,,others,0
14,14,2011-12-14 11:28:40,2011-12-14 11:28:52.975000,12.975,3,BFW,,,,,,,,,,,,,,,,,others,0
15,15,2011-12-14 11:28:46.500000,2011-12-14 11:28:59.475000,12.975,3,BFW,,,,,,,,,,,,,,,,,others,0
16,16,2011-12-14 11:28:53,2011-12-14 11:29:05.975000,12.975,3,BFW,,,,,,,,0.3834296724470135,,,,,,,,,others,0
17,17,2011-12-14 11:28:59.500000,2011-12-14 11:29:12.475000,12.975,3,BFW,,,,,,,,0.884393063583815,,,,,,,,,others,0
18,18,2011-12-14 11:29:06,2011-12-14 11:29:18.975000,12.975,3,BFW,,,,,,,,1.0,,,,,,,,,others,0
19,19,2011-12-14 11:29:12.500000,2011-12-14 11:29:25.475000,12.975,3,BFW,,,,,,,,0.7321772639691715,,,,,,,0.1136801541425819,,others,0
20,20,2011-12-14 11:29:19,2011-12-14 11:29:31.975000,12.975,3,BFW,,,,,,,,0.23121387283236994,,,,,,,0.6146435452793835,,walking,1
21,21,2011-12-14 11:29:25.500000,2011-12-14 11:29:38.475000,12.975,3,BFW,,,,,,,,,,,,,,,1.0,,walking,1
22,22,2011-12-14 11:29:32,2011-12-14 11:29:44.975000,12.975,3,BFW,,,,,,,,,,,,,,,1.0,,walking,1
23,23,2011-12-14 11:29:38.500000,2011-12-14 11:29:51.475000,12.975,3,BFW,,,,,,,,,,,,,,,1.0,,walking,1
24,24,2011-12-14 11:29:45,2011-12-14 11:29:57.975000,12.975,3,BFW,,,,,,,,,,,,,,,0.6936416184971098,,walking,1
25,25,2011-12-14 11:29:51.500000,2011-12-14 11:30:04.475000,12.975,3,BFW,,,,,,,,0.42196531791907516,,,,,,,0.1926782273603083,,others,0
26,26,2011-12-14 11:29:58,2011-12-14 11:30:10.975000,12.975,3,BFW,,,,,,,,0.6936416184971098,,,,,,,0.15221579961464354,,others,0
27,27,2011-12-14 11:30:04.500000,2011-12-14 11:30:17.475000,12.975,3,BFW,,,,,,,,0.2697495183044316,,,,,,,0.653179190751445,,walking,1
28,28,2011-12-14 11:30:11,2011-12-14 11:30:23.975000,12.975,3,BFW,,,,,,,,,,,,,,,1.0,,walking,1
29,29,2011-12-14 11:30:17.500000,2011-12-14 11:30:30.475000,12.975,3,BFW,,,,,,,,,,,,,,,1.0,,walking,1
30,30,2011-12-14 11:30:24,2011-12-14 11:30:36.975000,12.975,3,BFW,,,,,,,,,,,,,,,0.6936416184971098,,walking,1
31,31,2011-12-14 11:30:30.500000,2011-12-14 11:30:43.475000,12.975,3,BFW,,,,,,,0.1136801541425819,,,,,,,,0.1926782273603083,,others,0
32,32,2011-12-14 11:30:37,2011-12-14 11:30:49.975000,12.975,3,BFW,,,,,,,0.6146435452793835,,,,,,,,,,talking,5
33,33,2011-12-14 11:30:43.500000,2011-12-14 11:30:56.475000,12.975,3,BFW,,,,,,,1.0,,,,,,,,,,talking,5
34,34,2011-12-14 11:30:50,2011-12-14 11:31:02.975000,12.975,3,BFW,,,,,,,1.0,,,,,,,,,,rest,-1
35,35,2011-12-14 11:30:56.500000,2011-12-14 11:31:09.475000,12.975,3,BFW,,,,,,,1.0,,,,,,,,,,talking,5
36,36,2011-12-14 11:31:03,2011-12-14 11:31:15.975000,12.975,3,BFW,,,,,,,1.0,,,,,,,,,,talking,5
37,37,2011-12-14 11:31:09.500000,2011-12-14 11:31:22.475000,12.975,3,BFW,,,,,,,0.8092485549132948,,,,,,,,,,talking,5
38,38,2011-12-14 11:31:16,2011-12-14 11:31:28.975000,12.975,3,BFW,,,,,,,0.3082851637764933,,,,,,,,,,talking,5
39,39,2011-12-14 11:31:22.500000,2011-12-14 11:31:35.475000,12.975,3,BFW,,,,,,,,,,,,,,,0.19075144508670522,,others,0
40,40,2011-12-14 11:31:29,2011-12-14 11:31:41.975000,12.975,3,BFW,,,,,,,,,,,,,,,0.6917148362235067,,walking,1
41,41,2011-12-14 11:31:35.500000,2011-12-14 11:31:48.475000,12.975,3,BFW,,,,,,,,,,,,,,,1.0,,walking,1
42,42,2011-12-14 11:31:42,2011-12-14 11:31:54.975000,12.975,3,BFW,,,,,,,,,,,,,,,1.0,,walking,1
43,43,2011-12-14 11:31:48.500000,2011-12-14 11:32:01.475000,12.975,3,BFW,,,,,,,,,,,,,,,1.0,,walking,1
44,44,2011-12-14 11:31:55,2011-12-14 11:32:07.975000,12.975,3,BFW,,,,,,,,,,,,,,,1.0,,walking,1
45,45,2011-12-14 11:32:01.500000,2011-12-14 11:32:14.475000,12.975,3,BFW,,,,,,,,,,,,,,,1.0,,walking,1
46,46,2011-12-14 11:32:08,2011-12-14 11:32:20.975000,12.975,3,BFW,,,,,,,,,,,,,,,1.0,,walking,1
47,47,2011-12-14 11:32:14.500000,2011-12-14 11:32:27.475000,12.975,3,BFW,,,,,,,,,,,,,,,1.0,,walking,1
48,48,2011-12-14 11:32:21,2011-12-14 11:32:33.975000,12.975,3,BFW,,,,,,,,,,,,,,,1.0,,walking,1
49,49,2011-12-14 11:32:27.500000,2011-12-14 11:32:40.475000,12.975,3,BFW,,,,,,,,,,,,,,,1.0,,walking,1
50,50,2011-12-14 11:32:34,2011-12-14 11:32:46.975000,12.975,3,BFW,,,,,,,,,,,,,,,1.0,,walking,1
51,51,2011-12-14 11:32:40.500000,2011-12-14 11:32:53.475000,12.975,3,BFW,,,,,,,,,,,,,,,1.0,,walking,1
52,52,2011-12-14 11:32:47,2011-12-14 11:32:59.975000,12.975,3,BFW,,,,,,,,,,,,,,,1.0,,walking,1
53,53,2011-12-14 11:32:53.500000,2011-12-14 11:33:06.475000,12.975,3,BFW,,,,,,,,0.036608863198458574,,,,,,,1.0,,walking,1
54,54,2011-12-14 11:33:00,2011-12-14 11:33:12.975000,12.975,3,BFW,,,,,,,,0.5375722543352601,,,,,,,0.6936416184971098,,walking,1
55,55,2011-12-14 11:33:06.500000,2011-12-14 11:33:19.475000,12.975,3,BFW,,,,,,,,1.0,,,,,,,0.1926782273603083,,others,0
56,56,2011-12-14 11:33:13,2011-12-14 11:33:25.975000,12.975,3,BFW,,,,,,,,1.0,,,,,,,,,others,0
57,57,2011-12-14 11:33:19.500000,2011-12-14 11:33:32.475000,12.975,3,BFW,,,,,,,,1.0,,,,,,,,,others,0
58,58,2011-12-14 11:33:26,2011-12-14 11:33:38.975000,12.975,3,BFW,,,,,,,,1.0,,,,,,,,,others,0
59,59,2011-12-14 11:33:32.500000,2011-12-14 11:33:45.475000,12.975,3,BFW,,,,,,,,1.0,,,,,,,,,others,0
60,60,2011-12-14 11:33:39,2011-12-14 11:33:51.975000,12.975,3,BFW,,,,,,,,1.0,,,,,,,,,others,0
61,61,2011-12-14 11:33:45.500000,2011-12-14 11:33:58.475000,12.975,3,BFW,,,,,,,,1.0,,,,,,,,,others,0
62,62,2011-12-14 11:33:52,2011-12-14 11:34:04.975000,12.975,3,BFW,,,,,,,,1.0,,,,,,,,,others,0
63,63,2011-12-14 11:33:58.500000,2011-12-14 11:34:11.475000,12.975,3,BFW,,,,,,,,1.0,,,,,,,,,others,0
64,64,2011-12-14 11:34:05,2011-12-14 11:34:17.975000,12.975,3,BFW,,,,,,,,1.0,,,,,,,,,others,0
65,65,2011-12-14 11:34:11.500000,2011-12-14 11:34:24.475000,12.975,3,BFW,,,,,,,,1.0,,,,,,,,,others,0
66,66,2011-12-14 11:34:18,2011-12-14 11:34:30.975000,12.975,3,BFW,,,,,,,,1.0,,,,,,,,,others,0
67,67,2011-12-14 11:34:24.500000,2011-12-14 11:34:37.475000,12.975,3,BFW,,,,,,,,1.0,,,,,,,,,others,0
68,68,2011-12-14 11:34:31,2011-12-14 11:34:43.975000,12.975,3,BFW,,,,,,,,1.0,,,,,,,,,others,0
69,69,2011-12-14 11:34:37.500000,2011-12-14 11:34:50.475000,12.975,3,BFW,,,,,,,,1.0,,,,,,,,,others,0
70,70,2011-12-14 11:34:44,2011-12-14 11:34:56.975000,12.975,3,BFW,,,,,,,,1.0,,,,,,,,,others,0
71,71,2011-12-14 11:34:50.500000,2011-12-14 11:35:03.475000,12.975,3,BFW,,,,,,,,1.0,,,,,,,,,others,0
72,72,2011-12-14 11:34:57,2011-12-14 11:35:09.975000,12.975,3,BFW,,,,,,,,1.0,,,,,,,,,others,0
73,73,2011-12-14 11:35:03.500000,2011-12-14 11:35:16.475000,12.975,3,BFW,,,,,,,,0.8092485549132948,,,,,,,0.2678227360308285,,others,0
74,74,2011-12-14 11:35:10,2011-12-14 11:35:22.975000,12.975,3,BFW,,,,,,,,0.3082851637764933,,,,,,,0.7687861271676301,,walking,1
75,75,2011-12-14 11:35:16.500000,2011-12-14 11:35:29.475000,12.975,3,BFW,,,,,,,,,,,,,,,1.0,,walking,1
76,76,2011-12-14 11:35:23,2011-12-14 11:35:35.975000,12.975,3,BFW,,,,,,,,,,,,,,,0.6165703275529866,,walking,1
77,77,2011-12-14 11:35:29.500000,2011-12-14 11:35:42.475000,12.975,3,BFW,,,,,,,,,,,,,,,0.11560693641618497,,others,0
78,78,2011-12-14 11:35:36,2011-12-14 11:35:48.975000,12.975,3,BFW,,,,,,,,,,,,,,,,,others,0
79,79,2011-12-14 11:35:42.500000,2011-12-14 11:35:55.475000,12.975,3,BFW,,,,,,,,,,,,,,,,,others,0
80,80,2011-12-14 11:35:49,2011-12-14 11:36:01.975000,12.975,3,BFW,,,,,,,,,,,,,,,,,others,0
81,81,2011-12-14 11:35:55.500000,2011-12-14 11:36:08.475000,12.975,3,BFW,,,,,,,,,,,,,,,,,others,0
82,82,2011-12-14 11:36:02,2011-12-14 11:36:14.975000,12.975,3,BFW,,,,,,,,,,,0.15221579961464354,,,,,,others,0
83,83,2011-12-14 11:36:08.500000,2011-12-14 11:36:21.475000,12.975,3,BFW,,,,,,,,,,,0.653179190751445,,,,,,eating,2
84,84,2011-12-14 11:36:15,2011-12-14 11:36:27.975000,12.975,3,BFW,,,,,,,,,,,1.0,,,,,,eating,2
85,85,2011-12-14 11:36:21.500000,2011-12-14 11:36:34.475000,12.975,3,BFW,,,,,,,,,,,1.0,,,,,,eating,2
86,86,2011-12-14 11:36:28,2011-12-14 11:36:40.975000,12.975,3,BFW,,,,,,,,,,,1.0,,,,,,eating,2
87,87,2011-12-14 11:36:34.500000,2011-12-14 11:36:47.475000,12.975,3,BFW,,,,,,,,,,,1.0,,,,,,eating,2
88,88,2011-12-14 11:36:41,2011-12-14 11:36:53.975000,12.975,3,BFW,,,,,,,,,,,1.0,,,,,,eating,2
89,89,2011-12-14 11:36:47.500000,2011-12-14 11:37:00.475000,12.975,3,BFW,,,,,,,,,,,1.0,,,,,,eating,2
90,90,2011-12-14 11:36:54,2011-12-14 11:37:06.975000,12.975,3,BFW,,,,,,,,,,,1.0,,,,,,eating,2
91,91,2011-12-14 11:37:00.500000,2011-12-14 11:37:13.475000,12.975,3,BFW,,,,,,,,,,,1.0,,,,,,eating,2
92,92,2011-12-14 11:37:07,2011-12-14 11:37:19.975000,12.975,3,BFW,,,,,,,,,,,1.0,,,,,,eating,2
93,93,2011-12-14 11:37:13.500000,2011-12-14 11:37:26.475000,12.975,3,BFW,,,,,,,,,,,1.0,,,,,,eating,2
94,94,2011-12-14 11:37:20,2011-12-14 11:37:32.975000,12.975,3,BFW,,,,,,,,,,,1.0,,,,,,eating,2
95,95,2011-12-14 11:37:26.500000,2011-12-14 11:37:39.475000,12.975,3,BFW,,,,,,,,,,,1.0,,,,,,eating,2
96,96,2011-12-14 11:37:33,2011-12-14 11:37:45.975000,12.975,3,BFW,,,,,,,,,,,1.0,,,,,,eating,2
97,97,2011-12-14 11:37:39.500000,2011-12-14 11:37:52.475000,12.975,3,BFW,,,,,,,,,,,1.0,,,,,,eating,2
98,98,2011-12-14 11:37:46,2011-12-14 11:37:58.975000,12.975,3,BFW,,,,,,,,,,,1.0,,,,,,eating,2
99,99,2011-12-14 11:37:52.500000,2011-12-14 11:38:05.475000,12.975,3,BFW,,,,,,,,,,,1.0,,,,,,eating,2
100,100,2011-12-14 11:37:59,2011-12-14 11:38:11.975000,12.975,3,BFW,,,,,,,,,,,1.0,,,,,,eating,2
101,101,2011-12-14 11:38:05.500000,2011-12-14 11:38:18.475000,12.975,3,BFW,,,,,,,,,,,1.0,,,,,,eating,2
102,102,2011-12-14 11:38:12,2011-12-14 11:38:24.975000,12.975,3,BFW,,,,,,,,,,,1.0,,,,,,eating,2
103,103,2011-12-14 11:38:18.500000,2011-12-14 11:38:31.475000,12.975,3,BFW,,,,,,,,,,,1.0,,,,,,eating,2
104,104,2011-12-14 11:38:25,2011-12-14 11:38:37.975000,12.975,3,BFW,,,,,,,,,,,1.0,,,,,,eating,2
105,105,2011-12-14 11:38:31.500000,2011-12-14 11:38:44.475000,12.975,3,BFW,,,,,,,,,,,1.0,,,,,,eating,2
106,106,2011-12-14 11:38:38,2011-12-14 11:38:50.975000,12.975,3,BFW,,,,,,,,,,,1.0,,,,,,rest,-1
107,107,2011-12-14 11:38:44.500000,2011-12-14 11:38:57.475000,12.975,3,BFW,,,,,,,,,,,1.0,,,,,,eating,2
108,108,2011-12-14 11:38:51,2011-12-14 11:39:03.975000,12.975,3,BFW,,,,,,,,,,,1.0,,,,,,eating,2
109,109,2011-12-14 11:38:57.500000,2011-12-14 11:39:10.475000,12.975,3,BFW,,,,,,,,,,,1.0,,,,,,eating,2
110,110,2011-12-14 11:39:04,2011-12-14 11:39:16.975000,12.975,3,BFW,,,,,,,,,,,1.0,,,,,,eating,2
111,111,2011-12-14 11:39:10.500000,2011-12-14 11:39:23.475000,12.975,3,BFW,,,,,,,,,,,1.0,,,,,,eating,2
112,112,2011-12-14 11:39:17,2011-12-14 11:39:29.975000,12.975,3,BFW,,,,,,,,,,,1.0,,,,,,eating,2
113,113,2011-12-14 11:39:23.500000,2011-12-14 11:39:36.475000,12.975,3,BFW,,,,,,,,,,,1.0,,,,,,eating,2
114,114,2011-12-14 11:39:30,2011-12-14 11:39:42.975000,12.975,3,BFW,,,,,,,,,,,1.0,,,,,,eating,2
115,115,2011-12-14 11:39:36.500000,2011-12-14 11:39:49.475000,12.975,3,BFW,,,,,,,,,,,1.0,,,,,,eating,2
116,116,2011-12-14 11:39:43,2011-12-14 11:39:55.975000,12.975,3,BFW,,,,,,,,,,,1.0,,,,,,eating,2
117,117,2011-12-14 11:39:49.500000,2011-12-14 11:40:02.475000,12.975,3,BFW,,,,,,,,,,,1.0,,,,,,eating,2
118,118,2011-12-14 11:39:56,2011-12-14 11:40:08.975000,12.975,3,BFW,,,,,,,0.3834296724470135,,,,0.6165703275529866,,,,,,talking,5
119,119,2011-12-14 11:40:02.500000,2011-12-14 11:40:15.475000,12.975,3,BFW,,,,,,,0.884393063583815,,,,0.11560693641618497,,,,,,talking,5
120,120,2011-12-14 11:40:09,2011-12-14 11:40:21.975000,12.975,3,BFW,,,,,,,1.0,,,,,,,,,,talking,5
121,121,2011-12-14 11:40:15.500000,2011-12-14 11:40:28.475000,12.975,3,BFW,,,,,,,1.0,,,,,,,,,,talking,5
122,122,2011-12-14 11:40:22,2011-12-14 11:40:34.975000,12.975,3,BFW,,,,,,,1.0,,,,,,,,,,talking,5
123,123,2011-12-14 11:40:28.500000,2011-12-14 11:40:41.475000,12.975,3,BFW,,,,,,,1.0,,,,,,,,,,talking,5
124,124,2011-12-14 11:40:35,2011-12-14 11:40:47.975000,12.975,3,BFW,,,,,,,1.0,,,,,,,,,,talking,5
125,125,2011-12-14 11:40:41.500000,2011-12-14 11:40:54.475000,12.975,3,BFW,,,,,,,1.0,,,,,,,,,,talking,5
126,126,2011-12-14 11:40:48,2011-12-14 11:41:00.975000,12.975,3,BFW,,,,,,,1.0,,,,,,,,,,talking,5
127,127,2011-12-14 11:40:54.500000,2011-12-14 11:41:07.475000,12.975,3,BFW,,,,,,,1.0,,,,,,,,,,talking,5
128,128,2011-12-14 11:41:01,2011-12-14 11:41:13.975000,12.975,3,BFW,,,,,,,1.0,,,,,,,,,,talking,5
129,129,2011-12-14 11:41:07.500000,2011-12-14 11:41:20.475000,12.975,3,BFW,,,,,,,1.0,,,,,,,,,,talking,5
130,130,2011-12-14 11:41:14,2011-12-14 11:41:26.975000,12.975,3,BFW,,,,,,,0.6936416184971098,,,,0.3063583815028902,,,,,,talking,5
131,131,2011-12-14 11:41:20.500000,2011-12-14 11:41:33.475000,12.975,3,BFW,,,,,,,0.1926782273603083,,,,0.8073217726396917,,,,,,eating,2
132,132,2011-12-14 11:41:27,2011-12-14 11:41:39.975000,12.975,3,BFW,,,,,,,,,,,1.0,,,,,,eating,2
133,133,2011-12-14 11:41:33.500000,2011-12-14 11:41:46.475000,12.975,3,BFW,,,,,,,,,,,1.0,,,,,,eating,2
134,134,2011-12-14 11:41:40,2011-12-14 11:41:52.975000,12.975,3,BFW,,,,,,,,,,,1.0,,,,,,eating,2
135,135,2011-12-14 11:41:46.500000,2011-12-14 11:41:59.475000,12.975,3,BFW,,,,,,,,,,,1.0,,,,,,eating,2
136,136,2011-12-14 11:41:53,2011-12-14 11:42:05.975000,12.975,3,BFW,,,,,,,0.3834296724470135,,,,0.6165703275529866,,,,,,talking,5
137,137,2011-12-14 11:41:59.500000,2011-12-14 11:42:12.475000,12.975,3,BFW,,,,,,,0.884393063583815,,,,0.11560693641618497,,,,,,talking,5
138,138,2011-12-14 11:42:06,2011-12-14 11:42:18.975000,12.975,3,BFW,,,,,,,0.6165703275529866,,,,0.3834296724470135,,,,,,talking,5
139,139,2011-12-14 11:42:12.500000,2011-12-14 11:42:25.475000,12.975,3,BFW,,,,,,,0.11560693641618497,,,,0.884393063583815,,,,,,eating,2
140,140,2011-12-14 11:42:19,2011-12-14 11:42:31.975000,12.975,3,BFW,,,,,,,,,,,1.0,,,,,,eating,2
141,141,2011-12-14 11:42:25.500000,2011-12-14 11:42:38.475000,12.975,3,BFW,,,,,,,,,,,1.0,,,,,,eating,2
142,142,2011-12-14 11:42:32,2011-12-14 11:42:44.975000,12.975,3,BFW,,,,,,,,,,,1.0,,,,,,eating,2
143,143,2011-12-14 11:42:38.500000,2011-12-14 11:42:51.475000,12.975,3,BFW,,,,,,,0.3082851637764933,,,,0.6917148362235067,,,,,,talking,5
144,144,2011-12-14 11:42:45,2011-12-14 11:42:57.975000,12.975,3,BFW,,,,,,,0.3082851637764933,,,,0.6917148362235067,,,,,,talking,5
145,145,2011-12-14 11:42:51.500000,2011-12-14 11:43:04.475000,12.975,3,BFW,,,,,,,,,,,1.0,,,,,,eating,2
146,146,2011-12-14 11:42:58,2011-12-14 11:43:10.975000,12.975,3,BFW,,,,,,,,,,,1.0,,,,,,eating,2
147,147,2011-12-14 11:43:04.500000,2011-12-14 11:43:17.475000,12.975,3,BFW,,,,,,,,,0.3082851637764933,,0.6917148362235067,,,,,,drinking,8
148,148,2011-12-14 11:43:11,2011-12-14 11:43:23.975000,12.975,3,BFW,,,,,,,,,0.3082851637764933,,0.6917148362235067,,,,,,drinking,8
149,149,2011-12-14 11:43:17.500000,2011-12-14 11:43:30.475000,12.975,3,BFW,,,,,,,,,,,1.0,,,,,,eating,2
150,150,2011-12-14 11:43:24,2011-12-14 11:43:36.975000,12.975,3,BFW,,,,,,,,,,,1.0,,,,,,eating,2
151,151,2011-12-14 11:43:30.500000,2011-12-14 11:43:43.475000,12.975,3,BFW,,,,,,,,,,,1.0,,,,,,eating,2
152,152,2011-12-14 11:43:37,2011-12-14 11:43:49.975000,12.975,3,BFW,,,,,,,,,,,1.0,,,,,,eating,2
153,153,2011-12-14 11:43:43.500000,2011-12-14 11:43:56.475000,12.975,3,BFW,,,,,,,,,,,1.0,,,,,,eating,2
154,154,2011-12-14 11:43:50,2011-12-14 11:44:02.975000,12.975,3,BFW,,,,,,,0.3834296724470135,,,,0.6165703275529866,,,,,,talking,5
155,155,2011-12-14 11:43:56.500000,2011-12-14 11:44:09.475000,12.975,3,BFW,,,,,,,0.6165703275529866,,,,0.3834296724470135,,,,,,talking,5
156,156,2011-12-14 11:44:03,2011-12-14 11:44:15.975000,12.975,3,BFW,,,,,,,0.23121387283236994,,,,0.7687861271676301,,,,,,eating,2
157,157,2011-12-14 11:44:09.500000,2011-12-14 11:44:22.475000,12.975,3,BFW,,,,,,,,,,,1.0,,,,,,eating,2
158,158,2011-12-14 11:44:16,2011-12-14 11:44:28.975000,12.975,3,BFW,,,,,,,,,,,1.0,,,,,,eating,2
159,159,2011-12-14 11:44:22.500000,2011-12-14 11:44:35.475000,12.975,3,BFW,,,,,,,,,,,1.0,,,,,,eating,2
160,160,2011-12-14 11:44:29,2011-12-14 11:44:41.975000,12.975,3,BFW,,,,,,,,,,,1.0,,,,,,eating,2
161,161,2011-12-14 11:44:35.500000,2011-12-14 11:44:48.475000,12.975,3,BFW,,,,,,,,,,,1.0,,,,,,eating,2
162,162,2011-12-14 11:44:42,2011-12-14 11:44:54.975000,12.975,3,BFW,,,,,,,,,,,1.0,,,,,,eating,2
163,163,2011-12-14 11:44:48.500000,2011-12-14 11:45:01.475000,12.975,3,BFW,,,,,,,,,,,1.0,,,,,,eating,2
164,164,2011-12-14 11:44:55,2011-12-14 11:45:07.975000,12.975,3,BFW,,,,,,,,,,,1.0,,,,,,eating,2
165,165,2011-12-14 11:45:01.500000,2011-12-14 11:45:14.475000,12.975,3,BFW,,,,,,,,,,,1.0,,,,,,eating,2
166,166,2011-12-14 11:45:08,2011-12-14 11:45:20.975000,12.975,3,BFW,,,,,,,,,,,1.0,,,,,,eating,2
167,167,2011-12-14 11:45:14.500000,2011-12-14 11:45:27.475000,12.975,3,BFW,,,,,,,,,,,1.0,,,,,,eating,2
168,168,2011-12-14 11:45:21,2011-12-14 11:45:33.975000,12.975,3,BFW,,,,,,,,,,,1.0,,,,,,eating,2
169,169,2011-12-14 11:45:27.500000,2011-12-14 11:45:40.475000,12.975,3,BFW,,,,,,,,,,,1.0,,,,,,eating,2
170,170,2011-12-14 11:45:34,2011-12-14 11:45:46.975000,12.975,3,BFW,,,,,,,,,,,1.0,,,,,,eating,2
171,171,2011-12-14 11:45:40.500000,2011-12-14 11:45:53.475000,12.975,3,BFW,,,,,,,,,,,1.0,,,,,,eating,2
172,172,2011-12-14 11:45:47,2011-12-14 11:45:59.975000,12.975,3,BFW,,,,,,,,,,,1.0,,,,,,eating,2
173,173,2011-12-14 11:45:53.500000,2011-12-14 11:46:06.475000,12.975,3,BFW,,,,,,,,,,,1.0,,,,,,eating,2
174,174,2011-12-14 11:46:00,2011-12-14 11:46:12.975000,12.975,3,BFW,,,,,,,,,,,1.0,,,,,,eating,2
175,175,2011-12-14 11:46:06.500000,2011-12-14 11:46:19.475000,12.975,3,BFW,,,,,,,,,,,1.0,,,,,,eating,2
176,176,2011-12-14 11:46:13,2011-12-14 11:46:25.975000,12.975,3,BFW,,,,,,,,,,,1.0,,,,,,eating,2
177,177,2011-12-14 11:46:19.500000,2011-12-14 11:46:32.475000,12.975,3,BFW,,,,,,,,,,,1.0,,,,,,eating,2
178,178,2011-12-14 11:46:26,2011-12-14 11:46:38.975000,12.975,3,BFW,,,,,,,,,,,1.0,,,,,,eating,2
179,179,2011-12-14 11:46:32.500000,2011-12-14 11:46:45.475000,12.975,3,BFW,,,,,,,,,,,1.0,,,,,,eating,2
180,180,2011-12-14 11:46:39,2011-12-14 11:46:51.975000,12.975,3,BFW,,,,,,,,,,,1.0,,,,,,eating,2
181,181,2011-12-14 11:46:45.500000,2011-12-14 11:46:58.475000,12.975,3,BFW,,,,,,,,,,,1.0,,,,,,eating,2
182,182,2011-12-14 11:46:52,2011-12-14 11:47:04.975000,12.975,3,BFW,,,,,,,,,,,1.0,,,,,,eating,2
183,183,2011-12-14 11:46:58.500000,2011-12-14 11:47:11.475000,12.975,3,BFW,,,,,,,,,,,1.0,,,,,,eating,2
184,184,2011-12-14 11:47:05,2011-12-14 11:47:17.975000,12.975,3,BFW,,,,,,,,,,,1.0,,,,,,eating,2
185,185,2011-12-14 11:47:11.500000,2011-12-14 11:47:24.475000,12.975,3,BFW,,,,,,,,,,,1.0,,,,,,eating,2
186,186,2011-12-14 11:47:18,2011-12-14 11:47:30.975000,12.975,3,BFW,,,,,,,,,,,1.0,,,,,,eating,2
187,187,2011-12-14 11:47:24.500000,2011-12-14 11:47:37.475000,12.975,3,BFW,,,,,,,,,,,0.8863198458574182,,,,,,eating,2
188,188,2011-12-14 11:47:31,2011-12-14 11:47:43.975000,12.975,3,BFW,,,,,,,,,,,0.3853564547206166,,,,,,eating,2
189,189,2011-12-14 11:47:37.500000,2011-12-14 11:47:50.475000,12.975,3,BFW,,,,,,,,,,,0.49903660886319845,,,,,,eating,2
190,190,2011-12-14 11:47:44,2011-12-14 11:47:56.975000,12.975,3,BFW,,,,,,,,,,,1.0,,,,,,eating,2
191,191,2011-12-14 11:47:50.500000,2011-12-14 11:48:03.475000,12.975,3,BFW,,,,,,,,,,,1.0,,,,,,eating,2
192,192,2011-12-14 11:47:57,2011-12-14 11:48:09.975000,12.975,3,BFW,,,,,,,,,,,1.0,,,,,,eating,2
193,193,2011-12-14 11:48:03.500000,2011-12-14 11:48:16.475000,12.975,3,BFW,,,,,,,,,,,1.0,,,,,,eating,2
194,194,2011-12-14 11:48:10,2011-12-14 11:48:22.975000,12.975,3,BFW,,,,,,,,,,,1.0,,,,,,eating,2
195,195,2011-12-14 11:48:16.500000,2011-12-14 11:48:29.475000,12.975,3,BFW,,,,,,,,,,,1.0,,,,,,eating,2
196,196,2011-12-14 11:48:23,2011-12-14 11:48:35.975000,12.975,3,BFW,,,,,,,,,,,1.0,,,,,,eating,2
197,197,2011-12-14 11:48:29.500000,2011-12-14 11:48:42.475000,12.975,3,BFW,,,,,,,,,,,1.0,,,,,,eating,2
198,198,2011-12-14 11:48:36,2011-12-14 11:48:48.975000,12.975,3,BFW,,,,,,,,,,,1.0,,,,,,eating,2
199,199,2011-12-14 11:48:42.500000,2011-12-14 11:48:55.475000,12.975,3,BFW,,,,,,,,,,,1.0,,,,,,eating,2
200,200,2011-12-14 11:48:49,2011-12-14 11:49:01.975000,12.975,3,BFW,,,,,,,,,,,1.0,,,,,,eating,2
201,201,2011-12-14 11:48:55.500000,2011-12-14 11:49:08.475000,12.975,3,BFW,,,,,,,,,,,1.0,,,,,,eating,2
202,202,2011-12-14 11:49:02,2011-12-14 11:49:14.975000,12.975,3,BFW,,,,,,,,,,,1.0,,,,,,eating,2
203,203,2011-12-14 11:49:08.500000,2011-12-14 11:49:21.475000,12.975,3,BFW,,,,,,,,,,,1.0,,,,,,eating,2
204,204,2011-12-14 11:49:15,2011-12-14 11:49:27.975000,12.975,3,BFW,,,,,,,,,,,1.0,,,,,,rest,-1
205,205,2011-12-14 11:49:21.500000,2011-12-14 11:49:34.475000,12.975,3,BFW,,,,,,,,,,,1.0,,,,,,eating,2
206,206,2011-12-14 11:49:28,2011-12-14 11:49:40.975000,12.975,3,BFW,,,,,,,,,,,1.0,,,,,,eating,2
207,207,2011-12-14 11:49:34.500000,2011-12-14 11:49:47.475000,12.975,3,BFW,,,,,,,,,,,1.0,,,,,,eating,2
208,208,2011-12-14 11:49:41,2011-12-14 11:49:53.975000,12.975,3,BFW,,,,,,,,,,,1.0,,,,,,eating,2
209,209,2011-12-14 11:49:47.500000,2011-12-14 11:50:00.475000,12.975,3,BFW,,,,,,,,,,,1.0,,,,,,eating,2
210,210,2011-12-14 11:49:54,2011-12-14 11:50:06.975000,12.975,3,BFW,,,,,,,,,,,1.0,,,,,,eating,2
211,211,2011-12-14 11:50:00.500000,2011-12-14 11:50:13.475000,12.975,3,BFW,,,,,,,,,,,1.0,,,,,,eating,2
212,212,2011-12-14 11:50:07,2011-12-14 11:50:19.975000,12.975,3,BFW,,,,,,,,,,,1.0,,,,,,eating,2
213,213,2011-12-14 11:50:13.500000,2011-12-14 11:50:26.475000,12.975,3,BFW,,,,,,,,,,,1.0,,,,,,eating,2
214,214,2011-12-14 11:50:20,2011-12-14 11:50:32.975000,12.975,3,BFW,,,,,,,,,,,1.0,,,,,,eating,2
215,215,2011-12-14 11:50:26.500000,2011-12-14 11:50:39.475000,12.975,3,BFW,,,,,,,,,,,1.0,,,,,,eating,2
216,216,2011-12-14 11:50:33,2011-12-14 11:50:45.975000,12.975,3,BFW,,,,,,,,,,,1.0,,,,,,eating,2
217,217,2011-12-14 11:50:39.500000,2011-12-14 11:50:52.475000,12.975,3,BFW,,,,,,,,,,,1.0,,,,,,eating,2
218,218,2011-12-14 11:50:46,2011-12-14 11:50:58.975000,12.975,3,BFW,,,,,,,,,,,1.0,,,,,,eating,2
219,219,2011-12-14 11:50:52.500000,2011-12-14 11:51:05.475000,12.975,3,BFW,,,,,,,,,,,1.0,,,,,,eating,2
220,220,2011-12-14 11:50:59,2011-12-14 11:51:11.975000,12.975,3,BFW,,,,,,,,,,,1.0,,,,,,eating,2
221,221,2011-12-14 11:51:05.500000,2011-12-14 11:51:18.475000,12.975,3,BFW,,,,,,,,,,,1.0,,,,,,eating,2
222,222,2011-12-14 11:51:12,2011-12-14 11:51:24.975000,12.975,3,BFW,,,,,,,,,,,1.0,,,,,,eating,2
223,223,2011-12-14 11:51:18.500000,2011-12-14 11:51:31.475000,12.975,3,BFW,,,,,,,,,,,1.0,,,,,,eating,2
224,224,2011-12-14 11:51:25,2011-12-14 11:51:37.975000,12.975,3,BFW,,,,,,,,,,,1.0,,,,,,eating,2
225,225,2011-12-14 11:51:31.500000,2011-12-14 11:51:44.475000,12.975,3,BFW,,,,,,,,,,,1.0,,,,,,eating,2
226,226,2011-12-14 11:51:38,2011-12-14 11:51:50.975000,12.975,3,BFW,,,,,,,,,,,1.0,,,,,,eating,2
227,227,2011-12-14 11:51:44.500000,2011-12-14 11:51:57.475000,12.975,3,BFW,,,,,,,,,,,1.0,,,,,,eating,2
228,228,2011-12-14 11:51:51,2011-12-14 11:52:03.975000,12.975,3,BFW,,,,,,,,0.3834296724470135,,,0.6165703275529866,,,,,,eating,2
229,229,2011-12-14 11:51:57.500000,2011-12-14 11:52:10.475000,12.975,3,BFW,,,,,,,0.19075144508670522,0.6936416184971098,,,0.11560693641618497,,,,,,others,0
230,230,2011-12-14 11:52:04,2011-12-14 11:52:16.975000,12.975,3,BFW,,,,,,,0.6917148362235067,0.3082851637764933,,,,,,,,,talking,5
231,231,2011-12-14 11:52:10.500000,2011-12-14 11:52:23.475000,12.975,3,BFW,,,,,,,0.6917148362235067,,0.3082851637764933,,,,,,,,drinking,8
232,232,2011-12-14 11:52:17,2011-12-14 11:52:29.975000,12.975,3,BFW,,,,,,,0.6917148362235067,,0.3082851637764933,,,,,,,,drinking,8
233,233,2011-12-14 11:52:23.500000,2011-12-14 11:52:36.475000,12.975,3,BFW,,,,,,,1.0,,,,,,,,,,talking,5
234,234,2011-12-14 11:52:30,2011-12-14 11:52:42.975000,12.975,3,BFW,,,,,,,1.0,,,,,,,,,,talking,5
235,235,2011-12-14 11:52:36.500000,2011-12-14 11:52:49.475000,12.975,3,BFW,,,,,,,1.0,,,,,,,,,,talking,5
236,236,2011-12-14 11:52:43,2011-12-14 11:52:55.975000,12.975,3,BFW,,,,,,,1.0,,,,,,,,,,talking,5
237,237,2011-12-14 11:52:49.500000,2011-12-14 11:53:02.475000,12.975,3,BFW,,,,,,,1.0,,,,,,,,,,talking,5
238,238,2011-12-14 11:52:56,2011-12-14 11:53:08.975000,12.975,3,BFW,,,,,,,1.0,,,,,,,,,,talking,5
239,239,2011-12-14 11:53:02.500000,2011-12-14 11:53:15.475000,12.975,3,BFW,,,,,,,1.0,,,,,,,,,,talking,5
240,240,2011-12-14 11:53:09,2011-12-14 11:53:21.975000,12.975,3,BFW,,,,,,,1.0,,,,,,,,,,talking,5
241,241,2011-12-14 11:53:15.500000,2011-12-14 11:53:28.475000,12.975,3,BFW,,,,,,,1.0,,,,,,,,,,talking,5
242,242,2011-12-14 11:53:22,2011-12-14 11:53:34.975000,12.975,3,BFW,,,,,,,1.0,,,,,,,,,,talking,5
243,243,2011-12-14 11:53:28.500000,2011-12-14 11:53:41.475000,12.975,3,BFW,,,,,,,1.0,,,,,,,,,,talking,5
244,244,2011-12-14 11:53:35,2011-12-14 11:53:47.975000,12.975,3,BFW,,,,,,,1.0,,,,,,,,,,talking,5
245,245,2011-12-14 11:53:41.500000,2011-12-14 11:53:54.475000,12.975,3,BFW,,,,,,,0.6551059730250481,,,,0.3448940269749518,,,,,,talking,5
246,246,2011-12-14 11:53:48,2011-12-14 11:54:00.975000,12.975,3,BFW,,,,,,,0.15414258188824664,,,,0.8458574181117534,,,,,,eating,2
247,247,2011-12-14 11:53:54.500000,2011-12-14 11:54:07.475000,12.975,3,BFW,,,,,,,0.036608863198458574,,0.3082851637764933,,0.6551059730250481,,,,,,drinking,8
248,248,2011-12-14 11:54:01,2011-12-14 11:54:13.975000,12.975,3,BFW,,,,,,,0.5375722543352601,,0.3082851637764933,,0.15414258188824664,,,,,,drinking,8
249,249,2011-12-14 11:54:07.500000,2011-12-14 11:54:20.475000,12.975,3,BFW,,,,,,,1.0,,,,,,,,,,talking,5
250,250,2011-12-14 11:54:14,2011-12-14 11:54:26.975000,12.975,3,BFW,,,,,,,1.0,,,,,,,,,,talking,5
251,251,2011-12-14 11:54:20.500000,2011-12-14 11:54:33.475000,12.975,3,BFW,,,,,,,1.0,,,,,,,,,,talking,5
252,252,2011-12-14 11:54:27,2011-12-14 11:54:39.975000,12.975,3,BFW,,,,,,,1.0,,,,,,,,,,talking,5
253,253,2011-12-14 11:54:33.500000,2011-12-14 11:54:46.475000,12.975,3,BFW,,,,,,,1.0,,,,,,,,,,talking,5
254,254,2011-12-14 11:54:40,2011-12-14 11:54:52.975000,12.975,3,BFW,,,,,,,1.0,,,,,,,,,,talking,5
255,255,2011-12-14 11:54:46.500000,2011-12-14 11:54:59.475000,12.975,3,BFW,,,,,,,1.0,,,,,,,,,,talking,5
256,256,2011-12-14 11:54:53,2011-12-14 11:55:05.975000,12.975,3,BFW,,,,,,,1.0,,,,,,,,,,talking,5
257,257,2011-12-14 11:54:59.500000,2011-12-14 11:55:12.475000,12.975,3,BFW,,,,,,,1.0,,,,,,,,,,talking,5
258,258,2011-12-14 11:55:06,2011-12-14 11:55:18.975000,12.975,3,BFW,,,,,,,1.0,,,,,,,,,,talking,5
259,259,2011-12-14 11:55:12.500000,2011-12-14 11:55:25.475000,12.975,3,BFW,,,,,,,1.0,,,,,,,,,,talking,5
260,260,2011-12-14 11:55:19,2011-12-14 11:55:31.975000,12.975,3,BFW,,,,,,,1.0,,,,,,,,,,talking,5
261,261,2011-12-14 11:55:25.500000,2011-12-14 11:55:38.475000,12.975,3,BFW,,,,,,,1.0,,,,,,,,,,talking,5
262,262,2011-12-14 11:55:32,2011-12-14 11:55:44.975000,12.975,3,BFW,,,,,,,1.0,,,,,,,,,,talking,5
263,263,2011-12-14 11:55:38.500000,2011-12-14 11:55:51.475000,12.975,3,BFW,,,,,,,1.0,,,,,,,,,,talking,5
264,264,2011-12-14 11:55:45,2011-12-14 11:55:57.975000,12.975,3,BFW,,,,,,,1.0,,,,,,,,,,talking,5
265,265,2011-12-14 11:55:51.500000,2011-12-14 11:56:04.475000,12.975,3,BFW,,,,,,,1.0,,,,,,,,,,talking,5
266,266,2011-12-14 11:55:58,2011-12-14 11:56:10.975000,12.975,3,BFW,,,,,,,1.0,,,,,,,,,,talking,5
267,267,2011-12-14 11:56:04.500000,2011-12-14 11:56:17.475000,12.975,3,BFW,,,,,,,1.0,,,,,,,,,,talking,5
268,268,2011-12-14 11:56:11,2011-12-14 11:56:23.975000,12.975,3,BFW,,,,,,,1.0,,,,,,,,,,talking,5
269,269,2011-12-14 11:56:17.500000,2011-12-14 11:56:30.475000,12.975,3,BFW,,,,,,,1.0,,,,,,,,,,rest,-1
270,270,2011-12-14 11:56:24,2011-12-14 11:56:36.975000,12.975,3,BFW,,,,,,,1.0,,,,,,,,,,talking,5
271,271,2011-12-14 11:56:30.500000,2011-12-14 11:56:43.475000,12.975,3,BFW,,,,,,,1.0,,,,,,,,,,talking,5
272,272,2011-12-14 11:56:37,2011-12-14 11:56:49.975000,12.975,3,BFW,,,,,,,1.0,,,,,,,,,,talking,5
273,273,2011-12-14 11:56:43.500000,2011-12-14 11:56:56.475000,12.975,3,BFW,,,,,,,1.0,,,,,,,,,,talking,5
274,274,2011-12-14 11:56:50,2011-12-14 11:57:02.975000,12.975,3,BFW,,,,,,,1.0,,,,,,,,,,talking,5
275,275,2011-12-14 11:56:56.500000,2011-12-14 11:57:09.475000,12.975,3,BFW,,,,,,,1.0,,,,,,,,,,talking,5
276,276,2011-12-14 11:57:03,2011-12-14 11:57:15.975000,12.975,3,BFW,,,,,,,1.0,,,,,,,,,,talking,5
277,277,2011-12-14 11:57:09.500000,2011-12-14 11:57:22.475000,12.975,3,BFW,,,,,,,1.0,,,,,,,,,,talking,5
278,278,2011-12-14 11:57:16,2011-12-14 11:57:28.975000,12.975,3,BFW,,,,,,,1.0,,,,,,,,,,talking,5
279,279,2011-12-14 11:57:22.500000,2011-12-14 11:57:35.475000,12.975,3,BFW,,,,,,,1.0,,,,,,,,,,talking,5
280,280,2011-12-14 11:57:29,2011-12-14 11:57:41.975000,12.975,3,BFW,,,,,,,1.0,,,,,,,,,,talking,5
281,281,2011-12-14 11:57:35.500000,2011-12-14 11:57:48.475000,12.975,3,BFW,,,,,,,1.0,,,,,,,,,,talking,5
282,282,2011-12-14 11:57:42,2011-12-14 11:57:54.975000,12.975,3,BFW,,,,,,,1.0,,,,,,,,,,talking,5
283,283,2011-12-14 11:57:48.500000,2011-12-14 11:58:01.475000,12.975,3,BFW,,,,,,,1.0,,,,,,,,,,talking,5
284,284,2011-12-14 11:57:55,2011-12-14 11:58:07.975000,12.975,3,BFW,,,,,,,1.0,,,,,,,,,,talking,5
285,285,2011-12-14 11:58:01.500000,2011-12-14 11:58:14.475000,12.975,3,BFW,,,,,,,1.0,,,,,,,,,,talking,5
286,286,2011-12-14 11:58:08,2011-12-14 11:58:20.975000,12.975,3,BFW,,,,,,,1.0,,,,,,,,,,talking,5
287,287,2011-12-14 11:58:14.500000,2011-12-14 11:58:27.475000,12.975,3,BFW,,,,,,,1.0,,,,,,,,,,talking,5
288,288,2011-12-14 11:58:21,2011-12-14 11:58:33.975000,12.975,3,BFW,,,,,,,1.0,,,,,,,,,,talking,5
289,289,2011-12-14 11:58:27.500000,2011-12-14 11:58:40.475000,12.975,3,BFW,,,,,,,1.0,,,,,,,,,,talking,5
290,290,2011-12-14 11:58:34,2011-12-14 11:58:46.975000,12.975,3,BFW,,,,,,,1.0,,,,,,,,,,rest,-1
291,291,2011-12-14 11:58:40.500000,2011-12-14 11:58:53.475000,12.975,3,BFW,,,,,,,1.0,,,,,,,,,,rest,-1
292,292,2011-12-14 11:58:47,2011-12-14 11:58:59.975000,12.975,3,BFW,,,,,,,1.0,,,,,,,,,,talking,5
293,293,2011-12-14 11:58:53.500000,2011-12-14 11:59:06.475000,12.975,3,BFW,,,,,,,1.0,,,,,,,,,,talking,5
294,294,2011-12-14 11:59:00,2011-12-14 11:59:12.975000,12.975,3,BFW,,,,,,,1.0,,,,,,,,,,talking,5
295,295,2011-12-14 11:59:06.500000,2011-12-14 11:59:19.475000,12.975,3,BFW,,,,,,,1.0,,,,,,,,,,talking,5
296,296,2011-12-14 11:59:13,2011-12-14 11:59:25.975000,12.975,3,BFW,,,,,,,1.0,,,,,,,,,,talking,5
297,297,2011-12-14 11:59:19.500000,2011-12-14 11:59:32.475000,12.975,3,BFW,,,,,,,1.0,,,,,,,,,,talking,5
298,298,2011-12-14 11:59:26,2011-12-14 11:59:38.975000,12.975,3,BFW,,,,,,,1.0,,,,,,,,,,talking,5
299,299,2011-12-14 11:59:32.500000,2011-12-14 11:59:45.475000,12.975,3,BFW,,,,,,,1.0,,,,,,,,,,talking,5
300,300,2011-12-14 11:59:39,2011-12-14 11:59:51.975000,12.975,3,BFW,,,,,,,1.0,,,,,,,,,,talking,5
301,301,2011-12-14 11:59:45.500000,2011-12-14 11:59:58.475000,12.975,3,BFW,,,,,,,1.0,,,,,,,,,,talking,5
302,302,2011-12-14 11:59:52,2011-12-14 12:00:04.975000,12.975,3,BFW,,,,,,,1.0,,,,,,,,,,talking,5
303,303,2011-12-14 11:59:58.500000,2011-12-14 12:00:11.475000,12.975,3,BFW,,,,,,,1.0,,,,,,,,,,talking,5
304,304,2011-12-14 12:00:05,2011-12-14 12:00:17.975000,12.975,3,BFW,,,,,,,1.0,,,,,,,,,,talking,5
305,305,2011-12-14 12:00:11.500000,2011-12-14 12:00:24.475000,12.975,3,BFW,,,,,,,1.0,,,,,,,,,,talking,5
306,306,2011-12-14 12:00:18,2011-12-14 12:00:30.975000,12.975,3,BFW,,,,,,,0.6917148362235067,,0.3082851637764933,,,,,,,,drinking,8
307,307,2011-12-14 12:00:24.500000,2011-12-14 12:00:37.475000,12.975,3,BFW,,,,,,,0.6917148362235067,,0.3082851637764933,,,,,,,,drinking,8
308,308,2011-12-14 12:00:31,2011-12-14 12:00:43.975000,12.975,3,BFW,,,,,,,1.0,,,,,,,,,,talking,5
309,309,2011-12-14 12:00:37.500000,2011-12-14 12:00:50.475000,12.975,3,BFW,,,,,,,1.0,,,,,,,,,,talking,5
310,310,2011-12-14 12:00:44,2011-12-14 12:00:56.975000,12.975,3,BFW,,,,,,,1.0,,,,,,,,,,talking,5
311,311,2011-12-14 12:00:50.500000,2011-12-14 12:01:03.475000,12.975,3,BFW,,,,,,,1.0,,,,,,,,,,talking,5
312,312,2011-12-14 12:00:57,2011-12-14 12:01:09.975000,12.975,3,BFW,,,,,,,1.0,,,,,,,,,,talking,5
313,313,2011-12-14 12:01:03.500000,2011-12-14 12:01:16.475000,12.975,3,BFW,,,,,,,1.0,,,,,,,,,,talking,5
314,314,2011-12-14 12:01:10,2011-12-14 12:01:22.975000,12.975,3,BFW,,,,,,,1.0,,,,,,,,,,talking,5
315,315,2011-12-14 12:01:16.500000,2011-12-14 12:01:29.475000,12.975,3,BFW,,,,,,,1.0,,,,,,,,,,talking,5
316,316,2011-12-14 12:01:23,2011-12-14 12:01:35.975000,12.975,3,BFW,,,,,,,1.0,,,,,,,,,,talking,5
317,317,2011-12-14 12:01:29.500000,2011-12-14 12:01:42.475000,12.975,3,BFW,,,,,,,1.0,,,,,,,,,,talking,5
318,318,2011-12-14 12:01:36,2011-12-14 12:01:48.975000,12.975,3,BFW,,,,,,,1.0,,,,,,,,,,talking,5
319,319,2011-12-14 12:01:42.500000,2011-12-14 12:01:55.475000,12.975,3,BFW,,,,,,,1.0,,,,,,,,,,talking,5
320,320,2011-12-14 12:01:49,2011-12-14 12:02:01.975000,12.975,3,BFW,,,,,,,1.0,,,,,,,,,,talking,5
321,321,2011-12-14 12:01:55.500000,2011-12-14 12:02:08.475000,12.975,3,BFW,,,,,,,1.0,,,,,,,,,,rest,-1
322,322,2011-12-14 12:02:02,2011-12-14 12:02:14.975000,12.975,3,BFW,,,,,,,1.0,,,,,,,,,,talking,5
323,323,2011-12-14 12:02:08.500000,2011-12-14 12:02:21.475000,12.975,3,BFW,,,,,,,1.0,,,,,,,,,,talking,5
324,324,2011-12-14 12:02:15,2011-12-14 12:02:27.975000,12.975,3,BFW,,,,,,,1.0,,,,,,,,,,talking,5
325,325,2011-12-14 12:02:21.500000,2011-12-14 12:02:34.475000,12.975,3,BFW,,,,,,,1.0,,,,,,,,,,talking,5
326,326,2011-12-14 12:02:28,2011-12-14 12:02:40.975000,12.975,3,BFW,,,,,,,1.0,,,,,,,,,,talking,5
327,327,2011-12-14 12:02:34.500000,2011-12-14 12:02:47.475000,12.975,3,BFW,,,,,,,1.0,,,,,,,,,,talking,5
328,328,2011-12-14 12:02:41,2011-12-14 12:02:53.975000,12.975,3,BFW,,,,,,,1.0,,,,,,,,,,talking,5
329,329,2011-12-14 12:02:47.500000,2011-12-14 12:03:00.475000,12.975,3,BFW,,,,,,,1.0,,,,,,,,,,talking,5
330,330,2011-12-14 12:02:54,2011-12-14 12:03:06.975000,12.975,3,BFW,,,,,,,1.0,,,,,,,,,,talking,5
331,331,2011-12-14 12:03:00.500000,2011-12-14 12:03:13.475000,12.975,3,BFW,,,,,,,1.0,,,,,,,,,,talking,5
332,332,2011-12-14 12:03:07,2011-12-14 12:03:19.975000,12.975,3,BFW,,,,,,,1.0,,,,,0.22928709055876687,,,,0.22928709055876687,talking,5
333,333,2011-12-14 12:03:13.500000,2011-12-14 12:03:26.475000,12.975,3,BFW,,,,,,,1.0,,,,,0.7302504816955684,,,,0.7302504816955684,talking,5
334,334,2011-12-14 12:03:20,2011-12-14 12:03:32.975000,12.975,3,BFW,,,,,,,1.0,,,,,1.0,,,,1.0,talking,5
335,335,2011-12-14 12:03:26.500000,2011-12-14 12:03:39.475000,12.975,3,BFW,,,,,,,1.0,,,,,1.0,,,,1.0,talking,5
336,336,2011-12-14 12:03:33,2011-12-14 12:03:45.975000,12.975,3,BFW,0.6115384615384616,0.3063583815028902,1.0,0.0,left-puff,,1.0,,,,,1.0,,,,1.0,puff,9
337,337,2011-12-14 12:03:39.500000,2011-12-14 12:03:52.475000,12.975,3,BFW,1.0,0.5009633911368016,1.0,0.0,left-puff,,1.0,,,,,1.0,,,,1.0,puff,9
338,338,2011-12-14 12:03:46,2011-12-14 12:03:58.975000,12.975,3,BFW,0.38461538461538464,0.1926782273603083,1.0,0.0,left-puff,,1.0,,,,,1.0,,,,1.0,puff,9
339,339,2011-12-14 12:03:52.500000,2011-12-14 12:04:05.475000,12.975,3,BFW,,,,,,,1.0,,,,,1.0,,,,1.0,talking,5
340,340,2011-12-14 12:03:59,2011-12-14 12:04:11.975000,12.975,3,BFW,,,,,,,1.0,,,,,1.0,,,,1.0,talking,5
341,341,2011-12-14 12:04:05.500000,2011-12-14 12:04:18.475000,12.975,3,BFW,,,,,,,1.0,,,,,1.0,,,,1.0,talking,5
342,342,2011-12-14 12:04:12,2011-12-14 12:04:24.975000,12.975,3,BFW,,,,,,,1.0,,,,,1.0,,,,1.0,talking,5
343,343,2011-12-14 12:04:18.500000,2011-12-14 12:04:31.475000,12.975,3,BFW,,,,,,,1.0,,,,,1.0,,,,1.0,talking,5
344,344,2011-12-14 12:04:25,2011-12-14 12:04:37.975000,12.975,3,BFW,,,,,,,1.0,,,,,1.0,,,,1.0,talking,5
345,345,2011-12-14 12:04:31.500000,2011-12-14 12:04:44.475000,12.975,3,BFW,,,,,,,1.0,,,,,1.0,,,,1.0,talking,5
346,346,2011-12-14 12:04:38,2011-12-14 12:04:50.975000,12.975,3,BFW,,,,,,,1.0,,,,,1.0,,,,1.0,talking,5
347,347,2011-12-14 12:04:44.500000,2011-12-14 12:04:57.475000,12.975,3,BFW,,,,,,,1.0,,,,,1.0,,,,1.0,talking,5
348,348,2011-12-14 12:04:51,2011-12-14 12:05:03.975000,12.975,3,BFW,,,,,,,1.0,,,,,1.0,,,,1.0,talking,5
349,349,2011-12-14 12:04:57.500000,2011-12-14 12:05:10.475000,12.975,3,BFW,,,,,,,1.0,,,,,1.0,,,,1.0,talking,5
350,350,2011-12-14 12:05:04,2011-12-14 12:05:16.975000,12.975,3,BFW,,,,,,,1.0,,,,,1.0,,,,1.0,talking,5
351,351,2011-12-14 12:05:10.500000,2011-12-14 12:05:23.475000,12.975,3,BFW,,,,,,,1.0,,,,,1.0,,,,1.0,talking,5
352,352,2011-12-14 12:05:17,2011-12-14 12:05:29.975000,12.975,3,BFW,0.1625,0.07514450867052024,1.0,1.0,left-puff,,1.0,,,,,1.0,,,,1.0,talking,5
353,353,2011-12-14 12:05:23.500000,2011-12-14 12:05:36.475000,12.975,3,BFW,1.0,0.4624277456647399,1.0,1.0,left-puff,,1.0,,,,,1.0,,,,1.0,puff,9
354,354,2011-12-14 12:05:30,2011-12-14 12:05:42.975000,12.975,3,BFW,0.8333333333333334,0.3853564547206166,1.0,1.0,left-puff,,1.0,,,,,1.0,,,,1.0,puff,9
355,355,2011-12-14 12:05:36.500000,2011-12-14 12:05:49.475000,12.975,3,BFW,,,,,,,1.0,,,,,1.0,,,,1.0,talking,5
356,356,2011-12-14 12:05:43,2011-12-14 12:05:55.975000,12.975,3,BFW,,,,,,,1.0,,,,,1.0,,,,1.0,talking,5
357,357,2011-12-14 12:05:49.500000,2011-12-14 12:06:02.475000,12.975,3,BFW,,,,,,,1.0,,,,,1.0,,,,1.0,talking,5
358,358,2011-12-14 12:05:56,2011-12-14 12:06:08.975000,12.975,3,BFW,,,,,,,1.0,,,,,1.0,,,,1.0,talking,5
359,359,2011-12-14 12:06:02.500000,2011-12-14 12:06:15.475000,12.975,3,BFW,,,,,,,1.0,,,,,1.0,,,,1.0,talking,5
360,360,2011-12-14 12:06:09,2011-12-14 12:06:21.975000,12.975,3,BFW,,,,,,,1.0,,,,,1.0,,,,1.0,talking,5
361,361,2011-12-14 12:06:15.500000,2011-12-14 12:06:28.475000,12.975,3,BFW,0.06333333333333332,0.036608863198458574,1.0,2.0,left-puff,,1.0,,,,,1.0,,,,1.0,talking,5
362,362,2011-12-14 12:06:22,2011-12-14 12:06:34.975000,12.975,3,BFW,0.9299999999999999,0.5375722543352601,1.0,2.0,left-puff,,1.0,,,,,1.0,,,,1.0,puff,9
363,363,2011-12-14 12:06:28.500000,2011-12-14 12:06:41.475000,12.975,3,BFW,0.9333333333333333,0.5394990366088632,1.0,2.0,left-puff,,1.0,,,,,1.0,,,,1.0,puff,9
364,364,2011-12-14 12:06:35,2011-12-14 12:06:47.975000,12.975,3,BFW,0.06666666666666667,0.03853564547206166,1.0,2.0,left-puff,,1.0,,,,,1.0,,,,1.0,talking,5
365,365,2011-12-14 12:06:41.500000,2011-12-14 12:06:54.475000,12.975,3,BFW,,,,,,,1.0,,,,,1.0,,,,1.0,talking,5
366,366,2011-12-14 12:06:48,2011-12-14 12:07:00.975000,12.975,3,BFW,0.2681818181818182,0.1136801541425819,1.0,3.0,left-puff,,1.0,,,,,1.0,,,,1.0,talking,5
367,367,2011-12-14 12:06:54.500000,2011-12-14 12:07:07.475000,12.975,3,BFW,1.0,0.42389210019267826,1.0,3.0,left-puff,,1.0,,,,,1.0,,,,1.0,puff,9
368,368,2011-12-14 12:07:01,2011-12-14 12:07:13.975000,12.975,3,BFW,0.7272727272727273,0.3082851637764933,1.0,3.0,left-puff,,1.0,,,,,1.0,,,,1.0,puff,9
369,369,2011-12-14 12:07:07.500000,2011-12-14 12:07:20.475000,12.975,3,BFW,,,,,,,1.0,,,,,1.0,,,,1.0,talking,5
370,370,2011-12-14 12:07:14,2011-12-14 12:07:26.975000,12.975,3,BFW,,,,,,,1.0,,,,,1.0,,,,1.0,talking,5
371,371,2011-12-14 12:07:20.500000,2011-12-14 12:07:33.475000,12.975,3,BFW,,,,,,,1.0,,,,,1.0,,,,1.0,talking,5
372,372,2011-12-14 12:07:27,2011-12-14 12:07:39.975000,12.975,3,BFW,,,,,,,1.0,,,,,1.0,,,,1.0,talking,5
373,373,2011-12-14 12:07:33.500000,2011-12-14 12:07:46.475000,12.975,3,BFW,,,,,,,1.0,,,,,1.0,,,,1.0,talking,5
374,374,2011-12-14 12:07:40,2011-12-14 12:07:52.975000,12.975,3,BFW,,,,,,,1.0,,,,,1.0,,,,1.0,talking,5
375,375,2011-12-14 12:07:46.500000,2011-12-14 12:07:59.475000,12.975,3,BFW,,,,,,,1.0,,,,,1.0,,,,1.0,talking,5
376,376,2011-12-14 12:07:53,2011-12-14 12:08:05.975000,12.975,3,BFW,,,,,,,1.0,,,,,1.0,,,,1.0,talking,5
377,377,2011-12-14 12:07:59.500000,2011-12-14 12:08:12.475000,12.975,3,BFW,,,,,,,1.0,,,,,1.0,,,,1.0,talking,5
378,378,2011-12-14 12:08:06,2011-12-14 12:08:18.975000,12.975,3,BFW,,,,,,,1.0,,,,,1.0,,,,1.0,talking,5
379,379,2011-12-14 12:08:12.500000,2011-12-14 12:08:25.475000,12.975,3,BFW,,,,,,,1.0,,,,,1.0,,,,1.0,talking,5
380,380,2011-12-14 12:08:19,2011-12-14 12:08:31.975000,12.975,3,BFW,,,,,,,1.0,,,,,1.0,,,,1.0,talking,5
381,381,2011-12-14 12:08:25.500000,2011-12-14 12:08:38.475000,12.975,3,BFW,,,,,,,1.0,,,,,1.0,,,,1.0,talking,5
382,382,2011-12-14 12:08:32,2011-12-14 12:08:44.975000,12.975,3,BFW,,,,,,,1.0,,,,,1.0,,,,1.0,talking,5
383,383,2011-12-14 12:08:38.500000,2011-12-14 12:08:51.475000,12.975,3,BFW,,,,,,,1.0,,,,,1.0,,,,1.0,talking,5
384,384,2011-12-14 12:08:45,2011-12-14 12:08:57.975000,12.975,3,BFW,,,,,,,1.0,,,,,1.0,,,,1.0,talking,5
385,385,2011-12-14 12:08:51.500000,2011-12-14 12:09:04.475000,12.975,3,BFW,,,,,,,1.0,,,,,1.0,,,,1.0,talking,5
386,386,2011-12-14 12:08:58,2011-12-14 12:09:10.975000,12.975,3,BFW,,,,,,,1.0,,,,,1.0,,,,1.0,talking,5
387,387,2011-12-14 12:09:04.500000,2011-12-14 12:09:17.475000,12.975,3,BFW,,,,,,,1.0,,,,,1.0,,,,1.0,talking,5
388,388,2011-12-14 12:09:11,2011-12-14 12:09:23.975000,12.975,3,BFW,,,,,,,1.0,,,,,1.0,,,,1.0,talking,5
389,389,2011-12-14 12:09:17.500000,2011-12-14 12:09:30.475000,12.975,3,BFW,,,,,,,1.0,,,,,1.0,,,,1.0,talking,5
390,390,2011-12-14 12:09:24,2011-12-14 12:09:36.975000,12.975,3,BFW,0.059375,0.036608863198458574,1.0,4.0,left-puff,,1.0,,,,,1.0,,,,1.0,talking,5
391,391,2011-12-14 12:09:30.500000,2011-12-14 12:09:43.475000,12.975,3,BFW,0.871875,0.5375722543352601,1.0,4.0,left-puff,,1.0,,,,,1.0,,,,1.0,puff,9
392,392,2011-12-14 12:09:37,2011-12-14 12:09:49.975000,12.975,3,BFW,0.9375,0.5780346820809249,1.0,4.0,left-puff,,1.0,,,,,1.0,,,,1.0,puff,9
393,393,2011-12-14 12:09:43.500000,2011-12-14 12:09:56.475000,12.975,3,BFW,0.125,0.07707129094412332,1.0,4.0,left-puff,,1.0,,,,,1.0,,,,1.0,talking,5
394,394,2011-12-14 12:09:50,2011-12-14 12:10:02.975000,12.975,3,BFW,1.0,0.23121387283236994,1.0,5.0,left-puff,,1.0,,,,,1.0,,,,1.0,puff,9
395,395,2011-12-14 12:09:56.500000,2011-12-14 12:10:09.475000,12.975,3,BFW,1.0,0.23121387283236994,1.0,5.0,left-puff,,1.0,,,,,1.0,,,,1.0,puff,9
396,396,2011-12-14 12:10:03,2011-12-14 12:10:15.975000,12.975,3,BFW,,,,,,,1.0,,,,,1.0,,,,1.0,talking,5
397,397,2011-12-14 12:10:09.500000,2011-12-14 12:10:22.475000,12.975,3,BFW,,,,,,,1.0,,,,,1.0,,,,1.0,talking,5
398,398,2011-12-14 12:10:16,2011-12-14 12:10:28.975000,12.975,3,BFW,,,,,,,1.0,,,,,1.0,,,,1.0,talking,5
399,399,2011-12-14 12:10:22.500000,2011-12-14 12:10:35.475000,12.975,3,BFW,,,,,,,1.0,,,,,1.0,,,,1.0,talking,5
400,400,2011-12-14 12:10:29,2011-12-14 12:10:41.975000,12.975,3,BFW,,,,,,,1.0,,,,,1.0,,,,1.0,talking,5
401,401,2011-12-14 12:10:35.500000,2011-12-14 12:10:48.475000,12.975,3,BFW,,,,,,,1.0,,,,,1.0,,,,1.0,talking,5
402,402,2011-12-14 12:10:42,2011-12-14 12:10:54.975000,12.975,3,BFW,,,,,,,1.0,,,,,1.0,,,,1.0,talking,5
403,403,2011-12-14 12:10:48.500000,2011-12-14 12:11:01.475000,12.975,3,BFW,,,,,,,1.0,,,,,1.0,,,,1.0,talking,5
404,404,2011-12-14 12:10:55,2011-12-14 12:11:07.975000,12.975,3,BFW,,,,,,,1.0,,,,,1.0,,,,1.0,talking,5
405,405,2011-12-14 12:11:01.500000,2011-12-14 12:11:14.475000,12.975,3,BFW,0.39666666666666667,0.22928709055876687,0.0,6.0,left-puff,,1.0,,,,,1.0,,,,1.0,puff,9
406,406,2011-12-14 12:11:08,2011-12-14 12:11:20.975000,12.975,3,BFW,1.0,0.5780346820809249,0.0,6.0,left-puff,,1.0,,,,,1.0,,,,1.0,puff,9
407,407,2011-12-14 12:11:14.500000,2011-12-14 12:11:27.475000,12.975,3,BFW,0.6,0.3468208092485549,0.0,6.0,left-puff,,1.0,,,,,1.0,,,,1.0,puff,9
408,408,2011-12-14 12:11:21,2011-12-14 12:11:33.975000,12.975,3,BFW,,,,,,,1.0,,,,,1.0,,,,1.0,talking,5
409,409,2011-12-14 12:11:27.500000,2011-12-14 12:11:40.475000,12.975,3,BFW,,,,,,,1.0,,,,,1.0,,,,1.0,talking,5
410,410,2011-12-14 12:11:34,2011-12-14 12:11:46.975000,12.975,3,BFW,0.9476190476190476,0.3834296724470135,1.0,7.0,left-puff,,1.0,,,,,1.0,,,,1.0,puff,9
411,411,2011-12-14 12:11:40.500000,2011-12-14 12:11:53.475000,12.975,3,BFW,1.0,0.4046242774566474,1.0,7.0,left-puff,,1.0,,,,,1.0,,,,1.0,puff,9
412,412,2011-12-14 12:11:47,2011-12-14 12:11:59.975000,12.975,3,BFW,0.047619047619047616,0.01926782273603083,1.0,7.0,left-puff,,1.0,,,,,1.0,,,,1.0,talking,5
413,413,2011-12-14 12:11:53.500000,2011-12-14 12:12:06.475000,12.975,3,BFW,,,,,,,1.0,,,,,1.0,,,,1.0,talking,5
414,414,2011-12-14 12:12:00,2011-12-14 12:12:12.975000,12.975,3,BFW,,,,,,,1.0,,,,,1.0,,,,1.0,talking,5
415,415,2011-12-14 12:12:06.500000,2011-12-14 12:12:19.475000,12.975,3,BFW,,,,,,,1.0,,,,,1.0,,,,1.0,talking,5
416,416,2011-12-14 12:12:13,2011-12-14 12:12:25.975000,12.975,3,BFW,0.7227272727272728,0.3063583815028902,1.0,8.0,left-puff,,1.0,,,,,1.0,,,,1.0,puff,9
417,417,2011-12-14 12:12:19.500000,2011-12-14 12:12:32.475000,12.975,3,BFW,1.0,0.42389210019267826,1.0,8.0,left-puff,,1.0,,,,,1.0,,,,1.0,puff,9
418,418,2011-12-14 12:12:26,2011-12-14 12:12:38.975000,12.975,3,BFW,0.2727272727272727,0.11560693641618497,1.0,8.0,left-puff,,1.0,,,,,1.0,,,,1.0,talking,5
419,419,2011-12-14 12:12:32.500000,2011-12-14 12:12:45.475000,12.975,3,BFW,,,,,,,1.0,,,,,1.0,,,,1.0,talking,5
420,420,2011-12-14 12:12:39,2011-12-14 12:12:51.975000,12.975,3,BFW,0.559375,0.3448940269749518,1.0,9.0,left-puff,,1.0,,,,,1.0,,,,1.0,puff,9
421,421,2011-12-14 12:12:45.500000,2011-12-14 12:12:58.475000,12.975,3,BFW,1.0,0.6165703275529866,1.0,9.0,left-puff,,1.0,,,,,1.0,,,,1.0,puff,9
422,422,2011-12-14 12:12:52,2011-12-14 12:13:04.975000,12.975,3,BFW,0.4375,0.2697495183044316,1.0,9.0,left-puff,,1.0,,,,,1.0,,,,1.0,puff,9
423,423,2011-12-14 12:12:58.500000,2011-12-14 12:13:11.475000,12.975,3,BFW,,,,,,,1.0,,,,,1.0,,,,1.0,talking,5
424,424,2011-12-14 12:13:05,2011-12-14 12:13:17.975000,12.975,3,BFW,,,,,,,1.0,,,,,1.0,,,,1.0,talking,5
425,425,2011-12-14 12:13:11.500000,2011-12-14 12:13:24.475000,12.975,3,BFW,,,,,,,1.0,,,,,1.0,,,,1.0,talking,5
426,426,2011-12-14 12:13:18,2011-12-14 12:13:30.975000,12.975,3,BFW,,,,,,,1.0,,,,,1.0,,,,1.0,talking,5
427,427,2011-12-14 12:13:24.500000,2011-12-14 12:13:37.475000,12.975,3,BFW,,,,,,,1.0,,,,,1.0,,,,1.0,talking,5
428,428,2011-12-14 12:13:31,2011-12-14 12:13:43.975000,12.975,3,BFW,0.43125,0.13294797687861273,1.0,10.0,left-puff,,1.0,,,,,1.0,,,,1.0,puff,9
429,429,2011-12-14 12:13:37.500000,2011-12-14 12:13:50.475000,12.975,3,BFW,1.0,0.3082851637764933,1.0,10.0,left-puff,,1.0,,,,,1.0,,,,1.0,puff,9
430,430,2011-12-14 12:13:44,2011-12-14 12:13:56.975000,12.975,3,BFW,0.5625,0.17341040462427745,1.0,10.0,left-puff,,0.7707129094412332,,0.22928709055876687,,,0.6165703275529866,,,,0.6165703275529866,puff,9
431,431,2011-12-14 12:13:50.500000,2011-12-14 12:14:03.475000,12.975,3,BFW,,,,,,,0.2697495183044316,,0.5394990366088632,,,0.11560693641618497,,,,0.11560693641618497,drinking,8
432,432,2011-12-14 12:13:57,2011-12-14 12:14:09.975000,12.975,3,BFW,,,,,,,0.4605009633911368,,0.3082851637764933,,,,,,,,drinking,8
433,433,2011-12-14 12:14:03.500000,2011-12-14 12:14:16.475000,12.975,3,BFW,,,,,,,0.9614643545279383,,,,,,,,,,talking,5
434,434,2011-12-14 12:14:10,2011-12-14 12:14:22.975000,12.975,3,BFW,,,,,,,1.0,,,,,,,,,,rest,-1
435,435,2011-12-14 12:14:16.500000,2011-12-14 12:14:29.475000,12.975,3,BFW,,,,,,,1.0,,,,,,,,,,talking,5
436,436,2011-12-14 12:14:23,2011-12-14 12:14:35.975000,12.975,3,BFW,,,,,,,1.0,,,,,,,,,,talking,5
437,437,2011-12-14 12:14:29.500000,2011-12-14 12:14:42.475000,12.975,3,BFW,,,,,,,1.0,,,,,,,,,,talking,5
438,438,2011-12-14 12:14:36,2011-12-14 12:14:48.975000,12.975,3,BFW,,,,,,,1.0,,,,,,,,,,talking,5
439,439,2011-12-14 12:14:42.500000,2011-12-14 12:14:55.475000,12.975,3,BFW,,,,,,,1.0,,,,,,,,,,talking,5
440,440,2011-12-14 12:14:49,2011-12-14 12:15:01.975000,12.975,3,BFW,,,,,,,1.0,,,,,,,,,,talking,5
441,441,2011-12-14 12:14:55.500000,2011-12-14 12:15:08.475000,12.975,3,BFW,,,,,,,1.0,,,,,,,,,,talking,5
442,442,2011-12-14 12:15:02,2011-12-14 12:15:14.975000,12.975,3,BFW,,,,,,,1.0,,,,,,,,,,talking,5
443,443,2011-12-14 12:15:08.500000,2011-12-14 12:15:21.475000,12.975,3,BFW,,,,,,,1.0,,,,,,,,,,talking,5
444,444,2011-12-14 12:15:15,2011-12-14 12:15:27.975000,12.975,3,BFW,,,,,,,1.0,,,,,,,,,,talking,5
445,445,2011-12-14 12:15:21.500000,2011-12-14 12:15:34.475000,12.975,3,BFW,,,,,,,1.0,,,,,,,,,,talking,5
446,446,2011-12-14 12:15:28,2011-12-14 12:15:40.975000,12.975,3,BFW,,,,,,,1.0,,,,,,,,,,talking,5
447,447,2011-12-14 12:15:34.500000,2011-12-14 12:15:47.475000,12.975,3,BFW,,,,,,,1.0,,,,,,,,,,talking,5
448,448,2011-12-14 12:15:41,2011-12-14 12:15:53.975000,12.975,3,BFW,,,,,,,1.0,,,,,,,,,,talking,5
449,449,2011-12-14 12:15:47.500000,2011-12-14 12:16:00.475000,12.975,3,BFW,,,,,,,1.0,,,,,,,,,,talking,5
450,450,2011-12-14 12:15:54,2011-12-14 12:16:06.975000,12.975,3,BFW,,,,,,,1.0,,,,,,,,,,talking,5
451,451,2011-12-14 12:16:00.500000,2011-12-14 12:16:13.475000,12.975,3,BFW,,,,,,,1.0,,,,,,,,,,talking,5
452,452,2011-12-14 12:16:07,2011-12-14 12:16:19.975000,12.975,3,BFW,,,,,,,1.0,,,,,,,,,,talking,5
453,453,2011-12-14 12:16:13.500000,2011-12-14 12:16:26.475000,12.975,3,BFW,,,,,,,1.0,,,,,,,,,,talking,5
454,454,2011-12-14 12:16:20,2011-12-14 12:16:32.975000,12.975,3,BFW,,,,,,,1.0,,,,,,,,,,talking,5
455,455,2011-12-14 12:16:26.500000,2011-12-14 12:16:39.475000,12.975,3,BFW,,,,,,,1.0,,,,,,,,,,talking,5
456,456,2011-12-14 12:16:33,2011-12-14 12:16:45.975000,12.975,3,BFW,,,,,,,1.0,,,,,,,,,,talking,5
457,457,2011-12-14 12:16:39.500000,2011-12-14 12:16:52.475000,12.975,3,BFW,,,,,,,1.0,,,,,,,,,,talking,5
458,458,2011-12-14 12:16:46,2011-12-14 12:16:58.975000,12.975,3,BFW,,,,,,,1.0,,,,,,,,,,talking,5
459,459,2011-12-14 12:16:52.500000,2011-12-14 12:17:05.475000,12.975,3,BFW,,,,,,,1.0,,,,,,,,,,talking,5
460,460,2011-12-14 12:16:59,2011-12-14 12:17:11.975000,12.975,3,BFW,,,,,,,1.0,,,,,,,,,,talking,5
461,461,2011-12-14 12:17:05.500000,2011-12-14 12:17:18.475000,12.975,3,BFW,,,,,,,1.0,,,,,,,,,,talking,5
462,462,2011-12-14 12:17:12,2011-12-14 12:17:24.975000,12.975,3,BFW,,,,,,,1.0,,,,,,,,,,talking,5
463,463,2011-12-14 12:17:18.500000,2011-12-14 12:17:31.475000,12.975,3,BFW,,,,,,,1.0,,,,,,,,,,talking,5
464,464,2011-12-14 12:17:25,2011-12-14 12:17:37.975000,12.975,3,BFW,,,,,,,1.0,,,,,,,,,,talking,5
465,465,2011-12-14 12:17:31.500000,2011-12-14 12:17:44.475000,12.975,3,BFW,,,,,,,1.0,,,,,,,,,,talking,5
466,466,2011-12-14 12:17:38,2011-12-14 12:17:50.975000,12.975,3,BFW,,,,,,,1.0,,,,,,,,,,talking,5
467,467,2011-12-14 12:17:44.500000,2011-12-14 12:17:57.475000,12.975,3,BFW,,,,,,,1.0,,,,,,,,,,talking,5
468,468,2011-12-14 12:17:51,2011-12-14 12:18:03.975000,12.975,3,BFW,,,,,,,1.0,,,,,,,,,,talking,5
469,469,2011-12-14 12:17:57.500000,2011-12-14 12:18:10.475000,12.975,3,BFW,,,,,,,0.8458574181117534,,0.15414258188824664,,,,,,,,talking,5
470,470,2011-12-14 12:18:04,2011-12-14 12:18:16.975000,12.975,3,BFW,,,,,,,0.8458574181117534,,0.15414258188824664,,,,,,,,talking,5
471,471,2011-12-14 12:18:10.500000,2011-12-14 12:18:23.475000,12.975,3,BFW,,,,,,,1.0,,,,,,,,,,talking,5
472,472,2011-12-14 12:18:17,2011-12-14 12:18:29.975000,12.975,3,BFW,,,,,,,1.0,,,,,,,,,,talking,5
473,473,2011-12-14 12:18:23.500000,2011-12-14 12:18:36.475000,12.975,3,BFW,,,,,,,1.0,,,,,,,,,,talking,5
474,474,2011-12-14 12:18:30,2011-12-14 12:18:42.975000,12.975,3,BFW,,,,,,,1.0,,,,,,,,,,talking,5
475,475,2011-12-14 12:18:36.500000,2011-12-14 12:18:49.475000,12.975,3,BFW,,,,,,,1.0,,,,,,,,,,talking,5
476,476,2011-12-14 12:18:43,2011-12-14 12:18:55.975000,12.975,3,BFW,,,,,,,1.0,,,,,,,,,,talking,5
477,477,2011-12-14 12:18:49.500000,2011-12-14 12:19:02.475000,12.975,3,BFW,,,,,,,1.0,,,,,,,,,,talking,5
478,478,2011-12-14 12:18:56,2011-12-14 12:19:08.975000,12.975,3,BFW,,,,,,,1.0,,,,,,,,,,talking,5
479,479,2011-12-14 12:19:02.500000,2011-12-14 12:19:15.475000,12.975,3,BFW,,,,,,,1.0,,,,,,,,,,talking,5
480,480,2011-12-14 12:19:09,2011-12-14 12:19:21.975000,12.975,3,BFW,,,,,,,1.0,,,,,,,,,,talking,5
481,481,2011-12-14 12:19:15.500000,2011-12-14 12:19:28.475000,12.975,3,BFW,,,,,,,1.0,,,,,,,,,,talking,5
482,482,2011-12-14 12:19:22,2011-12-14 12:19:34.975000,12.975,3,BFW,,,,,,,1.0,,,,,,,,,,talking,5
483,483,2011-12-14 12:19:28.500000,2011-12-14 12:19:41.475000,12.975,3,BFW,,,,,,,1.0,,,,,,,,,,talking,5
484,484,2011-12-14 12:19:35,2011-12-14 12:19:47.975000,12.975,3,BFW,,,,,,,1.0,,,,,,,,,,talking,5
485,485,2011-12-14 12:19:41.500000,2011-12-14 12:19:54.475000,12.975,3,BFW,,,,,,,1.0,,,,,,,,,,talking,5
486,486,2011-12-14 12:19:48,2011-12-14 12:20:00.975000,12.975,3,BFW,,,,,,,1.0,,,,,,,,,,talking,5
487,487,2011-12-14 12:19:54.500000,2011-12-14 12:20:07.475000,12.975,3,BFW,,,,,,,1.0,,,,,,,,,,talking,5
488,488,2011-12-14 12:20:01,2011-12-14 12:20:13.975000,12.975,3,BFW,,,,,,,1.0,,,,,,,,,,talking,5
489,489,2011-12-14 12:20:07.500000,2011-12-14 12:20:20.475000,12.975,3,BFW,,,,,,,1.0,,,,,,,,,,talking,5
490,490,2011-12-14 12:20:14,2011-12-14 12:20:26.975000,12.975,3,BFW,,,,,,,1.0,,,,,,,,,,talking,5
491,491,2011-12-14 12:20:20.500000,2011-12-14 12:20:33.475000,12.975,3,BFW,,,,,,,1.0,,,,,,,,,,talking,5
492,492,2011-12-14 12:20:27,2011-12-14 12:20:39.975000,12.975,3,BFW,,,,,,,1.0,,,,,,,,,,talking,5
493,493,2011-12-14 12:20:33.500000,2011-12-14 12:20:46.475000,12.975,3,BFW,,,,,,,1.0,,,,,,,,,,talking,5
494,494,2011-12-14 12:20:40,2011-12-14 12:20:52.975000,12.975,3,BFW,,,,,,,1.0,,,,,,,,,,talking,5
495,495,2011-12-14 12:20:46.500000,2011-12-14 12:20:59.475000,12.975,3,BFW,,,,,,,1.0,,,,,,,,,,talking,5
496,496,2011-12-14 12:20:53,2011-12-14 12:21:05.975000,12.975,3,BFW,,,,,,,1.0,,,,,,,,,,talking,5
497,497,2011-12-14 12:20:59.500000,2011-12-14 12:21:12.475000,12.975,3,BFW,,,,,,,1.0,,,,,,,,,,talking,5
498,498,2011-12-14 12:21:06,2011-12-14 12:21:18.975000,12.975,3,BFW,,,,,,,1.0,,,,,,,,,,talking,5
499,499,2011-12-14 12:21:12.500000,2011-12-14 12:21:25.475000,12.975,3,BFW,,,,,,,1.0,,,,,,,,,,talking,5
500,500,2011-12-14 12:21:19,2011-12-14 12:21:31.975000,12.975,3,BFW,0.0842857142857143,0.1136801541425819,0.0,11.0,left-puff,,1.0,,,,,0.22928709055876687,,,,0.22928709055876687,talking,5
501,501,2011-12-14 12:21:25.500000,2011-12-14 12:21:38.475000,12.975,3,BFW,0.4557142857142857,0.6146435452793835,0.0,11.0,left-puff,,1.0,,,,,0.7302504816955684,,,,0.7302504816955684,puff,9
502,502,2011-12-14 12:21:32,2011-12-14 12:21:44.975000,12.975,3,BFW,0.7414285714285714,1.0,0.0,11.0,left-puff,,1.0,,,,,1.0,,,,1.0,puff,9
503,503,2011-12-14 12:21:38.500000,2011-12-14 12:21:51.475000,12.975,3,BFW,0.5428571428571428,0.7321772639691715,0.0,11.0,left-puff,,0.8092485549132948,,0.19075144508670522,,,1.0,,,,1.0,puff,9
504,504,2011-12-14 12:21:45,2011-12-14 12:21:57.975000,12.975,3,BFW,0.17142857142857143,0.23121387283236994,0.0,11.0,left-puff,,0.3082851637764933,,0.6917148362235067,,,1.0,,,,1.0,drinking,8
505,505,2011-12-14 12:21:51.500000,2011-12-14 12:22:04.475000,12.975,3,BFW,,,,,,,,,0.6551059730250481,,,1.0,,,,0.6551059730250481,drinking,8
506,506,2011-12-14 12:21:58,2011-12-14 12:22:10.975000,12.975,3,BFW,,,,,,,,,0.15414258188824664,,,1.0,,,,0.15414258188824664,others,0
507,507,2011-12-14 12:22:04.500000,2011-12-14 12:22:17.475000,12.975,3,BFW,,,,,,,,,,,,1.0,,,,,others,0
508,508,2011-12-14 12:22:11,2011-12-14 12:22:23.975000,12.975,3,BFW,,,,,,,,,,,,1.0,,,,,rest,-1
509,509,2011-12-14 12:22:17.500000,2011-12-14 12:22:30.475000,12.975,3,BFW,,,,,,,,,,,,1.0,,,,,others,0
510,510,2011-12-14 12:22:24,2011-12-14 12:22:36.975000,12.975,3,BFW,,,,,,,,,,,,1.0,,,,,others,0
511,511,2011-12-14 12:22:30.500000,2011-12-14 12:22:43.475000,12.975,3,BFW,0.465625,0.28709055876685935,0.0,12.0,left-puff,,,,,,,1.0,,,,,puff,9
512,512,2011-12-14 12:22:37,2011-12-14 12:22:49.975000,12.975,3,BFW,1.0,0.6165703275529866,0.0,12.0,left-puff,,,,,,,1.0,,,,,puff,9
513,513,2011-12-14 12:22:43.500000,2011-12-14 12:22:56.475000,12.975,3,BFW,0.53125,0.32755298651252407,0.0,12.0,left-puff,,,,,,,1.0,,,,,puff,9
514,514,2011-12-14 12:22:50,2011-12-14 12:23:02.975000,12.975,3,BFW,,,,,,,,,,,,1.0,,,,,others,0
515,515,2011-12-14 12:22:56.500000,2011-12-14 12:23:09.475000,12.975,3,BFW,,,,,,,,0.49903660886319845,,,,1.0,,,,0.49903660886319845,others,0
516,516,2011-12-14 12:23:03,2011-12-14 12:23:15.975000,12.975,3,BFW,,,,,,,,0.6936416184971098,,,,1.0,,0.07514450867052024,,0.7687861271676301,others,0
517,517,2011-12-14 12:23:09.500000,2011-12-14 12:23:22.475000,12.975,3,BFW,,,,,,,,0.1926782273603083,,,,1.0,,0.5761078998073218,,0.7687861271676301,phone,3
518,518,2011-12-14 12:23:16,2011-12-14 12:23:28.975000,12.975,3,BFW,,,,,,,,,,,,1.0,,1.0,,1.0,phone,3
519,519,2011-12-14 12:23:22.500000,2011-12-14 12:23:35.475000,12.975,3,BFW,,,,,,,,,,,,1.0,,1.0,,1.0,phone,3
520,520,2011-12-14 12:23:29,2011-12-14 12:23:41.975000,12.975,3,BFW,,,,,,,,,,,,1.0,,1.0,,1.0,phone,3
521,521,2011-12-14 12:23:35.500000,2011-12-14 12:23:48.475000,12.975,3,BFW,,,,,,,,,,,,1.0,,1.0,,1.0,phone,3
522,522,2011-12-14 12:23:42,2011-12-14 12:23:54.975000,12.975,3,BFW,,,,,,,,,,,,1.0,,1.0,,1.0,phone,3
523,523,2011-12-14 12:23:48.500000,2011-12-14 12:24:01.475000,12.975,3,BFW,1.0,0.3468208092485549,1.0,13.0,left-puff,,,,,,,1.0,,1.0,,1.0,puff,9
524,524,2011-12-14 12:23:55,2011-12-14 12:24:07.975000,12.975,3,BFW,1.0,0.3468208092485549,1.0,13.0,left-puff,,,,,,,1.0,,1.0,,1.0,puff,9
525,525,2011-12-14 12:24:01.500000,2011-12-14 12:24:14.475000,12.975,3,BFW,,,,,,,,,,,,1.0,,1.0,,1.0,phone,3
526,526,2011-12-14 12:24:08,2011-12-14 12:24:20.975000,12.975,3,BFW,,,,,,,,,,,,1.0,,1.0,,1.0,phone,3
527,527,2011-12-14 12:24:14.500000,2011-12-14 12:24:27.475000,12.975,3,BFW,0.8949999999999999,0.3448940269749518,1.0,14.0,left-puff,,,,,,,1.0,,1.0,,1.0,puff,9
528,528,2011-12-14 12:24:21,2011-12-14 12:24:33.975000,12.975,3,BFW,1.0,0.3853564547206166,1.0,14.0,left-puff,,,,,,,1.0,,1.0,,1.0,puff,9
529,529,2011-12-14 12:24:27.500000,2011-12-14 12:24:40.475000,12.975,3,BFW,0.1,0.03853564547206166,1.0,14.0,left-puff,,,,,,,1.0,,1.0,,1.0,phone,3
530,530,2011-12-14 12:24:34,2011-12-14 12:24:46.975000,12.975,3,BFW,,,,,,,,,,,,1.0,,1.0,,1.0,phone,3
531,531,2011-12-14 12:24:40.500000,2011-12-14 12:24:53.475000,12.975,3,BFW,,,,,,,,,,,,1.0,,1.0,,1.0,rest,-1
532,532,2011-12-14 12:24:47,2011-12-14 12:24:59.975000,12.975,3,BFW,,,,,,,,,,,,1.0,,1.0,,1.0,phone,3
533,533,2011-12-14 12:24:53.500000,2011-12-14 12:25:06.475000,12.975,3,BFW,0.49583333333333335,0.22928709055876687,1.0,15.0,left-puff,,,,,,,1.0,,1.0,,1.0,puff,9
534,534,2011-12-14 12:25:00,2011-12-14 12:25:12.975000,12.975,3,BFW,1.0,0.4624277456647399,1.0,15.0,left-puff,,,,,,,1.0,,1.0,,1.0,puff,9
535,535,2011-12-14 12:25:06.500000,2011-12-14 12:25:19.475000,12.975,3,BFW,0.5,0.23121387283236994,1.0,15.0,left-puff,,,,,,,1.0,,1.0,,1.0,puff,9
536,536,2011-12-14 12:25:13,2011-12-14 12:25:25.975000,12.975,3,BFW,,,,,,,,,,,,1.0,,1.0,,1.0,phone,3
537,537,2011-12-14 12:25:19.500000,2011-12-14 12:25:32.475000,12.975,3,BFW,0.795,0.3063583815028902,1.0,16.0,left-puff,,,,,,,1.0,,1.0,,1.0,puff,9
538,538,2011-12-14 12:25:26,2011-12-14 12:25:38.975000,12.975,3,BFW,1.0,0.3853564547206166,1.0,16.0,left-puff,,,,,,,1.0,,1.0,,1.0,puff,9
539,539,2011-12-14 12:25:32.500000,2011-12-14 12:25:45.475000,12.975,3,BFW,0.2,0.07707129094412332,1.0,16.0,left-puff,,,,,,,1.0,,1.0,,1.0,phone,3
540,540,2011-12-14 12:25:39,2011-12-14 12:25:51.975000,12.975,3,BFW,,,,,,,,,,,,1.0,,1.0,,1.0,phone,3
541,541,2011-12-14 12:25:45.500000,2011-12-14 12:25:58.475000,12.975,3,BFW,0.7095238095238096,0.28709055876685935,1.0,17.0,left-puff,,,,,,,1.0,,1.0,,1.0,puff,9
542,542,2011-12-14 12:25:52,2011-12-14 12:26:04.975000,12.975,3,BFW,1.0,0.4046242774566474,1.0,17.0,left-puff,,,,,,,1.0,,1.0,,1.0,puff,9
543,543,2011-12-14 12:25:58.500000,2011-12-14 12:26:11.475000,12.975,3,BFW,0.7571428571428571,0.3063583815028902,1.0,17.0,left-puff,,,,,,,1.0,,1.0,,1.0,puff,9
544,544,2011-12-14 12:26:05,2011-12-14 12:26:17.975000,12.975,3,BFW,1.0,0.4431599229287091,1.0,18.0,left-puff,,,,,,,1.0,,1.0,,1.0,puff,9
545,545,2011-12-14 12:26:11.500000,2011-12-14 12:26:24.475000,12.975,3,BFW,0.5652173913043478,0.2504816955684008,1.0,18.0,left-puff,,,,,,,1.0,,1.0,,1.0,puff,9
546,546,2011-12-14 12:26:18,2011-12-14 12:26:30.975000,12.975,3,BFW,0.5888888888888889,0.3063583815028902,1.0,19.0,left-puff,,,,,,,1.0,,1.0,,1.0,puff,9
547,547,2011-12-14 12:26:24.500000,2011-12-14 12:26:37.475000,12.975,3,BFW,1.0,0.5202312138728323,1.0,19.0,left-puff,,,,,,,1.0,,1.0,,1.0,puff,9
548,548,2011-12-14 12:26:31,2011-12-14 12:26:43.975000,12.975,3,BFW,0.4074074074074074,0.21194605009633913,1.0,19.0,left-puff,,,,,,,1.0,,1.0,,1.0,puff,9
549,549,2011-12-14 12:26:37.500000,2011-12-14 12:26:50.475000,12.975,3,BFW,0.41578947368421054,0.15221579961464354,1.0,20.0,left-puff,,,,,,,1.0,,1.0,,1.0,puff,9
550,550,2011-12-14 12:26:44,2011-12-14 12:26:56.975000,12.975,3,BFW,1.0,0.36608863198458574,1.0,20.0,left-puff,,,,,,,1.0,,1.0,,1.0,puff,9
551,551,2011-12-14 12:26:50.500000,2011-12-14 12:27:03.475000,12.975,3,BFW,0.5789473684210527,0.21194605009633913,1.0,20.0,left-puff,,,,,,,1.0,,1.0,,1.0,puff,9
552,552,2011-12-14 12:26:57,2011-12-14 12:27:09.975000,12.975,3,BFW,,,,,,,,,,,,1.0,,1.0,,1.0,rest,-1
553,553,2011-12-14 12:27:03.500000,2011-12-14 12:27:16.475000,12.975,3,BFW,0.32916666666666666,0.15221579961464354,1.0,21.0,left-puff,,,,,,,1.0,,0.7321772639691715,,0.7321772639691715,puff,9
554,554,2011-12-14 12:27:10,2011-12-14 12:27:22.975000,12.975,3,BFW,1.0,0.4624277456647399,1.0,21.0,left-puff,,,,,,,1.0,,0.23121387283236994,,0.23121387283236994,puff,9
555,555,2011-12-14 12:27:16.500000,2011-12-14 12:27:29.475000,12.975,3,BFW,0.6666666666666666,0.3082851637764933,1.0,21.0,left-puff,,,,,,,1.0,,,,,puff,9
556,556,2011-12-14 12:27:23,2011-12-14 12:27:35.975000,12.975,3,BFW,,,,,,,,,,,,1.0,,,,,others,0
557,557,2011-12-14 12:27:29.500000,2011-12-14 12:27:42.475000,12.975,3,BFW,,,,,,,,,,,,1.0,,,,,others,0
558,558,2011-12-14 12:27:36,2011-12-14 12:27:48.975000,12.975,3,BFW,,,,,,,,,,,,1.0,,,,,others,0
559,559,2011-12-14 12:27:42.500000,2011-12-14 12:27:55.475000,12.975,3,BFW,,,,,,,0.49903660886319845,,,,,1.0,,,,0.49903660886319845,talking,5
560,560,2011-12-14 12:27:49,2011-12-14 12:28:01.975000,12.975,3,BFW,,,,,,,1.0,,,,,1.0,,,,1.0,talking,5
561,561,2011-12-14 12:27:55.500000,2011-12-14 12:28:08.475000,12.975,3,BFW,,,,,,,1.0,,,,,1.0,,,,1.0,talking,5
562,562,2011-12-14 12:28:02,2011-12-14 12:28:14.975000,12.975,3,BFW,1.0,0.36608863198458574,1.0,22.0,left-puff,,1.0,,,,,1.0,,,,1.0,puff,9
563,563,2011-12-14 12:28:08.500000,2011-12-14 12:28:21.475000,12.975,3,BFW,1.0,0.36608863198458574,1.0,22.0,left-puff,,1.0,,,,,1.0,,,,1.0,puff,9
564,564,2011-12-14 12:28:15,2011-12-14 12:28:27.975000,12.975,3,BFW,,,,,,,1.0,,,,,1.0,,,,1.0,rest,-1
565,565,2011-12-14 12:28:21.500000,2011-12-14 12:28:34.475000,12.975,3,BFW,,,,,,,1.0,,,,,1.0,,,,1.0,talking,5
566,566,2011-12-14 12:28:28,2011-12-14 12:28:40.975000,12.975,3,BFW,,,,,,,1.0,,,,,1.0,,,,1.0,talking,5
567,567,2011-12-14 12:28:34.500000,2011-12-14 12:28:47.475000,12.975,3,BFW,,,,,,,1.0,,,,,1.0,,,,1.0,rest,-1
568,568,2011-12-14 12:28:41,2011-12-14 12:28:53.975000,12.975,3,BFW,,,,,,,1.0,,,,,1.0,,,,1.0,talking,5
569,569,2011-12-14 12:28:47.500000,2011-12-14 12:29:00.475000,12.975,3,BFW,,,,,,,1.0,,,,,1.0,,,,1.0,talking,5
570,570,2011-12-14 12:28:54,2011-12-14 12:29:06.975000,12.975,3,BFW,0.9961538461538461,0.49903660886319845,1.0,23.0,left-puff,,1.0,,,,,1.0,,,,1.0,puff,9
571,571,2011-12-14 12:29:00.500000,2011-12-14 12:29:13.475000,12.975,3,BFW,1.0,0.5009633911368016,1.0,23.0,left-puff,,1.0,,,,,1.0,,,,1.0,puff,9
572,572,2011-12-14 12:29:07,2011-12-14 12:29:19.975000,12.975,3,BFW,,,,,,,1.0,,,,,1.0,,,,1.0,talking,5
573,573,2011-12-14 12:29:13.500000,2011-12-14 12:29:26.475000,12.975,3,BFW,,,,,,,1.0,,,,,0.8092485549132948,,,,0.8092485549132948,talking,5
574,574,2011-12-14 12:29:20,2011-12-14 12:29:32.975000,12.975,3,BFW,,,,,,,1.0,,,,,0.3082851637764933,,,,0.3082851637764933,talking,5
575,575,2011-12-14 12:29:26.500000,2011-12-14 12:29:39.475000,12.975,3,BFW,,,,,,,1.0,,,,,,,,,,talking,5
576,576,2011-12-14 12:29:33,2011-12-14 12:29:45.975000,12.975,3,BFW,,,,,,,1.0,,,,,,,,,,talking,5
577,577,2011-12-14 12:29:39.500000,2011-12-14 12:29:52.475000,12.975,3,BFW,,,,,,,1.0,,,,,,,,,,talking,5
578,578,2011-12-14 12:29:46,2011-12-14 12:29:58.975000,12.975,3,BFW,,,,,,,0.9248554913294798,0.07514450867052024,,,,,,,,,talking,5
579,579,2011-12-14 12:29:52.500000,2011-12-14 12:30:05.475000,12.975,3,BFW,,,,,,,0.42389210019267826,0.5761078998073218,,,,,,,,,talking,5
580,580,2011-12-14 12:29:59,2011-12-14 12:30:11.975000,12.975,3,BFW,,,,,,,,1.0,,,,,,,,,others,0
581,581,2011-12-14 12:30:05.500000,2011-12-14 12:30:18.475000,12.975,3,BFW,,,,,,,,1.0,,,,,,,,,others,0
582,582,2011-12-14 12:30:12,2011-12-14 12:30:24.975000,12.975,3,BFW,,,,,,,,1.0,,,,,,,,,others,0
583,583,2011-12-14 12:30:18.500000,2011-12-14 12:30:31.475000,12.975,3,BFW,,,,,,,,1.0,,,,,,,,,others,0
584,584,2011-12-14 12:30:25,2011-12-14 12:30:37.975000,12.975,3,BFW,,,,,,,,1.0,,,,,,,,,others,0
585,585,2011-12-14 12:30:31.500000,2011-12-14 12:30:44.475000,12.975,3,BFW,,,,,,,,1.0,,,,,,,,,others,0
586,586,2011-12-14 12:30:38,2011-12-14 12:30:50.975000,12.975,3,BFW,,,,,,,,1.0,,,,,,,,,others,0
587,587,2011-12-14 12:30:44.500000,2011-12-14 12:30:57.475000,12.975,3,BFW,,,,,,,,1.0,,,,,,,,,others,0
588,588,2011-12-14 12:30:51,2011-12-14 12:31:03.975000,12.975,3,BFW,,,,,,,,1.0,,,,,,,,,others,0
589,589,2011-12-14 12:30:57.500000,2011-12-14 12:31:10.475000,12.975,3,BFW,,,,,,,,1.0,,,,,,,,,others,0
590,590,2011-12-14 12:31:04,2011-12-14 12:31:16.975000,12.975,3,BFW,,,,,,,,1.0,,,,,,,,,others,0
591,591,2011-12-14 12:31:10.500000,2011-12-14 12:31:23.475000,12.975,3,BFW,,,,,,,,1.0,,,,,,,,,others,0
592,592,2011-12-14 12:31:17,2011-12-14 12:31:29.975000,12.975,3,BFW,,,,,,,,1.0,,,,,,,,,others,0
593,593,2011-12-14 12:31:23.500000,2011-12-14 12:31:36.475000,12.975,3,BFW,,,,,,,,1.0,,,,,,,,,others,0
594,594,2011-12-14 12:31:30,2011-12-14 12:31:42.975000,12.975,3,BFW,,,,,,,,1.0,,,,,,,,,others,0
595,595,2011-12-14 12:31:36.500000,2011-12-14 12:31:49.475000,12.975,3,BFW,,,,,,,,1.0,,,,,,,,,others,0
596,596,2011-12-14 12:31:43,2011-12-14 12:31:55.975000,12.975,3,BFW,,,,,,,,1.0,,,,,,,,,others,0
597,597,2011-12-14 12:31:49.500000,2011-12-14 12:32:02.475000,12.975,3,BFW,,,,,,,,1.0,,,,,,,,,others,0
598,598,2011-12-14 12:31:56,2011-12-14 12:32:08.975000,12.975,3,BFW,,,,,,,,1.0,,,,,,,,,others,0
599,599,2011-12-14 12:32:02.500000,2011-12-14 12:32:15.475000,12.975,3,BFW,,,,,,,,1.0,,,,,,,,,rest,-1
600,600,2011-12-14 12:32:09,2011-12-14 12:32:21.975000,12.975,3,BFW,,,,,,,,1.0,,,,,,,,,others,0
601,601,2011-12-14 12:32:15.500000,2011-12-14 12:32:28.475000,12.975,3,BFW,,,,,,,,1.0,,,,,,,,,others,0
602,602,2011-12-14 12:32:22,2011-12-14 12:32:34.975000,12.975,3,BFW,,,,,,,,1.0,,,,,,,,,others,0
603,603,2011-12-14 12:32:28.500000,2011-12-14 12:32:41.475000,12.975,3,BFW,,,,,,,,1.0,,,,0.42196531791907516,,,,0.42196531791907516,others,0
604,604,2011-12-14 12:32:35,2011-12-14 12:32:47.975000,12.975,3,BFW,,,,,,,,1.0,,,,0.9229287090558767,,,,0.9229287090558767,others,0
605,605,2011-12-14 12:32:41.500000,2011-12-14 12:32:54.475000,12.975,3,BFW,,,,,,,,1.0,,,,1.0,,,,1.0,others,0
606,606,2011-12-14 12:32:48,2011-12-14 12:33:00.975000,12.975,3,BFW,,,,,,,,1.0,,,,1.0,,,,1.0,others,0
607,607,2011-12-14 12:32:54.500000,2011-12-14 12:33:07.475000,12.975,3,BFW,,,,,,,,1.0,,,,1.0,,,,1.0,others,0
608,608,2011-12-14 12:33:01,2011-12-14 12:33:13.975000,12.975,3,BFW,,,,,,,,1.0,,,,1.0,,,,1.0,others,0
609,609,2011-12-14 12:33:07.500000,2011-12-14 12:33:20.475000,12.975,3,BFW,,,,,,,,1.0,,,,1.0,,,,1.0,others,0
610,610,2011-12-14 12:33:14,2011-12-14 12:33:26.975000,12.975,3,BFW,,,,,,,,1.0,,,,1.0,,,,1.0,others,0
611,611,2011-12-14 12:33:20.500000,2011-12-14 12:33:33.475000,12.975,3,BFW,,,,,,,,1.0,,,,1.0,,,,1.0,others,0
612,612,2011-12-14 12:33:27,2011-12-14 12:33:39.975000,12.975,3,BFW,0.1357142857142857,0.036608863198458574,0.0,24.0,left-puff,,,0.9248554913294798,,,0.07514450867052024,1.0,,,,1.0,others,0
613,613,2011-12-14 12:33:33.500000,2011-12-14 12:33:46.475000,12.975,3,BFW,1.0,0.2697495183044316,0.0,24.0,left-puff,,,0.42389210019267826,,,0.5761078998073218,1.0,,,,1.0,puff,9
614,614,2011-12-14 12:33:40,2011-12-14 12:33:52.975000,12.975,3,BFW,0.8571428571428571,0.23121387283236994,0.0,24.0,left-puff,,,,,,1.0,1.0,,,,1.0,puff,9
615,615,2011-12-14 12:33:46.500000,2011-12-14 12:33:59.475000,12.975,3,BFW,,,,,,,,,,,1.0,1.0,,,,1.0,eating,2
616,616,2011-12-14 12:33:53,2011-12-14 12:34:05.975000,12.975,3,BFW,0.45769230769230773,0.22928709055876687,1.0,25.0,left-puff,,,,,,1.0,1.0,,,,1.0,puff,9
617,617,2011-12-14 12:33:59.500000,2011-12-14 12:34:12.475000,12.975,3,BFW,1.0,0.5009633911368016,1.0,25.0,left-puff,,,,,,1.0,1.0,,,,1.0,puff,9
618,618,2011-12-14 12:34:06,2011-12-14 12:34:18.975000,12.975,3,BFW,0.5384615384615384,0.2697495183044316,1.0,25.0,left-puff,,,,,,1.0,1.0,,,,1.0,puff,9
619,619,2011-12-14 12:34:12.500000,2011-12-14 12:34:25.475000,12.975,3,BFW,,,,,,,,,,,1.0,1.0,,,,1.0,eating,2
620,620,2011-12-14 12:34:19,2011-12-14 12:34:31.975000,12.975,3,BFW,,,,,,,,,,,1.0,1.0,,,,1.0,eating,2
621,621,2011-12-14 12:34:25.500000,2011-12-14 12:34:38.475000,12.975,3,BFW,,,,,,,,,,,0.5009633911368016,1.0,0.49903660886319845,,,1.0,computer,4
622,622,2011-12-14 12:34:32,2011-12-14 12:34:44.975000,12.975,3,BFW,,,,,,,,,,,,1.0,1.0,,,1.0,computer,4
623,623,2011-12-14 12:34:38.500000,2011-12-14 12:34:51.475000,12.975,3,BFW,,,,,,,,,,,,1.0,1.0,,,1.0,computer,4
624,624,2011-12-14 12:34:45,2011-12-14 12:34:57.975000,12.975,3,BFW,,,,,,,,,,,,1.0,1.0,,,1.0,computer,4
625,625,2011-12-14 12:34:51.500000,2011-12-14 12:35:04.475000,12.975,3,BFW,0.9949999999999999,0.3834296724470135,0.0,26.0,left-puff,,,,,,,1.0,1.0,,,1.0,puff,9
626,626,2011-12-14 12:34:58,2011-12-14 12:35:10.975000,12.975,3,BFW,1.0,0.3853564547206166,0.0,26.0,left-puff,,,,,,,1.0,1.0,,,1.0,puff,9
627,627,2011-12-14 12:35:04.500000,2011-12-14 12:35:17.475000,12.975,3,BFW,1.0,0.3082851637764933,0.0,27.0,left-puff,,,,,,,1.0,1.0,,,1.0,puff,9
628,628,2011-12-14 12:35:11,2011-12-14 12:35:23.975000,12.975,3,BFW,1.0,0.3082851637764933,0.0,27.0,left-puff,,,,,,,1.0,1.0,,,1.0,puff,9
629,629,2011-12-14 12:35:17.500000,2011-12-14 12:35:30.475000,12.975,3,BFW,,,,,,,,,,,,1.0,1.0,,,1.0,computer,4
630,630,2011-12-14 12:35:24,2011-12-14 12:35:36.975000,12.975,3,BFW,,,,,,,,,,,,1.0,1.0,,,1.0,computer,4
631,631,2011-12-14 12:35:30.500000,2011-12-14 12:35:43.475000,12.975,3,BFW,,,,,,,,,,,,1.0,1.0,,,1.0,computer,4
632,632,2011-12-14 12:35:37,2011-12-14 12:35:49.975000,12.975,3,BFW,0.6884615384615385,0.3448940269749518,0.0,28.0,left-puff,,,,,,,1.0,1.0,,,1.0,puff,9
633,633,2011-12-14 12:35:43.500000,2011-12-14 12:35:56.475000,12.975,3,BFW,1.0,0.5009633911368016,0.0,28.0,left-puff,,,,,,,1.0,1.0,,,1.0,puff,9
634,634,2011-12-14 12:35:50,2011-12-14 12:36:02.975000,12.975,3,BFW,0.6115384615384616,0.3063583815028902,0.0,28.0,left-puff,,,,,,,1.0,1.0,,,1.0,puff,9
635,635,2011-12-14 12:35:56.500000,2011-12-14 12:36:09.475000,12.975,3,BFW,1.0,0.42389210019267826,1.0,29.0,left-puff,,,,,,,1.0,1.0,,,1.0,puff,9
636,636,2011-12-14 12:36:03,2011-12-14 12:36:15.975000,12.975,3,BFW,0.6363636363636364,0.2697495183044316,1.0,29.0,left-puff,,,,,,,1.0,1.0,,,1.0,puff,9
637,637,2011-12-14 12:36:09.500000,2011-12-14 12:36:22.475000,12.975,3,BFW,0.15,0.07514450867052024,1.0,30.0,left-puff,,,,0.3082851637764933,,,1.0,0.6917148362235067,,,1.0,drinking,8
638,638,2011-12-14 12:36:16,2011-12-14 12:36:28.975000,12.975,3,BFW,1.0,0.5009633911368016,1.0,30.0,left-puff,,,,0.3082851637764933,,,1.0,0.6917148362235067,,,1.0,puff,9
639,639,2011-12-14 12:36:22.500000,2011-12-14 12:36:35.475000,12.975,3,BFW,0.8461538461538461,0.42389210019267826,1.0,30.0,left-puff,,,,,,,1.0,1.0,,,1.0,puff,9
640,640,2011-12-14 12:36:29,2011-12-14 12:36:41.975000,12.975,3,BFW,,,,,,,,,,,,1.0,1.0,,,1.0,rest,-1
641,641,2011-12-14 12:36:35.500000,2011-12-14 12:36:48.475000,12.975,3,BFW,,,,,,,,,,,,1.0,1.0,,,1.0,computer,4
642,642,2011-12-14 12:36:42,2011-12-14 12:36:54.975000,12.975,3,BFW,,,,,,,,,,,,1.0,1.0,,,1.0,computer,4
643,643,2011-12-14 12:36:48.500000,2011-12-14 12:37:01.475000,12.975,3,BFW,,,,,,,,,,,,1.0,1.0,,,1.0,computer,4
644,644,2011-12-14 12:36:55,2011-12-14 12:37:07.975000,12.975,3,BFW,,,,,,,,,,,,1.0,1.0,,,1.0,computer,4
645,645,2011-12-14 12:37:01.500000,2011-12-14 12:37:14.475000,12.975,3,BFW,,,,,,,,,,,,1.0,1.0,,,1.0,computer,4
646,646,2011-12-14 12:37:08,2011-12-14 12:37:20.975000,12.975,3,BFW,,,,,,,,,,,,1.0,1.0,,,1.0,computer,4
647,647,2011-12-14 12:37:14.500000,2011-12-14 12:37:27.475000,12.975,3,BFW,0.184375,0.1136801541425819,0.0,31.0,left-puff,,,,,,,1.0,0.8863198458574182,,,0.8863198458574182,computer,4
648,648,2011-12-14 12:37:21,2011-12-14 12:37:33.975000,12.975,3,BFW,0.996875,0.6146435452793835,0.0,31.0,left-puff,,,,,,,1.0,0.3853564547206166,,,0.3853564547206166,puff,9
649,649,2011-12-14 12:37:27.500000,2011-12-14 12:37:40.475000,12.975,3,BFW,0.8125,0.5009633911368016,0.0,31.0,left-puff,,,,,,,1.0,,,,,puff,9
650,650,2011-12-14 12:37:34,2011-12-14 12:37:46.975000,12.975,3,BFW,,,,,,,,,,,,1.0,,,,,others,0
651,651,2011-12-14 12:37:40.500000,2011-12-14 12:37:53.475000,12.975,3,BFW,0.61875,0.19075144508670522,1.0,32.0,left-puff,,,,,,,1.0,,,,,puff,9
652,652,2011-12-14 12:37:47,2011-12-14 12:37:59.975000,12.975,3,BFW,1.0,0.3082851637764933,1.0,32.0,left-puff,,,,,,,1.0,,,,,puff,9
653,653,2011-12-14 12:37:53.500000,2011-12-14 12:38:06.475000,12.975,3,BFW,0.375,0.11560693641618497,1.0,32.0,left-puff,,,,,,,1.0,,,,,puff,9
654,654,2011-12-14 12:38:00,2011-12-14 12:38:12.975000,12.975,3,BFW,0.9125,0.42196531791907516,1.0,33.0,left-puff,,,,,,,1.0,,,,,puff,9
655,655,2011-12-14 12:38:06.500000,2011-12-14 12:38:19.475000,12.975,3,BFW,1.0,0.4624277456647399,1.0,33.0,left-puff,,,,,,,1.0,,,,,puff,9
656,656,2011-12-14 12:38:13,2011-12-14 12:38:25.975000,12.975,3,BFW,0.49583333333333335,0.22928709055876687,1.0,33.0,left-puff,,,,,0.4605009633911368,,1.0,,,,0.4605009633911368,puff,9
657,657,2011-12-14 12:38:19.500000,2011-12-14 12:38:32.475000,12.975,3,BFW,1.0,0.3468208092485549,1.0,34.0,left-puff,,,,,0.7707129094412332,,1.0,,,,0.7707129094412332,puff,9
658,658,2011-12-14 12:38:26,2011-12-14 12:38:38.975000,12.975,3,BFW,1.4444444444444444,0.5009633911368016,1.0,34.0,left-puff,,,,,0.3082851637764933,,1.0,,,,0.3082851637764933,puff,9
659,659,2011-12-14 12:38:32.500000,2011-12-14 12:38:45.475000,12.975,3,BFW,1.0,0.3468208092485549,0.0,35.0,left-puff,,,,,,,1.0,,,,,puff,9
660,660,2011-12-14 12:38:39,2011-12-14 12:38:51.975000,12.975,3,BFW,,,,,,,,,,,,1.0,,,0.07514450867052024,0.07514450867052024,others,0
661,661,2011-12-14 12:38:45.500000,2011-12-14 12:38:58.475000,12.975,3,BFW,,,,,,,,,,,,1.0,,,0.5761078998073218,0.5761078998073218,walking,1
662,662,2011-12-14 12:38:52,2011-12-14 12:39:04.975000,12.975,3,BFW,,,,,,,,,,,,1.0,,,1.0,1.0,walking,1
663,663,2011-12-14 12:38:58.500000,2011-12-14 12:39:11.475000,12.975,3,BFW,0.7722222222222223,0.2678227360308285,0.0,36.0,left-puff,,,,,,,1.0,,,1.0,1.0,puff,9
664,664,2011-12-14 12:39:05,2011-12-14 12:39:17.975000,12.975,3,BFW,1.0,0.3468208092485549,0.0,36.0,left-puff,,,,,,,1.0,,,1.0,1.0,puff,9
665,665,2011-12-14 12:39:11.500000,2011-12-14 12:39:24.475000,12.975,3,BFW,0.2222222222222222,0.07707129094412332,0.0,36.0,left-puff,,,,,,,1.0,,,0.6551059730250481,0.6551059730250481,walking,1
666,666,2011-12-14 12:39:18,2011-12-14 12:39:30.975000,12.975,3,BFW,0.9954545454545454,0.42196531791907516,1.0,37.0,left-puff,,,,,,,1.0,,,0.15414258188824664,0.15414258188824664,puff,9
667,667,2011-12-14 12:39:24.500000,2011-12-14 12:39:37.475000,12.975,3,BFW,1.0,0.42389210019267826,1.0,37.0,left-puff,,,,,,,1.0,,,,,puff,9
668,668,2011-12-14 12:39:31,2011-12-14 12:39:43.975000,12.975,3,BFW,,,,,,,,,,,,1.0,,,,,others,0
669,669,2011-12-14 12:39:37.500000,2011-12-14 12:39:50.475000,12.975,3,BFW,,,,,,,,,,,,1.0,,,,,others,0
670,670,2011-12-14 12:39:44,2011-12-14 12:39:56.975000,12.975,3,BFW,,,,,,,,,,,,1.0,,,,,rest,-1
671,671,2011-12-14 12:39:50.500000,2011-12-14 12:40:03.475000,12.975,3,BFW,0.495,0.19075144508670522,1.0,38.0,left-puff,,,,,,,1.0,,,,,puff,9
672,672,2011-12-14 12:39:57,2011-12-14 12:40:09.975000,12.975,3,BFW,1.0,0.3853564547206166,1.0,38.0,left-puff,,,,,,,1.0,,,,,puff,9
673,673,2011-12-14 12:40:03.500000,2011-12-14 12:40:16.475000,12.975,3,BFW,0.5,0.1926782273603083,1.0,38.0,left-puff,,,,,,,1.0,,,,,puff,9
674,674,2011-12-14 12:40:10,2011-12-14 12:40:22.975000,12.975,3,BFW,,,,,,,,,,,,1.0,,,,,others,0
675,675,2011-12-14 12:40:16.500000,2011-12-14 12:40:29.475000,12.975,3,BFW,0.5608695652173913,0.2485549132947977,0.0,39.0,left-puff,,,,,,,1.0,,,,,puff,9
676,676,2011-12-14 12:40:23,2011-12-14 12:40:35.975000,12.975,3,BFW,1.0,0.4431599229287091,0.0,39.0,left-puff,,,,,,,1.0,,,,,puff,9
677,677,2011-12-14 12:40:29.500000,2011-12-14 12:40:42.475000,12.975,3,BFW,0.43478260869565216,0.1926782273603083,0.0,39.0,left-puff,,,,,,,1.0,,,,,puff,9
678,678,2011-12-14 12:40:36,2011-12-14 12:40:48.975000,12.975,3,BFW,,,,,,,,,,,,1.0,,,,,others,0
679,679,2011-12-14 12:40:42.500000,2011-12-14 12:40:55.475000,12.975,3,BFW,1.0,0.3853564547206166,1.0,40.0,left-puff,,,,,,,1.0,,,,,puff,9
680,680,2011-12-14 12:40:49,2011-12-14 12:41:01.975000,12.975,3,BFW,1.0,0.3853564547206166,1.0,40.0,left-puff,,,,,,,1.0,,,,,puff,9
681,681,2011-12-14 12:40:55.500000,2011-12-14 12:41:08.475000,12.975,3,BFW,,,,,,,,,,,,1.0,,,,,others,0
682,682,2011-12-14 12:41:02,2011-12-14 12:41:14.975000,12.975,3,BFW,,,,,,,,,,,,1.0,,,,,others,0
683,683,2011-12-14 12:41:08.500000,2011-12-14 12:41:21.475000,12.975,3,BFW,0.23333333333333334,0.09441233140655107,1.0,41.0,left-puff,,,,,,,1.0,,,,,others,0
684,684,2011-12-14 12:41:15,2011-12-14 12:41:27.975000,12.975,3,BFW,1.0,0.4046242774566474,1.0,41.0,left-puff,,,,,,,1.0,,,,,puff,9
685,685,2011-12-14 12:41:21.500000,2011-12-14 12:41:34.475000,12.975,3,BFW,0.7619047619047619,0.3082851637764933,1.0,41.0,left-puff,,,,,,,1.0,,,,,rest,-1
686,686,2011-12-14 12:41:28,2011-12-14 12:41:40.975000,12.975,3,BFW,0.908695652173913,0.4026974951830443,1.0,42.0,left-puff,,,,,,,1.0,,,,,puff,9
687,687,2011-12-14 12:41:34.500000,2011-12-14 12:41:47.475000,12.975,3,BFW,1.0,0.4431599229287091,1.0,42.0,left-puff,,,,,,,1.0,,,,,puff,9
688,688,2011-12-14 12:41:41,2011-12-14 12:41:53.975000,12.975,3,BFW,0.08695652173913043,0.03853564547206166,1.0,42.0,left-puff,,,,,,,1.0,,,,,others,0
689,689,2011-12-14 12:41:47.500000,2011-12-14 12:42:00.475000,12.975,3,BFW,,,,,,,,,,,,1.0,,,0.49903660886319845,0.49903660886319845,walking,1
690,690,2011-12-14 12:41:54,2011-12-14 12:42:06.975000,12.975,3,BFW,,,,,,,,,,,,1.0,,,1.0,1.0,walking,1
691,691,2011-12-14 12:42:00.500000,2011-12-14 12:42:13.475000,12.975,3,BFW,,,,,,,,,,,,1.0,,,0.5009633911368016,0.5009633911368016,walking,1
692,692,2011-12-14 12:42:07,2011-12-14 12:42:19.975000,12.975,3,BFW,1.0,0.36608863198458574,0.0,43.0,left-puff,,,,,,,1.0,,,,,puff,9
693,693,2011-12-14 12:42:13.500000,2011-12-14 12:42:26.475000,12.975,3,BFW,1.0,0.36608863198458574,0.0,43.0,left-puff,,,,,,,1.0,,,0.036608863198458574,0.036608863198458574,puff,9
694,694,2011-12-14 12:42:20,2011-12-14 12:42:32.975000,12.975,3,BFW,,,,,,,,,,,,1.0,,,0.5375722543352601,0.5375722543352601,walking,1
695,695,2011-12-14 12:42:26.500000,2011-12-14 12:42:39.475000,12.975,3,BFW,,,,,,,,,,,,1.0,,,1.0,1.0,walking,1
696,696,2011-12-14 12:42:33,2011-12-14 12:42:45.975000,12.975,3,BFW,,,,,,,,,,,,1.0,,,1.0,1.0,walking,1
697,697,2011-12-14 12:42:39.500000,2011-12-14 12:42:52.475000,12.975,3,BFW,,,,,,,,,,,,1.0,,,1.0,1.0,walking,1
698,698,2011-12-14 12:42:46,2011-12-14 12:42:58.975000,12.975,3,BFW,,,,,,,,0.3834296724470135,,,,1.0,,,0.6165703275529866,1.0,walking,1
699,699,2011-12-14 12:42:52.500000,2011-12-14 12:43:05.475000,12.975,3,BFW,,,,,,,,0.884393063583815,,,,1.0,,,0.11560693641618497,1.0,others,0
700,700,2011-12-14 12:42:59,2011-12-14 12:43:11.975000,12.975,3,BFW,,,,,,,,1.0,,,,1.0,,,,1.0,others,0
701,701,2011-12-14 12:43:05.500000,2011-12-14 12:43:18.475000,12.975,3,BFW,,,,,,,,1.0,,,,1.0,,,,1.0,others,0
702,702,2011-12-14 12:43:12,2011-12-14 12:43:24.975000,12.975,3,BFW,,,,,,,,1.0,,,,1.0,,,,1.0,others,0
703,703,2011-12-14 12:43:18.500000,2011-12-14 12:43:31.475000,12.975,3,BFW,,,,,,,,0.8863198458574182,,,,1.0,,,,0.8863198458574182,others,0
704,704,2011-12-14 12:43:25,2011-12-14 12:43:37.975000,12.975,3,BFW,,,,,,0.22928709055876687,,0.3853564547206166,,,,1.0,,,,0.6146435452793835,others,0
705,705,2011-12-14 12:43:31.500000,2011-12-14 12:43:44.475000,12.975,3,BFW,0.4388888888888889,0.15221579961464354,0.0,44.0,left-puff,0.7302504816955684,,,,,,1.0,,,,0.7302504816955684,puff,9
706,706,2011-12-14 12:43:38,2011-12-14 12:43:50.975000,12.975,3,BFW,1.0,0.3468208092485549,0.0,44.0,left-puff,1.0,,,,,,1.0,,,,1.0,puff,9
707,707,2011-12-14 12:43:44.500000,2011-12-14 12:43:57.475000,12.975,3,BFW,1.3277777777777777,0.4605009633911368,0.0,44.0,left-puff,1.0,,,,,,1.0,,,,1.0,puff,9
708,708,2011-12-14 12:43:51,2011-12-14 12:44:03.975000,12.975,3,BFW,1.0,0.3853564547206166,0.0,45.0,left-puff,1.0,,,,,,1.0,,,,1.0,puff,9
709,709,2011-12-14 12:43:57.500000,2011-12-14 12:44:10.475000,12.975,3,BFW,0.3,0.11560693641618497,0.0,45.0,left-puff,1.0,,,,,,1.0,,,,1.0,puff,9
710,710,2011-12-14 12:44:04,2011-12-14 12:44:16.975000,12.975,3,BFW,1.0,0.4624277456647399,1.0,46.0,left-puff,1.0,,,,,,1.0,,,,1.0,puff,9
711,711,2011-12-14 12:44:10.500000,2011-12-14 12:44:23.475000,12.975,3,BFW,1.0,0.4624277456647399,1.0,46.0,left-puff,0.9633911368015414,,,0.036608863198458574,,,1.0,,,,1.0,puff,9
712,712,2011-12-14 12:44:17,2011-12-14 12:44:29.975000,12.975,3,BFW,,,,,,0.8458574181117534,,,0.15414258188824664,,,1.0,,,,1.0,in car,7
713,713,2011-12-14 12:44:23.500000,2011-12-14 12:44:36.475000,12.975,3,BFW,0.9125,0.42196531791907516,1.0,47.0,left-puff,0.884393063583815,,,0.11560693641618497,,,1.0,,,,1.0,puff,9
714,714,2011-12-14 12:44:30,2011-12-14 12:44:42.975000,12.975,3,BFW,1.0,0.4624277456647399,1.0,47.0,left-puff,1.0,,,,,,1.0,,,,1.0,puff,9
715,715,2011-12-14 12:44:36.500000,2011-12-14 12:44:49.475000,12.975,3,BFW,0.7458333333333332,0.3448940269749518,1.0,47.0,left-puff,1.0,,,,,,1.0,,,,1.0,puff,9
716,716,2011-12-14 12:44:43,2011-12-14 12:44:55.975000,12.975,3,BFW,1.0,0.3468208092485549,0.0,48.0,left-puff,1.0,,,,,,1.0,,,,1.0,puff,9
717,717,2011-12-14 12:44:49.500000,2011-12-14 12:45:02.475000,12.975,3,BFW,0.9944444444444444,0.3448940269749518,0.0,48.0,left-puff,1.0,,,,,,1.0,,,,1.0,puff,9
718,718,2011-12-14 12:44:56,2011-12-14 12:45:08.975000,12.975,3,BFW,1.0,0.3853564547206166,0.0,49.0,left-puff,1.0,,,,,,1.0,,,,1.0,puff,9
719,719,2011-12-14 12:45:02.500000,2011-12-14 12:45:15.475000,12.975,3,BFW,0.2,0.07707129094412332,0.0,49.0,left-puff,1.0,,,,,,1.0,,,,1.0,in car,7
720,720,2011-12-14 12:45:09,2011-12-14 12:45:21.975000,12.975,3,BFW,0.0475,0.036608863198458574,0.0,50.0,left-puff,1.0,,,,,,1.0,,,,1.0,rest,-1
721,721,2011-12-14 12:45:15.500000,2011-12-14 12:45:28.475000,12.975,3,BFW,0.6975,0.5375722543352601,0.0,50.0,left-puff,1.0,,,,,,1.0,,,,1.0,puff,9
722,722,2011-12-14 12:45:22,2011-12-14 12:45:34.975000,12.975,3,BFW,0.95,0.7321772639691715,0.0,50.0,left-puff,1.0,,,,,,1.0,,,,1.0,puff,9
723,723,2011-12-14 12:45:28.500000,2011-12-14 12:45:41.475000,12.975,3,BFW,0.3,0.23121387283236994,0.0,50.0,left-puff,1.0,,,,,,1.0,,,,1.0,puff,9
724,724,2011-12-14 12:45:35,2011-12-14 12:45:47.975000,12.975,3,BFW,,,,,,1.0,,,,,,1.0,,,,1.0,rest,-1
725,725,2011-12-14 12:45:41.500000,2011-12-14 12:45:54.475000,12.975,3,BFW,0.5236842105263158,0.3834296724470135,1.0,51.0,left-puff,1.0,,,,,,1.0,,,,1.0,puff,9
726,726,2011-12-14 12:45:48,2011-12-14 12:46:00.975000,12.975,3,BFW,1.0,0.7321772639691715,1.0,51.0,left-puff,1.0,,,,,,1.0,,,,1.0,puff,9
727,727,2011-12-14 12:45:54.500000,2011-12-14 12:46:07.475000,12.975,3,BFW,0.47368421052631576,0.3468208092485549,1.0,51.0,left-puff,1.0,,,,,,1.0,,,,1.0,puff,9
728,728,2011-12-14 12:46:01,2011-12-14 12:46:13.975000,12.975,3,BFW,,,,,,1.0,,,,,,1.0,,,,1.0,in car,7
729,729,2011-12-14 12:46:07.500000,2011-12-14 12:46:20.475000,12.975,3,BFW,,,,,,0.7321772639691715,,,,,,1.0,,,,0.7321772639691715,in car,7
730,730,2011-12-14 12:46:14,2011-12-14 12:46:26.975000,12.975,3,BFW,,,,,,0.23121387283236994,,,,,,0.6165703275529866,,,,0.23121387283236994,others,0
731,731,2011-12-14 12:46:20.500000,2011-12-14 12:46:33.475000,12.975,3,BFW,,,,,,,,,,,,0.11560693641618497,,,0.49903660886319845,,walking,1
732,732,2011-12-14 12:46:27,2011-12-14 12:46:39.975000,12.975,3,BFW,,,,,,,,,,,,,,,1.0,,walking,1
733,733,2011-12-14 12:46:33.500000,2011-12-14 12:46:46.475000,12.975,3,BFW,,,,,,,,,,,,,,,1.0,,walking,1
734,734,2011-12-14 12:46:40,2011-12-14 12:46:52.975000,12.975,3,BFW,,,,,,,,,,,,,,,1.0,,walking,1
735,735,2011-12-14 12:46:46.500000,2011-12-14 12:46:59.475000,12.975,3,BFW,,,,,,,,,,,,,,,1.0,,walking,1
736,736,2011-12-14 12:46:53,2011-12-14 12:47:05.975000,12.975,3,BFW,,,,,,,,,,,,,,,1.0,,walking,1
737,737,2011-12-14 12:46:59.500000,2011-12-14 12:47:12.475000,12.975,3,BFW,,,,,,,,,,,,,,,1.0,,walking,1
738,738,2011-12-14 12:47:06,2011-12-14 12:47:18.975000,12.975,3,BFW,,,,,,,,,,,,,,,1.0,,rest,-1
739,739,2011-12-14 12:47:12.500000,2011-12-14 12:47:25.475000,12.975,3,BFW,,,,,,,,,,,,,,,1.0,,rest,-1
740,740,2011-12-14 12:47:19,2011-12-14 12:47:31,12.0,3,BFW,,,,,,,,,,,,,,,1.0,,rest,-1
741,741,2011-12-14 12:47:25.500000,2011-12-14 12:47:31,5.5,3,BFW,,,,,,,,,,,,,,,1.0,,rest,-1
