,segment,STARTTIME,ENDTIME,seg duration,session,sensor,inside puff/puff duration,inside puff/segment duration,prototypical?,puff index,puff side,car percentage,talk percentage,unknown percentage,drinking percentage,reading percentage,eating percentage,smoking percentage,computer percentage,phone percentage,walking percentage,superposition percentage,name,target
0,0,2012-08-16 11:15:23,2012-08-16 11:15:39.975000,16.975,6,BFW,,,,,,,,,0.6480117820324005,,,,,,,,drinking,8
1,1,2012-08-16 11:15:31.500000,2012-08-16 11:15:48.475000,16.975,6,BFW,,,,,,,,,0.14727540500736375,,,,,,0.3225331369661266,,walking,1
2,2,2012-08-16 11:15:40,2012-08-16 11:15:56.975000,16.975,6,BFW,,,,,,,,,,,,,,,0.8232695139911634,,walking,1
3,3,2012-08-16 11:15:48.500000,2012-08-16 11:16:05.475000,16.975,6,BFW,,,,,,,,,,,,,,,1.0,,walking,1
4,4,2012-08-16 11:15:57,2012-08-16 11:16:13.975000,16.975,6,BFW,,,,,,,,,,,,,,,1.0,,walking,1
5,5,2012-08-16 11:16:05.500000,2012-08-16 11:16:22.475000,16.975,6,BFW,,,,,,,,,,,,,,,1.0,,walking,1
6,6,2012-08-16 11:16:14,2012-08-16 11:16:30.975000,16.975,6,BFW,,,,,,,,,,,,,,,0.942562592047128,,walking,1
7,7,2012-08-16 11:16:22.500000,2012-08-16 11:16:39.475000,16.975,6,BFW,,,,,,,,,,,,,,,0.4418262150220913,,walking,1
8,8,2012-08-16 11:16:31,2012-08-16 11:16:47.975000,16.975,6,BFW,,,,,,,,,,,0.29307805596465386,,,,,,eating,2
9,9,2012-08-16 11:16:39.500000,2012-08-16 11:16:56.475000,16.975,6,BFW,,,,,,,,,,,0.7938144329896907,,,,,,eating,2
10,10,2012-08-16 11:16:48,2012-08-16 11:17:04.975000,16.975,6,BFW,,,,,,,,,,,1.0,,,,,,eating,2
11,11,2012-08-16 11:16:56.500000,2012-08-16 11:17:13.475000,16.975,6,BFW,,,,,,,,,,,1.0,,,,,,eating,2
12,12,2012-08-16 11:17:05,2012-08-16 11:17:21.975000,16.975,6,BFW,,,,,,,,,,,1.0,,,,,,eating,2
13,13,2012-08-16 11:17:13.500000,2012-08-16 11:17:30.475000,16.975,6,BFW,,,,,,,,,,,1.0,,,,,,eating,2
14,14,2012-08-16 11:17:22,2012-08-16 11:17:38.975000,16.975,6,BFW,,,,,,,,,,,1.0,,,,,,eating,2
15,15,2012-08-16 11:17:30.500000,2012-08-16 11:17:47.475000,16.975,6,BFW,,,,,,,,,,,1.0,,,,,,eating,2
16,16,2012-08-16 11:17:39,2012-08-16 11:17:55.975000,16.975,6,BFW,,,,,,,,,,,1.0,,,,,,eating,2
17,17,2012-08-16 11:17:47.500000,2012-08-16 11:18:04.475000,16.975,6,BFW,,,,,,,,,,,1.0,,,,,,eating,2
18,18,2012-08-16 11:17:56,2012-08-16 11:18:12.975000,16.975,6,BFW,,,,,,,,,,,1.0,,,,,,eating,2
19,19,2012-08-16 11:18:04.500000,2012-08-16 11:18:21.475000,16.975,6,BFW,,,,,,,,,,,1.0,,,,,,eating,2
20,20,2012-08-16 11:18:13,2012-08-16 11:18:29.975000,16.975,6,BFW,,,,,,,,,,,1.0,,,,,,eating,2
21,21,2012-08-16 11:18:21.500000,2012-08-16 11:18:38.475000,16.975,6,BFW,,,,,,,,,,,1.0,,,,,,eating,2
22,22,2012-08-16 11:18:30,2012-08-16 11:18:46.975000,16.975,6,BFW,,,,,,,,,,,1.0,,,,,,eating,2
23,23,2012-08-16 11:18:38.500000,2012-08-16 11:18:55.475000,16.975,6,BFW,,,,,,,,,,,1.0,,,,,,eating,2
24,24,2012-08-16 11:18:47,2012-08-16 11:19:03.975000,16.975,6,BFW,,,,,,,,,,,1.0,,,,,,eating,2
25,25,2012-08-16 11:18:55.500000,2012-08-16 11:19:12.475000,16.975,6,BFW,,,,,,,,,,,1.0,,,,,,eating,2
26,26,2012-08-16 11:19:04,2012-08-16 11:19:20.975000,16.975,6,BFW,,,,,,,,,,,1.0,,,,,,eating,2
27,27,2012-08-16 11:19:12.500000,2012-08-16 11:19:29.475000,16.975,6,BFW,,,,,,,,,,,1.0,,,,,,eating,2
28,28,2012-08-16 11:19:21,2012-08-16 11:19:37.975000,16.975,6,BFW,,,,,,,,,,,1.0,,,,,,eating,2
29,29,2012-08-16 11:19:29.500000,2012-08-16 11:19:46.475000,16.975,6,BFW,,,,,,,,,,,1.0,,,,,,eating,2
30,30,2012-08-16 11:19:38,2012-08-16 11:19:54.975000,16.975,6,BFW,,,,,,,,,,,1.0,,,,,,eating,2
31,31,2012-08-16 11:19:46.500000,2012-08-16 11:20:03.475000,16.975,6,BFW,,,,,,,,,,,1.0,,,,,,eating,2
32,32,2012-08-16 11:19:55,2012-08-16 11:20:11.975000,16.975,6,BFW,,,,,,,,,,,1.0,,,,,,eating,2
33,33,2012-08-16 11:20:03.500000,2012-08-16 11:20:20.475000,16.975,6,BFW,,,,,,,,,,,1.0,,,,,,eating,2
34,34,2012-08-16 11:20:12,2012-08-16 11:20:28.975000,16.975,6,BFW,,,,,,,,,,,1.0,,,,,,eating,2
35,35,2012-08-16 11:20:20.500000,2012-08-16 11:20:37.475000,16.975,6,BFW,,,,,,,,,,,1.0,,,,,,eating,2
36,36,2012-08-16 11:20:29,2012-08-16 11:20:45.975000,16.975,6,BFW,,,,,,,,,,,1.0,,,,,,eating,2
37,37,2012-08-16 11:20:37.500000,2012-08-16 11:20:54.475000,16.975,6,BFW,,,,,,,,,,,1.0,,,,,,eating,2
38,38,2012-08-16 11:20:46,2012-08-16 11:21:02.975000,16.975,6,BFW,,,,,,,,,,,1.0,,,,,,eating,2
39,39,2012-08-16 11:20:54.500000,2012-08-16 11:21:11.475000,16.975,6,BFW,,,,,,,,,,,1.0,,,,,,eating,2
40,40,2012-08-16 11:21:03,2012-08-16 11:21:19.975000,16.975,6,BFW,,,,,,,,,,,1.0,,,,,,eating,2
41,41,2012-08-16 11:21:11.500000,2012-08-16 11:21:28.475000,16.975,6,BFW,,,,,,,,,,,1.0,,,,,,eating,2
42,42,2012-08-16 11:21:20,2012-08-16 11:21:36.975000,16.975,6,BFW,,,,,,,,,,,1.0,,,,,,eating,2
43,43,2012-08-16 11:21:28.500000,2012-08-16 11:21:45.475000,16.975,6,BFW,,,,,,,,,,,1.0,,,,,,eating,2
44,44,2012-08-16 11:21:37,2012-08-16 11:21:53.975000,16.975,6,BFW,,,,,,,,,,,1.0,,,,,,eating,2
45,45,2012-08-16 11:21:45.500000,2012-08-16 11:22:02.475000,16.975,6,BFW,,,,,,,,,,,1.0,,,,,,eating,2
46,46,2012-08-16 11:21:54,2012-08-16 11:22:10.975000,16.975,6,BFW,,,,,,,,,,,1.0,,,,,,eating,2
47,47,2012-08-16 11:22:02.500000,2012-08-16 11:22:19.475000,16.975,6,BFW,,,,,,,,,,,1.0,,,,,,eating,2
48,48,2012-08-16 11:22:11,2012-08-16 11:22:27.975000,16.975,6,BFW,,,,,,,,,,,1.0,,,,,,eating,2
49,49,2012-08-16 11:22:19.500000,2012-08-16 11:22:36.475000,16.975,6,BFW,,,,,,,,,,,1.0,,,,,,eating,2
50,50,2012-08-16 11:22:28,2012-08-16 11:22:44.975000,16.975,6,BFW,,,,,,,,,,,1.0,,,,,,eating,2
51,51,2012-08-16 11:22:36.500000,2012-08-16 11:22:53.475000,16.975,6,BFW,,,,,,,,,,,1.0,,,,,,eating,2
52,52,2012-08-16 11:22:45,2012-08-16 11:23:01.975000,16.975,6,BFW,,,,,,,,,,,1.0,,,,,,eating,2
53,53,2012-08-16 11:22:53.500000,2012-08-16 11:23:10.475000,16.975,6,BFW,,,,,,,,,,,1.0,,,,,,eating,2
54,54,2012-08-16 11:23:02,2012-08-16 11:23:18.975000,16.975,6,BFW,,,,,,,,,,,1.0,,,,,,eating,2
55,55,2012-08-16 11:23:10.500000,2012-08-16 11:23:27.475000,16.975,6,BFW,,,,,,,,,,,1.0,,,,,,eating,2
56,56,2012-08-16 11:23:19,2012-08-16 11:23:35.975000,16.975,6,BFW,,,,,,,,,,,1.0,,,,,,eating,2
57,57,2012-08-16 11:23:27.500000,2012-08-16 11:23:44.475000,16.975,6,BFW,,,,,,,,,,,1.0,,,,,,eating,2
58,58,2012-08-16 11:23:36,2012-08-16 11:23:52.975000,16.975,6,BFW,,,,,,,,,,,1.0,,,,,,eating,2
59,59,2012-08-16 11:23:44.500000,2012-08-16 11:24:01.475000,16.975,6,BFW,,,,,,,,,,,1.0,,,,,,eating,2
60,60,2012-08-16 11:23:53,2012-08-16 11:24:09.975000,16.975,6,BFW,,,,,,,,,,,1.0,,,,,,eating,2
61,61,2012-08-16 11:24:01.500000,2012-08-16 11:24:18.475000,16.975,6,BFW,,,,,,,,,,,1.0,,,,,,eating,2
62,62,2012-08-16 11:24:10,2012-08-16 11:24:26.975000,16.975,6,BFW,,,,,,,,,,,1.0,,,,,,eating,2
63,63,2012-08-16 11:24:18.500000,2012-08-16 11:24:35.475000,16.975,6,BFW,,,,,,,,,,,1.0,,,,,,eating,2
64,64,2012-08-16 11:24:27,2012-08-16 11:24:43.975000,16.975,6,BFW,,,,,,,,,,,1.0,,,,,,eating,2
65,65,2012-08-16 11:24:35.500000,2012-08-16 11:24:52.475000,16.975,6,BFW,,,,,,,,,,,1.0,,,,,,eating,2
66,66,2012-08-16 11:24:44,2012-08-16 11:25:00.975000,16.975,6,BFW,,,,,,,,,,,1.0,,,,,,eating,2
67,67,2012-08-16 11:24:52.500000,2012-08-16 11:25:09.475000,16.975,6,BFW,,,,,,,,,,,1.0,,,,,,eating,2
68,68,2012-08-16 11:25:01,2012-08-16 11:25:17.975000,16.975,6,BFW,,,,,,,,,,,1.0,,,,,,eating,2
69,69,2012-08-16 11:25:09.500000,2012-08-16 11:25:26.475000,16.975,6,BFW,,,,,,,,,,,1.0,,,,,,eating,2
70,70,2012-08-16 11:25:18,2012-08-16 11:25:34.975000,16.975,6,BFW,,,,,,,,,,,1.0,,,,,,eating,2
71,71,2012-08-16 11:25:26.500000,2012-08-16 11:25:43.475000,16.975,6,BFW,,,,,,,,,,,1.0,,,,,,eating,2
72,72,2012-08-16 11:25:35,2012-08-16 11:25:51.975000,16.975,6,BFW,,,,,,,,,,,1.0,,,,,,eating,2
73,73,2012-08-16 11:25:43.500000,2012-08-16 11:26:00.475000,16.975,6,BFW,,,,,,,,,,,1.0,,,,,,eating,2
74,74,2012-08-16 11:25:52,2012-08-16 11:26:08.975000,16.975,6,BFW,,,,,,,,,,,1.0,,,,,,eating,2
75,75,2012-08-16 11:26:00.500000,2012-08-16 11:26:17.475000,16.975,6,BFW,,,,,,,,,,,1.0,,,,,,eating,2
76,76,2012-08-16 11:26:09,2012-08-16 11:26:25.975000,16.975,6,BFW,,,,,,,,,,,1.0,,,,,,eating,2
77,77,2012-08-16 11:26:17.500000,2012-08-16 11:26:34.475000,16.975,6,BFW,,,,,,,,,,,1.0,,,,,,eating,2
78,78,2012-08-16 11:26:26,2012-08-16 11:26:42.975000,16.975,6,BFW,,,,,,,,,,,1.0,,,,,,eating,2
79,79,2012-08-16 11:26:34.500000,2012-08-16 11:26:51.475000,16.975,6,BFW,,,,,,,,,,,1.0,,,,,,eating,2
80,80,2012-08-16 11:26:43,2012-08-16 11:26:59.975000,16.975,6,BFW,,,,,,,,,,,1.0,,,,,,eating,2
81,81,2012-08-16 11:26:51.500000,2012-08-16 11:27:08.475000,16.975,6,BFW,,,,,,,,,,,1.0,,,,,,eating,2
82,82,2012-08-16 11:27:00,2012-08-16 11:27:16.975000,16.975,6,BFW,,,,,,,,,,,0.942562592047128,0.17525773195876287,,,,0.117820324005891,eating,2
83,83,2012-08-16 11:27:08.500000,2012-08-16 11:27:25.475000,16.975,6,BFW,,,,,,,,,,,0.4418262150220913,0.6759941089837996,,,,0.117820324005891,eating,2
84,84,2012-08-16 11:27:17,2012-08-16 11:27:33.975000,16.975,6,BFW,,,,,,,,,,,,1.0,,,,,others,0
85,85,2012-08-16 11:27:25.500000,2012-08-16 11:27:42.475000,16.975,6,BFW,,,,,,,,,,,,1.0,,,,,others,0
86,86,2012-08-16 11:27:34,2012-08-16 11:27:50.975000,16.975,6,BFW,,,,,,,,,,,,1.0,,,,,others,0
87,87,2012-08-16 11:27:42.500000,2012-08-16 11:27:59.475000,16.975,6,BFW,,,,,,,,,,,,1.0,,,,,others,0
88,88,2012-08-16 11:27:51,2012-08-16 11:28:07.975000,16.975,6,BFW,,,,,,,,,,,,1.0,,,,,others,0
89,89,2012-08-16 11:27:59.500000,2012-08-16 11:28:16.475000,16.975,6,BFW,0.33148148148148143,0.2636229749631811,0.0,0.0,right-puff,,,,,,,1.0,,,,,puff,9
90,90,2012-08-16 11:28:08,2012-08-16 11:28:24.975000,16.975,6,BFW,0.9611111111111111,0.7643593519882179,0.0,0.0,right-puff,,,,,,,1.0,,,,,puff,9
91,91,2012-08-16 11:28:16.500000,2012-08-16 11:28:33.475000,16.975,6,BFW,0.6666666666666666,0.5301914580265096,0.0,0.0,right-puff,,,,,,,1.0,,,,,puff,9
92,92,2012-08-16 11:28:25,2012-08-16 11:28:41.975000,16.975,6,BFW,0.07222222222222222,0.05743740795287187,0.0,0.0,right-puff,,,,,,,1.0,,,,,rest,-1
93,93,2012-08-16 11:28:33.500000,2012-08-16 11:28:50.475000,16.975,6,BFW,1.0,0.3829160530191458,1.0,1.0,right-puff,,,,,,,1.0,,,,,puff,9
94,94,2012-08-16 11:28:42,2012-08-16 11:28:58.975000,16.975,6,BFW,0.9230769230769231,0.353460972017673,1.0,1.0,right-puff,,,,,,,1.0,,,,,puff,9
95,95,2012-08-16 11:28:50.500000,2012-08-16 11:29:07.475000,16.975,6,BFW,,,,,,,,,,,,1.0,,,,,others,0
96,96,2012-08-16 11:28:59,2012-08-16 11:29:15.975000,16.975,6,BFW,,,,,,,,,,,,1.0,,,,,rest,-1
97,97,2012-08-16 11:29:07.500000,2012-08-16 11:29:24.475000,16.975,6,BFW,,,,,,,,,,,,1.0,,,,,others,0
98,98,2012-08-16 11:29:16,2012-08-16 11:29:32.975000,16.975,6,BFW,1.0,0.41237113402061853,1.0,2.0,right-puff,,,,,,,1.0,,,,,puff,9
99,99,2012-08-16 11:29:24.500000,2012-08-16 11:29:41.475000,16.975,6,BFW,1.0,0.41237113402061853,1.0,2.0,right-puff,,,,,,,1.0,,,,,puff,9
100,100,2012-08-16 11:29:33,2012-08-16 11:29:49.975000,16.975,6,BFW,,,,,,,,,,,,1.0,,,,,others,0
101,101,2012-08-16 11:29:41.500000,2012-08-16 11:29:58.475000,16.975,6,BFW,,,,,,,,,,,,1.0,,,,,others,0
102,102,2012-08-16 11:29:50,2012-08-16 11:30:06.975000,16.975,6,BFW,1.0,0.32400589101620025,0.0,3.0,right-puff,,,,,,,1.0,,,,,puff,9
103,103,2012-08-16 11:29:58.500000,2012-08-16 11:30:15.475000,16.975,6,BFW,1.0,0.32400589101620025,0.0,3.0,right-puff,,,,,,,1.0,,,,,puff,9
104,104,2012-08-16 11:30:07,2012-08-16 11:30:23.975000,16.975,6,BFW,0.195,0.05743740795287187,0.0,4.0,right-puff,,,,,,,1.0,,,,,others,0
105,105,2012-08-16 11:30:15.500000,2012-08-16 11:30:32.475000,16.975,6,BFW,1.0,0.2945508100147275,0.0,4.0,right-puff,,,,,,,1.0,,,,,puff,9
106,106,2012-08-16 11:30:24,2012-08-16 11:30:40.975000,16.975,6,BFW,0.8,0.235640648011782,0.0,4.0,right-puff,,,,,,,1.0,,,,,puff,9
107,107,2012-08-16 11:30:32.500000,2012-08-16 11:30:49.475000,16.975,6,BFW,,,,,,,,,,,,1.0,,,,,others,0
108,108,2012-08-16 11:30:41,2012-08-16 11:30:57.975000,16.975,6,BFW,,,,,,,,,,,,1.0,,,,,others,0
109,109,2012-08-16 11:30:49.500000,2012-08-16 11:31:06.475000,16.975,6,BFW,,,,,,,,,,,,1.0,,,,,others,0
110,110,2012-08-16 11:30:58,2012-08-16 11:31:14.975000,16.975,6,BFW,,,,,,,0.3519882179675994,,,,,1.0,,,,0.3519882179675994,talking,5
111,111,2012-08-16 11:31:06.500000,2012-08-16 11:31:23.475000,16.975,6,BFW,0.3535714285714286,0.14580265095729011,0.0,5.0,right-puff,,0.8527245949926361,,,,,1.0,,,,0.8527245949926361,puff,9
112,112,2012-08-16 11:31:15,2012-08-16 11:31:31.975000,16.975,6,BFW,1.0,0.41237113402061853,0.0,5.0,right-puff,,0.8836524300441826,,,,,1.0,,,,0.8836524300441826,puff,9
113,113,2012-08-16 11:31:23.500000,2012-08-16 11:31:40.475000,16.975,6,BFW,0.6428571428571429,0.2650957290132548,0.0,5.0,right-puff,,0.3829160530191458,,,,,1.0,,,,0.3829160530191458,puff,9
114,114,2012-08-16 11:31:32,2012-08-16 11:31:48.975000,16.975,6,BFW,0.24583333333333335,0.08689248895434462,1.0,6.0,right-puff,,,,,,,1.0,,,,,others,0
115,115,2012-08-16 11:31:40.500000,2012-08-16 11:31:57.475000,16.975,6,BFW,1.0,0.353460972017673,1.0,6.0,right-puff,,,,0.2636229749631811,,,1.0,,,,0.2636229749631811,puff,9
116,116,2012-08-16 11:31:49,2012-08-16 11:32:05.975000,16.975,6,BFW,0.75,0.2650957290132548,1.0,6.0,right-puff,,,,0.7643593519882179,,,1.0,,,,0.7643593519882179,puff,9
117,117,2012-08-16 11:31:57.500000,2012-08-16 11:32:14.475000,16.975,6,BFW,,,,,,,,,1.0,,,1.0,,,,1.0,drinking,8
118,118,2012-08-16 11:32:06,2012-08-16 11:32:22.975000,16.975,6,BFW,0.11470588235294117,0.05743740795287187,1.0,7.0,right-puff,,,,1.0,,,1.0,,,,1.0,drinking,8
119,119,2012-08-16 11:32:14.500000,2012-08-16 11:32:31.475000,16.975,6,BFW,1.0,0.5007363770250368,1.0,7.0,right-puff,,,,1.0,,,1.0,,,,1.0,puff,9
120,120,2012-08-16 11:32:23,2012-08-16 11:32:39.975000,16.975,6,BFW,0.8823529411764706,0.4418262150220913,1.0,7.0,right-puff,,,,1.0,,,1.0,,,,1.0,puff,9
121,121,2012-08-16 11:32:31.500000,2012-08-16 11:32:48.475000,16.975,6,BFW,,,,,,,,,1.0,,,1.0,,,,1.0,rest,-1
122,122,2012-08-16 11:32:40,2012-08-16 11:32:56.975000,16.975,6,BFW,0.14047619047619048,0.08689248895434462,0.0,8.0,right-puff,,,,1.0,,,1.0,,,,1.0,drinking,8
123,123,2012-08-16 11:32:48.500000,2012-08-16 11:33:05.475000,16.975,6,BFW,0.95,0.5876288659793814,0.0,8.0,right-puff,,,,1.0,,,1.0,,,,1.0,puff,9
124,124,2012-08-16 11:32:57,2012-08-16 11:33:13.975000,16.975,6,BFW,0.8571428571428571,0.5301914580265096,0.0,8.0,right-puff,,,,1.0,,,1.0,,,,1.0,puff,9
125,125,2012-08-16 11:33:05.500000,2012-08-16 11:33:22.475000,16.975,6,BFW,0.047619047619047616,0.02945508100147275,0.0,8.0,right-puff,,,,0.5596465390279822,,,1.0,,,,0.5596465390279822,drinking,8
126,126,2012-08-16 11:33:14,2012-08-16 11:33:30.975000,16.975,6,BFW,,,,,,,,,0.0589101620029455,,,1.0,,,,0.0589101620029455,rest,-1
127,127,2012-08-16 11:33:22.500000,2012-08-16 11:33:39.475000,16.975,6,BFW,,,,,,,,,,,,1.0,,,,,others,0
128,128,2012-08-16 11:33:31,2012-08-16 11:33:47.975000,16.975,6,BFW,0.61875,0.14580265095729011,0.0,9.0,right-puff,,,,,,,1.0,,,,,others,0
129,129,2012-08-16 11:33:39.500000,2012-08-16 11:33:56.475000,16.975,6,BFW,1.0,0.235640648011782,0.0,9.0,right-puff,,,,,,,1.0,,,,,puff,9
130,130,2012-08-16 11:33:48,2012-08-16 11:34:04.975000,16.975,6,BFW,0.375,0.08836524300441825,0.0,9.0,right-puff,,,,,,,0.5301914580265096,,,,,puff,9
131,131,2012-08-16 11:33:56.500000,2012-08-16 11:34:13.475000,16.975,6,BFW,,,,,,,,,0.14580265095729011,,,0.02945508100147275,,,,,others,0
132,132,2012-08-16 11:34:05,2012-08-16 11:34:21.975000,16.975,6,BFW,,,,,,,,,0.6465390279823269,,,,,,,,drinking,8
133,133,2012-08-16 11:34:13.500000,2012-08-16 11:34:30.475000,16.975,6,BFW,,,,,,,,,1.0,,,,,,,,drinking,8
134,134,2012-08-16 11:34:22,2012-08-16 11:34:38.975000,16.975,6,BFW,,,,,,,,,1.0,,,,,,,,drinking,8
135,135,2012-08-16 11:34:30.500000,2012-08-16 11:34:47.475000,16.975,6,BFW,,,,,,,,,1.0,,,,,,,,drinking,8
136,136,2012-08-16 11:34:39,2012-08-16 11:34:55.975000,16.975,6,BFW,,,,,,,,,0.6480117820324005,,,,,,,,drinking,8
137,137,2012-08-16 11:34:47.500000,2012-08-16 11:35:04.475000,16.975,6,BFW,,,,,,,,,0.14727540500736375,,,,,,,,others,0
138,138,2012-08-16 11:34:56,2012-08-16 11:35:12.975000,16.975,6,BFW,,,,,,,,,0.17525773195876287,,,,,,,,others,0
139,139,2012-08-16 11:35:04.500000,2012-08-16 11:35:21.475000,16.975,6,BFW,,,,,,,,,0.6759941089837996,,,,,,,,drinking,8
140,140,2012-08-16 11:35:13,2012-08-16 11:35:29.975000,16.975,6,BFW,,,,,,,,,1.0,,,,,,,,drinking,8
141,141,2012-08-16 11:35:21.500000,2012-08-16 11:35:38.475000,16.975,6,BFW,,,,,,,,,1.0,,,,,,,,drinking,8
142,142,2012-08-16 11:35:30,2012-08-16 11:35:46.975000,16.975,6,BFW,,,,,,,,,0.5301914580265096,,,,,,,,drinking,8
143,143,2012-08-16 11:35:38.500000,2012-08-16 11:35:55.475000,16.975,6,BFW,,,,,,,,,0.02945508100147275,,,,,,,,rest,-1
144,144,2012-08-16 11:35:47,2012-08-16 11:36:03.975000,16.975,6,BFW,,,,,,,,,,,,,,,,,rest,-1
145,145,2012-08-16 11:35:55.500000,2012-08-16 11:36:12.475000,16.975,6,BFW,,,,,,,,,,,,,,,,,rest,-1
146,146,2012-08-16 11:36:04,2012-08-16 11:36:20.975000,16.975,6,BFW,,,,,,,,,,,,,,,,,rest,-1
147,147,2012-08-16 11:36:12.500000,2012-08-16 11:36:29.475000,16.975,6,BFW,,,,,,,,,0.08689248895434462,,,,,,,,others,0
148,148,2012-08-16 11:36:21,2012-08-16 11:36:37.975000,16.975,6,BFW,,,,,,,,,0.5876288659793814,,,,,,,,drinking,8
149,149,2012-08-16 11:36:29.500000,2012-08-16 11:36:46.475000,16.975,6,BFW,,,,,,,,,0.6185567010309277,,,,,,,,drinking,8
150,150,2012-08-16 11:36:38,2012-08-16 11:36:54.975000,16.975,6,BFW,,,,,,,,,0.117820324005891,,,,,,,,others,0
151,151,2012-08-16 11:36:46.500000,2012-08-16 11:37:03.475000,16.975,6,BFW,,,,,,,,,,,,,,,,,others,0
152,152,2012-08-16 11:36:55,2012-08-16 11:37:11.975000,16.975,6,BFW,,,,,,,,,0.1767304860088365,,,,,,,,others,0
153,153,2012-08-16 11:37:03.500000,2012-08-16 11:37:20.475000,16.975,6,BFW,,,,,,,,,0.1767304860088365,,,,,,,,others,0
154,154,2012-08-16 11:37:12,2012-08-16 11:37:28.975000,16.975,6,BFW,,,,,,,,,,,,,,,,,others,0
155,155,2012-08-16 11:37:20.500000,2012-08-16 11:37:37.475000,16.975,6,BFW,,,,,,,,,,,,,,,,,rest,-1
156,156,2012-08-16 11:37:29,2012-08-16 11:37:45.975000,16.975,6,BFW,,,,,,,,,,,,,,,,,others,0
157,157,2012-08-16 11:37:37.500000,2012-08-16 11:37:54.475000,16.975,6,BFW,,,,,,,,,,,,,,,,,others,0
158,158,2012-08-16 11:37:46,2012-08-16 11:38:02.975000,16.975,6,BFW,,,,,,,,,,,,,,,,,rest,-1
159,159,2012-08-16 11:37:54.500000,2012-08-16 11:38:11.475000,16.975,6,BFW,,,,,,,,,,,,,,,,,others,0
160,160,2012-08-16 11:38:03,2012-08-16 11:38:19.975000,16.975,6,BFW,,,,,,,,,,,,,,,,,others,0
161,161,2012-08-16 11:38:11.500000,2012-08-16 11:38:28.475000,16.975,6,BFW,,,,,,,,,,,,,,,,,others,0
162,162,2012-08-16 11:38:20,2012-08-16 11:38:36.975000,16.975,6,BFW,,,,,,,,,,,,,,,,,others,0
163,163,2012-08-16 11:38:28.500000,2012-08-16 11:38:45.475000,16.975,6,BFW,,,,,,,,,,,,,,,0.08689248895434462,,others,0
164,164,2012-08-16 11:38:37,2012-08-16 11:38:53.975000,16.975,6,BFW,,,,,,,,,,,,,,,0.5876288659793814,,walking,1
165,165,2012-08-16 11:38:45.500000,2012-08-16 11:39:02.475000,16.975,6,BFW,,,,,,,,,,,,,,,1.0,,walking,1
166,166,2012-08-16 11:38:54,2012-08-16 11:39:10.975000,16.975,6,BFW,,,,,,,,,,,,,,,1.0,,walking,1
167,167,2012-08-16 11:39:02.500000,2012-08-16 11:39:19.475000,16.975,6,BFW,,,,,,,,,,,,,,,1.0,,walking,1
168,168,2012-08-16 11:39:11,2012-08-16 11:39:27.975000,16.975,6,BFW,,,,,,,,,,,,,,,1.0,,walking,1
169,169,2012-08-16 11:39:19.500000,2012-08-16 11:39:36.475000,16.975,6,BFW,,,,,,,,,,,,,,,1.0,,walking,1
170,170,2012-08-16 11:39:28,2012-08-16 11:39:44.975000,16.975,6,BFW,,,,,,,,,,,,,,,1.0,,walking,1
171,171,2012-08-16 11:39:36.500000,2012-08-16 11:39:53.475000,16.975,6,BFW,,,,,,,,,,,,,,,1.0,,walking,1
172,172,2012-08-16 11:39:45,2012-08-16 11:40:01.975000,16.975,6,BFW,,,,,,,,,,,,,,,1.0,,walking,1
173,173,2012-08-16 11:39:53.500000,2012-08-16 11:40:10.475000,16.975,6,BFW,,,,,,,,,,,,,,,1.0,,walking,1
174,174,2012-08-16 11:40:02,2012-08-16 11:40:18.975000,16.975,6,BFW,,,,,,,,,,,,,,,1.0,,walking,1
175,175,2012-08-16 11:40:10.500000,2012-08-16 11:40:27.475000,16.975,6,BFW,,,,,,,,,,,,,,,1.0,,walking,1
176,176,2012-08-16 11:40:19,2012-08-16 11:40:35.975000,16.975,6,BFW,,,,,,,,,,,,,,,1.0,,walking,1
177,177,2012-08-16 11:40:27.500000,2012-08-16 11:40:44.475000,16.975,6,BFW,,,,,,,,,,,,,,,1.0,,walking,1
178,178,2012-08-16 11:40:36,2012-08-16 11:40:52.975000,16.975,6,BFW,,,,,,,,,,,,,,,1.0,,walking,1
179,179,2012-08-16 11:40:44.500000,2012-08-16 11:41:01.475000,16.975,6,BFW,,,,,,,,,,,,,,,1.0,,walking,1
180,180,2012-08-16 11:40:53,2012-08-16 11:41:09.975000,16.975,6,BFW,,,,,,,,,,,,,,,1.0,,walking,1
181,181,2012-08-16 11:41:01.500000,2012-08-16 11:41:18.475000,16.975,6,BFW,,,,,,,,,,,,,,,1.0,,walking,1
182,182,2012-08-16 11:41:10,2012-08-16 11:41:26.975000,16.975,6,BFW,,,,,,,,,,,,,,,0.8247422680412371,,walking,1
183,183,2012-08-16 11:41:18.500000,2012-08-16 11:41:35.475000,16.975,6,BFW,,,,,,,,,,,,,,,0.32400589101620025,,walking,1
184,184,2012-08-16 11:41:27,2012-08-16 11:41:43.975000,16.975,6,BFW,,,,,,,,,,,,,,,,,others,0
185,185,2012-08-16 11:41:35.500000,2012-08-16 11:41:52.475000,16.975,6,BFW,,,,,,,,,,,,,,,,,others,0
186,186,2012-08-16 11:41:44,2012-08-16 11:42:00.975000,16.975,6,BFW,,,,,,,,,,,,,,,,,others,0
187,187,2012-08-16 11:41:52.500000,2012-08-16 11:42:09.475000,16.975,6,BFW,,,,,,,,,,,,,,,,,others,0
188,188,2012-08-16 11:42:01,2012-08-16 11:42:17.975000,16.975,6,BFW,,,,,,,,,,,,,,,,,others,0
189,189,2012-08-16 11:42:09.500000,2012-08-16 11:42:26.475000,16.975,6,BFW,,,,,,,,,0.2636229749631811,,,,,,,,drinking,8
190,190,2012-08-16 11:42:18,2012-08-16 11:42:34.975000,16.975,6,BFW,,,,,,,,,0.5301914580265096,,,,,,,,drinking,8
191,191,2012-08-16 11:42:26.500000,2012-08-16 11:42:43.475000,16.975,6,BFW,,,,,,,,,0.2650957290132548,,,,,,,,drinking,8
192,192,2012-08-16 11:42:35,2012-08-16 11:42:51.975000,16.975,6,BFW,,,,,,,,,,,,,,,,,others,0
193,193,2012-08-16 11:42:43.500000,2012-08-16 11:43:00.475000,16.975,6,BFW,,,,,,,,,,,,,,,,,others,0
194,194,2012-08-16 11:42:52,2012-08-16 11:43:08.975000,16.975,6,BFW,,,,,,,,,,,,,,,,,others,0
195,195,2012-08-16 11:43:00.500000,2012-08-16 11:43:17.475000,16.975,6,BFW,,,,,,,,,,,,,,,,,others,0
196,196,2012-08-16 11:43:09,2012-08-16 11:43:25.975000,16.975,6,BFW,,,,,,,,,,,,,,,,,others,0
197,197,2012-08-16 11:43:17.500000,2012-08-16 11:43:34.475000,16.975,6,BFW,,,,,,,,,0.3225331369661266,,,,,,,,drinking,8
198,198,2012-08-16 11:43:26,2012-08-16 11:43:42.975000,16.975,6,BFW,,,,,,,,,0.8232695139911634,,,,,,,,drinking,8
199,199,2012-08-16 11:43:34.500000,2012-08-16 11:43:51.475000,16.975,6,BFW,,,,,,,,,1.0,,,,,,,,drinking,8
200,200,2012-08-16 11:43:43,2012-08-16 11:43:59.975000,16.975,6,BFW,,,,,,,,,1.0,,,,,,,,drinking,8
201,201,2012-08-16 11:43:51.500000,2012-08-16 11:44:08.475000,16.975,6,BFW,,,,,,,,,1.0,,,,,,,,drinking,8
202,202,2012-08-16 11:44:00,2012-08-16 11:44:16.975000,16.975,6,BFW,,,,,,,,,0.8247422680412371,,,,,,,,drinking,8
203,203,2012-08-16 11:44:08.500000,2012-08-16 11:44:25.475000,16.975,6,BFW,,,,,,,,,0.32400589101620025,,,,,,,,drinking,8
204,204,2012-08-16 11:44:17,2012-08-16 11:44:33.975000,16.975,6,BFW,,,,,,,,,,,,,,,,,others,0
205,205,2012-08-16 11:44:25.500000,2012-08-16 11:44:42.475000,16.975,6,BFW,,,,,,,,,,,,,,,,,others,0
206,206,2012-08-16 11:44:34,2012-08-16 11:44:50.975000,16.975,6,BFW,,,,,,,,,,,,,,,,,others,0
207,207,2012-08-16 11:44:42.500000,2012-08-16 11:44:59.475000,16.975,6,BFW,,,,,,,,,,,,,,,,,others,0
208,208,2012-08-16 11:44:51,2012-08-16 11:45:07.975000,16.975,6,BFW,,,,,,,,,,,,,,,,,others,0
209,209,2012-08-16 11:44:59.500000,2012-08-16 11:45:16.475000,16.975,6,BFW,,,,,,,,,,,,,,,,,others,0
210,210,2012-08-16 11:45:08,2012-08-16 11:45:24.975000,16.975,6,BFW,,,,,,,,,,,,,,,,,others,0
211,211,2012-08-16 11:45:16.500000,2012-08-16 11:45:33.475000,16.975,6,BFW,,,,,,,,,,,,,,,,,others,0
212,212,2012-08-16 11:45:25,2012-08-16 11:45:41.975000,16.975,6,BFW,,,,,,,,,,,,,,,,,others,0
213,213,2012-08-16 11:45:33.500000,2012-08-16 11:45:50.475000,16.975,6,BFW,,,,,,,,,,,,,,,,,others,0
214,214,2012-08-16 11:45:42,2012-08-16 11:45:58.975000,16.975,6,BFW,,,,,,,,,,,,,,,,,others,0
215,215,2012-08-16 11:45:50.500000,2012-08-16 11:46:07.475000,16.975,6,BFW,,,,,,,,,,,,,,,,,others,0
216,216,2012-08-16 11:45:59,2012-08-16 11:46:15.975000,16.975,6,BFW,,,,,,,,,,,,,,,,,others,0
217,217,2012-08-16 11:46:07.500000,2012-08-16 11:46:24.475000,16.975,6,BFW,,,,,,,,,,,,,,,,,others,0
218,218,2012-08-16 11:46:16,2012-08-16 11:46:32.975000,16.975,6,BFW,,,,,,,,,,,,,,,,,others,0
219,219,2012-08-16 11:46:24.500000,2012-08-16 11:46:41.475000,16.975,6,BFW,,,,,,,,,,,,,,,,,others,0
220,220,2012-08-16 11:46:33,2012-08-16 11:46:49.975000,16.975,6,BFW,,,,,,,,,,,,,,,,,others,0
221,221,2012-08-16 11:46:41.500000,2012-08-16 11:46:58.475000,16.975,6,BFW,,,,,,,,,,,,,,,,,others,0
222,222,2012-08-16 11:46:50,2012-08-16 11:47:06.975000,16.975,6,BFW,,,,,,,,,,,,,,,,,others,0
223,223,2012-08-16 11:46:58.500000,2012-08-16 11:47:15.475000,16.975,6,BFW,,,,,,,,,,,,,,,,,others,0
224,224,2012-08-16 11:47:07,2012-08-16 11:47:23.975000,16.975,6,BFW,,,,,,,,,,,,,,,,,others,0
225,225,2012-08-16 11:47:15.500000,2012-08-16 11:47:32.475000,16.975,6,BFW,,,,,,,,,,,,,,,,,others,0
226,226,2012-08-16 11:47:24,2012-08-16 11:47:40.975000,16.975,6,BFW,0.9961538461538461,0.3814432989690721,1.0,10.0,right-puff,,,,,,,0.41089837997054485,,,,,puff,9
227,227,2012-08-16 11:47:32.500000,2012-08-16 11:47:49.475000,16.975,6,BFW,1.0,0.3829160530191458,1.0,10.0,right-puff,,,,0.20471281296023564,,,0.9116347569955816,,,,0.20471281296023564,puff,9
228,228,2012-08-16 11:47:41,2012-08-16 11:47:57.975000,16.975,6,BFW,0.7029411764705882,0.3519882179675994,0.0,11.0,right-puff,,,,0.2945508100147275,,,1.0,,,,0.2945508100147275,puff,9
229,229,2012-08-16 11:47:49.500000,2012-08-16 11:48:06.475000,16.975,6,BFW,1.0,0.5007363770250368,0.0,11.0,right-puff,,,,0.08836524300441825,,,1.0,,,,0.08836524300441825,puff,9
230,230,2012-08-16 11:47:58,2012-08-16 11:48:14.975000,16.975,6,BFW,0.4088235294117647,0.20471281296023564,0.0,11.0,right-puff,,,,,,,1.0,,,,,puff,9
231,231,2012-08-16 11:48:06.500000,2012-08-16 11:48:23.475000,16.975,6,BFW,1.0,0.353460972017673,0.0,12.0,right-puff,,,,,,,1.0,,,,,puff,9
232,232,2012-08-16 11:48:15,2012-08-16 11:48:31.975000,16.975,6,BFW,0.8333333333333334,0.2945508100147275,0.0,12.0,right-puff,,,,,,,1.0,,,,,puff,9
233,233,2012-08-16 11:48:23.500000,2012-08-16 11:48:40.475000,16.975,6,BFW,,,,,,,,,0.027982326951399114,,,1.0,,,,0.027982326951399114,others,0
234,234,2012-08-16 11:48:32,2012-08-16 11:48:48.975000,16.975,6,BFW,,,,,,,,,0.5287187039764358,,,1.0,,,,0.5287187039764358,drinking,8
235,235,2012-08-16 11:48:40.500000,2012-08-16 11:48:57.475000,16.975,6,BFW,,,,,,,,,1.0,,,1.0,,,,1.0,drinking,8
236,236,2012-08-16 11:48:49,2012-08-16 11:49:05.975000,16.975,6,BFW,,,,,,,,,0.6480117820324005,,,1.0,,,,0.6480117820324005,drinking,8
237,237,2012-08-16 11:48:57.500000,2012-08-16 11:49:14.475000,16.975,6,BFW,,,,,,,,,0.14727540500736375,,,1.0,,,,0.14727540500736375,others,0
238,238,2012-08-16 11:49:06,2012-08-16 11:49:22.975000,16.975,6,BFW,,,,,,,,,,,,1.0,,,,,others,0
239,239,2012-08-16 11:49:14.500000,2012-08-16 11:49:31.475000,16.975,6,BFW,,,,,,,,,,,,1.0,,,,,others,0
240,240,2012-08-16 11:49:23,2012-08-16 11:49:39.975000,16.975,6,BFW,,,,,,,,,,,,1.0,,,,,others,0
241,241,2012-08-16 11:49:31.500000,2012-08-16 11:49:48.475000,16.975,6,BFW,,,,,,,0.20471281296023564,,,,,1.0,,,,0.20471281296023564,others,0
242,242,2012-08-16 11:49:40,2012-08-16 11:49:56.975000,16.975,6,BFW,0.2681818181818182,0.08689248895434462,1.0,13.0,right-puff,,0.6480117820324005,,,,,1.0,,,,0.6480117820324005,talking,5
243,243,2012-08-16 11:49:48.500000,2012-08-16 11:50:05.475000,16.975,6,BFW,1.0,0.32400589101620025,1.0,13.0,right-puff,,0.4418262150220913,,,,,1.0,,,,0.4418262150220913,puff,9
244,244,2012-08-16 11:49:57,2012-08-16 11:50:13.975000,16.975,6,BFW,0.7272727272727273,0.235640648011782,1.0,13.0,right-puff,,,,,,,1.0,,,,,puff,9
245,245,2012-08-16 11:50:05.500000,2012-08-16 11:50:22.475000,16.975,6,BFW,,,,,,,,,,,,1.0,,,,,others,0
246,246,2012-08-16 11:50:14,2012-08-16 11:50:30.975000,16.975,6,BFW,,,,,,,,,,,,1.0,,,,,others,0
247,247,2012-08-16 11:50:22.500000,2012-08-16 11:50:39.475000,16.975,6,BFW,,,,,,,,,,,,1.0,,,,,rest,-1
248,248,2012-08-16 11:50:31,2012-08-16 11:50:47.975000,16.975,6,BFW,,,,,,,,,0.05743740795287187,,,1.0,,,,0.05743740795287187,others,0
249,249,2012-08-16 11:50:39.500000,2012-08-16 11:50:56.475000,16.975,6,BFW,,,,,,,,,0.5581737849779086,,,1.0,,,,0.5581737849779086,drinking,8
250,250,2012-08-16 11:50:48,2012-08-16 11:51:04.975000,16.975,6,BFW,1.0,0.2945508100147275,1.0,14.0,right-puff,,,,0.589101620029455,,,1.0,,,,0.589101620029455,puff,9
251,251,2012-08-16 11:50:56.500000,2012-08-16 11:51:13.475000,16.975,6,BFW,1.0,0.2945508100147275,1.0,14.0,right-puff,,,,0.08836524300441825,,,1.0,,,,0.08836524300441825,puff,9
252,252,2012-08-16 11:51:05,2012-08-16 11:51:21.975000,16.975,6,BFW,,,,,,,,,,,,1.0,,,,,rest,-1
253,253,2012-08-16 11:51:13.500000,2012-08-16 11:51:30.475000,16.975,6,BFW,1.0,0.2945508100147275,1.0,15.0,right-puff,,,,,,,1.0,,,,,rest,-1
254,254,2012-08-16 11:51:22,2012-08-16 11:51:38.975000,16.975,6,BFW,1.0,0.2945508100147275,1.0,15.0,right-puff,,,,,,,1.0,,,,,rest,-1
255,255,2012-08-16 11:51:30.500000,2012-08-16 11:51:47.475000,16.975,6,BFW,,,,,,,,,,,,1.0,,,,,rest,-1
256,256,2012-08-16 11:51:39,2012-08-16 11:51:55.975000,16.975,6,BFW,,,,,,,,,,,,1.0,,,,,others,0
257,257,2012-08-16 11:51:47.500000,2012-08-16 11:52:04.475000,16.975,6,BFW,,,,,,,,,,,,1.0,,,,,others,0
258,258,2012-08-16 11:51:56,2012-08-16 11:52:12.975000,16.975,6,BFW,,,,,,,,,,,,1.0,,,,,others,0
259,259,2012-08-16 11:52:04.500000,2012-08-16 11:52:21.475000,16.975,6,BFW,,,,,,,,,,,,1.0,,,,,others,0
260,260,2012-08-16 11:52:13,2012-08-16 11:52:29.975000,16.975,6,BFW,,,,,,,,,0.2945508100147275,,,1.0,,,,0.2945508100147275,drinking,8
261,261,2012-08-16 11:52:21.500000,2012-08-16 11:52:38.475000,16.975,6,BFW,0.434375,0.20471281296023564,1.0,16.0,right-puff,,,,0.2945508100147275,,,1.0,,,,0.2945508100147275,puff,9
262,262,2012-08-16 11:52:30,2012-08-16 11:52:46.975000,16.975,6,BFW,1.0,0.471281296023564,1.0,16.0,right-puff,,,,,,,1.0,,,,,puff,9
263,263,2012-08-16 11:52:38.500000,2012-08-16 11:52:55.475000,16.975,6,BFW,0.5625,0.2650957290132548,1.0,16.0,right-puff,,,,,,,1.0,,,,,puff,9
264,264,2012-08-16 11:52:47,2012-08-16 11:53:03.975000,16.975,6,BFW,,,,,,,,,,,,1.0,,,,,rest,-1
265,265,2012-08-16 11:52:55.500000,2012-08-16 11:53:12.475000,16.975,6,BFW,0.17727272727272728,0.05743740795287187,1.0,17.0,right-puff,,,,,,,1.0,,,,,others,0
266,266,2012-08-16 11:53:04,2012-08-16 11:53:20.975000,16.975,6,BFW,1.0,0.32400589101620025,1.0,17.0,right-puff,,,,,,,1.0,,,,,puff,9
267,267,2012-08-16 11:53:12.500000,2012-08-16 11:53:29.475000,16.975,6,BFW,0.8181818181818182,0.2650957290132548,1.0,17.0,right-puff,,,,,,,1.0,,,,,puff,9
268,268,2012-08-16 11:53:21,2012-08-16 11:53:37.975000,16.975,6,BFW,,,,,,,,,,,,0.8247422680412371,,,,,others,0
269,269,2012-08-16 11:53:29.500000,2012-08-16 11:53:46.475000,16.975,6,BFW,,,,,,,,,,,,0.32400589101620025,,,,,others,0
270,270,2012-08-16 11:53:38,2012-08-16 11:53:54.975000,16.975,6,BFW,,,,,,,,,,,,,,,,,others,0
271,271,2012-08-16 11:53:46.500000,2012-08-16 11:54:03.475000,16.975,6,BFW,,,,,,,,,,,,,,,,,others,0
272,272,2012-08-16 11:53:55,2012-08-16 11:54:11.975000,16.975,6,BFW,,,,,,,,,,,,,,,,,others,0
273,273,2012-08-16 11:54:03.500000,2012-08-16 11:54:20.475000,16.975,6,BFW,,,,,,,,,,,,,,,,,others,0
274,274,2012-08-16 11:54:12,2012-08-16 11:54:28.975000,16.975,6,BFW,,,,,,,,,,,,,,,,,others,0
275,275,2012-08-16 11:54:20.500000,2012-08-16 11:54:37.475000,16.975,6,BFW,,,,,,,,,0.3225331369661266,,,,,,,,drinking,8
276,276,2012-08-16 11:54:29,2012-08-16 11:54:45.975000,16.975,6,BFW,,,,,,,,,0.8232695139911634,,,,,,,,rest,-1
277,277,2012-08-16 11:54:37.500000,2012-08-16 11:54:54.475000,16.975,6,BFW,,,,,,,,,1.0,,,,,,,,drinking,8
278,278,2012-08-16 11:54:46,2012-08-16 11:55:02.975000,16.975,6,BFW,,,,,,,,,1.0,,,,,,,,drinking,8
279,279,2012-08-16 11:54:54.500000,2012-08-16 11:55:11.475000,16.975,6,BFW,,,,,,,,,1.0,,,,,,,,drinking,8
280,280,2012-08-16 11:55:03,2012-08-16 11:55:19.975000,16.975,6,BFW,,,,,,,,,1.0,,,,,,,,drinking,8
281,281,2012-08-16 11:55:11.500000,2012-08-16 11:55:28.475000,16.975,6,BFW,,,,,,,,,1.0,,,,,,,,drinking,8
282,282,2012-08-16 11:55:20,2012-08-16 11:55:36.975000,16.975,6,BFW,,,,,,,,,1.0,,,,,,,,drinking,8
283,283,2012-08-16 11:55:28.500000,2012-08-16 11:55:45.475000,16.975,6,BFW,,,,,,,,,1.0,,,,,,,,drinking,8
284,284,2012-08-16 11:55:37,2012-08-16 11:55:53.975000,16.975,6,BFW,,,,,,,,,1.0,,,,,,,,drinking,8
285,285,2012-08-16 11:55:45.500000,2012-08-16 11:56:02.475000,16.975,6,BFW,,,,,,,,,1.0,,,,,,,,drinking,8
286,286,2012-08-16 11:55:54,2012-08-16 11:56:10.975000,16.975,6,BFW,,,,,,,,,1.0,,,,,,,,drinking,8
287,287,2012-08-16 11:56:02.500000,2012-08-16 11:56:19.475000,16.975,6,BFW,,,,,,,,,0.8541973490427098,,,,,,,,drinking,8
288,288,2012-08-16 11:56:11,2012-08-16 11:56:27.975000,16.975,6,BFW,,,,,,,,,0.353460972017673,,,,,,,,drinking,8
289,289,2012-08-16 11:56:19.500000,2012-08-16 11:56:36.475000,16.975,6,BFW,,,,,,,,,,,,,,,,,others,0
290,290,2012-08-16 11:56:28,2012-08-16 11:56:44.975000,16.975,6,BFW,,,,,,,,,,,,,,,,,others,0
291,291,2012-08-16 11:56:36.500000,2012-08-16 11:56:53.475000,16.975,6,BFW,,,,,,,,,,,,,,,,,rest,-1
292,292,2012-08-16 11:56:45,2012-08-16 11:57:01.975000,16.975,6,BFW,,,,,,,,,,,,,,,,,rest,-1
293,293,2012-08-16 11:56:53.500000,2012-08-16 11:57:10.475000,16.975,6,BFW,,,,,,,,,,,,,,,,,others,0
294,294,2012-08-16 11:57:02,2012-08-16 11:57:18.975000,16.975,6,BFW,,,,,,,,,,,,,,,,,others,0
295,295,2012-08-16 11:57:10.500000,2012-08-16 11:57:27.475000,16.975,6,BFW,,,,,,,,,,,,,,,,,others,0
296,296,2012-08-16 11:57:19,2012-08-16 11:57:35.975000,16.975,6,BFW,,,,,,,,,,,,,,,,,rest,-1
297,297,2012-08-16 11:57:27.500000,2012-08-16 11:57:44.475000,16.975,6,BFW,,,,,,,,,,,,,,,,,rest,-1
298,298,2012-08-16 11:57:36,2012-08-16 11:57:52.975000,16.975,6,BFW,,,,,,,,,,,,,,,,,others,0
299,299,2012-08-16 11:57:44.500000,2012-08-16 11:58:01.475000,16.975,6,BFW,,,,,,,,,,,,,,,,,rest,-1
300,300,2012-08-16 11:57:53,2012-08-16 11:58:09.975000,16.975,6,BFW,,,,,,,,,0.29307805596465386,,,,,,,,drinking,8
301,301,2012-08-16 11:58:01.500000,2012-08-16 11:58:18.475000,16.975,6,BFW,,,,,,,,,0.353460972017673,,,,,,,,drinking,8
302,302,2012-08-16 11:58:10,2012-08-16 11:58:26.975000,16.975,6,BFW,,,,,,,,,0.0589101620029455,,,,,,,,rest,-1
303,303,2012-08-16 11:58:18.500000,2012-08-16 11:58:35.475000,16.975,6,BFW,,,,,,,,,,,,,,,,,rest,-1
304,304,2012-08-16 11:58:27,2012-08-16 11:58:43.975000,16.975,6,BFW,,,,,,,,,,,,,,,,,rest,-1
305,305,2012-08-16 11:58:35.500000,2012-08-16 11:58:52.475000,16.975,6,BFW,,,,,,,,,,,,,,,,,rest,-1
306,306,2012-08-16 11:58:44,2012-08-16 11:59:00.975000,16.975,6,BFW,,,,,,,,,,,,,,,,,others,0
307,307,2012-08-16 11:58:52.500000,2012-08-16 11:59:09.475000,16.975,6,BFW,,,,,,,,,,,,,,,,,rest,-1
308,308,2012-08-16 11:59:01,2012-08-16 11:59:17.975000,16.975,6,BFW,,,,,,,,,,,,,,,,,others,0
309,309,2012-08-16 11:59:09.500000,2012-08-16 11:59:26.475000,16.975,6,BFW,,,,,,,,,,,,,,,,,others,0
310,310,2012-08-16 11:59:18,2012-08-16 11:59:34.975000,16.975,6,BFW,,,,,,,,,,,,,,,,,rest,-1
311,311,2012-08-16 11:59:26.500000,2012-08-16 11:59:43.475000,16.975,6,BFW,,,,,,,,,,,,,,,,,others,0
312,312,2012-08-16 11:59:35,2012-08-16 11:59:51.975000,16.975,6,BFW,,,,,,,,,,,,,,,,,others,0
313,313,2012-08-16 11:59:43.500000,2012-08-16 12:00:00.475000,16.975,6,BFW,,,,,,,,,,,,,,,,,rest,-1
314,314,2012-08-16 11:59:52,2012-08-16 12:00:08.975000,16.975,6,BFW,,,,,,,,,,,,,,,,,rest,-1
315,315,2012-08-16 12:00:00.500000,2012-08-16 12:00:17.475000,16.975,6,BFW,,,,,,,,,,,,,,,,,rest,-1
316,316,2012-08-16 12:00:09,2012-08-16 12:00:25.975000,16.975,6,BFW,,,,,,,,,,,,,,,,,rest,-1
317,317,2012-08-16 12:00:17.500000,2012-08-16 12:00:34.475000,16.975,6,BFW,,,,,,,,,,,,,,,,,others,0
318,318,2012-08-16 12:00:26,2012-08-16 12:00:42.975000,16.975,6,BFW,,,,,,,,,,,,,,,,,others,0
319,319,2012-08-16 12:00:34.500000,2012-08-16 12:00:51.475000,16.975,6,BFW,,,,,,,,,,,,,,,,,others,0
320,320,2012-08-16 12:00:43,2012-08-16 12:00:59.975000,16.975,6,BFW,,,,,,,,,,,,,,,,,rest,-1
321,321,2012-08-16 12:00:51.500000,2012-08-16 12:01:08.475000,16.975,6,BFW,,,,,,,,,,,,,,,,,rest,-1
322,322,2012-08-16 12:01:00,2012-08-16 12:01:16.975000,16.975,6,BFW,,,,,,,,,,,,,,,,,rest,-1
323,323,2012-08-16 12:01:08.500000,2012-08-16 12:01:25.475000,16.975,6,BFW,,,,,,,,,,,,,,,,,rest,-1
324,324,2012-08-16 12:01:17,2012-08-16 12:01:33.975000,16.975,6,BFW,,,,,,,,,,,,,,,,,rest,-1
325,325,2012-08-16 12:01:25.500000,2012-08-16 12:01:42.475000,16.975,6,BFW,,,,,,,,,,,,,,,,,rest,-1
326,326,2012-08-16 12:01:34,2012-08-16 12:01:50.975000,16.975,6,BFW,,,,,,,,,,,,,,,,,others,0
327,327,2012-08-16 12:01:42.500000,2012-08-16 12:01:59.475000,16.975,6,BFW,,,,,,,,,,,,,,,,,others,0
328,328,2012-08-16 12:01:51,2012-08-16 12:02:07.975000,16.975,6,BFW,,,,,,,,,,,,,,,,,rest,-1
329,329,2012-08-16 12:01:59.500000,2012-08-16 12:02:16.475000,16.975,6,BFW,,,,,,,,,,,,,,,,,others,0
330,330,2012-08-16 12:02:08,2012-08-16 12:02:24.975000,16.975,6,BFW,,,,,,,,,,,,,,,,,others,0
331,331,2012-08-16 12:02:16.500000,2012-08-16 12:02:33.475000,16.975,6,BFW,,,,,,,,,,,,,,,,,others,0
332,332,2012-08-16 12:02:25,2012-08-16 12:02:41.975000,16.975,6,BFW,,,,,,,,,,,,,,,,,others,0
333,333,2012-08-16 12:02:33.500000,2012-08-16 12:02:50.475000,16.975,6,BFW,,,,,,,,,0.08689248895434462,,,,,,,,others,0
334,334,2012-08-16 12:02:42,2012-08-16 12:02:58.975000,16.975,6,BFW,,,,,,,,,0.5876288659793814,,,,,,,,drinking,8
335,335,2012-08-16 12:02:50.500000,2012-08-16 12:03:07.475000,16.975,6,BFW,,,,,,,,,0.7952871870397643,,,,,,,,drinking,8
336,336,2012-08-16 12:02:59,2012-08-16 12:03:15.975000,16.975,6,BFW,,,,,,,,,0.2945508100147275,,,,,,,,drinking,8
337,337,2012-08-16 12:03:07.500000,2012-08-16 12:03:24.475000,16.975,6,BFW,,,,,,,,,,,,,,,,,others,0
338,338,2012-08-16 12:03:16,2012-08-16 12:03:32.975000,16.975,6,BFW,,,,,,,,,,,,,,,,,others,0
339,339,2012-08-16 12:03:24.500000,2012-08-16 12:03:41.475000,16.975,6,BFW,,,,,,,,,,,,,,,,,others,0
340,340,2012-08-16 12:03:33,2012-08-16 12:03:49.975000,16.975,6,BFW,,,,,,,,,,,,,,,,,others,0
341,341,2012-08-16 12:03:41.500000,2012-08-16 12:03:58.475000,16.975,6,BFW,,,,,,,,,,,,,,,,,rest,-1
342,342,2012-08-16 12:03:50,2012-08-16 12:04:06.975000,16.975,6,BFW,,,,,,,,,,,,,,,,,others,0
343,343,2012-08-16 12:03:58.500000,2012-08-16 12:04:15.475000,16.975,6,BFW,,,,,,,,,,,,,,,,,others,0
344,344,2012-08-16 12:04:07,2012-08-16 12:04:23.975000,16.975,6,BFW,,,,,,,,,,,,,,,,,rest,-1
345,345,2012-08-16 12:04:15.500000,2012-08-16 12:04:32.475000,16.975,6,BFW,,,,,,,,,,,,,,,,,others,0
346,346,2012-08-16 12:04:24,2012-08-16 12:04:40.975000,16.975,6,BFW,,,,,,,,,,,,,,,,,others,0
347,347,2012-08-16 12:04:32.500000,2012-08-16 12:04:49.475000,16.975,6,BFW,,,,,,,,,,,,,,,,,others,0
348,348,2012-08-16 12:04:41,2012-08-16 12:04:57.975000,16.975,6,BFW,,,,,,,,,,,,,,,,,others,0
349,349,2012-08-16 12:04:49.500000,2012-08-16 12:05:06.475000,16.975,6,BFW,,,,,,,,,,,,,,,,,others,0
350,350,2012-08-16 12:04:58,2012-08-16 12:05:14.975000,16.975,6,BFW,,,,,,,,,,,,,,,,,others,0
351,351,2012-08-16 12:05:06.500000,2012-08-16 12:05:23.475000,16.975,6,BFW,,,,,,,,,,,,,,,,,others,0
352,352,2012-08-16 12:05:15,2012-08-16 12:05:31.975000,16.975,6,BFW,,,,,,,,,,,,,,,,,others,0
353,353,2012-08-16 12:05:23.500000,2012-08-16 12:05:40.475000,16.975,6,BFW,,,,,,,,,,,,,,,,,others,0
354,354,2012-08-16 12:05:32,2012-08-16 12:05:48.975000,16.975,6,BFW,,,,,,,,,,,,,,,,,others,0
355,355,2012-08-16 12:05:40.500000,2012-08-16 12:05:57.475000,16.975,6,BFW,,,,,,,,,0.027982326951399114,,,,,,,,others,0
356,356,2012-08-16 12:05:49,2012-08-16 12:06:05.975000,16.975,6,BFW,,,,,,,,,0.235640648011782,,,,,,,,others,0
357,357,2012-08-16 12:05:57.500000,2012-08-16 12:06:14.475000,16.975,6,BFW,,,,,,,,,0.20618556701030927,,,,,,,,others,0
358,358,2012-08-16 12:06:06,2012-08-16 12:06:22.975000,16.975,6,BFW,,,,,,,,,,,,,,,,,others,0
359,359,2012-08-16 12:06:14.500000,2012-08-16 12:06:31.475000,16.975,6,BFW,,,,,,,,,,,,,,,,,others,0
360,360,2012-08-16 12:06:23,2012-08-16 12:06:39.975000,16.975,6,BFW,,,,,,,,,,,,,,,,,others,0
361,361,2012-08-16 12:06:31.500000,2012-08-16 12:06:48.475000,16.975,6,BFW,,,,,,,,,,,,,,,,,others,0
362,362,2012-08-16 12:06:40,2012-08-16 12:06:56.975000,16.975,6,BFW,,,,,,,,,,,,,,,,,rest,-1
363,363,2012-08-16 12:06:48.500000,2012-08-16 12:07:05.475000,16.975,6,BFW,,,,,,,,,,,,,,,,,others,0
364,364,2012-08-16 12:06:57,2012-08-16 12:07:13.975000,16.975,6,BFW,,,,,,,,,,,,,,,,,others,0
365,365,2012-08-16 12:07:05.500000,2012-08-16 12:07:22.475000,16.975,6,BFW,,,,,,,,,,,,,,,,,others,0
366,366,2012-08-16 12:07:14,2012-08-16 12:07:30.975000,16.975,6,BFW,,,,,,,,,,,,,,,,,others,0
367,367,2012-08-16 12:07:22.500000,2012-08-16 12:07:39.475000,16.975,6,BFW,,,,,,,,,,,,,,,,,others,0
368,368,2012-08-16 12:07:31,2012-08-16 12:07:47.975000,16.975,6,BFW,,,,,,,,,,,,,,,,,others,0
369,369,2012-08-16 12:07:39.500000,2012-08-16 12:07:56.475000,16.975,6,BFW,,,,,,,,,,,,,0.027982326951399114,,,,others,0
370,370,2012-08-16 12:07:48,2012-08-16 12:08:04.975000,16.975,6,BFW,,,,,,,,,,,,,0.5287187039764358,,,,computer,4
371,371,2012-08-16 12:07:56.500000,2012-08-16 12:08:13.475000,16.975,6,BFW,,,,,,,,,,,,,1.0,,,,computer,4
372,372,2012-08-16 12:08:05,2012-08-16 12:08:21.975000,16.975,6,BFW,,,,,,,,,,,,,1.0,,,,computer,4
373,373,2012-08-16 12:08:13.500000,2012-08-16 12:08:30.475000,16.975,6,BFW,,,,,,,,,,,,,1.0,,,,rest,-1
374,374,2012-08-16 12:08:22,2012-08-16 12:08:38.975000,16.975,6,BFW,,,,,,,,,,,,,1.0,,,,computer,4
375,375,2012-08-16 12:08:30.500000,2012-08-16 12:08:47.475000,16.975,6,BFW,,,,,,,,,,,,,1.0,,,,computer,4
376,376,2012-08-16 12:08:39,2012-08-16 12:08:55.975000,16.975,6,BFW,,,,,,,,,,,,,1.0,,,,computer,4
377,377,2012-08-16 12:08:47.500000,2012-08-16 12:09:04.475000,16.975,6,BFW,,,,,,,,,,,,,1.0,,,,computer,4
378,378,2012-08-16 12:08:56,2012-08-16 12:09:12.975000,16.975,6,BFW,,,,,,,,,,,,,1.0,,,,computer,4
379,379,2012-08-16 12:09:04.500000,2012-08-16 12:09:21.475000,16.975,6,BFW,,,,,,,,,,,,,1.0,,,,computer,4
380,380,2012-08-16 12:09:13,2012-08-16 12:09:29.975000,16.975,6,BFW,,,,,,,,,,,,,1.0,,,,rest,-1
381,381,2012-08-16 12:09:21.500000,2012-08-16 12:09:38.475000,16.975,6,BFW,,,,,,,,,,,,,1.0,,,,computer,4
382,382,2012-08-16 12:09:30,2012-08-16 12:09:46.975000,16.975,6,BFW,,,,,,,,,,,,,1.0,,,,computer,4
383,383,2012-08-16 12:09:38.500000,2012-08-16 12:09:55.475000,16.975,6,BFW,,,,,,,,,,,,,0.6465390279823269,,,,computer,4
384,384,2012-08-16 12:09:47,2012-08-16 12:10:03.975000,16.975,6,BFW,,,,,,,,,,,,,0.6465390279823269,,,,computer,4
385,385,2012-08-16 12:09:55.500000,2012-08-16 12:10:12.475000,16.975,6,BFW,,,,,,,,,,,,,1.0,,,,computer,4
386,386,2012-08-16 12:10:04,2012-08-16 12:10:20.975000,16.975,6,BFW,,,,,,,,,,,,,1.0,,,,computer,4
387,387,2012-08-16 12:10:12.500000,2012-08-16 12:10:29.475000,16.975,6,BFW,,,,,,,,,,,,,1.0,,,,rest,-1
388,388,2012-08-16 12:10:21,2012-08-16 12:10:37.975000,16.975,6,BFW,,,,,,,,,,,,,1.0,,,,computer,4
389,389,2012-08-16 12:10:29.500000,2012-08-16 12:10:46.475000,16.975,6,BFW,,,,,,,,,,,,,1.0,,,,computer,4
390,390,2012-08-16 12:10:38,2012-08-16 12:10:54.975000,16.975,6,BFW,,,,,,,,,,,,,0.589101620029455,,,,computer,4
391,391,2012-08-16 12:10:46.500000,2012-08-16 12:11:03.475000,16.975,6,BFW,,,,,,,,,,,,,0.08836524300441825,,,,others,0
392,392,2012-08-16 12:10:55,2012-08-16 12:11:11.975000,16.975,6,BFW,,,,,,,,,,,,,,,,,others,0
393,393,2012-08-16 12:11:03.500000,2012-08-16 12:11:20.475000,16.975,6,BFW,,,,,,,,,,,,,,,,,rest,-1
394,394,2012-08-16 12:11:12,2012-08-16 12:11:28.975000,16.975,6,BFW,,,,,,,,,,,,,,,,,rest,-1
395,395,2012-08-16 12:11:20.500000,2012-08-16 12:11:37.475000,16.975,6,BFW,,,,,,,,,,,,,,,,,rest,-1
396,396,2012-08-16 12:11:29,2012-08-16 12:11:45.975000,16.975,6,BFW,,,,,,,,,,,,,0.11634756995581737,,,,rest,-1
397,397,2012-08-16 12:11:37.500000,2012-08-16 12:11:54.475000,16.975,6,BFW,,,,,,,,,,,,,0.6170839469808541,,,,rest,-1
398,398,2012-08-16 12:11:46,2012-08-16 12:12:02.975000,16.975,6,BFW,,,,,,,,,,,,,1.0,,,,computer,4
399,399,2012-08-16 12:11:54.500000,2012-08-16 12:12:11.475000,16.975,6,BFW,,,,,,,,,,,,0.08689248895434462,1.0,,,0.08689248895434462,computer,4
400,400,2012-08-16 12:12:03,2012-08-16 12:12:19.975000,16.975,6,BFW,,,,,,,,,,,,0.5876288659793814,1.0,,,0.5876288659793814,computer,4
401,401,2012-08-16 12:12:11.500000,2012-08-16 12:12:28.475000,16.975,6,BFW,,,,,,,,,,,,1.0,1.0,,,1.0,computer,4
402,402,2012-08-16 12:12:20,2012-08-16 12:12:36.975000,16.975,6,BFW,0.21063829787234042,0.14580265095729011,0.0,18.0,left-puff,,,,,,,1.0,1.0,,,1.0,computer,4
403,403,2012-08-16 12:12:28.500000,2012-08-16 12:12:45.475000,16.975,6,BFW,0.9340425531914893,0.6465390279823269,0.0,18.0,left-puff,,,,,,,1.0,1.0,,,1.0,puff,9
404,404,2012-08-16 12:12:37,2012-08-16 12:12:53.975000,16.975,6,BFW,0.7872340425531915,0.5449189985272459,0.0,18.0,left-puff,,,,,,,1.0,1.0,,,1.0,puff,9
405,405,2012-08-16 12:12:45.500000,2012-08-16 12:13:02.475000,16.975,6,BFW,0.06382978723404255,0.04418262150220913,0.0,18.0,left-puff,,,,,,,1.0,1.0,,,1.0,computer,4
406,406,2012-08-16 12:12:54,2012-08-16 12:13:10.975000,16.975,6,BFW,,,,,,,,,,,,1.0,1.0,,,1.0,computer,4
407,407,2012-08-16 12:13:02.500000,2012-08-16 12:13:19.475000,16.975,6,BFW,,,,,,,,,,,,1.0,1.0,,,1.0,rest,-1
408,408,2012-08-16 12:13:11,2012-08-16 12:13:27.975000,16.975,6,BFW,1.0,0.471281296023564,1.0,19.0,left-puff,,,,,,,1.0,1.0,,,1.0,puff,9
409,409,2012-08-16 12:13:19.500000,2012-08-16 12:13:36.475000,16.975,6,BFW,1.0,0.471281296023564,1.0,19.0,left-puff,,,,,,,1.0,1.0,,,1.0,puff,9
410,410,2012-08-16 12:13:28,2012-08-16 12:13:44.975000,16.975,6,BFW,,,,,,,,,,,,1.0,1.0,,,1.0,computer,4
411,411,2012-08-16 12:13:36.500000,2012-08-16 12:13:53.475000,16.975,6,BFW,,,,,,,,,,,,1.0,1.0,,,1.0,computer,4
412,412,2012-08-16 12:13:45,2012-08-16 12:14:01.975000,16.975,6,BFW,,,,,,,,,,,,1.0,1.0,,,1.0,computer,4
413,413,2012-08-16 12:13:53.500000,2012-08-16 12:14:10.475000,16.975,6,BFW,1.0,0.4418262150220913,1.0,20.0,left-puff,,,,,,,1.0,1.0,,,1.0,puff,9
414,414,2012-08-16 12:14:02,2012-08-16 12:14:18.975000,16.975,6,BFW,1.0,0.4418262150220913,1.0,20.0,left-puff,,,,,,,1.0,1.0,,,1.0,puff,9
415,415,2012-08-16 12:14:10.500000,2012-08-16 12:14:27.475000,16.975,6,BFW,,,,,,,,,0.027982326951399114,,,1.0,0.9720176730486008,,,1.0,computer,4
416,416,2012-08-16 12:14:19,2012-08-16 12:14:35.975000,16.975,6,BFW,0.3159090909090909,0.20471281296023564,0.0,21.0,left-puff,,,,0.41237113402061853,,,1.0,0.5876288659793814,,,1.0,puff,9
417,417,2012-08-16 12:14:27.500000,2012-08-16 12:14:44.475000,16.975,6,BFW,1.0,0.6480117820324005,0.0,21.0,left-puff,,,,0.3829160530191458,,,1.0,0.6170839469808541,,,1.0,puff,9
418,418,2012-08-16 12:14:36,2012-08-16 12:14:52.975000,16.975,6,BFW,0.6818181818181818,0.4418262150220913,0.0,21.0,left-puff,,,,,,,1.0,0.6480117820324005,,,0.6480117820324005,puff,9
419,419,2012-08-16 12:14:44.500000,2012-08-16 12:15:01.475000,16.975,6,BFW,,,,,,,,,,,,1.0,0.14727540500736375,,,0.14727540500736375,others,0
420,420,2012-08-16 12:14:53,2012-08-16 12:15:09.975000,16.975,6,BFW,0.496875,0.23416789396170837,1.0,22.0,right-puff,,,,,,,1.0,,,,,puff,9
421,421,2012-08-16 12:15:01.500000,2012-08-16 12:15:18.475000,16.975,6,BFW,1.0,0.471281296023564,1.0,22.0,right-puff,,,,,,,1.0,,,,,puff,9
422,422,2012-08-16 12:15:10,2012-08-16 12:15:26.975000,16.975,6,BFW,0.5,0.235640648011782,1.0,22.0,right-puff,,,,,,,1.0,,,,,puff,9
423,423,2012-08-16 12:15:18.500000,2012-08-16 12:15:35.475000,16.975,6,BFW,,,,,,,,,,,,1.0,,0.027982326951399114,,0.027982326951399114,others,0
424,424,2012-08-16 12:15:27,2012-08-16 12:15:43.975000,16.975,6,BFW,0.6779999999999999,0.49926362297496313,0.0,23.0,left-puff,,,,,,,1.0,,0.5287187039764358,,0.5287187039764358,puff,9
425,425,2012-08-16 12:15:35.500000,2012-08-16 12:15:52.475000,16.975,6,BFW,1.0,0.7363770250368188,0.0,23.0,left-puff,,,,,,,1.0,,1.0,,1.0,puff,9
426,426,2012-08-16 12:15:44,2012-08-16 12:16:00.975000,16.975,6,BFW,0.32,0.235640648011782,0.0,23.0,left-puff,,,,,,,1.0,,1.0,,1.0,puff,9
427,427,2012-08-16 12:15:52.500000,2012-08-16 12:16:09.475000,16.975,6,BFW,,,,,,,,,,,,1.0,,1.0,,1.0,rest,-1
428,428,2012-08-16 12:16:01,2012-08-16 12:16:17.975000,16.975,6,BFW,,,,,,,,,,,,1.0,,1.0,,1.0,phone,3
429,429,2012-08-16 12:16:09.500000,2012-08-16 12:16:26.475000,16.975,6,BFW,,,,,,,,,,,,1.0,,1.0,,1.0,phone,3
430,430,2012-08-16 12:16:18,2012-08-16 12:16:34.975000,16.975,6,BFW,,,,,,,,,,,,1.0,,1.0,,1.0,rest,-1
431,431,2012-08-16 12:16:26.500000,2012-08-16 12:16:43.475000,16.975,6,BFW,,,,,,,,,,,,1.0,,1.0,,1.0,rest,-1
432,432,2012-08-16 12:16:35,2012-08-16 12:16:51.975000,16.975,6,BFW,,,,,,,,,,,,1.0,,1.0,,1.0,phone,3
433,433,2012-08-16 12:16:43.500000,2012-08-16 12:17:00.475000,16.975,6,BFW,,,,,,,,,,,,1.0,,1.0,,1.0,phone,3
434,434,2012-08-16 12:16:52,2012-08-16 12:17:08.975000,16.975,6,BFW,,,,,,,,,,,,1.0,,1.0,,1.0,phone,3
435,435,2012-08-16 12:17:00.500000,2012-08-16 12:17:17.475000,16.975,6,BFW,,,,,,,,,,,,1.0,,1.0,,1.0,phone,3
436,436,2012-08-16 12:17:09,2012-08-16 12:17:25.975000,16.975,6,BFW,0.6441176470588235,0.3225331369661266,0.0,24.0,left-puff,,,,,,,1.0,,1.0,,1.0,puff,9
437,437,2012-08-16 12:17:17.500000,2012-08-16 12:17:34.475000,16.975,6,BFW,1.0,0.5007363770250368,0.0,24.0,left-puff,,,,,,,1.0,,1.0,,1.0,puff,9
438,438,2012-08-16 12:17:26,2012-08-16 12:17:42.975000,16.975,6,BFW,0.35294117647058826,0.1767304860088365,0.0,24.0,left-puff,,,,,,,1.0,,1.0,,1.0,phone,3
439,439,2012-08-16 12:17:34.500000,2012-08-16 12:17:51.475000,16.975,6,BFW,,,,,,,,,,,,1.0,,1.0,,1.0,phone,3
440,440,2012-08-16 12:17:43,2012-08-16 12:17:59.975000,16.975,6,BFW,,,,,,,,,,,,1.0,,1.0,,1.0,rest,-1
441,441,2012-08-16 12:17:51.500000,2012-08-16 12:18:08.475000,16.975,6,BFW,,,,,,,,,,,,1.0,,1.0,,1.0,rest,-1
442,442,2012-08-16 12:18:00,2012-08-16 12:18:16.975000,16.975,6,BFW,,,,,,,,,,,,1.0,,1.0,,1.0,rest,-1
443,443,2012-08-16 12:18:08.500000,2012-08-16 12:18:25.475000,16.975,6,BFW,,,,,,,,,,,,1.0,,1.0,,1.0,rest,-1
444,444,2012-08-16 12:18:17,2012-08-16 12:18:33.975000,16.975,6,BFW,0.1735294117647059,0.08689248895434462,0.0,25.0,left-puff,,,,,,,1.0,,1.0,,1.0,phone,3
445,445,2012-08-16 12:18:25.500000,2012-08-16 12:18:42.475000,16.975,6,BFW,1.0,0.5007363770250368,0.0,25.0,left-puff,,,,,,,1.0,,1.0,,1.0,puff,9
446,446,2012-08-16 12:18:34,2012-08-16 12:18:50.975000,16.975,6,BFW,0.8235294117647058,0.41237113402061853,0.0,25.0,left-puff,,,,,,,1.0,,1.0,,1.0,puff,9
447,447,2012-08-16 12:18:42.500000,2012-08-16 12:18:59.475000,16.975,6,BFW,,,,,,,,,,,,1.0,,1.0,,1.0,rest,-1
448,448,2012-08-16 12:18:51,2012-08-16 12:19:07.975000,16.975,6,BFW,,,,,,,,,,,,1.0,,1.0,,1.0,phone,3
449,449,2012-08-16 12:18:59.500000,2012-08-16 12:19:16.475000,16.975,6,BFW,0.61875,0.14580265095729011,0.0,26.0,left-puff,,,,,,,1.0,,1.0,,1.0,rest,-1
450,450,2012-08-16 12:19:08,2012-08-16 12:19:24.975000,16.975,6,BFW,1.0,0.235640648011782,0.0,26.0,left-puff,,,,,,,1.0,,1.0,,1.0,puff,9
451,451,2012-08-16 12:19:16.500000,2012-08-16 12:19:33.475000,16.975,6,BFW,0.375,0.08836524300441825,0.0,26.0,left-puff,,,,,,,1.0,,1.0,,1.0,rest,-1
452,452,2012-08-16 12:19:25,2012-08-16 12:19:41.975000,16.975,6,BFW,,,,,,,,,,,,1.0,,1.0,,1.0,rest,-1
453,453,2012-08-16 12:19:33.500000,2012-08-16 12:19:50.475000,16.975,6,BFW,,,,,,,,,,,,1.0,,1.0,,1.0,phone,3
454,454,2012-08-16 12:19:42,2012-08-16 12:19:58.975000,16.975,6,BFW,0.8423076923076922,0.3225331369661266,0.0,27.0,left-puff,,,,,,,1.0,,0.589101620029455,,0.589101620029455,puff,9
455,455,2012-08-16 12:19:50.500000,2012-08-16 12:20:07.475000,16.975,6,BFW,1.073076923076923,0.41089837997054485,0.0,27.0,left-puff,,,,,,,1.0,,0.08836524300441825,,0.08836524300441825,puff,9
456,456,2012-08-16 12:19:59,2012-08-16 12:20:15.975000,16.975,6,BFW,0.9230769230769231,0.353460972017673,0.0,27.0,left-puff,,,,,,,1.0,,,,,puff,9
457,457,2012-08-16 12:20:07.500000,2012-08-16 12:20:24.475000,16.975,6,BFW,0.9,0.2650957290132548,0.0,28.0,left-puff,,,,,,,0.6185567010309277,,,,,puff,9
458,458,2012-08-16 12:20:16,2012-08-16 12:20:32.975000,16.975,6,BFW,,,,,,,,,,,,0.117820324005891,,,,,others,0
459,459,2012-08-16 12:20:24.500000,2012-08-16 12:20:41.475000,16.975,6,BFW,,,,,,,,,,,,,,,,,others,0
460,460,2012-08-16 12:20:33,2012-08-16 12:20:49.975000,16.975,6,BFW,,,,,,,,,,,,,,,,,others,0
461,461,2012-08-16 12:20:41.500000,2012-08-16 12:20:58.475000,16.975,6,BFW,,,,,,,,,0.1767304860088365,,,,,,,,others,0
462,462,2012-08-16 12:20:50,2012-08-16 12:21:06.975000,16.975,6,BFW,,,,,,,,,0.1767304860088365,,,,,,,,others,0
463,463,2012-08-16 12:20:58.500000,2012-08-16 12:21:15.475000,16.975,6,BFW,,,,,,,,,,,,,,,,,others,0
464,464,2012-08-16 12:21:07,2012-08-16 12:21:23.975000,16.975,6,BFW,,,,,,,,,,,,,,,,,others,0
465,465,2012-08-16 12:21:15.500000,2012-08-16 12:21:32.475000,16.975,6,BFW,,,,,,,,,,,,,,,,,others,0
466,466,2012-08-16 12:21:24,2012-08-16 12:21:40.975000,16.975,6,BFW,,,,,,,,,,,,,,,,,rest,-1
467,467,2012-08-16 12:21:32.500000,2012-08-16 12:21:49.475000,16.975,6,BFW,,,,,,,,,,,,,,,,,others,0
468,468,2012-08-16 12:21:41,2012-08-16 12:21:57.975000,16.975,6,BFW,,,,,,,,,,,,,,,,,others,0
469,469,2012-08-16 12:21:49.500000,2012-08-16 12:22:06.475000,16.975,6,BFW,,,,,,,,,,,,,,,,,others,0
470,470,2012-08-16 12:21:58,2012-08-16 12:22:14.975000,16.975,6,BFW,,,,,,,,,,,,,,,,,others,0
471,471,2012-08-16 12:22:06.500000,2012-08-16 12:22:23.475000,16.975,6,BFW,,,,,,,,,,,,,,,,,others,0
472,472,2012-08-16 12:22:15,2012-08-16 12:22:31.975000,16.975,6,BFW,,,,,,,,,,,,,,,,,others,0
473,473,2012-08-16 12:22:23.500000,2012-08-16 12:22:40.475000,16.975,6,BFW,,,,,,,,,,,,,,,,,others,0
474,474,2012-08-16 12:22:32,2012-08-16 12:22:48.975000,16.975,6,BFW,,,,,,,,,,,,,,,,,others,0
475,475,2012-08-16 12:22:40.500000,2012-08-16 12:22:57.475000,16.975,6,BFW,,,,,,,,,,,,,,,,,others,0
476,476,2012-08-16 12:22:49,2012-08-16 12:23:05.975000,16.975,6,BFW,,,,,,,,,,,,,,,,,others,0
477,477,2012-08-16 12:22:57.500000,2012-08-16 12:23:14.475000,16.975,6,BFW,,,,,,,,,,,,,,,,,others,0
478,478,2012-08-16 12:23:06,2012-08-16 12:23:22.975000,16.975,6,BFW,,,,,,,,,,,,,,,,,others,0
479,479,2012-08-16 12:23:14.500000,2012-08-16 12:23:31.475000,16.975,6,BFW,,,,,,,,,,,,,,,,,others,0
480,480,2012-08-16 12:23:23,2012-08-16 12:23:39.975000,16.975,6,BFW,,,,,,,,,,,,,,,,,others,0
481,481,2012-08-16 12:23:31.500000,2012-08-16 12:23:48.475000,16.975,6,BFW,,,,,,,,,,,,,,,,,rest,-1
482,482,2012-08-16 12:23:40,2012-08-16 12:23:56.975000,16.975,6,BFW,,,,,,,,,,,,,,,,,others,0
483,483,2012-08-16 12:23:48.500000,2012-08-16 12:24:05.475000,16.975,6,BFW,,,,,,,0.027982326951399114,,,,,,,,,,others,0
484,484,2012-08-16 12:23:57,2012-08-16 12:24:13.975000,16.975,6,BFW,,,,,,,0.5287187039764358,,,,,,,,,,talking,5
485,485,2012-08-16 12:24:05.500000,2012-08-16 12:24:22.475000,16.975,6,BFW,,,,,,,1.0,,,,,,,,,,talking,5
486,486,2012-08-16 12:24:14,2012-08-16 12:24:30.975000,16.975,6,BFW,,,,,,,0.8247422680412371,,,,,,,,,,talking,5
487,487,2012-08-16 12:24:22.500000,2012-08-16 12:24:39.475000,16.975,6,BFW,,,,,,,0.32400589101620025,,,,,,,,,,talking,5
488,488,2012-08-16 12:24:31,2012-08-16 12:24:47.975000,16.975,6,BFW,,,,,,,,,,,,,,,,,others,0
489,489,2012-08-16 12:24:39.500000,2012-08-16 12:24:56.475000,16.975,6,BFW,,,,,,,,,0.4403534609720176,,,,,,,,drinking,8
490,490,2012-08-16 12:24:48,2012-08-16 12:25:04.975000,16.975,6,BFW,,,,,,,,,0.9410898379970544,,,,,,,,rest,-1
491,491,2012-08-16 12:24:56.500000,2012-08-16 12:25:13.475000,16.975,6,BFW,,,,,,,,,1.0,,,,,,,,rest,-1
492,492,2012-08-16 12:25:05,2012-08-16 12:25:21.975000,16.975,6,BFW,,,,,,,,,0.5301914580265096,,,,,,,,drinking,8
493,493,2012-08-16 12:25:13.500000,2012-08-16 12:25:30.475000,16.975,6,BFW,,,,,,,,,0.2650957290132548,,,,,,,,drinking,8
494,494,2012-08-16 12:25:22,2012-08-16 12:25:38.975000,16.975,6,BFW,,,,,,,,,0.235640648011782,,,,,,,,others,0
495,495,2012-08-16 12:25:30.500000,2012-08-16 12:25:47.475000,16.975,6,BFW,,,,,,,,,,,,,,,,,others,0
496,496,2012-08-16 12:25:39,2012-08-16 12:25:55.975000,16.975,6,BFW,,,,,,,,,,,,,,,,,others,0
497,497,2012-08-16 12:25:47.500000,2012-08-16 12:26:04.475000,16.975,6,BFW,,,,,,,,,,,,,,,,,rest,-1
498,498,2012-08-16 12:25:56,2012-08-16 12:26:12.975000,16.975,6,BFW,,,,,,,,,,,,,,,,,others,0
499,499,2012-08-16 12:26:04.500000,2012-08-16 12:26:21.475000,16.975,6,BFW,,,,,,,,,,,,,,,,,others,0
500,500,2012-08-16 12:26:13,2012-08-16 12:26:29.975000,16.975,6,BFW,,,,,,,,,,,,,,,,,rest,-1
501,501,2012-08-16 12:26:21.500000,2012-08-16 12:26:38.475000,16.975,6,BFW,,,,,,,,,0.027982326951399114,,,,,,,,others,0
502,502,2012-08-16 12:26:30,2012-08-16 12:26:46.975000,16.975,6,BFW,,,,,,,,,0.0589101620029455,,,,,,,,others,0
503,503,2012-08-16 12:26:38.500000,2012-08-16 12:26:55.475000,16.975,6,BFW,,,,,,,,,0.02945508100147275,,,,,,,,others,0
504,504,2012-08-16 12:26:47,2012-08-16 12:27:03.975000,16.975,6,BFW,,,,,,,,,,,,,,,,,others,0
505,505,2012-08-16 12:26:55.500000,2012-08-16 12:27:12.475000,16.975,6,BFW,,,,,,,,,,,,,,,,,rest,-1
506,506,2012-08-16 12:27:04,2012-08-16 12:27:20.975000,16.975,6,BFW,,,,,,,,,,,,,,,,,rest,-1
507,507,2012-08-16 12:27:12.500000,2012-08-16 12:27:29.475000,16.975,6,BFW,,,,,,,,,,,,,,,,,rest,-1
508,508,2012-08-16 12:27:21,2012-08-16 12:27:37.975000,16.975,6,BFW,,,,,,,,,,,,,,,,,others,0
509,509,2012-08-16 12:27:29.500000,2012-08-16 12:27:46.475000,16.975,6,BFW,,,,,,,,,,,,,,,,,others,0
510,510,2012-08-16 12:27:38,2012-08-16 12:27:54.975000,16.975,6,BFW,,,,,,,,,,,,,,,,,others,0
511,511,2012-08-16 12:27:46.500000,2012-08-16 12:28:03.475000,16.975,6,BFW,,,,,,,,,,,,,,,,,others,0
512,512,2012-08-16 12:27:55,2012-08-16 12:28:11.975000,16.975,6,BFW,,,,,,,,,,,,,,,,,others,0
513,513,2012-08-16 12:28:03.500000,2012-08-16 12:28:20.475000,16.975,6,BFW,,,,,,,,,,,,,,,,,others,0
514,514,2012-08-16 12:28:12,2012-08-16 12:28:28.975000,16.975,6,BFW,,,,,,,,,,,,,,,,,others,0
515,515,2012-08-16 12:28:20.500000,2012-08-16 12:28:37.475000,16.975,6,BFW,,,,,,,,,,,,,,,,,others,0
516,516,2012-08-16 12:28:29,2012-08-16 12:28:45.975000,16.975,6,BFW,,,,,,,,,,,,,,,,,others,0
517,517,2012-08-16 12:28:37.500000,2012-08-16 12:28:54.475000,16.975,6,BFW,,,,,,,,,,,,,,,,,others,0
518,518,2012-08-16 12:28:46,2012-08-16 12:29:02.975000,16.975,6,BFW,,,,,,,,,0.2945508100147275,,,,,,,,drinking,8
519,519,2012-08-16 12:28:54.500000,2012-08-16 12:29:11.475000,16.975,6,BFW,,,,,,,,,0.2945508100147275,,,,,,,,drinking,8
520,520,2012-08-16 12:29:03,2012-08-16 12:29:19.975000,16.975,6,BFW,,,,,,,,,,,,,,,,,others,0
521,521,2012-08-16 12:29:11.500000,2012-08-16 12:29:28.475000,16.975,6,BFW,,,,,,,,,,,,,,,,,others,0
522,522,2012-08-16 12:29:20,2012-08-16 12:29:36.975000,16.975,6,BFW,,,,,,,,,,,,,,,,,rest,-1
523,523,2012-08-16 12:29:28.500000,2012-08-16 12:29:45.475000,16.975,6,BFW,,,,,,,,,,,,,,,,,others,0
524,524,2012-08-16 12:29:37,2012-08-16 12:29:53.975000,16.975,6,BFW,,,,,,,,,,,,,,,,,others,0
525,525,2012-08-16 12:29:45.500000,2012-08-16 12:30:02.475000,16.975,6,BFW,,,,,,,,,,,,,,,,,others,0
526,526,2012-08-16 12:29:54,2012-08-16 12:30:10.975000,16.975,6,BFW,,,,,,,,,,,,,,,,,others,0
527,527,2012-08-16 12:30:02.500000,2012-08-16 12:30:19.475000,16.975,6,BFW,,,,,,,,,,,,,,,,,others,0
528,528,2012-08-16 12:30:11,2012-08-16 12:30:27.975000,16.975,6,BFW,,,,,,,,,0.0589101620029455,,,,,,,,others,0
529,529,2012-08-16 12:30:19.500000,2012-08-16 12:30:36.475000,16.975,6,BFW,,,,,,,,,0.0589101620029455,,,,,,,,others,0
530,530,2012-08-16 12:30:28,2012-08-16 12:30:44.975000,16.975,6,BFW,,,,,,,,,,,,,,,,,others,0
531,531,2012-08-16 12:30:36.500000,2012-08-16 12:30:53.475000,16.975,6,BFW,,,,,,,,,,,,,,,,,others,0
532,532,2012-08-16 12:30:45,2012-08-16 12:31:01.975000,16.975,6,BFW,,,,,,,,,,,,,,,,,others,0
533,533,2012-08-16 12:30:53.500000,2012-08-16 12:31:10.475000,16.975,6,BFW,,,,,,,,,,,,,,,,,others,0
534,534,2012-08-16 12:31:02,2012-08-16 12:31:18.975000,16.975,6,BFW,,,,,,,,,,,,,,,,,others,0
535,535,2012-08-16 12:31:10.500000,2012-08-16 12:31:27.475000,16.975,6,BFW,,,,,,,,,0.2636229749631811,,,,,,,,drinking,8
536,536,2012-08-16 12:31:19,2012-08-16 12:31:35.975000,16.975,6,BFW,,,,,,,,,0.7643593519882179,,,,,,,,drinking,8
537,537,2012-08-16 12:31:27.500000,2012-08-16 12:31:44.475000,16.975,6,BFW,,,,,,,,,1.0,,,,,,,,drinking,8
538,538,2012-08-16 12:31:36,2012-08-16 12:31:52.975000,16.975,6,BFW,,,,,,,,,1.0,,,,,,,,rest,-1
539,539,2012-08-16 12:31:44.500000,2012-08-16 12:32:01.475000,16.975,6,BFW,,,,,,,,,0.7363770250368188,,,,,,,,drinking,8
540,540,2012-08-16 12:31:53,2012-08-16 12:32:09.975000,16.975,6,BFW,,,,,,,,,0.235640648011782,,,,,,,,others,0
541,541,2012-08-16 12:32:01.500000,2012-08-16 12:32:18.475000,16.975,6,BFW,,,,,,,,,,,,,,,,,others,0
542,542,2012-08-16 12:32:10,2012-08-16 12:32:26.975000,16.975,6,BFW,,,,,,,,,,,,,,,,,others,0
543,543,2012-08-16 12:32:18.500000,2012-08-16 12:32:35.475000,16.975,6,BFW,,,,,,,,,,,,,,,,,others,0
544,544,2012-08-16 12:32:27,2012-08-16 12:32:43.975000,16.975,6,BFW,,,,,,,,,0.0589101620029455,,,,,,,,others,0
545,545,2012-08-16 12:32:35.500000,2012-08-16 12:32:52.475000,16.975,6,BFW,,,,,,,,,0.0589101620029455,,,,,,,,others,0
546,546,2012-08-16 12:32:44,2012-08-16 12:33:00.975000,16.975,6,BFW,,,,,,,,,,,,,,,0.3519882179675994,,walking,1
547,547,2012-08-16 12:32:52.500000,2012-08-16 12:33:09.475000,16.975,6,BFW,,,,,,,,,,,,,,,0.8527245949926361,,walking,1
548,548,2012-08-16 12:33:01,2012-08-16 12:33:17.975000,16.975,6,BFW,,,,,,,,,,,,,,,1.0,,walking,1
549,549,2012-08-16 12:33:09.500000,2012-08-16 12:33:26.475000,16.975,6,BFW,,,,,,,,,,,,,,,1.0,,walking,1
550,550,2012-08-16 12:33:18,2012-08-16 12:33:34.975000,16.975,6,BFW,,,,,,,,,,,,,,,1.0,,walking,1
551,551,2012-08-16 12:33:26.500000,2012-08-16 12:33:43.475000,16.975,6,BFW,,,,,,,,,,,,,,,1.0,,walking,1
552,552,2012-08-16 12:33:35,2012-08-16 12:33:51.975000,16.975,6,BFW,,,,,,,,,,,,,,,1.0,,walking,1
553,553,2012-08-16 12:33:43.500000,2012-08-16 12:34:00.475000,16.975,6,BFW,,,,,,,,,,,,,,,1.0,,walking,1
554,554,2012-08-16 12:33:52,2012-08-16 12:34:08.975000,16.975,6,BFW,,,,,,,,,,,,,,,1.0,,walking,1
555,555,2012-08-16 12:34:00.500000,2012-08-16 12:34:17.475000,16.975,6,BFW,,,,,,,,,,,,,,,1.0,,walking,1
556,556,2012-08-16 12:34:09,2012-08-16 12:34:25.975000,16.975,6,BFW,,,,,,,,,,,,,,,1.0,,walking,1
557,557,2012-08-16 12:34:17.500000,2012-08-16 12:34:34.475000,16.975,6,BFW,,,,,,,,,,,,,,,1.0,,walking,1
558,558,2012-08-16 12:34:26,2012-08-16 12:34:42.975000,16.975,6,BFW,,,,,,,,,,,,,,,1.0,,walking,1
559,559,2012-08-16 12:34:34.500000,2012-08-16 12:34:51.475000,16.975,6,BFW,,,,,,,,,,,,,,,1.0,,walking,1
560,560,2012-08-16 12:34:43,2012-08-16 12:34:59.975000,16.975,6,BFW,,,,,,,,,,,,,,,1.0,,walking,1
561,561,2012-08-16 12:34:51.500000,2012-08-16 12:35:08.475000,16.975,6,BFW,,,,,,,,,,,,,,,1.0,,walking,1
562,562,2012-08-16 12:35:00,2012-08-16 12:35:16.975000,16.975,6,BFW,,,,,,,,,,,,,,,1.0,,walking,1
563,563,2012-08-16 12:35:08.500000,2012-08-16 12:35:25.475000,16.975,6,BFW,,,,,,,,,,,,,,,1.0,,walking,1
564,564,2012-08-16 12:35:17,2012-08-16 12:35:33.975000,16.975,6,BFW,,,,,,,,,,,,,,,0.5301914580265096,,walking,1
565,565,2012-08-16 12:35:25.500000,2012-08-16 12:35:42.475000,16.975,6,BFW,,,,,,,,,,,,,,,0.02945508100147275,,others,0
566,566,2012-08-16 12:35:34,2012-08-16 12:35:50.975000,16.975,6,BFW,,,,,,,,,,,,,,,,,others,0
567,567,2012-08-16 12:35:42.500000,2012-08-16 12:35:59.475000,16.975,6,BFW,,,,,,,,,,,,,,,,,others,0
568,568,2012-08-16 12:35:51,2012-08-16 12:36:07.975000,16.975,6,BFW,,,,,,,,,,,,,,,,,others,0
569,569,2012-08-16 12:35:59.500000,2012-08-16 12:36:16.475000,16.975,6,BFW,,,,,,,,,,,,,,,,,others,0
570,570,2012-08-16 12:36:08,2012-08-16 12:36:24.975000,16.975,6,BFW,,,,,,,,,,,,,,,,,rest,-1
571,571,2012-08-16 12:36:16.500000,2012-08-16 12:36:33.475000,16.975,6,BFW,,,,,,,,,0.08689248895434462,,,,,,,,rest,-1
572,572,2012-08-16 12:36:25,2012-08-16 12:36:41.975000,16.975,6,BFW,,,,,,,,,0.5876288659793814,,,,,,,,drinking,8
573,573,2012-08-16 12:36:33.500000,2012-08-16 12:36:50.475000,16.975,6,BFW,,,,,,,,,1.0,,,,,,,,drinking,8
574,574,2012-08-16 12:36:42,2012-08-16 12:36:58.975000,16.975,6,BFW,,,,,,,,,1.0,,,,,,,,drinking,8
575,575,2012-08-16 12:36:50.500000,2012-08-16 12:37:07.475000,16.975,6,BFW,,,,,,,,,1.0,,,,,,,,drinking,8
576,576,2012-08-16 12:36:59,2012-08-16 12:37:15.975000,16.975,6,BFW,,,,,,,,,1.0,,,,,,,,rest,-1
577,577,2012-08-16 12:37:07.500000,2012-08-16 12:37:24.475000,16.975,6,BFW,,,,,,,,,1.0,,,,,,,,drinking,8
578,578,2012-08-16 12:37:16,2012-08-16 12:37:32.975000,16.975,6,BFW,,,,,,,,,1.0,,,,,,,,drinking,8
579,579,2012-08-16 12:37:24.500000,2012-08-16 12:37:41.475000,16.975,6,BFW,,,,,,,,,1.0,,,,,,,,rest,-1
580,580,2012-08-16 12:37:33,2012-08-16 12:37:49.975000,16.975,6,BFW,,,,,,,,,0.8836524300441826,,,,,,,,drinking,8
581,581,2012-08-16 12:37:41.500000,2012-08-16 12:37:58.475000,16.975,6,BFW,,,,,,,,,0.3829160530191458,,,,,,,,drinking,8
582,582,2012-08-16 12:37:50,2012-08-16 12:38:06.975000,16.975,6,BFW,,,,,,,,,,,,,,,,,others,0
583,583,2012-08-16 12:37:58.500000,2012-08-16 12:38:15.475000,16.975,6,BFW,,,,,,,,,,,,,,,,,others,0
584,584,2012-08-16 12:38:07,2012-08-16 12:38:23.975000,16.975,6,BFW,,,,,,,,,,,,,,,,,others,0
585,585,2012-08-16 12:38:15.500000,2012-08-16 12:38:32.475000,16.975,6,BFW,,,,,,,,,,,,,,,,,others,0
586,586,2012-08-16 12:38:24,2012-08-16 12:38:40.975000,16.975,6,BFW,,,,,,,,,,,,,,,,,others,0
587,587,2012-08-16 12:38:32.500000,2012-08-16 12:38:49.475000,16.975,6,BFW,,,,,,,,,,,,,,,,,others,0
588,588,2012-08-16 12:38:41,2012-08-16 12:38:57.975000,16.975,6,BFW,,,,,,,,,,,,,,,,,others,0
589,589,2012-08-16 12:38:49.500000,2012-08-16 12:39:06.475000,16.975,6,BFW,,,,,,,,,,,,,,,,,others,0
590,590,2012-08-16 12:38:58,2012-08-16 12:39:14.975000,16.975,6,BFW,,,,,,,,,,,,,,,,,others,0
591,591,2012-08-16 12:39:06.500000,2012-08-16 12:39:23.475000,16.975,6,BFW,,,,,,,,,,,,,,,,,others,0
592,592,2012-08-16 12:39:15,2012-08-16 12:39:31.975000,16.975,6,BFW,,,,,,,,,,,,,,,,,others,0
593,593,2012-08-16 12:39:23.500000,2012-08-16 12:39:40.475000,16.975,6,BFW,,,,,,,,,,,,,,,,,rest,-1
594,594,2012-08-16 12:39:32,2012-08-16 12:39:48.975000,16.975,6,BFW,,,,,,,,,,,,,,,,,rest,-1
595,595,2012-08-16 12:39:40.500000,2012-08-16 12:39:57.475000,16.975,6,BFW,,,,,,,,,,,,,,,,,others,0
596,596,2012-08-16 12:39:49,2012-08-16 12:40:05.975000,16.975,6,BFW,,,,,,,,,,,,,,,,,others,0
597,597,2012-08-16 12:39:57.500000,2012-08-16 12:40:14.475000,16.975,6,BFW,,,,,,,,,,,,,,,,,others,0
598,598,2012-08-16 12:40:06,2012-08-16 12:40:22.975000,16.975,6,BFW,,,,,,,,,,,,,,,,,rest,-1
599,599,2012-08-16 12:40:14.500000,2012-08-16 12:40:31.475000,16.975,6,BFW,,,,,,,,,,,,,,,,,others,0
600,600,2012-08-16 12:40:23,2012-08-16 12:40:39.975000,16.975,6,BFW,,,,,,,,,,,,,,,,,others,0
601,601,2012-08-16 12:40:31.500000,2012-08-16 12:40:48.475000,16.975,6,BFW,,,,,,,,,,,,,,,,,rest,-1
602,602,2012-08-16 12:40:40,2012-08-16 12:40:56.975000,16.975,6,BFW,,,,,,,,,,,,,,,,,others,0
603,603,2012-08-16 12:40:48.500000,2012-08-16 12:41:05.475000,16.975,6,BFW,,,,,,,,,,,,,,,,,others,0
604,604,2012-08-16 12:40:57,2012-08-16 12:41:13.975000,16.975,6,BFW,,,,,,,,,,,,,,,,,rest,-1
605,605,2012-08-16 12:41:05.500000,2012-08-16 12:41:22.475000,16.975,6,BFW,,,,,,,,,,,,,,,,,rest,-1
606,606,2012-08-16 12:41:14,2012-08-16 12:41:30.975000,16.975,6,BFW,,,,,,,,,,,,,,,,,others,0
607,607,2012-08-16 12:41:22.500000,2012-08-16 12:41:39.475000,16.975,6,BFW,,,,,,,,,,,,,,,,,others,0
608,608,2012-08-16 12:41:31,2012-08-16 12:41:47.975000,16.975,6,BFW,,,,,,,,,,,,,,,,,rest,-1
609,609,2012-08-16 12:41:39.500000,2012-08-16 12:41:56.475000,16.975,6,BFW,,,,,,,,,,,,,,,,,others,0
610,610,2012-08-16 12:41:48,2012-08-16 12:42:04.975000,16.975,6,BFW,,,,,,,,,,,,,,,,,others,0
611,611,2012-08-16 12:41:56.500000,2012-08-16 12:42:13.475000,16.975,6,BFW,,,,,,,,,,,,,,,,,others,0
612,612,2012-08-16 12:42:05,2012-08-16 12:42:21.975000,16.975,6,BFW,,,,,,,,,,,,,,,,,others,0
613,613,2012-08-16 12:42:13.500000,2012-08-16 12:42:30.475000,16.975,6,BFW,,,,,,,,,,,,,,,,,rest,-1
614,614,2012-08-16 12:42:22,2012-08-16 12:42:38.975000,16.975,6,BFW,,,,,,,,,,,,,,,,,others,0
615,615,2012-08-16 12:42:30.500000,2012-08-16 12:42:47.475000,16.975,6,BFW,,,,,,,,,,,,,,,,,others,0
616,616,2012-08-16 12:42:39,2012-08-16 12:42:55.975000,16.975,6,BFW,,,,,,,,,,,,,,,,,others,0
617,617,2012-08-16 12:42:47.500000,2012-08-16 12:43:04.475000,16.975,6,BFW,,,,,,,,,,,,,,,,,others,0
618,618,2012-08-16 12:42:56,2012-08-16 12:43:12.975000,16.975,6,BFW,,,,,,,,,,,,,,,,,others,0
619,619,2012-08-16 12:43:04.500000,2012-08-16 12:43:21.475000,16.975,6,BFW,,,,,,,,,,,,,,,,,others,0
620,620,2012-08-16 12:43:13,2012-08-16 12:43:29.975000,16.975,6,BFW,,,,,,,,,,,,,,,,,others,0
621,621,2012-08-16 12:43:21.500000,2012-08-16 12:43:38.475000,16.975,6,BFW,,,,,,,,,,,,,,,,,others,0
622,622,2012-08-16 12:43:30,2012-08-16 12:43:46.975000,16.975,6,BFW,,,,,,,,,,,,,,,,,others,0
623,623,2012-08-16 12:43:38.500000,2012-08-16 12:43:55.475000,16.975,6,BFW,,,,,,,,,,,,,,,,,others,0
624,624,2012-08-16 12:43:47,2012-08-16 12:44:03.975000,16.975,6,BFW,,,,,,,,,,,,,,,,,others,0
625,625,2012-08-16 12:43:55.500000,2012-08-16 12:44:12.475000,16.975,6,BFW,,,,,,,,,,,,,,,,,others,0
626,626,2012-08-16 12:44:04,2012-08-16 12:44:20.975000,16.975,6,BFW,,,,,,,,,0.235640648011782,,,,,,,,others,0
627,627,2012-08-16 12:44:12.500000,2012-08-16 12:44:29.475000,16.975,6,BFW,,,,,,,,,0.235640648011782,,,,,,,,others,0
628,628,2012-08-16 12:44:21,2012-08-16 12:44:37.975000,16.975,6,BFW,,,,,,,,,,,,,,,,,others,0
629,629,2012-08-16 12:44:29.500000,2012-08-16 12:44:46.475000,16.975,6,BFW,,,,,,,,,,,,,,,,,others,0
630,630,2012-08-16 12:44:38,2012-08-16 12:44:54.975000,16.975,6,BFW,,,,,,,,,,,,,,,,,others,0
631,631,2012-08-16 12:44:46.500000,2012-08-16 12:45:03.475000,16.975,6,BFW,,,,,,,,,,,,,,,,,others,0
632,632,2012-08-16 12:44:55,2012-08-16 12:45:11.975000,16.975,6,BFW,,,,,,,,,,,,,,,,,others,0
633,633,2012-08-16 12:45:03.500000,2012-08-16 12:45:20.475000,16.975,6,BFW,,,,,,,,,,,,,,,,,others,0
634,634,2012-08-16 12:45:12,2012-08-16 12:45:28.975000,16.975,6,BFW,,,,,,,,,,,,,,,,,others,0
635,635,2012-08-16 12:45:20.500000,2012-08-16 12:45:37.475000,16.975,6,BFW,,,,,,,,,,,,,,,,,others,0
636,636,2012-08-16 12:45:29,2012-08-16 12:45:45.975000,16.975,6,BFW,,,,,,,,,,,,,,,,,others,0
637,637,2012-08-16 12:45:37.500000,2012-08-16 12:45:54.475000,16.975,6,BFW,,,,,,,,,,,,,,,,,others,0
638,638,2012-08-16 12:45:46,2012-08-16 12:46:02.975000,16.975,6,BFW,,,,,,,,,,,,,,,,,others,0
639,639,2012-08-16 12:45:54.500000,2012-08-16 12:46:11.475000,16.975,6,BFW,,,,,,,,,,,,,,,,,others,0
640,640,2012-08-16 12:46:03,2012-08-16 12:46:19.975000,16.975,6,BFW,,,,,,,,,,,,,,,,,others,0
641,641,2012-08-16 12:46:11.500000,2012-08-16 12:46:28.475000,16.975,6,BFW,,,,,,,,,,,,,,,,,others,0
642,642,2012-08-16 12:46:20,2012-08-16 12:46:36.975000,16.975,6,BFW,,,,,,,,,,,,,,,,,others,0
643,643,2012-08-16 12:46:28.500000,2012-08-16 12:46:45.475000,16.975,6,BFW,,,,,,,,,,,,,,,,,others,0
644,644,2012-08-16 12:46:37,2012-08-16 12:46:53.975000,16.975,6,BFW,,,,,,,,,,,,,,,,,others,0
645,645,2012-08-16 12:46:45.500000,2012-08-16 12:47:02.475000,16.975,6,BFW,,,,,,,,,,,,,,,,,others,0
646,646,2012-08-16 12:46:54,2012-08-16 12:47:10.975000,16.975,6,BFW,,,,,,,,,,,,,,,,,others,0
647,647,2012-08-16 12:47:02.500000,2012-08-16 12:47:19.475000,16.975,6,BFW,,,,,,,,,,,,,,,,,others,0
648,648,2012-08-16 12:47:11,2012-08-16 12:47:27.975000,16.975,6,BFW,,,,,,,,,,,,,,,,,others,0
649,649,2012-08-16 12:47:19.500000,2012-08-16 12:47:36.475000,16.975,6,BFW,,,,,,,,,,,,,,,,,others,0
650,650,2012-08-16 12:47:28,2012-08-16 12:47:44.975000,16.975,6,BFW,,,,,,,,,,,,,,,,,others,0
651,651,2012-08-16 12:47:36.500000,2012-08-16 12:47:53.475000,16.975,6,BFW,,,,,,,,,,,,,,,,,others,0
652,652,2012-08-16 12:47:45,2012-08-16 12:48:01.975000,16.975,6,BFW,,,,,,,,,,,,,,,,,others,0
653,653,2012-08-16 12:47:53.500000,2012-08-16 12:48:10.475000,16.975,6,BFW,,,,,,,,,,,,,,,,,others,0
654,654,2012-08-16 12:48:02,2012-08-16 12:48:18.975000,16.975,6,BFW,,,,,,,,,,,,,,,,,others,0
655,655,2012-08-16 12:48:10.500000,2012-08-16 12:48:27.475000,16.975,6,BFW,,,,,,,,,,,,,,,,,others,0
656,656,2012-08-16 12:48:19,2012-08-16 12:48:35.975000,16.975,6,BFW,,,,,,,,,,,,,,,,,others,0
657,657,2012-08-16 12:48:27.500000,2012-08-16 12:48:44.475000,16.975,6,BFW,,,,,,,,,,,,,,,,,others,0
658,658,2012-08-16 12:48:36,2012-08-16 12:48:52.975000,16.975,6,BFW,,,,,,,,,,,,,,,,,others,0
659,659,2012-08-16 12:48:44.500000,2012-08-16 12:49:01.475000,16.975,6,BFW,,,,,,,,,,,,,,,,,others,0
660,660,2012-08-16 12:48:53,2012-08-16 12:49:09.975000,16.975,6,BFW,,,,,,,,,,,,,,,,,others,0
661,661,2012-08-16 12:49:01.500000,2012-08-16 12:49:18.475000,16.975,6,BFW,,,,,,,,,,,,,,,,,others,0
662,662,2012-08-16 12:49:10,2012-08-16 12:49:26.975000,16.975,6,BFW,,,,,,,,,,,,0.41089837997054485,,,,,others,0
663,663,2012-08-16 12:49:18.500000,2012-08-16 12:49:35.475000,16.975,6,BFW,0.7227272727272728,0.23416789396170837,1.0,29.0,left-puff,,,,,,,0.9116347569955816,,,,,puff,9
664,664,2012-08-16 12:49:27,2012-08-16 12:49:43.975000,16.975,6,BFW,1.0,0.32400589101620025,1.0,29.0,left-puff,,,,,,,1.0,,,,,puff,9
665,665,2012-08-16 12:49:35.500000,2012-08-16 12:49:52.475000,16.975,6,BFW,0.2727272727272727,0.08836524300441825,1.0,29.0,left-puff,,,,,,,1.0,,,,,others,0
666,666,2012-08-16 12:49:44,2012-08-16 12:50:00.975000,16.975,6,BFW,0.795,0.23416789396170837,1.0,30.0,left-puff,,,,0.117820324005891,,,1.0,,,,0.117820324005891,puff,9
667,667,2012-08-16 12:49:52.500000,2012-08-16 12:50:09.475000,16.975,6,BFW,1.0,0.2945508100147275,1.0,30.0,left-puff,,,,0.117820324005891,,,1.0,,,0.08689248895434462,0.20471281296023564,puff,9
668,668,2012-08-16 12:50:01,2012-08-16 12:50:17.975000,16.975,6,BFW,0.2,0.0589101620029455,1.0,30.0,left-puff,,,,,,,1.0,,,0.5876288659793814,0.5876288659793814,walking,1
669,669,2012-08-16 12:50:09.500000,2012-08-16 12:50:26.475000,16.975,6,BFW,1.0,0.32400589101620025,1.0,31.0,right-puff,,,,,,,1.0,,,1.0,1.0,puff,9
670,670,2012-08-16 12:50:18,2012-08-16 12:50:34.975000,16.975,6,BFW,0.9090909090909091,0.2945508100147275,1.0,31.0,right-puff,,,,,,,1.0,,,1.0,1.0,puff,9
671,671,2012-08-16 12:50:26.500000,2012-08-16 12:50:43.475000,16.975,6,BFW,,,,,,,,,,,,1.0,,,1.0,1.0,walking,1
672,672,2012-08-16 12:50:35,2012-08-16 12:50:51.975000,16.975,6,BFW,,,,,,,,,,,,1.0,,,0.5301914580265096,0.5301914580265096,walking,1
673,673,2012-08-16 12:50:43.500000,2012-08-16 12:51:00.475000,16.975,6,BFW,,,,,,,,,,,,1.0,,,0.02945508100147275,0.02945508100147275,others,0
674,674,2012-08-16 12:50:52,2012-08-16 12:51:08.975000,16.975,6,BFW,,,,,,,,,,,,1.0,,,0.46980854197349037,0.46980854197349037,walking,1
675,675,2012-08-16 12:51:00.500000,2012-08-16 12:51:17.475000,16.975,6,BFW,0.15,0.05743740795287187,1.0,32.0,right-puff,0.027982326951399114,,,,,,1.0,,,0.942562592047128,0.9705449189985272,walking,1
676,676,2012-08-16 12:51:09,2012-08-16 12:51:25.975000,16.975,6,BFW,1.0,0.3829160530191458,1.0,32.0,right-puff,0.5287187039764358,,,,,,1.0,,,0.471281296023564,1.0,puff,9
677,677,2012-08-16 12:51:17.500000,2012-08-16 12:51:34.475000,16.975,6,BFW,0.8461538461538461,0.32400589101620025,1.0,32.0,right-puff,1.0,,,,,,1.0,,,,1.0,puff,9
678,678,2012-08-16 12:51:26,2012-08-16 12:51:42.975000,16.975,6,BFW,0.24583333333333335,0.08689248895434462,1.0,33.0,right-puff,0.8232695139911634,,,0.1767304860088365,,,1.0,,,,1.0,in car,7
679,679,2012-08-16 12:51:34.500000,2012-08-16 12:51:51.475000,16.975,6,BFW,1.0,0.353460972017673,1.0,33.0,right-puff,0.8232695139911634,,,0.1767304860088365,,,1.0,,,,1.0,puff,9
680,680,2012-08-16 12:51:43,2012-08-16 12:51:59.975000,16.975,6,BFW,0.75,0.2650957290132548,1.0,33.0,right-puff,1.0,,,,,,1.0,,,,1.0,puff,9
681,681,2012-08-16 12:51:51.500000,2012-08-16 12:52:08.475000,16.975,6,BFW,1.0,0.32400589101620025,1.0,34.0,right-puff,1.0,,,,,,1.0,,,,1.0,puff,9
682,682,2012-08-16 12:52:00,2012-08-16 12:52:16.975000,16.975,6,BFW,1.0,0.32400589101620025,1.0,34.0,right-puff,1.0,,,,,,1.0,,,,1.0,puff,9
683,683,2012-08-16 12:52:08.500000,2012-08-16 12:52:25.475000,16.975,6,BFW,,,,,,0.7363770250368188,,,,,,1.0,,,,0.7363770250368188,in car,7
684,684,2012-08-16 12:52:17,2012-08-16 12:52:33.975000,16.975,6,BFW,,,,,,0.235640648011782,,,,,,1.0,,,0.46980854197349037,0.7054491899852724,walking,1
685,685,2012-08-16 12:52:25.500000,2012-08-16 12:52:42.475000,16.975,6,BFW,,,,,,,,,,,,1.0,,,0.9705449189985272,0.9705449189985272,walking,1
686,686,2012-08-16 12:52:34,2012-08-16 12:52:50.975000,16.975,6,BFW,,,,,,,,,,,,1.0,,,1.0,1.0,walking,1
687,687,2012-08-16 12:52:42.500000,2012-08-16 12:52:59.475000,16.975,6,BFW,,,,,,,,,,,,1.0,,,1.0,1.0,walking,1
688,688,2012-08-16 12:52:51,2012-08-16 12:53:07.975000,16.975,6,BFW,1.0,0.32400589101620025,0.0,35.0,left-puff,,,,,,,1.0,,,1.0,1.0,puff,9
689,689,2012-08-16 12:52:59.500000,2012-08-16 12:53:16,16.5,6,BFW,1.0,0.3333333333333333,0.0,35.0,left-puff,,,,,,,1.0,,,1.0,1.0,puff,9
690,690,2012-08-16 12:53:08,2012-08-16 12:53:16,8.0,6,BFW,,,,,,,,,,,,1.0,,,1.0,1.0,rest,-1
