segment,STARTTIME,ENDTIME,seg duration,session,sensor,inside puff/puff duration,inside puff/segment duration,prototypical?,puff index,puff side,car percentage,talk percentage,unknown percentage,drinking percentage,reading percentage,eating percentage,smoking percentage,computer percentage,phone percentage,walking percentage,superposition percentage,name,target
0,2012-05-03 11:12:42,2012-05-03 11:12:55.975000,13.975,5,NDW,,,,,,,,,,,,,,,,,others,0
1,2012-05-03 11:12:49,2012-05-03 11:13:02.975000,13.975,5,NDW,1.0,0.21466905187835422,0.0,0.0,left-puff,,,,,,,0.4991055456171735,,,,,puff,9
2,2012-05-03 11:12:56,2012-05-03 11:13:09.975000,13.975,5,NDW,1.0,0.21466905187835422,0.0,0.0,left-puff,,,,,,,1.0,,,,,puff,9
3,2012-05-03 11:13:03,2012-05-03 11:13:16.975000,13.975,5,NDW,,,,,,,,,,,,1.0,,,,,others,0
4,2012-05-03 11:13:10,2012-05-03 11:13:23.975000,13.975,5,NDW,,,,,,,,,,,,1.0,,,,,others,0
5,2012-05-03 11:13:17,2012-05-03 11:13:30.975000,13.975,5,NDW,,,,,,,,,,,,1.0,,,,,others,0
6,2012-05-03 11:13:24,2012-05-03 11:13:37.975000,13.975,5,NDW,,,,,,,,,,,,1.0,,,,,others,0
7,2012-05-03 11:13:31,2012-05-03 11:13:44.975000,13.975,5,NDW,,,,,,,,,,,,1.0,,,,,others,0
8,2012-05-03 11:13:38,2012-05-03 11:13:51.975000,13.975,5,NDW,,,,,,,,,,,,1.0,,,,,others,0
9,2012-05-03 11:13:45,2012-05-03 11:13:58.975000,13.975,5,NDW,,,,,,,,,,,,1.0,,,,,others,0
10,2012-05-03 11:13:52,2012-05-03 11:14:05.975000,13.975,5,NDW,,,,,,,,,,,,1.0,,,,,others,0
11,2012-05-03 11:13:59,2012-05-03 11:14:12.975000,13.975,5,NDW,,,,,,,,,,,,1.0,,,,,others,0
12,2012-05-03 11:14:06,2012-05-03 11:14:19.975000,13.975,5,NDW,,,,,,,0.06976744186046512,,,,,1.0,,,,0.06976744186046512,others,0
13,2012-05-03 11:14:13,2012-05-03 11:14:26.975000,13.975,5,NDW,,,,,,,0.5706618962432916,,,,,1.0,,,,0.5706618962432916,talking,5
14,2012-05-03 11:14:20,2012-05-03 11:14:33.975000,13.975,5,NDW,,,,,,,1.0,,,,,1.0,,,,1.0,talking,5
15,2012-05-03 11:14:27,2012-05-03 11:14:40.975000,13.975,5,NDW,,,,,,,1.0,,,,,1.0,,,,1.0,talking,5
16,2012-05-03 11:14:34,2012-05-03 11:14:47.975000,13.975,5,NDW,,,,,,,1.0,,,,,1.0,,,,1.0,talking,5
17,2012-05-03 11:14:41,2012-05-03 11:14:54.975000,13.975,5,NDW,,,,,,,1.0,,,,,1.0,,,,1.0,talking,5
18,2012-05-03 11:14:48,2012-05-03 11:15:01.975000,13.975,5,NDW,,,,,,,1.0,,,,,1.0,,,,1.0,talking,5
19,2012-05-03 11:14:55,2012-05-03 11:15:08.975000,13.975,5,NDW,,,,,,,1.0,,,,,1.0,,,,1.0,talking,5
20,2012-05-03 11:15:02,2012-05-03 11:15:15.975000,13.975,5,NDW,,,,,,,1.0,,,,,1.0,,,,1.0,talking,5
21,2012-05-03 11:15:09,2012-05-03 11:15:22.975000,13.975,5,NDW,,,,,,,1.0,,,,,1.0,,,,1.0,talking,5
22,2012-05-03 11:15:16,2012-05-03 11:15:29.975000,13.975,5,NDW,,,,,,,1.0,,,,,1.0,,,,1.0,talking,5
23,2012-05-03 11:15:23,2012-05-03 11:15:36.975000,13.975,5,NDW,,,,,,,1.0,,,,,1.0,,,,1.0,talking,5
24,2012-05-03 11:15:30,2012-05-03 11:15:43.975000,13.975,5,NDW,,,,,,,1.0,,,,,1.0,,,,1.0,talking,5
25,2012-05-03 11:15:37,2012-05-03 11:15:50.975000,13.975,5,NDW,,,,,,,1.0,,,,,1.0,,,,1.0,talking,5
26,2012-05-03 11:15:44,2012-05-03 11:15:57.975000,13.975,5,NDW,,,,,,,1.0,,,,,1.0,,,,1.0,talking,5
27,2012-05-03 11:15:51,2012-05-03 11:16:04.975000,13.975,5,NDW,,,,,,,1.0,,,,,1.0,,,,1.0,talking,5
28,2012-05-03 11:15:58,2012-05-03 11:16:11.975000,13.975,5,NDW,,,,,,,1.0,,,,,1.0,,,,1.0,talking,5
29,2012-05-03 11:16:05,2012-05-03 11:16:18.975000,13.975,5,NDW,,,,,,,1.0,,,,,1.0,,,,1.0,talking,5
30,2012-05-03 11:16:12,2012-05-03 11:16:25.975000,13.975,5,NDW,,,,,,,1.0,,,,,1.0,,,,1.0,talking,5
31,2012-05-03 11:16:19,2012-05-03 11:16:32.975000,13.975,5,NDW,,,,,,,1.0,,,,,1.0,,,,1.0,talking,5
32,2012-05-03 11:16:26,2012-05-03 11:16:39.975000,13.975,5,NDW,,,,,,,1.0,,,,,1.0,,,,1.0,talking,5
33,2012-05-03 11:16:33,2012-05-03 11:16:46.975000,13.975,5,NDW,,,,,,,1.0,,,,,1.0,,,,1.0,talking,5
34,2012-05-03 11:16:40,2012-05-03 11:16:53.975000,13.975,5,NDW,,,,,,,1.0,,,,,1.0,,,,1.0,rest,-1
35,2012-05-03 11:16:47,2012-05-03 11:17:00.975000,13.975,5,NDW,,,,,,,1.0,,,,,1.0,,,,1.0,rest,-1
36,2012-05-03 11:16:54,2012-05-03 11:17:07.975000,13.975,5,NDW,,,,,,,1.0,,,,,1.0,,,,1.0,talking,5
37,2012-05-03 11:17:01,2012-05-03 11:17:14.975000,13.975,5,NDW,,,,,,,1.0,,,,,1.0,,,,1.0,talking,5
38,2012-05-03 11:17:08,2012-05-03 11:17:21.975000,13.975,5,NDW,,,,,,,1.0,,,,,1.0,,,,1.0,talking,5
39,2012-05-03 11:17:15,2012-05-03 11:17:28.975000,13.975,5,NDW,,,,,,,1.0,,,,,1.0,,,,1.0,talking,5
40,2012-05-03 11:17:22,2012-05-03 11:17:35.975000,13.975,5,NDW,,,,,,,1.0,,,,,1.0,,,,1.0,rest,-1
41,2012-05-03 11:17:29,2012-05-03 11:17:42.975000,13.975,5,NDW,,,,,,,1.0,,,,,1.0,,,,1.0,talking,5
42,2012-05-03 11:17:36,2012-05-03 11:17:49.975000,13.975,5,NDW,,,,,,,1.0,,,,,1.0,,,,1.0,talking,5
43,2012-05-03 11:17:43,2012-05-03 11:17:56.975000,13.975,5,NDW,,,,,,,1.0,,,,,1.0,,,,1.0,talking,5
44,2012-05-03 11:17:50,2012-05-03 11:18:03.975000,13.975,5,NDW,,,,,,,1.0,,,,,1.0,,,,1.0,talking,5
45,2012-05-03 11:17:57,2012-05-03 11:18:10.975000,13.975,5,NDW,,,,,,,1.0,,,,,1.0,,,,1.0,talking,5
46,2012-05-03 11:18:04,2012-05-03 11:18:17.975000,13.975,5,NDW,,,,,,,1.0,,,,,1.0,,,,1.0,talking,5
47,2012-05-03 11:18:11,2012-05-03 11:18:24.975000,13.975,5,NDW,,,,,,,1.0,,,,,1.0,,,,1.0,rest,-1
48,2012-05-03 11:18:18,2012-05-03 11:18:31.975000,13.975,5,NDW,,,,,,,1.0,,,,,1.0,,,,1.0,talking,5
49,2012-05-03 11:18:25,2012-05-03 11:18:38.975000,13.975,5,NDW,,,,,,,1.0,,,,,1.0,,,,1.0,talking,5
50,2012-05-03 11:18:32,2012-05-03 11:18:45.975000,13.975,5,NDW,,,,,,,1.0,,,,,1.0,,,,1.0,talking,5
51,2012-05-03 11:18:39,2012-05-03 11:18:52.975000,13.975,5,NDW,,,,,,,1.0,,,,,1.0,,,,1.0,talking,5
52,2012-05-03 11:18:46,2012-05-03 11:18:59.975000,13.975,5,NDW,,,,,,,1.0,,,,,1.0,,,,1.0,talking,5
53,2012-05-03 11:18:53,2012-05-03 11:19:06.975000,13.975,5,NDW,,,,,,,1.0,,,,,1.0,,,,1.0,talking,5
54,2012-05-03 11:19:00,2012-05-03 11:19:13.975000,13.975,5,NDW,,,,,,,1.0,,,,,0.9302325581395349,,,,0.9302325581395349,talking,5
55,2012-05-03 11:19:07,2012-05-03 11:19:20.975000,13.975,5,NDW,,,,,,,1.0,,,,,0.42933810375670844,,,,0.42933810375670844,talking,5
56,2012-05-03 11:19:14,2012-05-03 11:19:27.975000,13.975,5,NDW,,,,,,,1.0,,,,,,,,,,talking,5
57,2012-05-03 11:19:21,2012-05-03 11:19:34.975000,13.975,5,NDW,,,,,,,1.0,,,,,,,,,,talking,5
58,2012-05-03 11:19:28,2012-05-03 11:19:41.975000,13.975,5,NDW,,,,,,,1.0,,,,,,,,,,talking,5
59,2012-05-03 11:19:35,2012-05-03 11:19:48.975000,13.975,5,NDW,,,,,,,1.0,,,,,,,,,,talking,5
60,2012-05-03 11:19:42,2012-05-03 11:19:55.975000,13.975,5,NDW,,,,,,,1.0,,,,,,,,,,talking,5
61,2012-05-03 11:19:49,2012-05-03 11:20:02.975000,13.975,5,NDW,,,,,,,0.5724508050089445,,,,,,,0.4275491949910554,,,talking,5
62,2012-05-03 11:19:56,2012-05-03 11:20:09.975000,13.975,5,NDW,,,,,,,0.07155635062611806,,,,,,,0.9284436493738819,,,phone,3
63,2012-05-03 11:20:03,2012-05-03 11:20:16.975000,13.975,5,NDW,,,,,,,,,,,,,,1.0,,,phone,3
64,2012-05-03 11:20:10,2012-05-03 11:20:23.975000,13.975,5,NDW,,,,,,,,,,,,,,1.0,,,phone,3
65,2012-05-03 11:20:17,2012-05-03 11:20:30.975000,13.975,5,NDW,,,,,,,,,,,,,,1.0,,,rest,-1
66,2012-05-03 11:20:24,2012-05-03 11:20:37.975000,13.975,5,NDW,,,,,,,,,,,,,,1.0,,,phone,3
67,2012-05-03 11:20:31,2012-05-03 11:20:44.975000,13.975,5,NDW,,,,,,,,,,,,,,1.0,,,phone,3
68,2012-05-03 11:20:38,2012-05-03 11:20:51.975000,13.975,5,NDW,,,,,,,,,,,,,,1.0,,,phone,3
69,2012-05-03 11:20:45,2012-05-03 11:20:58.975000,13.975,5,NDW,,,,,,,,,,,,,,1.0,,,phone,3
70,2012-05-03 11:20:52,2012-05-03 11:21:05.975000,13.975,5,NDW,,,,,,,,,,,,,,1.0,,,phone,3
71,2012-05-03 11:20:59,2012-05-03 11:21:12.975000,13.975,5,NDW,,,,,,,,,,,,,,1.0,,,rest,-1
72,2012-05-03 11:21:06,2012-05-03 11:21:19.975000,13.975,5,NDW,,,,,,,,,,,,,,1.0,,,rest,-1
73,2012-05-03 11:21:13,2012-05-03 11:21:26.975000,13.975,5,NDW,,,,,,,,,,,,,,1.0,,,rest,-1
74,2012-05-03 11:21:20,2012-05-03 11:21:33.975000,13.975,5,NDW,,,,,,,,,,,,,,1.0,,,phone,3
75,2012-05-03 11:21:27,2012-05-03 11:21:40.975000,13.975,5,NDW,,,,,,,,,,,,,,0.7871198568872988,,,phone,3
76,2012-05-03 11:21:34,2012-05-03 11:21:47.975000,13.975,5,NDW,,,,,,,,,,,,,,0.28622540250447226,,,others,0
77,2012-05-03 11:21:41,2012-05-03 11:21:54.975000,13.975,5,NDW,,,,,,,0.4275491949910554,,,,,,,,,,talking,5
78,2012-05-03 11:21:48,2012-05-03 11:22:01.975000,13.975,5,NDW,,,,,,,0.9284436493738819,,,,,,,,,,talking,5
79,2012-05-03 11:21:55,2012-05-03 11:22:08.975000,13.975,5,NDW,,,,,,,1.0,,,,,,,,,,talking,5
80,2012-05-03 11:22:02,2012-05-03 11:22:15.975000,13.975,5,NDW,,,,,,,1.0,,,,,,,,,,talking,5
81,2012-05-03 11:22:09,2012-05-03 11:22:22.975000,13.975,5,NDW,,,,,,,1.0,,,,,,,,,,talking,5
82,2012-05-03 11:22:16,2012-05-03 11:22:29.975000,13.975,5,NDW,,,,,,,1.0,,,,,,,,,,talking,5
83,2012-05-03 11:22:23,2012-05-03 11:22:36.975000,13.975,5,NDW,,,,,,,1.0,,,,,,,,,,talking,5
84,2012-05-03 11:22:30,2012-05-03 11:22:43.975000,13.975,5,NDW,,,,,,,1.0,,,,,,,,,,talking,5
85,2012-05-03 11:22:37,2012-05-03 11:22:50.975000,13.975,5,NDW,,,,,,,1.0,,,,,,,,,,talking,5
86,2012-05-03 11:22:44,2012-05-03 11:22:57.975000,13.975,5,NDW,,,,,,,1.0,,,,,,,,,,talking,5
87,2012-05-03 11:22:51,2012-05-03 11:23:04.975000,13.975,5,NDW,,,,,,,1.0,,,,,,,,,,talking,5
88,2012-05-03 11:22:58,2012-05-03 11:23:11.975000,13.975,5,NDW,,,,,,,1.0,,,,,,,,,,talking,5
89,2012-05-03 11:23:05,2012-05-03 11:23:18.975000,13.975,5,NDW,,,,,,,1.0,,,,,,,,,,talking,5
90,2012-05-03 11:23:12,2012-05-03 11:23:25.975000,13.975,5,NDW,,,,,,,1.0,,,,,,,,,,talking,5
91,2012-05-03 11:23:19,2012-05-03 11:23:32.975000,13.975,5,NDW,,,,,,,1.0,,,,,,,,,,talking,5
92,2012-05-03 11:23:26,2012-05-03 11:23:39.975000,13.975,5,NDW,,,,,,,1.0,,,,,,,,,,talking,5
93,2012-05-03 11:23:33,2012-05-03 11:23:46.975000,13.975,5,NDW,,,,,,,1.0,,,,,,,,,,talking,5
94,2012-05-03 11:23:40,2012-05-03 11:23:53.975000,13.975,5,NDW,,,,,,,1.0,,,,,,,,,,talking,5
95,2012-05-03 11:23:47,2012-05-03 11:24:00.975000,13.975,5,NDW,,,,,,,1.0,,,,,,,,,,talking,5
96,2012-05-03 11:23:54,2012-05-03 11:24:07.975000,13.975,5,NDW,,,,,,,1.0,,,,,,,,,,talking,5
97,2012-05-03 11:24:01,2012-05-03 11:24:14.975000,13.975,5,NDW,,,,,,,1.0,,,,,,,,,,talking,5
98,2012-05-03 11:24:08,2012-05-03 11:24:21.975000,13.975,5,NDW,,,,,,,1.0,,,,,,,,,,talking,5
99,2012-05-03 11:24:15,2012-05-03 11:24:28.975000,13.975,5,NDW,,,,,,,1.0,,,,,,,,,,talking,5
100,2012-05-03 11:24:22,2012-05-03 11:24:35.975000,13.975,5,NDW,,,,,,,1.0,,,,,,,,,,talking,5
101,2012-05-03 11:24:29,2012-05-03 11:24:42.975000,13.975,5,NDW,,,,,,,1.0,,,,,,,,,,talking,5
102,2012-05-03 11:24:36,2012-05-03 11:24:49.975000,13.975,5,NDW,,,,,,,1.0,,,,,,,,,,talking,5
103,2012-05-03 11:24:43,2012-05-03 11:24:56.975000,13.975,5,NDW,,,,,,,1.0,,,,,,,,,,talking,5
104,2012-05-03 11:24:50,2012-05-03 11:25:03.975000,13.975,5,NDW,,,,,,,1.0,,,,,,,,,,talking,5
105,2012-05-03 11:24:57,2012-05-03 11:25:10.975000,13.975,5,NDW,,,,,,,1.0,,,,,,,,,,talking,5
106,2012-05-03 11:25:04,2012-05-03 11:25:17.975000,13.975,5,NDW,,,,,,,1.0,,,,,,,,,,talking,5
107,2012-05-03 11:25:11,2012-05-03 11:25:24.975000,13.975,5,NDW,,,,,,,1.0,,,,,0.3559928443649374,,,,0.3559928443649374,talking,5
108,2012-05-03 11:25:18,2012-05-03 11:25:31.975000,13.975,5,NDW,1.0,0.3220035778175313,1.0,11.0,left-puff,,1.0,,,,,0.8568872987477638,,,,0.8568872987477638,puff,9
109,2012-05-03 11:25:25,2012-05-03 11:25:38.975000,13.975,5,NDW,1.0,0.3220035778175313,1.0,11.0,left-puff,,1.0,,,,,1.0,,,,1.0,puff,9
110,2012-05-03 11:25:32,2012-05-03 11:25:45.975000,13.975,5,NDW,,,,,,,1.0,,,,,1.0,,,,1.0,talking,5
111,2012-05-03 11:25:39,2012-05-03 11:25:52.975000,13.975,5,NDW,,,,,,,1.0,,,,,1.0,,,,1.0,talking,5
112,2012-05-03 11:25:46,2012-05-03 11:25:59.975000,13.975,5,NDW,,,,,,,1.0,,,,,1.0,,,,1.0,talking,5
113,2012-05-03 11:25:53,2012-05-03 11:26:06.975000,13.975,5,NDW,1.0,0.3220035778175313,1.0,12.0,left-puff,,1.0,,,,,1.0,,,,1.0,puff,9
114,2012-05-03 11:26:00,2012-05-03 11:26:13.975000,13.975,5,NDW,1.0,0.3220035778175313,1.0,12.0,left-puff,,1.0,,,,,1.0,,,,1.0,puff,9
115,2012-05-03 11:26:07,2012-05-03 11:26:20.975000,13.975,5,NDW,,,,,,,1.0,,,,,1.0,,,,1.0,talking,5
116,2012-05-03 11:26:14,2012-05-03 11:26:27.975000,13.975,5,NDW,0.7722222222222223,0.2486583184257603,0.0,13.0,left-puff,,1.0,,,,,1.0,,,,1.0,puff,9
117,2012-05-03 11:26:21,2012-05-03 11:26:34.975000,13.975,5,NDW,1.0,0.3220035778175313,0.0,13.0,left-puff,,1.0,,,,,1.0,,,,1.0,puff,9
118,2012-05-03 11:26:28,2012-05-03 11:26:41.975000,13.975,5,NDW,0.2222222222222222,0.07155635062611806,0.0,13.0,left-puff,,1.0,,,,,1.0,,,,1.0,talking,5
119,2012-05-03 11:26:35,2012-05-03 11:26:48.975000,13.975,5,NDW,,,,,,,1.0,,,,,1.0,,,,1.0,talking,5
120,2012-05-03 11:26:42,2012-05-03 11:26:55.975000,13.975,5,NDW,,,,,,,1.0,,,,,1.0,,,,1.0,talking,5
121,2012-05-03 11:26:49,2012-05-03 11:27:02.975000,13.975,5,NDW,,,,,,,1.0,,,,,1.0,,,,1.0,talking,5
122,2012-05-03 11:26:56,2012-05-03 11:27:09.975000,13.975,5,NDW,,,,,,,1.0,,,,,1.0,,,,1.0,talking,5
123,2012-05-03 11:27:03,2012-05-03 11:27:16.975000,13.975,5,NDW,,,,,,,1.0,,,,,1.0,,,,1.0,talking,5
124,2012-05-03 11:27:10,2012-05-03 11:27:23.975000,13.975,5,NDW,,,,,,,1.0,,,,,1.0,,,,1.0,talking,5
125,2012-05-03 11:27:17,2012-05-03 11:27:30.975000,13.975,5,NDW,,,,,,,1.0,,,,,1.0,,,,1.0,talking,5
126,2012-05-03 11:27:24,2012-05-03 11:27:37.975000,13.975,5,NDW,,,,,,,1.0,,,,,1.0,,,,1.0,talking,5
127,2012-05-03 11:27:31,2012-05-03 11:27:44.975000,13.975,5,NDW,,,,,,,1.0,,,,,1.0,,,,1.0,talking,5
128,2012-05-03 11:27:38,2012-05-03 11:27:51.975000,13.975,5,NDW,,,,,,,1.0,,,,,1.0,,,,1.0,talking,5
129,2012-05-03 11:27:45,2012-05-03 11:27:58.975000,13.975,5,NDW,,,,,,,1.0,,,,,1.0,,,,1.0,talking,5
130,2012-05-03 11:27:52,2012-05-03 11:28:05.975000,13.975,5,NDW,,,,,,,1.0,,,,,1.0,,,,1.0,talking,5
131,2012-05-03 11:27:59,2012-05-03 11:28:12.975000,13.975,5,NDW,,,,,,,1.0,,,,,1.0,,,,1.0,talking,5
132,2012-05-03 11:28:06,2012-05-03 11:28:19.975000,13.975,5,NDW,,,,,,,1.0,,,,,1.0,,,,1.0,talking,5
133,2012-05-03 11:28:13,2012-05-03 11:28:26.975000,13.975,5,NDW,,,,,,,1.0,,,,,1.0,,,,1.0,talking,5
134,2012-05-03 11:28:20,2012-05-03 11:28:33.975000,13.975,5,NDW,,,,,,,1.0,,,,,1.0,,,,1.0,talking,5
135,2012-05-03 11:28:27,2012-05-03 11:28:40.975000,13.975,5,NDW,,,,,,,1.0,,,,,1.0,,,,1.0,talking,5
136,2012-05-03 11:28:34,2012-05-03 11:28:47.975000,13.975,5,NDW,,,,,,,1.0,,,,,1.0,,,,1.0,talking,5
137,2012-05-03 11:28:41,2012-05-03 11:28:54.975000,13.975,5,NDW,,,,,,,1.0,,,,,1.0,,,,1.0,talking,5
138,2012-05-03 11:28:48,2012-05-03 11:29:01.975000,13.975,5,NDW,,,,,,,1.0,,,,,1.0,,,,1.0,talking,5
139,2012-05-03 11:28:55,2012-05-03 11:29:08.975000,13.975,5,NDW,,,,,,,1.0,,,,,1.0,,,,1.0,talking,5
140,2012-05-03 11:29:02,2012-05-03 11:29:15.975000,13.975,5,NDW,,,,,,,1.0,,,,,1.0,,,,1.0,talking,5
141,2012-05-03 11:29:09,2012-05-03 11:29:22.975000,13.975,5,NDW,,,,,,,1.0,,,,,1.0,,,,1.0,talking,5
142,2012-05-03 11:29:16,2012-05-03 11:29:29.975000,13.975,5,NDW,,,,,,,1.0,,,,,1.0,,,,1.0,talking,5
143,2012-05-03 11:29:23,2012-05-03 11:29:36.975000,13.975,5,NDW,,,,,,,1.0,,,,,1.0,,,,1.0,talking,5
144,2012-05-03 11:29:30,2012-05-03 11:29:43.975000,13.975,5,NDW,,,,,,,1.0,,,,,1.0,,,,1.0,talking,5
145,2012-05-03 11:29:37,2012-05-03 11:29:50.975000,13.975,5,NDW,,,,,,,1.0,,,,,1.0,,,,1.0,talking,5
146,2012-05-03 11:29:44,2012-05-03 11:29:57.975000,13.975,5,NDW,,,,,,,1.0,,,,,1.0,,,,1.0,talking,5
147,2012-05-03 11:29:51,2012-05-03 11:30:04.975000,13.975,5,NDW,,,,,,,1.0,,,,,1.0,,,,1.0,talking,5
148,2012-05-03 11:29:58,2012-05-03 11:30:11.975000,13.975,5,NDW,,,,,,,0.7155635062611807,,0.28443649373881935,,,1.0,,,,1.0,drinking,8
149,2012-05-03 11:30:05,2012-05-03 11:30:18.975000,13.975,5,NDW,,,,,,,0.21466905187835422,,0.7853309481216458,,,1.0,,,,1.0,drinking,8
150,2012-05-03 11:30:12,2012-05-03 11:30:25.975000,13.975,5,NDW,,,,,,,,,0.6440071556350626,,,1.0,,,,0.6440071556350626,drinking,8
151,2012-05-03 11:30:19,2012-05-03 11:30:32.975000,13.975,5,NDW,,,,,,,,,0.14311270125223613,,,1.0,,,,0.14311270125223613,others,0
152,2012-05-03 11:30:26,2012-05-03 11:30:39.975000,13.975,5,NDW,,,,,,,,,,,,1.0,,,,,rest,-1
153,2012-05-03 11:30:33,2012-05-03 11:30:46.975000,13.975,5,NDW,,,,,,,,,,,,1.0,,,,,others,0
154,2012-05-03 11:30:40,2012-05-03 11:30:53.975000,13.975,5,NDW,,,,,,,,,,,,1.0,,,,,others,0
155,2012-05-03 11:30:47,2012-05-03 11:31:00.975000,13.975,5,NDW,,,,,,,,,,,,1.0,,,,,others,0
156,2012-05-03 11:30:54,2012-05-03 11:31:07.975000,13.975,5,NDW,,,,,,,,,,,,1.0,,,,,others,0
157,2012-05-03 11:31:01,2012-05-03 11:31:14.975000,13.975,5,NDW,,,,,,,,,,,,1.0,,,,,others,0
158,2012-05-03 11:31:08,2012-05-03 11:31:21.975000,13.975,5,NDW,,,,,,,,,,,,1.0,,,,,others,0
159,2012-05-03 11:31:15,2012-05-03 11:31:28.975000,13.975,5,NDW,,,,,,,,,,,,1.0,,,,,others,0
160,2012-05-03 11:31:22,2012-05-03 11:31:35.975000,13.975,5,NDW,,,,,,,,,,,,1.0,,,,,others,0
161,2012-05-03 11:31:29,2012-05-03 11:31:42.975000,13.975,5,NDW,,,,,,,,,,,,1.0,,,,,others,0
162,2012-05-03 11:31:36,2012-05-03 11:31:49.975000,13.975,5,NDW,,,,,,,,,,,,1.0,,,,,others,0
163,2012-05-03 11:31:43,2012-05-03 11:31:56.975000,13.975,5,NDW,,,,,,,,,,,,1.0,,,,,others,0
164,2012-05-03 11:31:50,2012-05-03 11:32:03.975000,13.975,5,NDW,,,,,,,,,,,,1.0,,,,,others,0
165,2012-05-03 11:31:57,2012-05-03 11:32:10.975000,13.975,5,NDW,,,,,,,0.1413237924865832,,,,,1.0,,,,0.1413237924865832,others,0
166,2012-05-03 11:32:04,2012-05-03 11:32:17.975000,13.975,5,NDW,,,,,,,0.6422182468694096,,,,,1.0,,,,0.6422182468694096,talking,5
167,2012-05-03 11:32:11,2012-05-03 11:32:24.975000,13.975,5,NDW,,,,,,,1.0,,,,,1.0,,,,1.0,talking,5
168,2012-05-03 11:32:18,2012-05-03 11:32:31.975000,13.975,5,NDW,,,,,,,1.0,,,,,1.0,,,,1.0,talking,5
169,2012-05-03 11:32:25,2012-05-03 11:32:38.975000,13.975,5,NDW,,,,,,,1.0,,,,,1.0,,,,1.0,talking,5
170,2012-05-03 11:32:32,2012-05-03 11:32:45.975000,13.975,5,NDW,,,,,,,1.0,,,,,1.0,,,,1.0,talking,5
171,2012-05-03 11:32:39,2012-05-03 11:32:52.975000,13.975,5,NDW,,,,,,,1.0,,,,,1.0,,,,1.0,talking,5
172,2012-05-03 11:32:46,2012-05-03 11:32:59.975000,13.975,5,NDW,,,,,,,1.0,,,,,1.0,,,,1.0,rest,-1
173,2012-05-03 11:32:53,2012-05-03 11:33:06.975000,13.975,5,NDW,,,,,,,1.0,,,,,1.0,,,,1.0,rest,-1
174,2012-05-03 11:33:00,2012-05-03 11:33:13.975000,13.975,5,NDW,,,,,,,1.0,,,,,1.0,,,,1.0,talking,5
175,2012-05-03 11:33:07,2012-05-03 11:33:20.975000,13.975,5,NDW,,,,,,,1.0,,,,,1.0,,,,1.0,talking,5
176,2012-05-03 11:33:14,2012-05-03 11:33:27.975000,13.975,5,NDW,,,,,,,1.0,,,,,1.0,,,,1.0,talking,5
177,2012-05-03 11:33:21,2012-05-03 11:33:34.975000,13.975,5,NDW,,,,,,,1.0,,,,,1.0,,,,1.0,talking,5
178,2012-05-03 11:33:28,2012-05-03 11:33:41.975000,13.975,5,NDW,,,,,,,1.0,,,,,1.0,,,,1.0,talking,5
179,2012-05-03 11:33:35,2012-05-03 11:33:48.975000,13.975,5,NDW,,,,,,,1.0,,,,,1.0,,,,1.0,talking,5
180,2012-05-03 11:33:42,2012-05-03 11:33:55.975000,13.975,5,NDW,,,,,,,1.0,,,,,1.0,,,,1.0,talking,5
181,2012-05-03 11:33:49,2012-05-03 11:34:02.975000,13.975,5,NDW,,,,,,,1.0,,,,,0.5724508050089445,,,,0.5724508050089445,talking,5
182,2012-05-03 11:33:56,2012-05-03 11:34:09.975000,13.975,5,NDW,,,,,,,1.0,,,,,0.07155635062611806,,,,0.07155635062611806,talking,5
183,2012-05-03 11:34:03,2012-05-03 11:34:16.975000,13.975,5,NDW,,,,,,,1.0,,,,,,,,,,talking,5
184,2012-05-03 11:34:10,2012-05-03 11:34:23.975000,13.975,5,NDW,,,,,,,1.0,,,,,,,,,,talking,5
185,2012-05-03 11:34:17,2012-05-03 11:34:30.975000,13.975,5,NDW,,,,,,,1.0,,,,,,,,,,talking,5
186,2012-05-03 11:34:24,2012-05-03 11:34:37.975000,13.975,5,NDW,,,,,,,1.0,,,,,,,,,,talking,5
187,2012-05-03 11:34:31,2012-05-03 11:34:44.975000,13.975,5,NDW,,,,,,,1.0,,,,,,,,,,talking,5
188,2012-05-03 11:34:38,2012-05-03 11:34:51.975000,13.975,5,NDW,,,,,,,1.0,,,,,,,,,,talking,5
189,2012-05-03 11:34:45,2012-05-03 11:34:58.975000,13.975,5,NDW,,,,,,,1.0,,,,,,,,,,talking,5
190,2012-05-03 11:34:52,2012-05-03 11:35:05.975000,13.975,5,NDW,,,,,,,1.0,,,,,,,,,,talking,5
191,2012-05-03 11:34:59,2012-05-03 11:35:12.975000,13.975,5,NDW,,,,,,,1.0,,,,,,,,,,talking,5
192,2012-05-03 11:35:06,2012-05-03 11:35:19.975000,13.975,5,NDW,,,,,,,1.0,,,,,,,,,,talking,5
193,2012-05-03 11:35:13,2012-05-03 11:35:26.975000,13.975,5,NDW,,,,,,,1.0,,,,,,,,,,talking,5
194,2012-05-03 11:35:20,2012-05-03 11:35:33.975000,13.975,5,NDW,,,,,,,1.0,,,,,,,,,,talking,5
195,2012-05-03 11:35:27,2012-05-03 11:35:40.975000,13.975,5,NDW,,,,,,,1.0,,,,,,,,,,talking,5
196,2012-05-03 11:35:34,2012-05-03 11:35:47.975000,13.975,5,NDW,,,,,,,1.0,,,,,,,,,,talking,5
197,2012-05-03 11:35:41,2012-05-03 11:35:54.975000,13.975,5,NDW,,,,,,,1.0,,,,,,,,,,talking,5
198,2012-05-03 11:35:48,2012-05-03 11:36:01.975000,13.975,5,NDW,,,,,,,1.0,,,,,,,,,,talking,5
199,2012-05-03 11:35:55,2012-05-03 11:36:08.975000,13.975,5,NDW,,,,,,,1.0,,,,,,,,,,talking,5
200,2012-05-03 11:36:02,2012-05-03 11:36:15.975000,13.975,5,NDW,,,,,,,1.0,,,,,,,,,,talking,5
201,2012-05-03 11:36:09,2012-05-03 11:36:22.975000,13.975,5,NDW,,,,,,,1.0,,,,,,,,,,talking,5
202,2012-05-03 11:36:16,2012-05-03 11:36:29.975000,13.975,5,NDW,,,,,,,1.0,,,,,,,,,,talking,5
203,2012-05-03 11:36:23,2012-05-03 11:36:36.975000,13.975,5,NDW,,,,,,,1.0,,,,,,,,,,talking,5
204,2012-05-03 11:36:30,2012-05-03 11:36:43.975000,13.975,5,NDW,,,,,,,1.0,,,,,,,,,,talking,5
205,2012-05-03 11:36:37,2012-05-03 11:36:50.975000,13.975,5,NDW,,,,,,,1.0,,,,,,,,,,talking,5
206,2012-05-03 11:36:44,2012-05-03 11:36:57.975000,13.975,5,NDW,,,,,,,1.0,,,,,,,,,,talking,5
207,2012-05-03 11:36:51,2012-05-03 11:37:04.975000,13.975,5,NDW,,,,,,,1.0,,,,,,,,,,talking,5
208,2012-05-03 11:36:58,2012-05-03 11:37:11.975000,13.975,5,NDW,,,,,,,1.0,,,,,,,,,,talking,5
209,2012-05-03 11:37:05,2012-05-03 11:37:18.975000,13.975,5,NDW,,,,,,,1.0,,,,,,,,,,talking,5
210,2012-05-03 11:37:12,2012-05-03 11:37:25.975000,13.975,5,NDW,,,,,,,1.0,,,,,,,,,,talking,5
211,2012-05-03 11:37:19,2012-05-03 11:37:32.975000,13.975,5,NDW,,,,,,,1.0,,,,,,,,,,talking,5
212,2012-05-03 11:37:26,2012-05-03 11:37:39.975000,13.975,5,NDW,,,,,,,1.0,,,,,,,,,,talking,5
213,2012-05-03 11:37:33,2012-05-03 11:37:46.975000,13.975,5,NDW,,,,,,,1.0,,,,,,,,,,talking,5
214,2012-05-03 11:37:40,2012-05-03 11:37:53.975000,13.975,5,NDW,,,,,,,1.0,,,,,,,,,,talking,5
215,2012-05-03 11:37:47,2012-05-03 11:38:00.975000,13.975,5,NDW,,,,,,,1.0,,,,,,,,,,talking,5
216,2012-05-03 11:37:54,2012-05-03 11:38:07.975000,13.975,5,NDW,,,,,,,1.0,,,,,,,,,,talking,5
217,2012-05-03 11:38:01,2012-05-03 11:38:14.975000,13.975,5,NDW,,,,,,,1.0,,,,,,,,,,talking,5
218,2012-05-03 11:38:08,2012-05-03 11:38:21.975000,13.975,5,NDW,,,,,,,1.0,,,,,,,,,,talking,5
219,2012-05-03 11:38:15,2012-05-03 11:38:28.975000,13.975,5,NDW,,,,,,,1.0,,,,,,,,,,talking,5
220,2012-05-03 11:38:22,2012-05-03 11:38:35.975000,13.975,5,NDW,,,,,,,1.0,,,,,,,,,,talking,5
221,2012-05-03 11:38:29,2012-05-03 11:38:42.975000,13.975,5,NDW,,,,,,,1.0,,,,,,,,,,talking,5
222,2012-05-03 11:38:36,2012-05-03 11:38:49.975000,13.975,5,NDW,,,,,,,1.0,,,,,,,,,,talking,5
223,2012-05-03 11:38:43,2012-05-03 11:38:56.975000,13.975,5,NDW,,,,,,,1.0,,,,,,,,,,talking,5
224,2012-05-03 11:38:50,2012-05-03 11:39:03.975000,13.975,5,NDW,,,,,,,1.0,,,,,,,,,,talking,5
225,2012-05-03 11:38:57,2012-05-03 11:39:10.975000,13.975,5,NDW,,,,,,,1.0,,,,,,,,,,talking,5
226,2012-05-03 11:39:04,2012-05-03 11:39:17.975000,13.975,5,NDW,,,,,,,1.0,,,,,,,,,,talking,5
227,2012-05-03 11:39:11,2012-05-03 11:39:24.975000,13.975,5,NDW,,,,,,,1.0,,,,,,,,,,talking,5
228,2012-05-03 11:39:18,2012-05-03 11:39:31.975000,13.975,5,NDW,,,,,,,1.0,,,,,,,,,,talking,5
229,2012-05-03 11:39:25,2012-05-03 11:39:38.975000,13.975,5,NDW,,,,,,,1.0,,,,,,,,,,talking,5
230,2012-05-03 11:39:32,2012-05-03 11:39:45.975000,13.975,5,NDW,,,,,,,1.0,,,,,,,,,,talking,5
231,2012-05-03 11:39:39,2012-05-03 11:39:52.975000,13.975,5,NDW,,,,,,,1.0,,,,,,,,,,talking,5
232,2012-05-03 11:39:46,2012-05-03 11:39:59.975000,13.975,5,NDW,,,,,,,1.0,,,,,,,,,,talking,5
233,2012-05-03 11:39:53,2012-05-03 11:40:06.975000,13.975,5,NDW,,,,,,,1.0,,,,,,,,,,talking,5
234,2012-05-03 11:40:00,2012-05-03 11:40:13.975000,13.975,5,NDW,,,,,,,1.0,,,,,,,,,,talking,5
235,2012-05-03 11:40:07,2012-05-03 11:40:20.975000,13.975,5,NDW,,,,,,,1.0,,,,,,,,,,talking,5
236,2012-05-03 11:40:14,2012-05-03 11:40:27.975000,13.975,5,NDW,,,,,,,1.0,,,,,,,,,,talking,5
237,2012-05-03 11:40:21,2012-05-03 11:40:34.975000,13.975,5,NDW,,,,,,,1.0,,,,,,,,,,talking,5
238,2012-05-03 11:40:28,2012-05-03 11:40:41.975000,13.975,5,NDW,,,,,,,1.0,,,,,,,,,,talking,5
239,2012-05-03 11:40:35,2012-05-03 11:40:48.975000,13.975,5,NDW,,,,,,,1.0,,,,,,,,,,talking,5
240,2012-05-03 11:40:42,2012-05-03 11:40:55.975000,13.975,5,NDW,,,,,,,1.0,,,,,,,,,,talking,5
241,2012-05-03 11:40:49,2012-05-03 11:41:02.975000,13.975,5,NDW,,,,,,,1.0,,,,,,,,,,talking,5
242,2012-05-03 11:40:56,2012-05-03 11:41:09.975000,13.975,5,NDW,,,,,,,1.0,,,,,,,,,,talking,5
243,2012-05-03 11:41:03,2012-05-03 11:41:16.975000,13.975,5,NDW,,,,,,,1.0,,,,,,,,,,talking,5
244,2012-05-03 11:41:10,2012-05-03 11:41:23.975000,13.975,5,NDW,,,,,,,1.0,,,,,,,,,,talking,5
245,2012-05-03 11:41:17,2012-05-03 11:41:30.975000,13.975,5,NDW,,,,,,,1.0,,,,,,,,,,talking,5
246,2012-05-03 11:41:24,2012-05-03 11:41:37.975000,13.975,5,NDW,,,,,,,1.0,,,,,,,,,,talking,5
247,2012-05-03 11:41:31,2012-05-03 11:41:44.975000,13.975,5,NDW,,,,,,,1.0,,,,,,,,,,talking,5
248,2012-05-03 11:41:38,2012-05-03 11:41:51.975000,13.975,5,NDW,,,,,,,1.0,,,,,,,,,,talking,5
249,2012-05-03 11:41:45,2012-05-03 11:41:58.975000,13.975,5,NDW,,,,,,,1.0,,,,,,,,,,talking,5
250,2012-05-03 11:41:52,2012-05-03 11:42:05.975000,13.975,5,NDW,,,,,,,1.0,,,,,,,,,,talking,5
251,2012-05-03 11:41:59,2012-05-03 11:42:12.975000,13.975,5,NDW,,,,,,,1.0,,,,,,,,,,talking,5
252,2012-05-03 11:42:06,2012-05-03 11:42:19.975000,13.975,5,NDW,,,,,,,1.0,,,,,,,,,,talking,5
253,2012-05-03 11:42:13,2012-05-03 11:42:26.975000,13.975,5,NDW,,,,,,,0.9302325581395349,,0.06976744186046512,,,,,,,,talking,5
254,2012-05-03 11:42:20,2012-05-03 11:42:33.975000,13.975,5,NDW,,,,,,,0.42933810375670844,,0.5706618962432916,,,,,,,,drinking,8
255,2012-05-03 11:42:27,2012-05-03 11:42:40.975000,13.975,5,NDW,,,,,,,,,1.0,,,,,,,,drinking,8
256,2012-05-03 11:42:34,2012-05-03 11:42:47.975000,13.975,5,NDW,,,,,,,,,0.8586762075134169,,,,,,,,drinking,8
257,2012-05-03 11:42:41,2012-05-03 11:42:54.975000,13.975,5,NDW,,,,,,,,,0.35778175313059035,,,,,,,,rest,-1
258,2012-05-03 11:42:48,2012-05-03 11:43:01.975000,13.975,5,NDW,,,,,,,,,,,,,,,,,rest,-1
259,2012-05-03 11:42:55,2012-05-03 11:43:08.975000,13.975,5,NDW,,,,,,,,,,,,,,,,,rest,-1
260,2012-05-03 11:43:02,2012-05-03 11:43:15.975000,13.975,5,NDW,,,,,,,,,,,,,,,,,others,0
261,2012-05-03 11:43:09,2012-05-03 11:43:22.975000,13.975,5,NDW,,,,,,,0.28443649373881935,,,,,,,,,,others,0
262,2012-05-03 11:43:16,2012-05-03 11:43:29.975000,13.975,5,NDW,,,,,,,0.7853309481216458,,,,,,,,,,talking,5
263,2012-05-03 11:43:23,2012-05-03 11:43:36.975000,13.975,5,NDW,,,,,,,1.0,,,,,,,,,,talking,5
264,2012-05-03 11:43:30,2012-05-03 11:43:43.975000,13.975,5,NDW,,,,,,,1.0,,,,,,,,,,talking,5
265,2012-05-03 11:43:37,2012-05-03 11:43:50.975000,13.975,5,NDW,,,,,,,1.0,,,,,,,,,,talking,5
266,2012-05-03 11:43:44,2012-05-03 11:43:57.975000,13.975,5,NDW,,,,,,,1.0,,,,,,,,,,talking,5
267,2012-05-03 11:43:51,2012-05-03 11:44:04.975000,13.975,5,NDW,,,,,,,1.0,,,,,,,,,,talking,5
268,2012-05-03 11:43:58,2012-05-03 11:44:11.975000,13.975,5,NDW,,,,,,,1.0,,,,,,,,,,talking,5
269,2012-05-03 11:44:05,2012-05-03 11:44:18.975000,13.975,5,NDW,,,,,,,1.0,,,,,,,,,,talking,5
270,2012-05-03 11:44:12,2012-05-03 11:44:25.975000,13.975,5,NDW,,,,,,,1.0,,,,,,,,,,talking,5
271,2012-05-03 11:44:19,2012-05-03 11:44:32.975000,13.975,5,NDW,,,,,,,1.0,,,,,,,,,,talking,5
272,2012-05-03 11:44:26,2012-05-03 11:44:39.975000,13.975,5,NDW,,,,,,,1.0,,,,,,,,,,talking,5
273,2012-05-03 11:44:33,2012-05-03 11:44:46.975000,13.975,5,NDW,,,,,,,1.0,,,,,,,,,,talking,5
274,2012-05-03 11:44:40,2012-05-03 11:44:53.975000,13.975,5,NDW,,,,,,,1.0,,,,,,,,,,talking,5
275,2012-05-03 11:44:47,2012-05-03 11:45:00.975000,13.975,5,NDW,,,,,,,1.0,,,,,,,,,,talking,5
276,2012-05-03 11:44:54,2012-05-03 11:45:07.975000,13.975,5,NDW,,,,,,,1.0,,,,,,,,,,talking,5
277,2012-05-03 11:45:01,2012-05-03 11:45:14.975000,13.975,5,NDW,,,,,,,1.0,,,,,,,,,,talking,5
278,2012-05-03 11:45:08,2012-05-03 11:45:21.975000,13.975,5,NDW,,,,,,,1.0,,,,,,,,,,talking,5
279,2012-05-03 11:45:15,2012-05-03 11:45:28.975000,13.975,5,NDW,,,,,,,1.0,,,,,,,,,,talking,5
280,2012-05-03 11:45:22,2012-05-03 11:45:35.975000,13.975,5,NDW,,,,,,,1.0,,,,,,,,,,talking,5
281,2012-05-03 11:45:29,2012-05-03 11:45:42.975000,13.975,5,NDW,,,,,,,1.0,,,,,,,,,,talking,5
282,2012-05-03 11:45:36,2012-05-03 11:45:49.975000,13.975,5,NDW,,,,,,,1.0,,,,,,,,,,talking,5
283,2012-05-03 11:45:43,2012-05-03 11:45:56.975000,13.975,5,NDW,,,,,,,1.0,,,,,,,,,,talking,5
284,2012-05-03 11:45:50,2012-05-03 11:46:03.975000,13.975,5,NDW,,,,,,,1.0,,,,,,,,,,talking,5
285,2012-05-03 11:45:57,2012-05-03 11:46:10.975000,13.975,5,NDW,,,,,,,1.0,,,,,,,,,,talking,5
286,2012-05-03 11:46:04,2012-05-03 11:46:17.975000,13.975,5,NDW,,,,,,,1.0,,,,,,,,,,talking,5
287,2012-05-03 11:46:11,2012-05-03 11:46:24.975000,13.975,5,NDW,,,,,,,1.0,,,,,,,,,,talking,5
288,2012-05-03 11:46:18,2012-05-03 11:46:31.975000,13.975,5,NDW,,,,,,,1.0,,,,,,,,,,talking,5
289,2012-05-03 11:46:25,2012-05-03 11:46:38.975000,13.975,5,NDW,,,,,,,1.0,,,,,,,,,,talking,5
290,2012-05-03 11:46:32,2012-05-03 11:46:45.975000,13.975,5,NDW,,,,,,,1.0,,,,,,,,,,talking,5
291,2012-05-03 11:46:39,2012-05-03 11:46:52.975000,13.975,5,NDW,,,,,,,1.0,,,,,,,,,,talking,5
292,2012-05-03 11:46:46,2012-05-03 11:46:59.975000,13.975,5,NDW,,,,,,,1.0,,,,,,,,,,talking,5
293,2012-05-03 11:46:53,2012-05-03 11:47:06.975000,13.975,5,NDW,,,,,,,1.0,,,,,,,,,,talking,5
294,2012-05-03 11:47:00,2012-05-03 11:47:13.975000,13.975,5,NDW,,,,,,,1.0,,,,,,,,,,talking,5
295,2012-05-03 11:47:07,2012-05-03 11:47:20.975000,13.975,5,NDW,,,,,,,1.0,,,,,,,,,,talking,5
296,2012-05-03 11:47:14,2012-05-03 11:47:27.975000,13.975,5,NDW,,,,,,,1.0,,,,,,,,,,talking,5
297,2012-05-03 11:47:21,2012-05-03 11:47:34.975000,13.975,5,NDW,,,,,,,1.0,,,,,,,,,,talking,5
298,2012-05-03 11:47:28,2012-05-03 11:47:41.975000,13.975,5,NDW,,,,,,,1.0,,,,,,,,,,talking,5
299,2012-05-03 11:47:35,2012-05-03 11:47:48.975000,13.975,5,NDW,,,,,,,1.0,,,,,,,,,,talking,5
300,2012-05-03 11:47:42,2012-05-03 11:47:55.975000,13.975,5,NDW,,,,,,,1.0,,,,,,,,,,talking,5
301,2012-05-03 11:47:49,2012-05-03 11:48:02.975000,13.975,5,NDW,,,,,,,1.0,,,,,,,,,,rest,-1
302,2012-05-03 11:47:56,2012-05-03 11:48:09.975000,13.975,5,NDW,,,,,,,1.0,,,,,,,,,,talking,5
303,2012-05-03 11:48:03,2012-05-03 11:48:16.975000,13.975,5,NDW,,,,,,,1.0,,,,,,,,,,talking,5
304,2012-05-03 11:48:10,2012-05-03 11:48:23.975000,13.975,5,NDW,,,,,,,1.0,,,,,,,,,,talking,5
305,2012-05-03 11:48:17,2012-05-03 11:48:30.975000,13.975,5,NDW,,,,,,,1.0,,,,,,,,,,talking,5
306,2012-05-03 11:48:24,2012-05-03 11:48:37.975000,13.975,5,NDW,,,,,,,1.0,,,,,,,,,,talking,5
307,2012-05-03 11:48:31,2012-05-03 11:48:44.975000,13.975,5,NDW,,,,,,,1.0,,,,,,,,,,talking,5
308,2012-05-03 11:48:38,2012-05-03 11:48:51.975000,13.975,5,NDW,,,,,,,1.0,,,,,,,,,,talking,5
309,2012-05-03 11:48:45,2012-05-03 11:48:58.975000,13.975,5,NDW,,,,,,,0.5724508050089445,,,,,,,,,,talking,5
310,2012-05-03 11:48:52,2012-05-03 11:49:05.975000,13.975,5,NDW,,,,,,,0.07155635062611806,,,,,,,,,,others,0
311,2012-05-03 11:48:59,2012-05-03 11:49:12.975000,13.975,5,NDW,,,,,,,,,,,,,,,0.28443649373881935,,others,0
312,2012-05-03 11:49:06,2012-05-03 11:49:19.975000,13.975,5,NDW,,,,,,,,,,,,,,,0.7853309481216458,,walking,1
313,2012-05-03 11:49:13,2012-05-03 11:49:26.975000,13.975,5,NDW,,,,,,,,,,,,,,,1.0,,walking,1
314,2012-05-03 11:49:20,2012-05-03 11:49:33.975000,13.975,5,NDW,,,,,,,,,,,,,,,1.0,,walking,1
315,2012-05-03 11:49:27,2012-05-03 11:49:40.975000,13.975,5,NDW,,,,,,,,,,,,,,,0.9302325581395349,,walking,1
316,2012-05-03 11:49:34,2012-05-03 11:49:47.975000,13.975,5,NDW,,,,,,,,,,,,,,,0.7853309481216458,,walking,1
317,2012-05-03 11:49:41,2012-05-03 11:49:54.975000,13.975,5,NDW,,,,,,,,,,,,,,,0.42933810375670844,,walking,1
318,2012-05-03 11:49:48,2012-05-03 11:50:01.975000,13.975,5,NDW,,,,,,,,,,,,,,,0.07155635062611806,,others,0
319,2012-05-03 11:49:55,2012-05-03 11:50:08.975000,13.975,5,NDW,,,,,,,,,,,,,,,,,others,0
320,2012-05-03 11:50:02,2012-05-03 11:50:15.975000,13.975,5,NDW,,,,,,,,,,,,,,,,,others,0
321,2012-05-03 11:50:09,2012-05-03 11:50:22.975000,13.975,5,NDW,,,,,,,,,,,,,,,,,others,0
322,2012-05-03 11:50:16,2012-05-03 11:50:29.975000,13.975,5,NDW,,,,,,,,,,,,,,,,,others,0
323,2012-05-03 11:50:23,2012-05-03 11:50:36.975000,13.975,5,NDW,,,,,,,,,,,,,,,,,rest,-1
324,2012-05-03 11:50:30,2012-05-03 11:50:43.975000,13.975,5,NDW,,,,,,,,,,,,,,,,,rest,-1
325,2012-05-03 11:50:37,2012-05-03 11:50:50.975000,13.975,5,NDW,,,,,,,,,,,,,,,,,rest,-1
326,2012-05-03 11:50:44,2012-05-03 11:50:57.975000,13.975,5,NDW,,,,,,,,,,,,,,,,,rest,-1
327,2012-05-03 11:50:51,2012-05-03 11:51:04.975000,13.975,5,NDW,,,,,,,,,,,,,,,,,rest,-1
328,2012-05-03 11:50:58,2012-05-03 11:51:11.975000,13.975,5,NDW,,,,,,,,,,,,,,,,,rest,-1
329,2012-05-03 11:51:05,2012-05-03 11:51:18.975000,13.975,5,NDW,,,,,,,,,,,,,,,,,rest,-1
330,2012-05-03 11:51:12,2012-05-03 11:51:25.975000,13.975,5,NDW,,,,,,,,,,,,,,,,,rest,-1
331,2012-05-03 11:51:19,2012-05-03 11:51:32.975000,13.975,5,NDW,,,,,,,,,,,,,,,,,rest,-1
332,2012-05-03 11:51:26,2012-05-03 11:51:39.975000,13.975,5,NDW,,,,,,,,,,,,,,,,,rest,-1
333,2012-05-03 11:51:33,2012-05-03 11:51:46.975000,13.975,5,NDW,,,,,,,,,,,,,,,,,rest,-1
334,2012-05-03 11:51:40,2012-05-03 11:51:53.975000,13.975,5,NDW,,,,,,,,,,,,,,,,,others,0
335,2012-05-03 11:51:47,2012-05-03 11:52:00.975000,13.975,5,NDW,,,,,,,,,,,,,,,,,rest,-1
336,2012-05-03 11:51:54,2012-05-03 11:52:07.975000,13.975,5,NDW,,,,,,,,,,,,,,,,,rest,-1
337,2012-05-03 11:52:01,2012-05-03 11:52:14.975000,13.975,5,NDW,,,,,,,,,,,,,,,,,others,0
338,2012-05-03 11:52:08,2012-05-03 11:52:21.975000,13.975,5,NDW,,,,,,,,,,,,,,,,,others,0
339,2012-05-03 11:52:15,2012-05-03 11:52:28.975000,13.975,5,NDW,,,,,,,,,,,,,,,,,others,0
340,2012-05-03 11:52:22,2012-05-03 11:52:35.975000,13.975,5,NDW,,,,,,,,,,,,,,,,,rest,-1
341,2012-05-03 11:52:29,2012-05-03 11:52:42.975000,13.975,5,NDW,,,,,,,,,,,,,,,,,others,0
342,2012-05-03 11:52:36,2012-05-03 11:52:49.975000,13.975,5,NDW,,,,,,,,,,,,,,,,,others,0
343,2012-05-03 11:52:43,2012-05-03 11:52:56.975000,13.975,5,NDW,,,,,,,,,,,,,,,,,others,0
344,2012-05-03 11:52:50,2012-05-03 11:53:03.975000,13.975,5,NDW,,,,,,,,,,,,,,,,,others,0
345,2012-05-03 11:52:57,2012-05-03 11:53:10.975000,13.975,5,NDW,,,,,,,,,,,,,,,,,others,0
346,2012-05-03 11:53:04,2012-05-03 11:53:17.975000,13.975,5,NDW,,,,,,,,,,,,,,,,,others,0
347,2012-05-03 11:53:11,2012-05-03 11:53:24.975000,13.975,5,NDW,,,,,,,,,,,,,,,,,others,0
348,2012-05-03 11:53:18,2012-05-03 11:53:31.975000,13.975,5,NDW,,,,,,,,,,,,,,,,,others,0
349,2012-05-03 11:53:25,2012-05-03 11:53:38.975000,13.975,5,NDW,,,,,,,,,,,,,,,0.06976744186046512,,others,0
350,2012-05-03 11:53:32,2012-05-03 11:53:45.975000,13.975,5,NDW,,,,,,,,,,,,,,,0.5706618962432916,,walking,1
351,2012-05-03 11:53:39,2012-05-03 11:53:52.975000,13.975,5,NDW,,,,,,,,0.4991055456171735,,,,,,,0.6440071556350626,,walking,1
352,2012-05-03 11:53:46,2012-05-03 11:53:59.975000,13.975,5,NDW,,,,,,,,1.0,,,,,,,0.14311270125223613,,others,0
353,2012-05-03 11:53:53,2012-05-03 11:54:06.975000,13.975,5,NDW,,,,,,,,1.0,,,,,,,,,others,0
354,2012-05-03 11:54:00,2012-05-03 11:54:13.975000,13.975,5,NDW,,,,,,,,1.0,,,,,,,,,others,0
355,2012-05-03 11:54:07,2012-05-03 11:54:20.975000,13.975,5,NDW,,,,,,,,1.0,,,,,,,,,others,0
356,2012-05-03 11:54:14,2012-05-03 11:54:27.975000,13.975,5,NDW,,,,,,,,1.0,,,,,,,,,others,0
357,2012-05-03 11:54:21,2012-05-03 11:54:34.975000,13.975,5,NDW,,,,,,,,1.0,,,,,,,0.06976744186046512,,rest,-1
358,2012-05-03 11:54:28,2012-05-03 11:54:41.975000,13.975,5,NDW,,,,,,,,0.5724508050089445,,,,,,,0.5706618962432916,,rest,-1
359,2012-05-03 11:54:35,2012-05-03 11:54:48.975000,13.975,5,NDW,,,,,,,,0.07155635062611806,,,,,,,1.0,,walking,1
360,2012-05-03 11:54:42,2012-05-03 11:54:55.975000,13.975,5,NDW,,,,,,,,,,,,,,,1.0,,walking,1
361,2012-05-03 11:54:49,2012-05-03 11:55:02.975000,13.975,5,NDW,,,,,,,,,,,,,,,1.0,,walking,1
362,2012-05-03 11:54:56,2012-05-03 11:55:09.975000,13.975,5,NDW,,,,,,,,,,,,,,,0.7871198568872988,,walking,1
363,2012-05-03 11:55:03,2012-05-03 11:55:16.975000,13.975,5,NDW,,,,,,,,,,,,,,,0.28622540250447226,,others,0
364,2012-05-03 11:55:10,2012-05-03 11:55:23.975000,13.975,5,NDW,,,,,,,,,,,,,,,,,others,0
365,2012-05-03 11:55:17,2012-05-03 11:55:30.975000,13.975,5,NDW,,,,,,,,,,,,,,,,,others,0
366,2012-05-03 11:55:24,2012-05-03 11:55:37.975000,13.975,5,NDW,,,,,,,,,,,,,,,,,others,0
367,2012-05-03 11:55:31,2012-05-03 11:55:44.975000,13.975,5,NDW,,,,,,,,,,,,,,,,,others,0
368,2012-05-03 11:55:38,2012-05-03 11:55:51.975000,13.975,5,NDW,,,,,,,,,,,,,,,,,others,0
369,2012-05-03 11:55:45,2012-05-03 11:55:58.975000,13.975,5,NDW,,,,,,,,,,,,,,,,,others,0
370,2012-05-03 11:55:52,2012-05-03 11:56:05.975000,13.975,5,NDW,,,,,,,,,,,,,,,,,others,0
371,2012-05-03 11:55:59,2012-05-03 11:56:12.975000,13.975,5,NDW,,,,,,,,,,,,,,,,,others,0
372,2012-05-03 11:56:06,2012-05-03 11:56:19.975000,13.975,5,NDW,,,,,,,,,,,,,,,,,others,0
373,2012-05-03 11:56:13,2012-05-03 11:56:26.975000,13.975,5,NDW,,,,,,,0.28443649373881935,,,,,,,,,,others,0
374,2012-05-03 11:56:20,2012-05-03 11:56:33.975000,13.975,5,NDW,,,,,,,0.7853309481216458,,,,,,,,,,talking,5
375,2012-05-03 11:56:27,2012-05-03 11:56:40.975000,13.975,5,NDW,,,,,,,1.0,,,,,,,,,,talking,5
376,2012-05-03 11:56:34,2012-05-03 11:56:47.975000,13.975,5,NDW,,,,,,,0.7155635062611807,,,,,,,,,,talking,5
377,2012-05-03 11:56:41,2012-05-03 11:56:54.975000,13.975,5,NDW,,,,,,,0.21466905187835422,,,,,,,,,,others,0
378,2012-05-03 11:56:48,2012-05-03 11:57:01.975000,13.975,5,NDW,,,,,,,,,,,,,,,,,others,0
379,2012-05-03 11:56:55,2012-05-03 11:57:08.975000,13.975,5,NDW,,,,,,,,,,,,,,,,,others,0
380,2012-05-03 11:57:02,2012-05-03 11:57:15.975000,13.975,5,NDW,,,,,,,,,,,,,,,,,others,0
381,2012-05-03 11:57:09,2012-05-03 11:57:22.975000,13.975,5,NDW,,,,,,,,,,,,,,,,,others,0
382,2012-05-03 11:57:16,2012-05-03 11:57:29.975000,13.975,5,NDW,,,,,,,,,0.1413237924865832,,,,,,,,others,0
383,2012-05-03 11:57:23,2012-05-03 11:57:36.975000,13.975,5,NDW,,,,,,,,,0.42933810375670844,,,,,,,,drinking,8
384,2012-05-03 11:57:30,2012-05-03 11:57:43.975000,13.975,5,NDW,,,,,,,,,0.28622540250447226,,,,,,,,drinking,8
385,2012-05-03 11:57:37,2012-05-03 11:57:50.975000,13.975,5,NDW,,,,,,,,0.28622540250447226,,,,,,,,,others,0
386,2012-05-03 11:57:44,2012-05-03 11:57:57.975000,13.975,5,NDW,,,,,,,,0.28622540250447226,,,,,,,,,others,0
387,2012-05-03 11:57:51,2012-05-03 11:58:04.975000,13.975,5,NDW,,,,,,,,,,,,,,,,,others,0
388,2012-05-03 11:57:58,2012-05-03 11:58:11.975000,13.975,5,NDW,,,,,,,,,,,,,,,,,others,0
389,2012-05-03 11:58:05,2012-05-03 11:58:18.975000,13.975,5,NDW,,,,,,,,,,,,,,,,,others,0
390,2012-05-03 11:58:12,2012-05-03 11:58:25.975000,13.975,5,NDW,,,,,,,,,,,,,,,,,others,0
391,2012-05-03 11:58:19,2012-05-03 11:58:32.975000,13.975,5,NDW,,,,,,,,,,,,,,,,,others,0
392,2012-05-03 11:58:26,2012-05-03 11:58:39.975000,13.975,5,NDW,,,,,,,,,,,,,,,,,others,0
393,2012-05-03 11:58:33,2012-05-03 11:58:46.975000,13.975,5,NDW,,,,,,,,,,,,,,,,,others,0
394,2012-05-03 11:58:40,2012-05-03 11:58:53.975000,13.975,5,NDW,,,,,,,,,,,,,,,,,others,0
395,2012-05-03 11:58:47,2012-05-03 11:59:00.975000,13.975,5,NDW,,,,,,,,,,,,,,,,,others,0
396,2012-05-03 11:58:54,2012-05-03 11:59:07.975000,13.975,5,NDW,,,,,,,0.3559928443649374,,,,,,,,,,talking,5
397,2012-05-03 11:59:01,2012-05-03 11:59:14.975000,13.975,5,NDW,,,,,,,0.8568872987477638,,,,,,,,,,talking,5
398,2012-05-03 11:59:08,2012-05-03 11:59:21.975000,13.975,5,NDW,,,,,,,1.0,,,,,,,,,,talking,5
399,2012-05-03 11:59:15,2012-05-03 11:59:28.975000,13.975,5,NDW,,,,,,,1.0,,,,,,,,,,talking,5
400,2012-05-03 11:59:22,2012-05-03 11:59:35.975000,13.975,5,NDW,,,,,,,1.0,,,,,,,,,,talking,5
401,2012-05-03 11:59:29,2012-05-03 11:59:42.975000,13.975,5,NDW,,,,,,,1.0,,,,,,,,,,talking,5
402,2012-05-03 11:59:36,2012-05-03 11:59:49.975000,13.975,5,NDW,,,,,,,1.0,,,,,,,,,,talking,5
403,2012-05-03 11:59:43,2012-05-03 11:59:56.975000,13.975,5,NDW,,,,,,,1.0,,,,,,,,,,talking,5
404,2012-05-03 11:59:50,2012-05-03 12:00:03.975000,13.975,5,NDW,,,,,,,1.0,,,,,,,,,,talking,5
405,2012-05-03 11:59:57,2012-05-03 12:00:10.975000,13.975,5,NDW,,,,,,,1.0,,,,,,,,,,talking,5
406,2012-05-03 12:00:04,2012-05-03 12:00:17.975000,13.975,5,NDW,,,,,,,1.0,,,,,,,,,,talking,5
407,2012-05-03 12:00:11,2012-05-03 12:00:24.975000,13.975,5,NDW,,,,,,,1.0,,,,,,,,,,talking,5
408,2012-05-03 12:00:18,2012-05-03 12:00:31.975000,13.975,5,NDW,,,,,,,1.0,,,,,,,,,,rest,-1
409,2012-05-03 12:00:25,2012-05-03 12:00:38.975000,13.975,5,NDW,,,,,,,0.5724508050089445,,0.21466905187835422,,,,,,,,rest,-1
410,2012-05-03 12:00:32,2012-05-03 12:00:45.975000,13.975,5,NDW,,,,,,,0.07155635062611806,,0.21466905187835422,,,,,,,,others,0
411,2012-05-03 12:00:39,2012-05-03 12:00:52.975000,13.975,5,NDW,,,,,,,0.21288014311270126,,,,,,,,,,rest,-1
412,2012-05-03 12:00:46,2012-05-03 12:00:59.975000,13.975,5,NDW,,,,,,,0.7137745974955277,,,,,,,,,,rest,-1
413,2012-05-03 12:00:53,2012-05-03 12:01:06.975000,13.975,5,NDW,,,,,,,1.0,,,,,,,,,,rest,-1
414,2012-05-03 12:01:00,2012-05-03 12:01:13.975000,13.975,5,NDW,,,,,,,1.0,,,,,,,,,,rest,-1
415,2012-05-03 12:01:07,2012-05-03 12:01:20.975000,13.975,5,NDW,,,,,,,1.0,,,,,,,,,,rest,-1
416,2012-05-03 12:01:14,2012-05-03 12:01:27.975000,13.975,5,NDW,,,,,,,1.0,,,,,,,,,,talking,5
417,2012-05-03 12:01:21,2012-05-03 12:01:34.975000,13.975,5,NDW,,,,,,,1.0,,,,,,,,,,talking,5
418,2012-05-03 12:01:28,2012-05-03 12:01:41.975000,13.975,5,NDW,,,,,,,1.0,,,,,,,,,,talking,5
419,2012-05-03 12:01:35,2012-05-03 12:01:48.975000,13.975,5,NDW,,,,,,,1.0,,,,,,,,,,talking,5
420,2012-05-03 12:01:42,2012-05-03 12:01:55.975000,13.975,5,NDW,,,,,,,1.0,,,,,,,,,,talking,5
421,2012-05-03 12:01:49,2012-05-03 12:02:02.975000,13.975,5,NDW,,,,,,,1.0,,,,,,,,,,talking,5
422,2012-05-03 12:01:56,2012-05-03 12:02:09.975000,13.975,5,NDW,,,,,,,1.0,,,,,,,,,,talking,5
423,2012-05-03 12:02:03,2012-05-03 12:02:16.975000,13.975,5,NDW,,,,,,,1.0,,,,,,,,,,talking,5
424,2012-05-03 12:02:10,2012-05-03 12:02:23.975000,13.975,5,NDW,,,,,,,1.0,,,,,,,,,,talking,5
425,2012-05-03 12:02:17,2012-05-03 12:02:30.975000,13.975,5,NDW,,,,,,,1.0,,,,,,,,,,talking,5
426,2012-05-03 12:02:24,2012-05-03 12:02:37.975000,13.975,5,NDW,,,,,,,1.0,,,,,,,,,,rest,-1
427,2012-05-03 12:02:31,2012-05-03 12:02:44.975000,13.975,5,NDW,,,,,,,1.0,,,,,,,,,,talking,5
428,2012-05-03 12:02:38,2012-05-03 12:02:51.975000,13.975,5,NDW,,,,,,,1.0,,,,,,,,,,talking,5
429,2012-05-03 12:02:45,2012-05-03 12:02:58.975000,13.975,5,NDW,,,,,,,1.0,,,,,,,,,,talking,5
430,2012-05-03 12:02:52,2012-05-03 12:03:05.975000,13.975,5,NDW,,,,,,,1.0,,,,,,,,,,talking,5
431,2012-05-03 12:02:59,2012-05-03 12:03:12.975000,13.975,5,NDW,,,,,,,1.0,,,,,,,,,,talking,5
432,2012-05-03 12:03:06,2012-05-03 12:03:19.975000,13.975,5,NDW,,,,,,,1.0,,,,,,,,,,talking,5
433,2012-05-03 12:03:13,2012-05-03 12:03:26.975000,13.975,5,NDW,,,,,,,1.0,,,,,,,,,,talking,5
434,2012-05-03 12:03:20,2012-05-03 12:03:33.975000,13.975,5,NDW,,,,,,,1.0,,,,,,,,,,talking,5
435,2012-05-03 12:03:27,2012-05-03 12:03:40.975000,13.975,5,NDW,,,,,,,1.0,,,,,,,,,,talking,5
436,2012-05-03 12:03:34,2012-05-03 12:03:47.975000,13.975,5,NDW,,,,,,,1.0,,,,,,,,,,talking,5
437,2012-05-03 12:03:41,2012-05-03 12:03:54.975000,13.975,5,NDW,,,,,,,1.0,,,,,,,,,,rest,-1
438,2012-05-03 12:03:48,2012-05-03 12:04:01.975000,13.975,5,NDW,,,,,,,1.0,,,,,,,,,,rest,-1
439,2012-05-03 12:03:55,2012-05-03 12:04:08.975000,13.975,5,NDW,,,,,,,1.0,,,,,,,,,,talking,5
440,2012-05-03 12:04:02,2012-05-03 12:04:15.975000,13.975,5,NDW,,,,,,,1.0,,,,,,,,,,talking,5
441,2012-05-03 12:04:09,2012-05-03 12:04:22.975000,13.975,5,NDW,,,,,,,1.0,,,,,,,,,,talking,5
442,2012-05-03 12:04:16,2012-05-03 12:04:29.975000,13.975,5,NDW,,,,,,,1.0,,,,,,,,,,talking,5
443,2012-05-03 12:04:23,2012-05-03 12:04:36.975000,13.975,5,NDW,,,,,,,1.0,,,,,,,,,,rest,-1
444,2012-05-03 12:04:30,2012-05-03 12:04:43.975000,13.975,5,NDW,,,,,,,1.0,,,,,,,,,,rest,-1
445,2012-05-03 12:04:37,2012-05-03 12:04:50.975000,13.975,5,NDW,,,,,,,1.0,,,,,,,,,,rest,-1
446,2012-05-03 12:04:44,2012-05-03 12:04:57.975000,13.975,5,NDW,,,,,,,1.0,,,,,,,,,,talking,5
447,2012-05-03 12:04:51,2012-05-03 12:05:04.975000,13.975,5,NDW,,,,,,,1.0,,,,,,,,,,talking,5
448,2012-05-03 12:04:58,2012-05-03 12:05:11.975000,13.975,5,NDW,,,,,,,1.0,,,,,,,,,,talking,5
449,2012-05-03 12:05:05,2012-05-03 12:05:18.975000,13.975,5,NDW,,,,,,,1.0,,,,,,,,,,rest,-1
450,2012-05-03 12:05:12,2012-05-03 12:05:25.975000,13.975,5,NDW,,,,,,,1.0,,,,,,,,,,talking,5
451,2012-05-03 12:05:19,2012-05-03 12:05:32.975000,13.975,5,NDW,,,,,,,1.0,,,,,,,,,,talking,5
452,2012-05-03 12:05:26,2012-05-03 12:05:39.975000,13.975,5,NDW,0.33,0.17710196779964224,0.0,22.0,left-puff,,0.7871198568872988,,,,,0.3559928443649374,,,,0.14311270125223613,puff,9
453,2012-05-03 12:05:33,2012-05-03 12:05:46.975000,13.975,5,NDW,1.0,0.5366726296958855,0.0,22.0,left-puff,,0.28622540250447226,,,,,0.8568872987477638,,,,0.14311270125223613,puff,9
454,2012-05-03 12:05:40,2012-05-03 12:05:53.975000,13.975,5,NDW,0.6666666666666666,0.35778175313059035,0.0,22.0,left-puff,,,,,,,1.0,,,,,puff,9
455,2012-05-03 12:05:47,2012-05-03 12:06:00.975000,13.975,5,NDW,,,,,,,,,,,,1.0,,,,,others,0
456,2012-05-03 12:05:54,2012-05-03 12:06:07.975000,13.975,5,NDW,,,,,,,,,,,,1.0,,,,,others,0
457,2012-05-03 12:06:01,2012-05-03 12:06:14.975000,13.975,5,NDW,,,,,,,,,,,,1.0,,,,,others,0
458,2012-05-03 12:06:08,2012-05-03 12:06:21.975000,13.975,5,NDW,,,,,,,,,,,,1.0,,,,,others,0
459,2012-05-03 12:06:15,2012-05-03 12:06:28.975000,13.975,5,NDW,,,,,,,,,,,,1.0,,,,,others,0
460,2012-05-03 12:06:22,2012-05-03 12:06:35.975000,13.975,5,NDW,,,,,,,,,,,,1.0,,,,,others,0
461,2012-05-03 12:06:29,2012-05-03 12:06:42.975000,13.975,5,NDW,,,,,,,,,,,,1.0,,,,,others,0
462,2012-05-03 12:06:36,2012-05-03 12:06:49.975000,13.975,5,NDW,,,,,,,,,,,,1.0,,,,,others,0
463,2012-05-03 12:06:43,2012-05-03 12:06:56.975000,13.975,5,NDW,,,,,,,,,,,,1.0,,,,,others,0
464,2012-05-03 12:06:50,2012-05-03 12:07:03.975000,13.975,5,NDW,,,,,,,,,,,,1.0,,,,,rest,-1
465,2012-05-03 12:06:57,2012-05-03 12:07:10.975000,13.975,5,NDW,,,,,,,,,,,,1.0,,,,,rest,-1
466,2012-05-03 12:07:04,2012-05-03 12:07:17.975000,13.975,5,NDW,,,,,,,,,,,,1.0,,,,,rest,-1
467,2012-05-03 12:07:11,2012-05-03 12:07:24.975000,13.975,5,NDW,,,,,,,,,,,,1.0,,,,,others,0
468,2012-05-03 12:07:18,2012-05-03 12:07:31.975000,13.975,5,NDW,,,,,,,,,,,,1.0,,,,,others,0
469,2012-05-03 12:07:25,2012-05-03 12:07:38.975000,13.975,5,NDW,,,,,,,,,,,,1.0,,,,,others,0
470,2012-05-03 12:07:32,2012-05-03 12:07:45.975000,13.975,5,NDW,,,,,,,,,,,,1.0,,,,,rest,-1
471,2012-05-03 12:07:39,2012-05-03 12:07:52.975000,13.975,5,NDW,,,,,,,,,,,,1.0,,,,,others,0
472,2012-05-03 12:07:46,2012-05-03 12:07:59.975000,13.975,5,NDW,,,,,,,,,,,,1.0,,,,,others,0
473,2012-05-03 12:07:53,2012-05-03 12:08:06.975000,13.975,5,NDW,,,,,,,,,,,,1.0,,,,,others,0
474,2012-05-03 12:08:00,2012-05-03 12:08:13.975000,13.975,5,NDW,,,,,,,,,,,,1.0,,,,,others,0
475,2012-05-03 12:08:07,2012-05-03 12:08:20.975000,13.975,5,NDW,,,,,,,,,,,,1.0,,,,,others,0
476,2012-05-03 12:08:14,2012-05-03 12:08:27.975000,13.975,5,NDW,,,,,,,,,0.3559928443649374,,,1.0,,,,0.3559928443649374,drinking,8
477,2012-05-03 12:08:21,2012-05-03 12:08:34.975000,13.975,5,NDW,,,,,,,,,0.8568872987477638,,,1.0,,,,0.8568872987477638,drinking,8
478,2012-05-03 12:08:28,2012-05-03 12:08:41.975000,13.975,5,NDW,,,,,,,,,1.0,,,1.0,,,,1.0,drinking,8
479,2012-05-03 12:08:35,2012-05-03 12:08:48.975000,13.975,5,NDW,,,,,,,,,1.0,,,1.0,,,,1.0,drinking,8
480,2012-05-03 12:08:42,2012-05-03 12:08:55.975000,13.975,5,NDW,,,,,,,,,1.0,,,1.0,,,,1.0,drinking,8
481,2012-05-03 12:08:49,2012-05-03 12:09:02.975000,13.975,5,NDW,,,,,,,,,1.0,,,1.0,,,,1.0,drinking,8
482,2012-05-03 12:08:56,2012-05-03 12:09:09.975000,13.975,5,NDW,,,,,,,,,1.0,,,1.0,,,,1.0,drinking,8
483,2012-05-03 12:09:03,2012-05-03 12:09:16.975000,13.975,5,NDW,,,,,,,,,1.0,,,1.0,,,,1.0,drinking,8
484,2012-05-03 12:09:10,2012-05-03 12:09:23.975000,13.975,5,NDW,,,,,,,,,1.0,,,1.0,,,,1.0,drinking,8
485,2012-05-03 12:09:17,2012-05-03 12:09:30.975000,13.975,5,NDW,,,,,,,,,1.0,,,1.0,,,,1.0,drinking,8
486,2012-05-03 12:09:24,2012-05-03 12:09:37.975000,13.975,5,NDW,,,,,,,,,0.5008944543828265,,,1.0,,,,0.5008944543828265,rest,-1
487,2012-05-03 12:09:31,2012-05-03 12:09:44.975000,13.975,5,NDW,,,,,,,,,,,,1.0,,,,,others,0
488,2012-05-03 12:09:38,2012-05-03 12:09:51.975000,13.975,5,NDW,,,,,,,,,,,,1.0,,,,,others,0
489,2012-05-03 12:09:45,2012-05-03 12:09:58.975000,13.975,5,NDW,,,,,,,,,,,,1.0,,,,,rest,-1
490,2012-05-03 12:09:52,2012-05-03 12:10:05.975000,13.975,5,NDW,,,,,,,,,,,,1.0,,,,,others,0
491,2012-05-03 12:09:59,2012-05-03 12:10:12.975000,13.975,5,NDW,,,,,,,,,,,,1.0,,,,,others,0
492,2012-05-03 12:10:06,2012-05-03 12:10:19.975000,13.975,5,NDW,,,,,,,,,,,,1.0,,,,,others,0
493,2012-05-03 12:10:13,2012-05-03 12:10:26.975000,13.975,5,NDW,,,,,,,,,,,,1.0,,,,,others,0
494,2012-05-03 12:10:20,2012-05-03 12:10:33.975000,13.975,5,NDW,,,,,,,,,,,,1.0,,,,,others,0
495,2012-05-03 12:10:27,2012-05-03 12:10:40.975000,13.975,5,NDW,0.595,0.21288014311270126,1.0,27.0,left-puff,,,,,,,1.0,,,,,puff,9
496,2012-05-03 12:10:34,2012-05-03 12:10:47.975000,13.975,5,NDW,1.0,0.35778175313059035,1.0,27.0,left-puff,,,,,,,1.0,,,,,puff,9
497,2012-05-03 12:10:41,2012-05-03 12:10:54.975000,13.975,5,NDW,0.4,0.14311270125223613,1.0,27.0,left-puff,,,,,,,1.0,,,,,puff,9
498,2012-05-03 12:10:48,2012-05-03 12:11:01.975000,13.975,5,NDW,,,,,,,,,,,,1.0,,,,,others,0
499,2012-05-03 12:10:55,2012-05-03 12:11:08.975000,13.975,5,NDW,,,,,,,,,,,,1.0,,,,,others,0
500,2012-05-03 12:11:02,2012-05-03 12:11:15.975000,13.975,5,NDW,,,,,,,,,,,0.06976744186046512,1.0,,,,0.06976744186046512,others,0
501,2012-05-03 12:11:09,2012-05-03 12:11:22.975000,13.975,5,NDW,,,,,,,,,,,0.5706618962432916,0.8586762075134169,,,,0.42933810375670844,eating,2
502,2012-05-03 12:11:16,2012-05-03 12:11:29.975000,13.975,5,NDW,,,,,,,,,,,1.0,0.35778175313059035,,,,0.35778175313059035,eating,2
503,2012-05-03 12:11:23,2012-05-03 12:11:36.975000,13.975,5,NDW,,,,,,,,,,,1.0,,,,,,eating,2
504,2012-05-03 12:11:30,2012-05-03 12:11:43.975000,13.975,5,NDW,,,,,,,,,,,1.0,,,,,,eating,2
505,2012-05-03 12:11:37,2012-05-03 12:11:50.975000,13.975,5,NDW,,,,,,,,,,,1.0,,,,,,eating,2
506,2012-05-03 12:11:44,2012-05-03 12:11:57.975000,13.975,5,NDW,,,,,,,,,,,1.0,,,,,,eating,2
507,2012-05-03 12:11:51,2012-05-03 12:12:04.975000,13.975,5,NDW,,,,,,,,,,,1.0,,,,,,eating,2
508,2012-05-03 12:11:58,2012-05-03 12:12:11.975000,13.975,5,NDW,,,,,,,,,,,1.0,,,,,,eating,2
509,2012-05-03 12:12:05,2012-05-03 12:12:18.975000,13.975,5,NDW,,,,,,,,,,,1.0,,,,,,eating,2
510,2012-05-03 12:12:12,2012-05-03 12:12:25.975000,13.975,5,NDW,,,,,,,,,,,1.0,,,,,,eating,2
511,2012-05-03 12:12:19,2012-05-03 12:12:32.975000,13.975,5,NDW,,,,,,,,,,,1.0,,,,,,eating,2
512,2012-05-03 12:12:26,2012-05-03 12:12:39.975000,13.975,5,NDW,,,,,,,,,,,1.0,,,,,,eating,2
513,2012-05-03 12:12:33,2012-05-03 12:12:46.975000,13.975,5,NDW,,,,,,,,,,,1.0,,,,,,eating,2
514,2012-05-03 12:12:40,2012-05-03 12:12:53.975000,13.975,5,NDW,,,,,,,,,,,1.0,,,,,,eating,2
515,2012-05-03 12:12:47,2012-05-03 12:13:00.975000,13.975,5,NDW,,,,,,,,,,,1.0,,,,,,eating,2
516,2012-05-03 12:12:54,2012-05-03 12:13:07.975000,13.975,5,NDW,,,,,,,,,,,1.0,,,,,,eating,2
517,2012-05-03 12:13:01,2012-05-03 12:13:14.975000,13.975,5,NDW,,,,,,,,,,,1.0,,,,,,eating,2
518,2012-05-03 12:13:08,2012-05-03 12:13:21.975000,13.975,5,NDW,,,,,,,,,,,1.0,,,,,,eating,2
519,2012-05-03 12:13:15,2012-05-03 12:13:28.975000,13.975,5,NDW,,,,,,,,,,,1.0,,,,,,eating,2
520,2012-05-03 12:13:22,2012-05-03 12:13:35.975000,13.975,5,NDW,,,,,,,,,,,1.0,,,,,,eating,2
521,2012-05-03 12:13:29,2012-05-03 12:13:42.975000,13.975,5,NDW,,,,,,,,,,,1.0,,,,,,eating,2
522,2012-05-03 12:13:36,2012-05-03 12:13:49.975000,13.975,5,NDW,,,,,,,,,,,1.0,,,,,,eating,2
523,2012-05-03 12:13:43,2012-05-03 12:13:56.975000,13.975,5,NDW,,,,,,,,,,,1.0,,,,,,eating,2
524,2012-05-03 12:13:50,2012-05-03 12:14:03.975000,13.975,5,NDW,,,,,,,,,,,1.0,,,,,,eating,2
525,2012-05-03 12:13:57,2012-05-03 12:14:10.975000,13.975,5,NDW,,,,,,,,,,,1.0,,,,,,eating,2
526,2012-05-03 12:14:04,2012-05-03 12:14:17.975000,13.975,5,NDW,,,,,,,,,,,1.0,,,,,,eating,2
527,2012-05-03 12:14:11,2012-05-03 12:14:24.975000,13.975,5,NDW,,,,,,,,,,,1.0,,,,,,eating,2
528,2012-05-03 12:14:18,2012-05-03 12:14:31.975000,13.975,5,NDW,,,,,,,,,,,1.0,,,,,,eating,2
529,2012-05-03 12:14:25,2012-05-03 12:14:38.975000,13.975,5,NDW,,,,,,,,,,,1.0,,,,,,eating,2
530,2012-05-03 12:14:32,2012-05-03 12:14:45.975000,13.975,5,NDW,,,,,,,,,,,1.0,,,,,,eating,2
531,2012-05-03 12:14:39,2012-05-03 12:14:52.975000,13.975,5,NDW,,,,,,,,,,,1.0,,,,,,eating,2
532,2012-05-03 12:14:46,2012-05-03 12:14:59.975000,13.975,5,NDW,,,,,,,,,,,1.0,,,,,,eating,2
533,2012-05-03 12:14:53,2012-05-03 12:15:06.975000,13.975,5,NDW,,,,,,,,,,,1.0,,,,,,eating,2
534,2012-05-03 12:15:00,2012-05-03 12:15:13.975000,13.975,5,NDW,,,,,,,,,,,1.0,,,,,,eating,2
535,2012-05-03 12:15:07,2012-05-03 12:15:20.975000,13.975,5,NDW,,,,,,,,,,,1.0,,,,,,eating,2
536,2012-05-03 12:15:14,2012-05-03 12:15:27.975000,13.975,5,NDW,,,,,,,,,,,1.0,,,,,,eating,2
537,2012-05-03 12:15:21,2012-05-03 12:15:34.975000,13.975,5,NDW,,,,,,,,,,,1.0,,,,,,eating,2
538,2012-05-03 12:15:28,2012-05-03 12:15:41.975000,13.975,5,NDW,,,,,,,,,,,1.0,,,,,,eating,2
539,2012-05-03 12:15:35,2012-05-03 12:15:48.975000,13.975,5,NDW,,,,,,,,,,,1.0,,,,,,eating,2
540,2012-05-03 12:15:42,2012-05-03 12:15:55.975000,13.975,5,NDW,,,,,,,,,,,1.0,,,,,,eating,2
541,2012-05-03 12:15:49,2012-05-03 12:16:02.975000,13.975,5,NDW,,,,,,,,,,,1.0,,,,,,eating,2
542,2012-05-03 12:15:56,2012-05-03 12:16:09.975000,13.975,5,NDW,,,,,,,,,,,1.0,,,,,,eating,2
543,2012-05-03 12:16:03,2012-05-03 12:16:16.975000,13.975,5,NDW,,,,,,,,,,,1.0,,,,,,eating,2
544,2012-05-03 12:16:10,2012-05-03 12:16:23.975000,13.975,5,NDW,,,,,,,,,,,1.0,,,,,,eating,2
545,2012-05-03 12:16:17,2012-05-03 12:16:30.975000,13.975,5,NDW,,,,,,,,,,,1.0,,,,,,eating,2
546,2012-05-03 12:16:24,2012-05-03 12:16:37.975000,13.975,5,NDW,,,,,,,,,,,1.0,,,,,,eating,2
547,2012-05-03 12:16:31,2012-05-03 12:16:44.975000,13.975,5,NDW,,,,,,,,,,,1.0,,,,,,eating,2
548,2012-05-03 12:16:38,2012-05-03 12:16:51.975000,13.975,5,NDW,,,,,,,,,,,1.0,,,,,,eating,2
549,2012-05-03 12:16:45,2012-05-03 12:16:58.975000,13.975,5,NDW,,,,,,,,,,,1.0,,,,,,eating,2
550,2012-05-03 12:16:52,2012-05-03 12:17:05.975000,13.975,5,NDW,,,,,,,,,,,1.0,,,,,,eating,2
551,2012-05-03 12:16:59,2012-05-03 12:17:12.975000,13.975,5,NDW,,,,,,,,,,,1.0,,,,,,eating,2
552,2012-05-03 12:17:06,2012-05-03 12:17:19.975000,13.975,5,NDW,,,,,,,,,,,1.0,,,,,,eating,2
553,2012-05-03 12:17:13,2012-05-03 12:17:26.975000,13.975,5,NDW,,,,,,,,,,,1.0,,,,,,eating,2
554,2012-05-03 12:17:20,2012-05-03 12:17:33.975000,13.975,5,NDW,,,,,,,,,,,1.0,,,,,,eating,2
555,2012-05-03 12:17:27,2012-05-03 12:17:40.975000,13.975,5,NDW,,,,,,,,,,,1.0,,,,,,eating,2
556,2012-05-03 12:17:34,2012-05-03 12:17:47.975000,13.975,5,NDW,,,,,,,,,,,1.0,,,,,,eating,2
557,2012-05-03 12:17:41,2012-05-03 12:17:54.975000,13.975,5,NDW,,,,,,,,,,,1.0,,,,,,eating,2
558,2012-05-03 12:17:48,2012-05-03 12:18:01.975000,13.975,5,NDW,,,,,,,,,,,1.0,,,,,,eating,2
559,2012-05-03 12:17:55,2012-05-03 12:18:08.975000,13.975,5,NDW,,,,,,,,,,,1.0,,,,,,eating,2
560,2012-05-03 12:18:02,2012-05-03 12:18:15.975000,13.975,5,NDW,,,,,,,,,,,1.0,,,,,,eating,2
561,2012-05-03 12:18:09,2012-05-03 12:18:22.975000,13.975,5,NDW,,,,,,,,,,,1.0,,,,,,eating,2
562,2012-05-03 12:18:16,2012-05-03 12:18:29.975000,13.975,5,NDW,,,,,,,,,0.42933810375670844,,0.5706618962432916,,,,,,drinking,8
563,2012-05-03 12:18:23,2012-05-03 12:18:36.975000,13.975,5,NDW,,,,,,,,,0.42933810375670844,,0.5706618962432916,,,,,,drinking,8
564,2012-05-03 12:18:30,2012-05-03 12:18:43.975000,13.975,5,NDW,,,,,,,,,,,1.0,,,,,,eating,2
565,2012-05-03 12:18:37,2012-05-03 12:18:50.975000,13.975,5,NDW,,,,,,,,,,,1.0,,,,,,rest,-1
566,2012-05-03 12:18:44,2012-05-03 12:18:57.975000,13.975,5,NDW,,,,,,,,,,,1.0,,,,,,eating,2
567,2012-05-03 12:18:51,2012-05-03 12:19:04.975000,13.975,5,NDW,,,,,,,,,,,1.0,,,,,,eating,2
568,2012-05-03 12:18:58,2012-05-03 12:19:11.975000,13.975,5,NDW,,,,,,,,,,,1.0,,,,,,eating,2
569,2012-05-03 12:19:05,2012-05-03 12:19:18.975000,13.975,5,NDW,,,,,,,,,,,1.0,,,,,,eating,2
570,2012-05-03 12:19:12,2012-05-03 12:19:25.975000,13.975,5,NDW,,,,,,,,,,,1.0,,,,,,eating,2
571,2012-05-03 12:19:19,2012-05-03 12:19:32.975000,13.975,5,NDW,,,,,,,,,,,1.0,,,,,,eating,2
572,2012-05-03 12:19:26,2012-05-03 12:19:39.975000,13.975,5,NDW,,,,,,,,,,,1.0,,,,,,eating,2
573,2012-05-03 12:19:33,2012-05-03 12:19:46.975000,13.975,5,NDW,,,,,,,,,,,1.0,,,,,,eating,2
574,2012-05-03 12:19:40,2012-05-03 12:19:53.975000,13.975,5,NDW,,,,,,,,,,,1.0,,,,,,eating,2
575,2012-05-03 12:19:47,2012-05-03 12:20:00.975000,13.975,5,NDW,,,,,,,,,,,1.0,,,,,,eating,2
576,2012-05-03 12:19:54,2012-05-03 12:20:07.975000,13.975,5,NDW,,,,,,,,,,,1.0,,,,,,eating,2
577,2012-05-03 12:20:01,2012-05-03 12:20:14.975000,13.975,5,NDW,,,,,,,,,,,1.0,,,,,,eating,2
578,2012-05-03 12:20:08,2012-05-03 12:20:21.975000,13.975,5,NDW,,,,,,,,,,,1.0,,,,,,eating,2
579,2012-05-03 12:20:15,2012-05-03 12:20:28.975000,13.975,5,NDW,,,,,,,,,,,1.0,,,,,,eating,2
580,2012-05-03 12:20:22,2012-05-03 12:20:35.975000,13.975,5,NDW,,,,,,,,,,,1.0,,,,,,eating,2
581,2012-05-03 12:20:29,2012-05-03 12:20:42.975000,13.975,5,NDW,,,,,,,,,,,1.0,,,,,,eating,2
582,2012-05-03 12:20:36,2012-05-03 12:20:49.975000,13.975,5,NDW,,,,,,,,,,,1.0,,,,,,eating,2
583,2012-05-03 12:20:43,2012-05-03 12:20:56.975000,13.975,5,NDW,,,,,,,,,,,1.0,,,,,,eating,2
584,2012-05-03 12:20:50,2012-05-03 12:21:03.975000,13.975,5,NDW,,,,,,,,,,,1.0,,,,,,eating,2
585,2012-05-03 12:20:57,2012-05-03 12:21:10.975000,13.975,5,NDW,,,,,,,,,,,1.0,,,,,,eating,2
586,2012-05-03 12:21:04,2012-05-03 12:21:17.975000,13.975,5,NDW,,,,,,,,,,,1.0,,,,,,eating,2
587,2012-05-03 12:21:11,2012-05-03 12:21:24.975000,13.975,5,NDW,,,,,,,,,,,1.0,,,,,,eating,2
588,2012-05-03 12:21:18,2012-05-03 12:21:31.975000,13.975,5,NDW,,,,,,,,,,,1.0,,,,,,eating,2
589,2012-05-03 12:21:25,2012-05-03 12:21:38.975000,13.975,5,NDW,,,,,,,,,,,1.0,,,,,,eating,2
590,2012-05-03 12:21:32,2012-05-03 12:21:45.975000,13.975,5,NDW,,,,,,,,,,,1.0,,,,,,eating,2
591,2012-05-03 12:21:39,2012-05-03 12:21:52.975000,13.975,5,NDW,,,,,,,,,,,1.0,,,,,,eating,2
592,2012-05-03 12:21:46,2012-05-03 12:21:59.975000,13.975,5,NDW,,,,,,,,,,,1.0,,,,,,eating,2
593,2012-05-03 12:21:53,2012-05-03 12:22:06.975000,13.975,5,NDW,,,,,,,,,,,1.0,,,,,,eating,2
594,2012-05-03 12:22:00,2012-05-03 12:22:13.975000,13.975,5,NDW,,,,,,,,,,,1.0,,,,,,eating,2
595,2012-05-03 12:22:07,2012-05-03 12:22:20.975000,13.975,5,NDW,,,,,,,,,,,1.0,,,,,,eating,2
596,2012-05-03 12:22:14,2012-05-03 12:22:27.975000,13.975,5,NDW,,,,,,,,,,,1.0,,,,,,eating,2
597,2012-05-03 12:22:21,2012-05-03 12:22:34.975000,13.975,5,NDW,,,,,,,,,,,1.0,,,,,,eating,2
598,2012-05-03 12:22:28,2012-05-03 12:22:41.975000,13.975,5,NDW,,,,,,,,,,,1.0,,,,,,eating,2
599,2012-05-03 12:22:35,2012-05-03 12:22:48.975000,13.975,5,NDW,,,,,,,,,,,1.0,,,,,,eating,2
600,2012-05-03 12:22:42,2012-05-03 12:22:55.975000,13.975,5,NDW,,,,,,,,,,,1.0,,,,,,eating,2
601,2012-05-03 12:22:49,2012-05-03 12:23:02.975000,13.975,5,NDW,,,,,,,,,,,1.0,,,,,,eating,2
602,2012-05-03 12:22:56,2012-05-03 12:23:09.975000,13.975,5,NDW,,,,,,,,,,,1.0,,,,,,eating,2
603,2012-05-03 12:23:03,2012-05-03 12:23:16.975000,13.975,5,NDW,,,,,,,,,,,1.0,,,,,,eating,2
604,2012-05-03 12:23:10,2012-05-03 12:23:23.975000,13.975,5,NDW,,,,,,,,0.1413237924865832,,,0.8586762075134169,,,,,,eating,2
605,2012-05-03 12:23:17,2012-05-03 12:23:30.975000,13.975,5,NDW,,,,,,,,0.6422182468694096,,,0.35778175313059035,,,,,,eating,2
606,2012-05-03 12:23:24,2012-05-03 12:23:37.975000,13.975,5,NDW,,,,,,,,1.0,,,,,,,,,others,0
607,2012-05-03 12:23:31,2012-05-03 12:23:44.975000,13.975,5,NDW,,,,,,,,1.0,,,,,,,,,others,0
608,2012-05-03 12:23:38,2012-05-03 12:23:51.975000,13.975,5,NDW,,,,,,,,1.0,,,,,,,,,others,0
609,2012-05-03 12:23:45,2012-05-03 12:23:58.975000,13.975,5,NDW,,,,,,,,1.0,,,,,,,,,others,0
610,2012-05-03 12:23:52,2012-05-03 12:24:05.975000,13.975,5,NDW,,,,,,,,0.5724508050089445,,,,0.3559928443649374,,,,,others,0
611,2012-05-03 12:23:59,2012-05-03 12:24:12.975000,13.975,5,NDW,,,,,,,,0.07155635062611806,,,,0.8568872987477638,,,,,others,0
612,2012-05-03 12:24:06,2012-05-03 12:24:19.975000,13.975,5,NDW,,,,,,,,,,,,1.0,,,,,others,0
613,2012-05-03 12:24:13,2012-05-03 12:24:26.975000,13.975,5,NDW,,,,,,,,,,,,1.0,,,,,others,0
614,2012-05-03 12:24:20,2012-05-03 12:24:33.975000,13.975,5,NDW,,,,,,,,,,,,1.0,,,,,others,0
615,2012-05-03 12:24:27,2012-05-03 12:24:40.975000,13.975,5,NDW,,,,,,,,,,,,1.0,,,,,rest,-1
616,2012-05-03 12:24:34,2012-05-03 12:24:47.975000,13.975,5,NDW,,,,,,,,,,,,1.0,,,,,others,0
617,2012-05-03 12:24:41,2012-05-03 12:24:54.975000,13.975,5,NDW,,,,,,,,,,,,1.0,,,,,others,0
618,2012-05-03 12:24:48,2012-05-03 12:25:01.975000,13.975,5,NDW,,,,,,,,,,,,1.0,,,,,rest,-1
619,2012-05-03 12:24:55,2012-05-03 12:25:08.975000,13.975,5,NDW,,,,,,,,,,,,1.0,,,,,others,0
620,2012-05-03 12:25:02,2012-05-03 12:25:15.975000,13.975,5,NDW,,,,,,,,,,,,1.0,,,,,others,0
621,2012-05-03 12:25:09,2012-05-03 12:25:22.975000,13.975,5,NDW,,,,,,,,,,,,1.0,,,,,rest,-1
622,2012-05-03 12:25:16,2012-05-03 12:25:29.975000,13.975,5,NDW,,,,,,,,,,,,1.0,,,,,others,0
623,2012-05-03 12:25:23,2012-05-03 12:25:36.975000,13.975,5,NDW,,,,,,,,,,,,1.0,,,,,others,0
624,2012-05-03 12:25:30,2012-05-03 12:25:43.975000,13.975,5,NDW,,,,,,,,,,,,1.0,,,,,others,0
625,2012-05-03 12:25:37,2012-05-03 12:25:50.975000,13.975,5,NDW,,,,,,,,,,,,1.0,,,,,rest,-1
626,2012-05-03 12:25:44,2012-05-03 12:25:57.975000,13.975,5,NDW,,,,,,,,,,,,1.0,,,,,rest,-1
627,2012-05-03 12:25:51,2012-05-03 12:26:04.975000,13.975,5,NDW,,,,,,,,,,,,1.0,,,,,rest,-1
628,2012-05-03 12:25:58,2012-05-03 12:26:11.975000,13.975,5,NDW,,,,,,,,,,,,1.0,,,,,others,0
629,2012-05-03 12:26:05,2012-05-03 12:26:18.975000,13.975,5,NDW,,,,,,,,,,,,1.0,,,,,others,0
630,2012-05-03 12:26:12,2012-05-03 12:26:25.975000,13.975,5,NDW,,,,,,,,,,,,1.0,,,,,others,0
631,2012-05-03 12:26:19,2012-05-03 12:26:32.975000,13.975,5,NDW,,,,,,,,,,,,1.0,,,,,others,0
632,2012-05-03 12:26:26,2012-05-03 12:26:39.975000,13.975,5,NDW,,,,,,,,,,,,1.0,,,,,others,0
633,2012-05-03 12:26:33,2012-05-03 12:26:46.975000,13.975,5,NDW,,,,,,,,,,,,1.0,0.4991055456171735,,,0.4991055456171735,computer,4
634,2012-05-03 12:26:40,2012-05-03 12:26:53.975000,13.975,5,NDW,,,,,,,,,,,,1.0,1.0,,,1.0,computer,4
635,2012-05-03 12:26:47,2012-05-03 12:27:00.975000,13.975,5,NDW,,,,,,,,,,,,1.0,1.0,,,1.0,computer,4
636,2012-05-03 12:26:54,2012-05-03 12:27:07.975000,13.975,5,NDW,,,,,,,,,,,,1.0,1.0,,,1.0,rest,-1
637,2012-05-03 12:27:01,2012-05-03 12:27:14.975000,13.975,5,NDW,,,,,,,,,,,,1.0,1.0,,,1.0,computer,4
638,2012-05-03 12:27:08,2012-05-03 12:27:21.975000,13.975,5,NDW,,,,,,,,,,,,1.0,1.0,,,1.0,rest,-1
639,2012-05-03 12:27:15,2012-05-03 12:27:28.975000,13.975,5,NDW,,,,,,,,,,,,1.0,1.0,,,1.0,rest,-1
640,2012-05-03 12:27:22,2012-05-03 12:27:35.975000,13.975,5,NDW,,,,,,,,,,,,1.0,1.0,,,1.0,rest,-1
641,2012-05-03 12:27:29,2012-05-03 12:27:42.975000,13.975,5,NDW,,,,,,,,,,,,1.0,1.0,,,1.0,computer,4
642,2012-05-03 12:27:36,2012-05-03 12:27:49.975000,13.975,5,NDW,,,,,,,,,,,,1.0,1.0,,,1.0,rest,-1
643,2012-05-03 12:27:43,2012-05-03 12:27:56.975000,13.975,5,NDW,,,,,,,,,,,,1.0,0.7871198568872988,0.21288014311270126,,1.0,computer,4
644,2012-05-03 12:27:50,2012-05-03 12:28:03.975000,13.975,5,NDW,,,,,,,,,,,,1.0,0.28622540250447226,0.7137745974955277,,1.0,phone,3
645,2012-05-03 12:27:57,2012-05-03 12:28:10.975000,13.975,5,NDW,,,,,,,,,,,,1.0,0.21288014311270126,0.7871198568872988,,1.0,phone,3
646,2012-05-03 12:28:04,2012-05-03 12:28:17.975000,13.975,5,NDW,,,,,,,,,,,,1.0,0.7137745974955277,0.28622540250447226,,1.0,computer,4
647,2012-05-03 12:28:11,2012-05-03 12:28:24.975000,13.975,5,NDW,,,,,,,,,,,,1.0,1.0,,,1.0,computer,4
648,2012-05-03 12:28:18,2012-05-03 12:28:31.975000,13.975,5,NDW,,,,,,,,,,,,1.0,1.0,,,1.0,computer,4
649,2012-05-03 12:28:25,2012-05-03 12:28:38.975000,13.975,5,NDW,,,,,,,,,,,,1.0,1.0,,,1.0,computer,4
650,2012-05-03 12:28:32,2012-05-03 12:28:45.975000,13.975,5,NDW,,,,,,,,,,,,1.0,1.0,,,1.0,computer,4
651,2012-05-03 12:28:39,2012-05-03 12:28:52.975000,13.975,5,NDW,,,,,,,,,,,,1.0,1.0,,,1.0,rest,-1
652,2012-05-03 12:28:46,2012-05-03 12:28:59.975000,13.975,5,NDW,,,,,,,,,,,,1.0,0.8586762075134169,0.1413237924865832,,1.0,computer,4
653,2012-05-03 12:28:53,2012-05-03 12:29:06.975000,13.975,5,NDW,,,,,,,,,,,,1.0,0.35778175313059035,0.6422182468694096,,1.0,computer,4
654,2012-05-03 12:29:00,2012-05-03 12:29:13.975000,13.975,5,NDW,,,,,,,,,,,,1.0,,1.0,,1.0,phone,3
655,2012-05-03 12:29:07,2012-05-03 12:29:20.975000,13.975,5,NDW,1.0,0.28622540250447226,1.0,32.0,left-puff,,,,,,,1.0,0.4275491949910554,0.5724508050089445,,1.0,puff,9
656,2012-05-03 12:29:14,2012-05-03 12:29:27.975000,13.975,5,NDW,1.0,0.28622540250447226,1.0,32.0,left-puff,,,,,,,1.0,0.9284436493738819,0.07155635062611806,,1.0,puff,9
657,2012-05-03 12:29:21,2012-05-03 12:29:34.975000,13.975,5,NDW,,,,,,,,,,,,1.0,1.0,,,1.0,rest,-1
658,2012-05-03 12:29:28,2012-05-03 12:29:41.975000,13.975,5,NDW,,,,,,,,,,,,1.0,1.0,,,1.0,rest,-1
659,2012-05-03 12:29:35,2012-05-03 12:29:48.975000,13.975,5,NDW,,,,,,,,,,,,1.0,1.0,,,1.0,rest,-1
660,2012-05-03 12:29:42,2012-05-03 12:29:55.975000,13.975,5,NDW,1.0,0.3041144901610018,1.0,33.0,left-puff,,,,,,,1.0,1.0,,,1.0,puff,9
661,2012-05-03 12:29:49,2012-05-03 12:30:02.975000,13.975,5,NDW,1.0,0.3041144901610018,1.0,33.0,left-puff,,,,,,,1.0,1.0,,,1.0,puff,9
662,2012-05-03 12:29:56,2012-05-03 12:30:09.975000,13.975,5,NDW,,,,,,,,,,,,1.0,1.0,,,1.0,rest,-1
663,2012-05-03 12:30:03,2012-05-03 12:30:16.975000,13.975,5,NDW,,,,,,,,,,,,1.0,1.0,,,1.0,rest,-1
664,2012-05-03 12:30:10,2012-05-03 12:30:23.975000,13.975,5,NDW,,,,,,,,,,,,1.0,1.0,,,1.0,rest,-1
665,2012-05-03 12:30:17,2012-05-03 12:30:30.975000,13.975,5,NDW,,,,,,,,,,,,1.0,1.0,,,1.0,rest,-1
666,2012-05-03 12:30:24,2012-05-03 12:30:37.975000,13.975,5,NDW,,,,,,,,,,,,1.0,1.0,,,1.0,rest,-1
667,2012-05-03 12:30:31,2012-05-03 12:30:44.975000,13.975,5,NDW,,,,,,,,,,,,1.0,1.0,,,1.0,rest,-1
668,2012-05-03 12:30:38,2012-05-03 12:30:51.975000,13.975,5,NDW,,,,,,,,,,,,1.0,1.0,,,1.0,computer,4
669,2012-05-03 12:30:45,2012-05-03 12:30:58.975000,13.975,5,NDW,,,,,,,,,,,,1.0,1.0,,,1.0,computer,4
670,2012-05-03 12:30:52,2012-05-03 12:31:05.975000,13.975,5,NDW,,,,,,,,,,,,1.0,1.0,,,1.0,rest,-1
671,2012-05-03 12:30:59,2012-05-03 12:31:12.975000,13.975,5,NDW,,,,,,,,,,,,1.0,1.0,,,1.0,rest,-1
672,2012-05-03 12:31:06,2012-05-03 12:31:19.975000,13.975,5,NDW,0.095,0.03398926654740608,1.0,34.0,left-puff,,,,,,,1.0,1.0,,,1.0,rest,-1
673,2012-05-03 12:31:13,2012-05-03 12:31:26.975000,13.975,5,NDW,1.0,0.35778175313059035,1.0,34.0,left-puff,,,,,,,1.0,1.0,,,1.0,puff,9
674,2012-05-03 12:31:20,2012-05-03 12:31:33.975000,13.975,5,NDW,0.9,0.3220035778175313,1.0,34.0,left-puff,,,,,,,1.0,1.0,,,1.0,puff,9
675,2012-05-03 12:31:27,2012-05-03 12:31:40.975000,13.975,5,NDW,0.24375,0.06976744186046512,1.0,35.0,left-puff,,,,,,,1.0,1.0,,,1.0,rest,-1
676,2012-05-03 12:31:34,2012-05-03 12:31:47.975000,13.975,5,NDW,1.0,0.28622540250447226,1.0,35.0,left-puff,,,,,,,1.0,1.0,,,1.0,puff,9
677,2012-05-03 12:31:41,2012-05-03 12:31:54.975000,13.975,5,NDW,0.75,0.21466905187835422,1.0,35.0,left-puff,,,,,,,1.0,1.0,,,1.0,puff,9
678,2012-05-03 12:31:48,2012-05-03 12:32:01.975000,13.975,5,NDW,,,,,,,,,,,,1.0,1.0,,,1.0,rest,-1
679,2012-05-03 12:31:55,2012-05-03 12:32:08.975000,13.975,5,NDW,,,,,,,,,,,,1.0,1.0,,,1.0,rest,-1
680,2012-05-03 12:32:02,2012-05-03 12:32:15.975000,13.975,5,NDW,1.0,0.25044722719141327,1.0,36.0,left-puff,,,,,,,1.0,1.0,,,1.0,puff,9
681,2012-05-03 12:32:09,2012-05-03 12:32:22.975000,13.975,5,NDW,1.0,0.25044722719141327,1.0,36.0,left-puff,,,,,,,0.7155635062611807,1.0,,,0.7155635062611807,puff,9
682,2012-05-03 12:32:16,2012-05-03 12:32:29.975000,13.975,5,NDW,,,,,,,,,,,,0.21466905187835422,1.0,,,0.21466905187835422,computer,4
683,2012-05-03 12:32:23,2012-05-03 12:32:36.975000,13.975,5,NDW,,,,,,,,,,,,,1.0,,,,computer,4
684,2012-05-03 12:32:30,2012-05-03 12:32:43.975000,13.975,5,NDW,,,,,,,,,,,,,1.0,,,,rest,-1
685,2012-05-03 12:32:37,2012-05-03 12:32:50.975000,13.975,5,NDW,,,,,,,,,,,,,1.0,,,,rest,-1
686,2012-05-03 12:32:44,2012-05-03 12:32:57.975000,13.975,5,NDW,,,,,,,,,,,,,1.0,,,,rest,-1
687,2012-05-03 12:32:51,2012-05-03 12:33:04.975000,13.975,5,NDW,,,,,,,,,,,,,1.0,,,,rest,-1
688,2012-05-03 12:32:58,2012-05-03 12:33:11.975000,13.975,5,NDW,,,,,,,,,,,,,1.0,,,,computer,4
689,2012-05-03 12:33:05,2012-05-03 12:33:18.975000,13.975,5,NDW,,,,,,,,,,,,,1.0,,,,computer,4
690,2012-05-03 12:33:12,2012-05-03 12:33:25.975000,13.975,5,NDW,,,,,,,,,,,,,1.0,,,,computer,4
691,2012-05-03 12:33:19,2012-05-03 12:33:32.975000,13.975,5,NDW,,,,,,,,,,,,,1.0,,,,rest,-1
692,2012-05-03 12:33:26,2012-05-03 12:33:39.975000,13.975,5,NDW,,,,,,,,,,,,,1.0,,,,rest,-1
693,2012-05-03 12:33:33,2012-05-03 12:33:46.975000,13.975,5,NDW,,,,,,,,,,,,,1.0,,,,computer,4
694,2012-05-03 12:33:40,2012-05-03 12:33:53.975000,13.975,5,NDW,,,,,,,,,,,,,1.0,,,,computer,4
695,2012-05-03 12:33:47,2012-05-03 12:34:00.975000,13.975,5,NDW,,,,,,,,,,,,,1.0,,,,computer,4
696,2012-05-03 12:33:54,2012-05-03 12:34:07.975000,13.975,5,NDW,,,,,,,,,,,,,1.0,,,,computer,4
697,2012-05-03 12:34:01,2012-05-03 12:34:14.975000,13.975,5,NDW,,,,,,,,,,,,,1.0,,,,rest,-1
698,2012-05-03 12:34:08,2012-05-03 12:34:21.975000,13.975,5,NDW,,,,,,,,,,,,,1.0,,,,rest,-1
699,2012-05-03 12:34:15,2012-05-03 12:34:28.975000,13.975,5,NDW,,,,,,,,,,,,,1.0,,,,computer,4
700,2012-05-03 12:34:22,2012-05-03 12:34:35.975000,13.975,5,NDW,,,,,,,,,,,,,1.0,,,,computer,4
701,2012-05-03 12:34:29,2012-05-03 12:34:42.975000,13.975,5,NDW,,,,,,,,,,,,,1.0,,,,rest,-1
702,2012-05-03 12:34:36,2012-05-03 12:34:49.975000,13.975,5,NDW,,,,,,,,,,,,,1.0,,,,computer,4
703,2012-05-03 12:34:43,2012-05-03 12:34:56.975000,13.975,5,NDW,,,,,,,,,,,,,1.0,,,,computer,4
704,2012-05-03 12:34:50,2012-05-03 12:35:03.975000,13.975,5,NDW,,,,,,,,,,,,,1.0,,,,computer,4
705,2012-05-03 12:34:57,2012-05-03 12:35:10.975000,13.975,5,NDW,,,,,,,,,,,,,1.0,,,,rest,-1
706,2012-05-03 12:35:04,2012-05-03 12:35:17.975000,13.975,5,NDW,,,,,,,,,,,,,1.0,,,,computer,4
707,2012-05-03 12:35:11,2012-05-03 12:35:24.975000,13.975,5,NDW,,,,,,,,,,,,,1.0,,,,computer,4
708,2012-05-03 12:35:18,2012-05-03 12:35:31.975000,13.975,5,NDW,,,,,,,,,,,,,1.0,,,,computer,4
709,2012-05-03 12:35:25,2012-05-03 12:35:38.975000,13.975,5,NDW,,,,,,,,,,,,,1.0,,,,rest,-1
710,2012-05-03 12:35:32,2012-05-03 12:35:45.975000,13.975,5,NDW,,,,,,,,,,,,,1.0,,,,computer,4
711,2012-05-03 12:35:39,2012-05-03 12:35:52.975000,13.975,5,NDW,,,,,,,,,,,,,1.0,,,,computer,4
712,2012-05-03 12:35:46,2012-05-03 12:35:59.975000,13.975,5,NDW,,,,,,,,,,,,,1.0,,,,rest,-1
713,2012-05-03 12:35:53,2012-05-03 12:36:06.975000,13.975,5,NDW,,,,,,,,,,,,,1.0,,,,computer,4
714,2012-05-03 12:36:00,2012-05-03 12:36:13.975000,13.975,5,NDW,,,,,,,,,,,,,1.0,,,,computer,4
715,2012-05-03 12:36:07,2012-05-03 12:36:20.975000,13.975,5,NDW,,,,,,,,,,,,,1.0,,,,computer,4
716,2012-05-03 12:36:14,2012-05-03 12:36:27.975000,13.975,5,NDW,,,,,,,,,,,,,1.0,,,,computer,4
717,2012-05-03 12:36:21,2012-05-03 12:36:34.975000,13.975,5,NDW,,,,,,,,,,,,,1.0,,,,rest,-1
718,2012-05-03 12:36:28,2012-05-03 12:36:41.975000,13.975,5,NDW,,,,,,,,,,,,,1.0,,,,rest,-1
719,2012-05-03 12:36:35,2012-05-03 12:36:48.975000,13.975,5,NDW,,,,,,,,,,,,,1.0,,,,rest,-1
720,2012-05-03 12:36:42,2012-05-03 12:36:55.975000,13.975,5,NDW,,,,,,,,,,,,,1.0,,,,rest,-1
721,2012-05-03 12:36:49,2012-05-03 12:37:02.975000,13.975,5,NDW,,,,,,,,,,,,,1.0,,,,rest,-1
722,2012-05-03 12:36:56,2012-05-03 12:37:09.975000,13.975,5,NDW,,,,,,,,,,,,,1.0,,,,rest,-1
723,2012-05-03 12:37:03,2012-05-03 12:37:16.975000,13.975,5,NDW,,,,,,,,,,,,,1.0,,,,computer,4
724,2012-05-03 12:37:10,2012-05-03 12:37:23.975000,13.975,5,NDW,,,,,,,,,,,,,1.0,,,,rest,-1
725,2012-05-03 12:37:17,2012-05-03 12:37:30.975000,13.975,5,NDW,,,,,,,,,,,,,1.0,,,,computer,4
726,2012-05-03 12:37:24,2012-05-03 12:37:37.975000,13.975,5,NDW,,,,,,,,,,,,,1.0,,,,rest,-1
727,2012-05-03 12:37:31,2012-05-03 12:37:44.975000,13.975,5,NDW,,,,,,,,,,,,,1.0,,,,rest,-1
728,2012-05-03 12:37:38,2012-05-03 12:37:51.975000,13.975,5,NDW,,,,,,,,,,,,,1.0,,,,rest,-1
729,2012-05-03 12:37:45,2012-05-03 12:37:58.975000,13.975,5,NDW,,,,,,,,,,,,,1.0,,,,rest,-1
730,2012-05-03 12:37:52,2012-05-03 12:38:05.975000,13.975,5,NDW,,,,,,,,,,,,,1.0,,,,rest,-1
731,2012-05-03 12:37:59,2012-05-03 12:38:12.975000,13.975,5,NDW,,,,,,,,,,,,,1.0,,,,computer,4
732,2012-05-03 12:38:06,2012-05-03 12:38:19.975000,13.975,5,NDW,,,,,,,,,,,,,1.0,,,,computer,4
733,2012-05-03 12:38:13,2012-05-03 12:38:26.975000,13.975,5,NDW,,,,,,,,,,,,,1.0,,,,computer,4
734,2012-05-03 12:38:20,2012-05-03 12:38:33.975000,13.975,5,NDW,,,,,,,,,,,,,1.0,,,,computer,4
735,2012-05-03 12:38:27,2012-05-03 12:38:40.975000,13.975,5,NDW,,,,,,,,,0.3559928443649374,,,,0.6440071556350626,,,,drinking,8
736,2012-05-03 12:38:34,2012-05-03 12:38:47.975000,13.975,5,NDW,,,,,,,0.1413237924865832,,0.42933810375670844,,,,0.14311270125223613,,,,drinking,8
737,2012-05-03 12:38:41,2012-05-03 12:38:54.975000,13.975,5,NDW,,,,,,,0.6422182468694096,,0.07155635062611806,,,0.4275491949910554,,,,0.4275491949910554,talking,5
738,2012-05-03 12:38:48,2012-05-03 12:39:01.975000,13.975,5,NDW,0.5900000000000001,0.10554561717352416,0.0,37.0,left-puff,,1.0,,,,,0.9284436493738819,,,,0.9284436493738819,puff,9
739,2012-05-03 12:38:55,2012-05-03 12:39:08.975000,13.975,5,NDW,1.0,0.17889087656529518,0.0,37.0,left-puff,,1.0,,,,,1.0,,,,1.0,puff,9
740,2012-05-03 12:39:02,2012-05-03 12:39:15.975000,13.975,5,NDW,0.4,0.07155635062611806,0.0,37.0,left-puff,,1.0,,,,,1.0,,,,1.0,puff,9
741,2012-05-03 12:39:09,2012-05-03 12:39:22.975000,13.975,5,NDW,0.996,0.44543828264758495,1.0,38.0,left-puff,,0.5724508050089445,,,,,1.0,,0.4275491949910554,,1.0,puff,9
742,2012-05-03 12:39:16,2012-05-03 12:39:29.975000,13.975,5,NDW,1.0,0.4472271914132379,1.0,38.0,left-puff,,0.07155635062611806,,,,,1.0,,0.9284436493738819,,1.0,puff,9
743,2012-05-03 12:39:23,2012-05-03 12:39:36.975000,13.975,5,NDW,,,,,,,,,,,,1.0,,1.0,,1.0,rest,-1
744,2012-05-03 12:39:30,2012-05-03 12:39:43.975000,13.975,5,NDW,,,,,,,,,,,,1.0,,1.0,,1.0,rest,-1
745,2012-05-03 12:39:37,2012-05-03 12:39:50.975000,13.975,5,NDW,0.7071428571428572,0.17710196779964224,1.0,39.0,left-puff,,,,,,,1.0,,1.0,,1.0,puff,9
746,2012-05-03 12:39:44,2012-05-03 12:39:57.975000,13.975,5,NDW,1.0,0.25044722719141327,1.0,39.0,left-puff,,,,,,,1.0,,1.0,,1.0,puff,9
747,2012-05-03 12:39:51,2012-05-03 12:40:04.975000,13.975,5,NDW,0.2857142857142857,0.07155635062611806,1.0,39.0,left-puff,,,,,,,1.0,,1.0,,1.0,phone,3
748,2012-05-03 12:39:58,2012-05-03 12:40:11.975000,13.975,5,NDW,,,,,,,,,,,,1.0,,1.0,,1.0,phone,3
749,2012-05-03 12:40:05,2012-05-03 12:40:18.975000,13.975,5,NDW,,,,,,,,,,,,1.0,,1.0,,1.0,rest,-1
750,2012-05-03 12:40:12,2012-05-03 12:40:25.975000,13.975,5,NDW,,,,,,,,,,,,1.0,,1.0,,1.0,rest,-1
751,2012-05-03 12:40:19,2012-05-03 12:40:32.975000,13.975,5,NDW,,,,,,,,,,,,1.0,,1.0,,1.0,phone,3
752,2012-05-03 12:40:26,2012-05-03 12:40:39.975000,13.975,5,NDW,,,,,,,,,,,,1.0,,1.0,,1.0,phone,3
753,2012-05-03 12:40:33,2012-05-03 12:40:46.975000,13.975,5,NDW,,,,,,,,,,,,1.0,,1.0,,1.0,rest,-1
754,2012-05-03 12:40:40,2012-05-03 12:40:53.975000,13.975,5,NDW,,,,,,,,,,,,1.0,,1.0,,1.0,rest,-1
755,2012-05-03 12:40:47,2012-05-03 12:41:00.975000,13.975,5,NDW,0.9928571428571429,0.2486583184257603,0.0,40.0,left-puff,,,,,,,1.0,,1.0,,1.0,puff,9
756,2012-05-03 12:40:54,2012-05-03 12:41:07.975000,13.975,5,NDW,1.0,0.25044722719141327,0.0,40.0,left-puff,,,,,,,1.0,,1.0,,1.0,puff,9
757,2012-05-03 12:41:01,2012-05-03 12:41:14.975000,13.975,5,NDW,,,,,,,,,,,,1.0,,1.0,,1.0,phone,3
758,2012-05-03 12:41:08,2012-05-03 12:41:21.975000,13.975,5,NDW,,,,,,,,,,,,1.0,,1.0,,1.0,phone,3
759,2012-05-03 12:41:15,2012-05-03 12:41:28.975000,13.975,5,NDW,,,,,,,,,,,,1.0,,0.6440071556350626,,0.6440071556350626,rest,-1
760,2012-05-03 12:41:22,2012-05-03 12:41:35.975000,13.975,5,NDW,,,,,,,,,,,,1.0,,0.14311270125223613,,0.14311270125223613,others,0
761,2012-05-03 12:41:29,2012-05-03 12:41:42.975000,13.975,5,NDW,,,,,,,,,,,,1.0,,0.3559928443649374,,0.3559928443649374,phone,3
762,2012-05-03 12:41:36,2012-05-03 12:41:49.975000,13.975,5,NDW,,,,,,,,,,,,1.0,,0.8568872987477638,,0.8568872987477638,rest,-1
763,2012-05-03 12:41:43,2012-05-03 12:41:56.975000,13.975,5,NDW,,,,,,,,,,,,1.0,,1.0,,1.0,rest,-1
764,2012-05-03 12:41:50,2012-05-03 12:42:03.975000,13.975,5,NDW,0.2712121212121212,0.32021466905187834,0.0,41.0,left-puff,,,,,,,1.0,,1.0,,1.0,puff,9
765,2012-05-03 12:41:57,2012-05-03 12:42:10.975000,13.975,5,NDW,0.6954545454545454,0.8211091234347049,0.0,41.0,left-puff,,,,,,,1.0,,1.0,,1.0,puff,9
766,2012-05-03 12:42:04,2012-05-03 12:42:17.975000,13.975,5,NDW,0.7272727272727273,0.8586762075134169,0.0,41.0,left-puff,,,,,,,1.0,,1.0,,1.0,puff,9
767,2012-05-03 12:42:11,2012-05-03 12:42:24.975000,13.975,5,NDW,0.30303030303030304,0.35778175313059035,0.0,41.0,left-puff,,,,,,,1.0,,1.0,,1.0,puff,9
768,2012-05-03 12:42:18,2012-05-03 12:42:31.975000,13.975,5,NDW,,,,,,,,,,,,1.0,,1.0,,1.0,rest,-1
769,2012-05-03 12:42:25,2012-05-03 12:42:38.975000,13.975,5,NDW,0.8535714285714285,0.4275491949910554,1.0,42.0,left-puff,,,,,,,1.0,,1.0,,1.0,puff,9
770,2012-05-03 12:42:32,2012-05-03 12:42:45.975000,13.975,5,NDW,1.0,0.5008944543828265,1.0,42.0,left-puff,,,,,,,1.0,,1.0,,1.0,puff,9
771,2012-05-03 12:42:39,2012-05-03 12:42:52.975000,13.975,5,NDW,0.14285714285714285,0.07155635062611806,1.0,42.0,left-puff,,,,,,,1.0,,1.0,,1.0,rest,-1
772,2012-05-03 12:42:46,2012-05-03 12:42:59.975000,13.975,5,NDW,,,,,,,,,,,,1.0,,1.0,,1.0,rest,-1
773,2012-05-03 12:42:53,2012-05-03 12:43:06.975000,13.975,5,NDW,,,,,,,,,,,,1.0,,1.0,,1.0,rest,-1
774,2012-05-03 12:43:00,2012-05-03 12:43:13.975000,13.975,5,NDW,,,,,,,,,,,,1.0,,1.0,,1.0,rest,-1
775,2012-05-03 12:43:07,2012-05-03 12:43:20.975000,13.975,5,NDW,,,,,,,,,,,,1.0,,1.0,,1.0,rest,-1
776,2012-05-03 12:43:14,2012-05-03 12:43:27.975000,13.975,5,NDW,,,,,,,,,,,,1.0,,1.0,,1.0,phone,3
777,2012-05-03 12:43:21,2012-05-03 12:43:34.975000,13.975,5,NDW,,,,,,,,,,,,1.0,,1.0,,1.0,phone,3
778,2012-05-03 12:43:28,2012-05-03 12:43:41.975000,13.975,5,NDW,0.5791666666666667,0.2486583184257603,1.0,43.0,left-puff,,,,,,,1.0,,1.0,,1.0,puff,9
779,2012-05-03 12:43:35,2012-05-03 12:43:48.975000,13.975,5,NDW,1.0,0.42933810375670844,1.0,43.0,left-puff,,,,,,,1.0,,1.0,,1.0,puff,9
780,2012-05-03 12:43:42,2012-05-03 12:43:55.975000,13.975,5,NDW,0.4166666666666667,0.17889087656529518,1.0,43.0,left-puff,,,,,,,1.0,,1.0,,1.0,puff,9
781,2012-05-03 12:43:49,2012-05-03 12:44:02.975000,13.975,5,NDW,,,,,,,,,,,,1.0,,0.7155635062611807,,0.7155635062611807,phone,3
782,2012-05-03 12:43:56,2012-05-03 12:44:09.975000,13.975,5,NDW,,,,,,,,,,,,1.0,,0.21466905187835422,,0.21466905187835422,others,0
783,2012-05-03 12:44:03,2012-05-03 12:44:16.975000,13.975,5,NDW,,,,,,,,,,,,1.0,,,,,others,0
784,2012-05-03 12:44:10,2012-05-03 12:44:23.975000,13.975,5,NDW,,,,,,,,,,,,1.0,,,,,others,0
785,2012-05-03 12:44:17,2012-05-03 12:44:30.975000,13.975,5,NDW,,,,,,,,,,,,1.0,,,0.4275491949910554,0.4275491949910554,walking,1
786,2012-05-03 12:44:24,2012-05-03 12:44:37.975000,13.975,5,NDW,,,,,,,,,,,,1.0,,,0.9284436493738819,0.9284436493738819,walking,1
787,2012-05-03 12:44:31,2012-05-03 12:44:44.975000,13.975,5,NDW,,,,,,,,,,,,1.0,,,1.0,1.0,walking,1
788,2012-05-03 12:44:38,2012-05-03 12:44:51.975000,13.975,5,NDW,,,,,,,,,,,,1.0,,,1.0,1.0,walking,1
789,2012-05-03 12:44:45,2012-05-03 12:44:58.975000,13.975,5,NDW,,,,,,,,,,,,1.0,,,1.0,1.0,walking,1
790,2012-05-03 12:44:52,2012-05-03 12:45:05.975000,13.975,5,NDW,,,,,,,,,,,,1.0,,,1.0,1.0,walking,1
791,2012-05-03 12:44:59,2012-05-03 12:45:12.975000,13.975,5,NDW,,,,,,,,,,,,1.0,,,1.0,1.0,walking,1
792,2012-05-03 12:45:06,2012-05-03 12:45:19.975000,13.975,5,NDW,,,,,,,,,,,,0.5724508050089445,,,1.0,0.5724508050089445,walking,1
793,2012-05-03 12:45:13,2012-05-03 12:45:26.975000,13.975,5,NDW,,,,,,,,,,,,0.07155635062611806,,,1.0,0.07155635062611806,walking,1
794,2012-05-03 12:45:20,2012-05-03 12:45:33.975000,13.975,5,NDW,,,,,,,,,,,,,,,1.0,,walking,1
795,2012-05-03 12:45:27,2012-05-03 12:45:40.975000,13.975,5,NDW,,,,,,,,0.28443649373881935,,,,,,,0.7871198568872988,,walking,1
796,2012-05-03 12:45:34,2012-05-03 12:45:47.975000,13.975,5,NDW,,,,,,,,0.7853309481216458,,,,,,,0.28622540250447226,,others,0
797,2012-05-03 12:45:41,2012-05-03 12:45:54.975000,13.975,5,NDW,,,,,,,,1.0,,,,,,,,,others,0
798,2012-05-03 12:45:48,2012-05-03 12:46:01.975000,13.975,5,NDW,,,,,,,,1.0,,,,,,,,,others,0
799,2012-05-03 12:45:55,2012-05-03 12:46:08.975000,13.975,5,NDW,,,,,,,,1.0,,,,,,,,,others,0
800,2012-05-03 12:46:02,2012-05-03 12:46:15.975000,13.975,5,NDW,,,,,,,,1.0,,,,,,,,,others,0
801,2012-05-03 12:46:09,2012-05-03 12:46:22.975000,13.975,5,NDW,,,,,,,,1.0,,,,,,,,,rest,-1
802,2012-05-03 12:46:16,2012-05-03 12:46:29.975000,13.975,5,NDW,,,,,,,,1.0,,,,,,,,,rest,-1
803,2012-05-03 12:46:23,2012-05-03 12:46:36.975000,13.975,5,NDW,,,,,,,,1.0,,,,,,,,,others,0
804,2012-05-03 12:46:30,2012-05-03 12:46:43.975000,13.975,5,NDW,,,,,,,,1.0,,,,,,,,,others,0
805,2012-05-03 12:46:37,2012-05-03 12:46:50.975000,13.975,5,NDW,,,,,,,,1.0,,,,,,,,,others,0
806,2012-05-03 12:46:44,2012-05-03 12:46:57.975000,13.975,5,NDW,,,,,,,,1.0,,,,,,,,,others,0
807,2012-05-03 12:46:51,2012-05-03 12:47:04.975000,13.975,5,NDW,,,,,,,,1.0,,,,,,,,,others,0
808,2012-05-03 12:46:58,2012-05-03 12:47:11.975000,13.975,5,NDW,,,,,,,,1.0,,,,,,,,,others,0
809,2012-05-03 12:47:05,2012-05-03 12:47:18.975000,13.975,5,NDW,,,,,,,,1.0,,,,,,,,,others,0
810,2012-05-03 12:47:12,2012-05-03 12:47:25.975000,13.975,5,NDW,,,,,,,,1.0,,,,,,,,,others,0
811,2012-05-03 12:47:19,2012-05-03 12:47:32.975000,13.975,5,NDW,,,,,,,,1.0,,,,,,,,,others,0
812,2012-05-03 12:47:26,2012-05-03 12:47:39.975000,13.975,5,NDW,,,,,,,,1.0,,,,,,,,,others,0
813,2012-05-03 12:47:33,2012-05-03 12:47:46.975000,13.975,5,NDW,,,,,,,,1.0,,,,,,,,,others,0
814,2012-05-03 12:47:40,2012-05-03 12:47:53.975000,13.975,5,NDW,,,,,,,,1.0,,,,,,,,,others,0
815,2012-05-03 12:47:47,2012-05-03 12:48:00.975000,13.975,5,NDW,,,,,,,,1.0,,,,,,,,,others,0
816,2012-05-03 12:47:54,2012-05-03 12:48:07.975000,13.975,5,NDW,,,,,,,,1.0,,,,,,,,,others,0
817,2012-05-03 12:48:01,2012-05-03 12:48:14.975000,13.975,5,NDW,,,,,,,,1.0,,,,,,,,,others,0
818,2012-05-03 12:48:08,2012-05-03 12:48:21.975000,13.975,5,NDW,,,,,,,,1.0,,,,,,,,,others,0
819,2012-05-03 12:48:15,2012-05-03 12:48:28.975000,13.975,5,NDW,,,,,,,,1.0,,,,,,,,,others,0
820,2012-05-03 12:48:22,2012-05-03 12:48:35.975000,13.975,5,NDW,,,,,,,,1.0,,,,,,,,,others,0
821,2012-05-03 12:48:29,2012-05-03 12:48:42.975000,13.975,5,NDW,,,,,,,,1.0,,,,,,,,,others,0
822,2012-05-03 12:48:36,2012-05-03 12:48:49.975000,13.975,5,NDW,,,,,,,,1.0,,,,,,,,,others,0
823,2012-05-03 12:48:43,2012-05-03 12:48:56.975000,13.975,5,NDW,,,,,,,,1.0,,,,,,,,,others,0
824,2012-05-03 12:48:50,2012-05-03 12:49:03.975000,13.975,5,NDW,,,,,,,,1.0,,,,,,,,,others,0
825,2012-05-03 12:48:57,2012-05-03 12:49:10.975000,13.975,5,NDW,,,,,,,,1.0,,,,,,,,,others,0
826,2012-05-03 12:49:04,2012-05-03 12:49:17.975000,13.975,5,NDW,,,,,,,,1.0,,,,,,,,,others,0
827,2012-05-03 12:49:11,2012-05-03 12:49:24.975000,13.975,5,NDW,,,,,,,,0.5008944543828265,,,,,,0.28443649373881935,,,others,0
828,2012-05-03 12:49:18,2012-05-03 12:49:31.975000,13.975,5,NDW,,,,,,,,,,,,,,0.7853309481216458,,,phone,3
829,2012-05-03 12:49:25,2012-05-03 12:49:38.975000,13.975,5,NDW,,,,,,,,,,,,,,1.0,,,phone,3
830,2012-05-03 12:49:32,2012-05-03 12:49:45.975000,13.975,5,NDW,,,,,,,,,,,,,,1.0,,,phone,3
831,2012-05-03 12:49:39,2012-05-03 12:49:52.975000,13.975,5,NDW,,,,,,,,,,,,,,1.0,,,phone,3
832,2012-05-03 12:49:46,2012-05-03 12:49:59.975000,13.975,5,NDW,,,,,,,,,,,,,,1.0,,,phone,3
833,2012-05-03 12:49:53,2012-05-03 12:50:06.975000,13.975,5,NDW,,,,,,,,,,,,,,1.0,,,phone,3
834,2012-05-03 12:50:00,2012-05-03 12:50:13.975000,13.975,5,NDW,,,,,,,,,,,,,,1.0,,,phone,3
835,2012-05-03 12:50:07,2012-05-03 12:50:20.975000,13.975,5,NDW,,,,,,,,,,,,,,1.0,,,phone,3
836,2012-05-03 12:50:14,2012-05-03 12:50:27.975000,13.975,5,NDW,,,,,,,,,,,,,,1.0,,,rest,-1
837,2012-05-03 12:50:21,2012-05-03 12:50:34.975000,13.975,5,NDW,,,,,,,,,,,,,,1.0,,,phone,3
838,2012-05-03 12:50:28,2012-05-03 12:50:41.975000,13.975,5,NDW,,,,,,,,,,,,,,0.6440071556350626,,,phone,3
839,2012-05-03 12:50:35,2012-05-03 12:50:48.975000,13.975,5,NDW,,,,,,,,,,,,,,0.14311270125223613,,,others,0
840,2012-05-03 12:50:42,2012-05-03 12:50:55.975000,13.975,5,NDW,,,,,,,,,,,,,,,,,others,0
841,2012-05-03 12:50:49,2012-05-03 12:51:02.975000,13.975,5,NDW,,,,,,,,,,,,,,,,,others,0
842,2012-05-03 12:50:56,2012-05-03 12:51:09.975000,13.975,5,NDW,,,,,,,,,,,,,,,,,others,0
843,2012-05-03 12:51:03,2012-05-03 12:51:16.975000,13.975,5,NDW,,,,,,,,,,,,,,,,,others,0
844,2012-05-03 12:51:10,2012-05-03 12:51:23.975000,13.975,5,NDW,,,,,,,,,,,,,,,,,others,0
845,2012-05-03 12:51:17,2012-05-03 12:51:30.975000,13.975,5,NDW,,,,,,,,,,,,,,,,,others,0
846,2012-05-03 12:51:24,2012-05-03 12:51:37.975000,13.975,5,NDW,,,,,,,,,0.14311270125223613,,,,,,,,rest,-1
847,2012-05-03 12:51:31,2012-05-03 12:51:44.975000,13.975,5,NDW,,,,,,,,,0.14311270125223613,,,,,,,,others,0
848,2012-05-03 12:51:38,2012-05-03 12:51:51.975000,13.975,5,NDW,,,,,,,,,,,,,,,,,others,0
849,2012-05-03 12:51:45,2012-05-03 12:51:58.975000,13.975,5,NDW,,,,,,,,,,,,,,,,,others,0
850,2012-05-03 12:51:52,2012-05-03 12:52:05.975000,13.975,5,NDW,,,,,,,,,,,,,,,,,others,0
851,2012-05-03 12:51:59,2012-05-03 12:52:12.975000,13.975,5,NDW,,,,,,,,,,,,,,,,,others,0
852,2012-05-03 12:52:06,2012-05-03 12:52:19.975000,13.975,5,NDW,,,,,,,,,,,,,,,,,others,0
853,2012-05-03 12:52:13,2012-05-03 12:52:26.975000,13.975,5,NDW,,,,,,,,,,,,,,,,,others,0
854,2012-05-03 12:52:20,2012-05-03 12:52:33.975000,13.975,5,NDW,,,,,,,,,,,,,,,,,others,0
855,2012-05-03 12:52:27,2012-05-03 12:52:40.975000,13.975,5,NDW,,,,,,,,,,,,,,,,,others,0
856,2012-05-03 12:52:34,2012-05-03 12:52:47.975000,13.975,5,NDW,,,,,,,,,,,,,,,,,others,0
857,2012-05-03 12:52:41,2012-05-03 12:52:54.975000,13.975,5,NDW,,,,,,,,,,,,,,,,,others,0
858,2012-05-03 12:52:48,2012-05-03 12:53:01.975000,13.975,5,NDW,,,,,,,,,,,,,,,,,others,0
859,2012-05-03 12:52:55,2012-05-03 12:53:08.975000,13.975,5,NDW,,,,,,,,,,,,,,,,,others,0
860,2012-05-03 12:53:02,2012-05-03 12:53:15.975000,13.975,5,NDW,,,,,,,,,,,,,,,,,others,0
861,2012-05-03 12:53:09,2012-05-03 12:53:22.975000,13.975,5,NDW,,,,,,,,,,,,,,,,,others,0
862,2012-05-03 12:53:16,2012-05-03 12:53:29.975000,13.975,5,NDW,,,,,,,,,,,,,,,,,others,0
863,2012-05-03 12:53:23,2012-05-03 12:53:36.975000,13.975,5,NDW,,,,,,,,,,,,,,,,,rest,-1
864,2012-05-03 12:53:30,2012-05-03 12:53:43.975000,13.975,5,NDW,,,,,,,,,,,,,,,,,others,0
865,2012-05-03 12:53:37,2012-05-03 12:53:50.975000,13.975,5,NDW,,,,,,,,,,,,,,,,,others,0
866,2012-05-03 12:53:44,2012-05-03 12:53:57.975000,13.975,5,NDW,,,,,,,,,,,,,,,,,others,0
867,2012-05-03 12:53:51,2012-05-03 12:54:04.975000,13.975,5,NDW,,,,,,,,,,,,,,,,,rest,-1
868,2012-05-03 12:53:58,2012-05-03 12:54:11.975000,13.975,5,NDW,,,,,,,,,,,,,,,,,rest,-1
869,2012-05-03 12:54:05,2012-05-03 12:54:18.975000,13.975,5,NDW,,,,,,,,,,,,,,,,,rest,-1
870,2012-05-03 12:54:12,2012-05-03 12:54:25.975000,13.975,5,NDW,,,,,,,,,,,,,,,,,rest,-1
871,2012-05-03 12:54:19,2012-05-03 12:54:32.975000,13.975,5,NDW,,,,,,,,,,,,,,,,,others,0
872,2012-05-03 12:54:26,2012-05-03 12:54:39.975000,13.975,5,NDW,,,,,,,,,,,,,,,,,others,0
873,2012-05-03 12:54:33,2012-05-03 12:54:46.975000,13.975,5,NDW,,,,,,,,,,,,,,,,,rest,-1
874,2012-05-03 12:54:40,2012-05-03 12:54:53.975000,13.975,5,NDW,,,,,,,,,,,,,,,,,rest,-1
875,2012-05-03 12:54:47,2012-05-03 12:55:00.975000,13.975,5,NDW,,,,,,,,,,,,,,,,,others,0
876,2012-05-03 12:54:54,2012-05-03 12:55:07.975000,13.975,5,NDW,,,,,,,,,,,,,,,,,rest,-1
877,2012-05-03 12:55:01,2012-05-03 12:55:14.975000,13.975,5,NDW,,,,,,,,,,,,,,0.1413237924865832,,,rest,-1
878,2012-05-03 12:55:08,2012-05-03 12:55:21.975000,13.975,5,NDW,,,,,,,,,,,,,,0.6422182468694096,,,phone,3
879,2012-05-03 12:55:15,2012-05-03 12:55:28.975000,13.975,5,NDW,,,,,,,,,,,,,,1.0,,,phone,3
880,2012-05-03 12:55:22,2012-05-03 12:55:35.975000,13.975,5,NDW,,,,,,,,,,,,0.1413237924865832,,1.0,,0.1413237924865832,phone,3
881,2012-05-03 12:55:29,2012-05-03 12:55:42.975000,13.975,5,NDW,,,,,,,,,,,,0.6422182468694096,,1.0,,0.6422182468694096,phone,3
882,2012-05-03 12:55:36,2012-05-03 12:55:49.975000,13.975,5,NDW,,,,,,,,,,,,1.0,,1.0,,1.0,phone,3
883,2012-05-03 12:55:43,2012-05-03 12:55:56.975000,13.975,5,NDW,0.6583333333333333,0.1413237924865832,1.0,49.0,left-puff,,,,,,,1.0,,1.0,,1.0,puff,9
884,2012-05-03 12:55:50,2012-05-03 12:56:03.975000,13.975,5,NDW,1.0,0.21466905187835422,1.0,49.0,left-puff,,,,,,,1.0,,1.0,,1.0,puff,9
885,2012-05-03 12:55:57,2012-05-03 12:56:10.975000,13.975,5,NDW,0.3333333333333333,0.07155635062611806,1.0,49.0,left-puff,,,,,,,1.0,,1.0,,1.0,puff,9
886,2012-05-03 12:56:04,2012-05-03 12:56:17.975000,13.975,5,NDW,,,,,,,,,,,,1.0,,1.0,,1.0,phone,3
887,2012-05-03 12:56:11,2012-05-03 12:56:24.975000,13.975,5,NDW,,,,,,,,,,,,1.0,,1.0,,1.0,phone,3
888,2012-05-03 12:56:18,2012-05-03 12:56:31.975000,13.975,5,NDW,,,,,,,,,,,,1.0,,1.0,,1.0,phone,3
889,2012-05-03 12:56:25,2012-05-03 12:56:38.975000,13.975,5,NDW,,,,,,,,,,,,1.0,,0.5008944543828265,,0.5008944543828265,phone,3
890,2012-05-03 12:56:32,2012-05-03 12:56:45.975000,13.975,5,NDW,,,,,,,,,,,,1.0,,,,,others,0
891,2012-05-03 12:56:39,2012-05-03 12:56:52.975000,13.975,5,NDW,,,,,,,,,,,,1.0,,,,,rest,-1
892,2012-05-03 12:56:46,2012-05-03 12:56:59.975000,13.975,5,NDW,,,,,,,,,,,,1.0,,,,,others,0
893,2012-05-03 12:56:53,2012-05-03 12:57:06.975000,13.975,5,NDW,,,,,,,,,,,,1.0,,,,,others,0
894,2012-05-03 12:57:00,2012-05-03 12:57:13.975000,13.975,5,NDW,,,,,,,,,,,,1.0,,,,,others,0
895,2012-05-03 12:57:07,2012-05-03 12:57:20.975000,13.975,5,NDW,,,,,,,,,,,,1.0,,,,,others,0
896,2012-05-03 12:57:14,2012-05-03 12:57:27.975000,13.975,5,NDW,,,,,,,,,,,,1.0,,,,,others,0
897,2012-05-03 12:57:21,2012-05-03 12:57:34.975000,13.975,5,NDW,,,,,,,,,,,,1.0,,,,,others,0
898,2012-05-03 12:57:28,2012-05-03 12:57:41.975000,13.975,5,NDW,,,,,,,,,,,,1.0,,,,,others,0
899,2012-05-03 12:57:35,2012-05-03 12:57:48.975000,13.975,5,NDW,,,,,,,,,,,,1.0,,,,,rest,-1
900,2012-05-03 12:57:42,2012-05-03 12:57:55.975000,13.975,5,NDW,,,,,,,,,,,,1.0,,,,,rest,-1
901,2012-05-03 12:57:49,2012-05-03 12:58:02.975000,13.975,5,NDW,,,,,,,,,,,,1.0,,,,,others,0
902,2012-05-03 12:57:56,2012-05-03 12:58:09.975000,13.975,5,NDW,,,,,,,,,,,,1.0,,,,,others,0
903,2012-05-03 12:58:03,2012-05-03 12:58:16.975000,13.975,5,NDW,,,,,,,,,,,,1.0,,,,,others,0
904,2012-05-03 12:58:10,2012-05-03 12:58:23.975000,13.975,5,NDW,,,,,,,,,,,,1.0,,,,,others,0
905,2012-05-03 12:58:17,2012-05-03 12:58:30.975000,13.975,5,NDW,,,,,,,,,,,,1.0,,,,,others,0
906,2012-05-03 12:58:24,2012-05-03 12:58:37.975000,13.975,5,NDW,,,,,,,,,,,,1.0,,,,,others,0
907,2012-05-03 12:58:31,2012-05-03 12:58:44.975000,13.975,5,NDW,,,,,,,,,,,,1.0,,,,,others,0
908,2012-05-03 12:58:38,2012-05-03 12:58:51.975000,13.975,5,NDW,,,,,,,,,,,,1.0,,,,,others,0
909,2012-05-03 12:58:45,2012-05-03 12:58:58.975000,13.975,5,NDW,,,,,,,,,,,,1.0,,,,,others,0
910,2012-05-03 12:58:52,2012-05-03 12:59:05.975000,13.975,5,NDW,,,,,,,,,,,,1.0,,0.3559928443649374,,0.3559928443649374,phone,3
911,2012-05-03 12:58:59,2012-05-03 12:59:12.975000,13.975,5,NDW,,,,,,,,,,,,1.0,,0.8568872987477638,,0.8568872987477638,phone,3
912,2012-05-03 12:59:06,2012-05-03 12:59:19.975000,13.975,5,NDW,1.0,0.3041144901610018,1.0,53.0,left-puff,,,,,,,1.0,,1.0,,1.0,puff,9
913,2012-05-03 12:59:13,2012-05-03 12:59:26.975000,13.975,5,NDW,1.0,0.3041144901610018,1.0,53.0,left-puff,,,,,,,1.0,,1.0,,1.0,puff,9
914,2012-05-03 12:59:20,2012-05-03 12:59:33.975000,13.975,5,NDW,,,,,,,,,,,,1.0,,1.0,,1.0,rest,-1
915,2012-05-03 12:59:27,2012-05-03 12:59:40.975000,13.975,5,NDW,,,,,,,,,,,,1.0,,1.0,,1.0,rest,-1
916,2012-05-03 12:59:34,2012-05-03 12:59:47.975000,13.975,5,NDW,,,,,,,,,,,,1.0,,1.0,,1.0,phone,3
917,2012-05-03 12:59:41,2012-05-03 12:59:54.975000,13.975,5,NDW,,,,,,,,,,,,1.0,,1.0,,1.0,phone,3
918,2012-05-03 12:59:48,2012-05-03 13:00:01.975000,13.975,5,NDW,,,,,,,,,,,,1.0,,1.0,,1.0,rest,-1
919,2012-05-03 12:59:55,2012-05-03 13:00:08.975000,13.975,5,NDW,,,,,,,,,,,,1.0,,1.0,,1.0,phone,3
920,2012-05-03 13:00:02,2012-05-03 13:00:15.975000,13.975,5,NDW,,,,,,,,,,,,1.0,,1.0,,1.0,phone,3
921,2012-05-03 13:00:09,2012-05-03 13:00:22.975000,13.975,5,NDW,1.0,0.3935599284436494,1.0,54.0,left-puff,,,,,,,1.0,,1.0,,1.0,puff,9
922,2012-05-03 13:00:16,2012-05-03 13:00:29.975000,13.975,5,NDW,1.0,0.3935599284436494,1.0,54.0,left-puff,,,,,,,1.0,,1.0,,1.0,puff,9
923,2012-05-03 13:00:23,2012-05-03 13:00:36.975000,13.975,5,NDW,,,,,,,,,,,,1.0,,1.0,,1.0,rest,-1
924,2012-05-03 13:00:30,2012-05-03 13:00:43.975000,13.975,5,NDW,,,,,,,,,,,,1.0,,1.0,,1.0,rest,-1
925,2012-05-03 13:00:37,2012-05-03 13:00:50.975000,13.975,5,NDW,,,,,,,,,,,,1.0,,1.0,,1.0,phone,3
926,2012-05-03 13:00:44,2012-05-03 13:00:57.975000,13.975,5,NDW,,,,,,,,,,,,1.0,,1.0,,1.0,rest,-1
927,2012-05-03 13:00:51,2012-05-03 13:01:04.975000,13.975,5,NDW,,,,,,,,,,,,1.0,,1.0,,1.0,phone,3
928,2012-05-03 13:00:58,2012-05-03 13:01:11.975000,13.975,5,NDW,,,,,,,,,,,,1.0,,1.0,,1.0,phone,3
929,2012-05-03 13:01:05,2012-05-03 13:01:18.975000,13.975,5,NDW,,,,,,,,,,,,1.0,,1.0,,1.0,phone,3
930,2012-05-03 13:01:12,2012-05-03 13:01:25.975000,13.975,5,NDW,,,,,,,,,,,,1.0,,1.0,,1.0,phone,3
931,2012-05-03 13:01:19,2012-05-03 13:01:32.975000,13.975,5,NDW,,,,,,,,,,,,1.0,,1.0,,1.0,rest,-1
932,2012-05-03 13:01:26,2012-05-03 13:01:39.975000,13.975,5,NDW,,,,,,,,,,,,1.0,,1.0,,1.0,phone,3
933,2012-05-03 13:01:33,2012-05-03 13:01:46.975000,13.975,5,NDW,,,,,,,,,,,,1.0,,1.0,,1.0,phone,3
934,2012-05-03 13:01:40,2012-05-03 13:01:53.975000,13.975,5,NDW,1.0,0.3220035778175313,1.0,55.0,left-puff,,,,,,,1.0,,1.0,,1.0,puff,9
935,2012-05-03 13:01:47,2012-05-03 13:02:00.975000,13.975,5,NDW,1.2166666666666666,0.3917710196779964,1.0,55.0,left-puff,,,,,,,1.0,,1.0,,1.0,puff,9
936,2012-05-03 13:01:54,2012-05-03 13:02:07.975000,13.975,5,NDW,1.0,0.25044722719141327,1.0,56.0,left-puff,,,,,,,0.7871198568872988,,1.0,,0.7871198568872988,puff,9
937,2012-05-03 13:02:01,2012-05-03 13:02:14.975000,13.975,5,NDW,0.7142857142857143,0.17889087656529518,1.0,56.0,left-puff,,,,,,,0.28622540250447226,,1.0,,0.28622540250447226,puff,9
938,2012-05-03 13:02:08,2012-05-03 13:02:21.975000,13.975,5,NDW,,,,,,,,,,,,,,1.0,,,phone,3
939,2012-05-03 13:02:15,2012-05-03 13:02:28.975000,13.975,5,NDW,,,,,,,,,,,,,,1.0,,,rest,-1
940,2012-05-03 13:02:22,2012-05-03 13:02:35.975000,13.975,5,NDW,,,,,,,,,,,,,,1.0,,,phone,3
941,2012-05-03 13:02:29,2012-05-03 13:02:42.975000,13.975,5,NDW,,,,,,,,,,,,,,1.0,,,phone,3
942,2012-05-03 13:02:36,2012-05-03 13:02:49.975000,13.975,5,NDW,,,,,,,,,,,,,,1.0,,,phone,3
943,2012-05-03 13:02:43,2012-05-03 13:02:56.975000,13.975,5,NDW,,,,,,,,,,,,,,1.0,,,phone,3
944,2012-05-03 13:02:50,2012-05-03 13:03:03.975000,13.975,5,NDW,,,,,,,,,,,,,,1.0,,,phone,3
945,2012-05-03 13:02:57,2012-05-03 13:03:10.975000,13.975,5,NDW,,,,,,,,,,,,,,1.0,,,phone,3
946,2012-05-03 13:03:04,2012-05-03 13:03:17.975000,13.975,5,NDW,,,,,,,,,,,,,,1.0,,,phone,3
947,2012-05-03 13:03:11,2012-05-03 13:03:24.975000,13.975,5,NDW,,,,,,,,,,,,,,1.0,,,rest,-1
948,2012-05-03 13:03:18,2012-05-03 13:03:31.975000,13.975,5,NDW,,,,,,,,,,,,,,1.0,,,rest,-1
949,2012-05-03 13:03:25,2012-05-03 13:03:38.975000,13.975,5,NDW,,,,,,,,,,,,,,1.0,,,rest,-1
950,2012-05-03 13:03:32,2012-05-03 13:03:45.975000,13.975,5,NDW,,,,,,,,,,,,,,1.0,,,phone,3
951,2012-05-03 13:03:39,2012-05-03 13:03:52.975000,13.975,5,NDW,,,,,,,,,,,,,,1.0,,,phone,3
952,2012-05-03 13:03:46,2012-05-03 13:03:59.975000,13.975,5,NDW,,,,,,,,,,,,,,1.0,,,rest,-1
953,2012-05-03 13:03:53,2012-05-03 13:04:06.975000,13.975,5,NDW,,,,,,,,,,,,,,1.0,,,phone,3
954,2012-05-03 13:04:00,2012-05-03 13:04:13.975000,13.975,5,NDW,,,,,,,,,,,,,,1.0,,,phone,3
955,2012-05-03 13:04:07,2012-05-03 13:04:20.975000,13.975,5,NDW,,,,,,,,,,,,,,1.0,,,phone,3
956,2012-05-03 13:04:14,2012-05-03 13:04:27.975000,13.975,5,NDW,,,,,,,,,,,,,,1.0,,,phone,3
957,2012-05-03 13:04:21,2012-05-03 13:04:34.975000,13.975,5,NDW,,,,,,,,,,,,,,1.0,,,phone,3
958,2012-05-03 13:04:28,2012-05-03 13:04:41.975000,13.975,5,NDW,,,,,,,,,,,,,,1.0,,,rest,-1
959,2012-05-03 13:04:35,2012-05-03 13:04:48.975000,13.975,5,NDW,,,,,,,,,,,,,,1.0,,,rest,-1
960,2012-05-03 13:04:42,2012-05-03 13:04:55.975000,13.975,5,NDW,,,,,,,,,,,,,,1.0,,,phone,3
961,2012-05-03 13:04:49,2012-05-03 13:05:02.975000,13.975,5,NDW,,,,,,,,,,,,,,1.0,,,phone,3
962,2012-05-03 13:04:56,2012-05-03 13:05:09.975000,13.975,5,NDW,,,,,,,,,,,,,,1.0,,,phone,3
963,2012-05-03 13:05:03,2012-05-03 13:05:16.975000,13.975,5,NDW,,,,,,,,,,,,,,1.0,,,phone,3
964,2012-05-03 13:05:10,2012-05-03 13:05:23.975000,13.975,5,NDW,,,,,,,,,,,,,,1.0,,,phone,3
965,2012-05-03 13:05:17,2012-05-03 13:05:30.975000,13.975,5,NDW,,,,,,,,,,,,,,1.0,,,rest,-1
966,2012-05-03 13:05:24,2012-05-03 13:05:37.975000,13.975,5,NDW,,,,,,,,,,,,,,1.0,,,phone,3
967,2012-05-03 13:05:31,2012-05-03 13:05:44.975000,13.975,5,NDW,,,,,,,,,,,,,,1.0,,,phone,3
968,2012-05-03 13:05:38,2012-05-03 13:05:51.975000,13.975,5,NDW,,,,,,,,,,,,,,1.0,,,phone,3
969,2012-05-03 13:05:45,2012-05-03 13:05:58.975000,13.975,5,NDW,,,,,,,,,,,,,,1.0,,,phone,3
970,2012-05-03 13:05:52,2012-05-03 13:06:05.975000,13.975,5,NDW,,,,,,,,,,,,,,1.0,,,phone,3
971,2012-05-03 13:05:59,2012-05-03 13:06:12.975000,13.975,5,NDW,,,,,,,,,,,,,,1.0,,,phone,3
972,2012-05-03 13:06:06,2012-05-03 13:06:19.975000,13.975,5,NDW,,,,,,,,,,,,,,1.0,,,rest,-1
973,2012-05-03 13:06:13,2012-05-03 13:06:26.975000,13.975,5,NDW,,,,,,,,,,,,,,1.0,,,phone,3
974,2012-05-03 13:06:20,2012-05-03 13:06:33.975000,13.975,5,NDW,,,,,,,,,,,,,,1.0,,,phone,3
975,2012-05-03 13:06:27,2012-05-03 13:06:40.975000,13.975,5,NDW,,,,,,,,,,,,,,1.0,,,phone,3
976,2012-05-03 13:06:34,2012-05-03 13:06:47.975000,13.975,5,NDW,,,,,,,,,,,,,,1.0,,,phone,3
977,2012-05-03 13:06:41,2012-05-03 13:06:54.975000,13.975,5,NDW,,,,,,,,,,,,,,1.0,,,phone,3
978,2012-05-03 13:06:48,2012-05-03 13:07:01.975000,13.975,5,NDW,,,,,,,,,,,,,,1.0,,,phone,3
979,2012-05-03 13:06:55,2012-05-03 13:07:08.975000,13.975,5,NDW,,,,,,,,,,,,,,1.0,,,phone,3
980,2012-05-03 13:07:02,2012-05-03 13:07:15.975000,13.975,5,NDW,,,,,,,,,,,,,,1.0,,,phone,3
981,2012-05-03 13:07:09,2012-05-03 13:07:22.975000,13.975,5,NDW,,,,,,,,,,,,,,1.0,,,phone,3
982,2012-05-03 13:07:16,2012-05-03 13:07:29.975000,13.975,5,NDW,,,,,,,,,,,,,,1.0,,,phone,3
983,2012-05-03 13:07:23,2012-05-03 13:07:36.975000,13.975,5,NDW,,,,,,,,,,,,,,1.0,,,phone,3
984,2012-05-03 13:07:30,2012-05-03 13:07:43.975000,13.975,5,NDW,,,,,,,,,,,,,,1.0,,,phone,3
985,2012-05-03 13:07:37,2012-05-03 13:07:50.975000,13.975,5,NDW,,,,,,,,,,,,,,1.0,,,phone,3
986,2012-05-03 13:07:44,2012-05-03 13:07:57.975000,13.975,5,NDW,,,,,,,,,,,,,,1.0,,,phone,3
987,2012-05-03 13:07:51,2012-05-03 13:08:04.975000,13.975,5,NDW,,,,,,,,,,,,,,1.0,,,phone,3
988,2012-05-03 13:07:58,2012-05-03 13:08:11.975000,13.975,5,NDW,,,,,,,,,,,,,,1.0,,,phone,3
989,2012-05-03 13:08:05,2012-05-03 13:08:18.975000,13.975,5,NDW,,,,,,,,,,,,,,1.0,,,phone,3
990,2012-05-03 13:08:12,2012-05-03 13:08:25.975000,13.975,5,NDW,,,,,,,,,,,,,,1.0,,,phone,3
991,2012-05-03 13:08:19,2012-05-03 13:08:32.975000,13.975,5,NDW,,,,,,,,,,,,,,1.0,,,phone,3
992,2012-05-03 13:08:26,2012-05-03 13:08:39.975000,13.975,5,NDW,,,,,,,,,,,,,,1.0,,,phone,3
993,2012-05-03 13:08:33,2012-05-03 13:08:46.975000,13.975,5,NDW,,,,,,,,,,,,,,1.0,,,phone,3
994,2012-05-03 13:08:40,2012-05-03 13:08:53.975000,13.975,5,NDW,,,,,,,,,,,,,,1.0,,,phone,3
995,2012-05-03 13:08:47,2012-05-03 13:09:00.975000,13.975,5,NDW,,,,,,,,,,,,,,1.0,,,phone,3
996,2012-05-03 13:08:54,2012-05-03 13:09:07.975000,13.975,5,NDW,,,,,,,,,,,,,,1.0,,,phone,3
997,2012-05-03 13:09:01,2012-05-03 13:09:14.975000,13.975,5,NDW,,,,,,,,,,,,,,1.0,,,rest,-1
998,2012-05-03 13:09:08,2012-05-03 13:09:21.975000,13.975,5,NDW,,,,,,,,,,,,,,1.0,,,rest,-1
999,2012-05-03 13:09:15,2012-05-03 13:09:28.975000,13.975,5,NDW,,,,,,,,,,,,,,1.0,,,rest,-1
1000,2012-05-03 13:09:22,2012-05-03 13:09:30,8.0,5,NDW,,,,,,,,,,,,,,1.0,,,rest,-1
1001,2012-05-03 13:09:29,2012-05-03 13:09:30,1.0,5,NDW,,,,,,,,,,,,,,1.0,,,phone,3
