segment,STARTTIME,ENDTIME,seg duration,session,sensor,inside puff/puff duration,inside puff/segment duration,prototypical?,puff index,puff side,car percentage,talk percentage,unknown percentage,drinking percentage,reading percentage,eating percentage,smoking percentage,computer percentage,phone percentage,walking percentage,superposition percentage,name,target
0,2012-05-03 11:12:42,2012-05-03 11:13:06.975000,24.975,5,DW,,,,,,,,,,,,0.4394394394394394,,,,,others,0
1,2012-05-03 11:12:54.500000,2012-05-03 11:13:19.475000,24.975,5,DW,0.7119047619047618,0.29929929929929927,0.0,1.0,right-puff,,,,,,,0.93993993993994,,,,,puff,9
2,2012-05-03 11:13:07,2012-05-03 11:13:31.975000,24.975,5,DW,1.0214285714285714,0.4294294294294294,0.0,1.0,right-puff,,,,,,,1.0,,,,,puff,9
3,2012-05-03 11:13:19.500000,2012-05-03 11:13:44.475000,24.975,5,DW,0.8333333333333334,0.35035035035035034,0.0,1.0,right-puff,,,,,,,1.0,,,,,puff,9
4,2012-05-03 11:13:32,2012-05-03 11:13:56.975000,24.975,5,DW,2.347826086956522,0.5405405405405405,1.0,2.0,right-puff,,,,,,,1.0,,,,,puff,9
5,2012-05-03 11:13:44.500000,2012-05-03 11:14:09.475000,24.975,5,DW,1.0,0.3203203203203203,1.0,3.0,right-puff,,,,,,,1.0,,,,,puff,9
6,2012-05-03 11:13:57,2012-05-03 11:14:21.975000,24.975,5,DW,,,,,,,0.11911911911911911,,,,,1.0,,,,0.11911911911911911,others,0
7,2012-05-03 11:14:09.500000,2012-05-03 11:14:34.475000,24.975,5,DW,0.17500000000000002,0.11911911911911911,0.0,4.0,right-puff,,0.6196196196196195,,,,,1.0,,,,0.6196196196196195,talking,5
8,2012-05-03 11:14:22,2012-05-03 11:14:46.975000,24.975,5,DW,0.9102941176470588,0.6196196196196195,0.0,4.0,right-puff,,1.0,,,,,1.0,,,,1.0,puff,9
9,2012-05-03 11:14:34.500000,2012-05-03 11:14:59.475000,24.975,5,DW,0.8235294117647058,0.5605605605605606,0.0,4.0,right-puff,,1.0,,,,,1.0,,,,1.0,puff,9
10,2012-05-03 11:14:47,2012-05-03 11:15:11.975000,24.975,5,DW,0.08823529411764706,0.06006006006006006,0.0,4.0,right-puff,,1.0,,,,,1.0,,,,1.0,talking,5
11,2012-05-03 11:14:59.500000,2012-05-03 11:15:24.475000,24.975,5,DW,1.0,0.2602602602602602,1.0,5.0,right-puff,,1.0,,,,,1.0,,,,1.0,puff,9
12,2012-05-03 11:15:12,2012-05-03 11:15:36.975000,24.975,5,DW,1.0,0.2602602602602602,1.0,5.0,right-puff,,1.0,,,,,1.0,,,,1.0,puff,9
13,2012-05-03 11:15:24.500000,2012-05-03 11:15:49.475000,24.975,5,DW,,,,,,,1.0,,,,,1.0,,,,1.0,talking,5
14,2012-05-03 11:15:37,2012-05-03 11:16:01.975000,24.975,5,DW,0.32857142857142857,0.06906906906906907,1.0,6.0,right-puff,,1.0,,,,,1.0,,,,1.0,puff,9
15,2012-05-03 11:15:49.500000,2012-05-03 11:16:14.475000,24.975,5,DW,1.0,0.2102102102102102,1.0,6.0,right-puff,,1.0,,,,,1.0,,,,1.0,puff,9
16,2012-05-03 11:16:02,2012-05-03 11:16:26.975000,24.975,5,DW,0.6666666666666666,0.14014014014014015,1.0,6.0,right-puff,,1.0,,,,,1.0,,,,1.0,puff,9
17,2012-05-03 11:16:14.500000,2012-05-03 11:16:39.475000,24.975,5,DW,,,,,,,1.0,,,,,1.0,,,,1.0,talking,5
18,2012-05-03 11:16:27,2012-05-03 11:16:51.975000,24.975,5,DW,1.0,0.24024024024024024,1.0,7.0,right-puff,,1.0,,,,,1.0,,,,1.0,puff,9
19,2012-05-03 11:16:39.500000,2012-05-03 11:17:04.475000,24.975,5,DW,1.0,0.24024024024024024,1.0,7.0,right-puff,,1.0,,,,,1.0,,,,1.0,puff,9
20,2012-05-03 11:16:52,2012-05-03 11:17:16.975000,24.975,5,DW,1.0,0.17017017017017017,0.0,8.0,right-puff,,1.0,,,,,1.0,,,,1.0,puff,9
21,2012-05-03 11:17:04.500000,2012-05-03 11:17:29.475000,24.975,5,DW,1.0,0.17017017017017017,0.0,8.0,right-puff,,1.0,,,,,1.0,,,,1.0,puff,9
22,2012-05-03 11:17:17,2012-05-03 11:17:41.975000,24.975,5,DW,,,,,,,1.0,,,,,1.0,,,,1.0,talking,5
23,2012-05-03 11:17:29.500000,2012-05-03 11:17:54.475000,24.975,5,DW,,,,,,,1.0,,,,,1.0,,,,1.0,talking,5
24,2012-05-03 11:17:42,2012-05-03 11:18:06.975000,24.975,5,DW,,,,,,,1.0,,,,,1.0,,,,1.0,talking,5
25,2012-05-03 11:17:54.500000,2012-05-03 11:18:19.475000,24.975,5,DW,,,,,,,1.0,,,,,1.0,,,,1.0,talking,5
26,2012-05-03 11:18:07,2012-05-03 11:18:31.975000,24.975,5,DW,0.6884615384615385,0.17917917917917917,1.0,9.0,right-puff,,1.0,,,,,1.0,,,,1.0,puff,9
27,2012-05-03 11:18:19.500000,2012-05-03 11:18:44.475000,24.975,5,DW,1.0,0.2602602602602602,1.0,9.0,right-puff,,1.0,,,,,1.0,,,,1.0,puff,9
28,2012-05-03 11:18:32,2012-05-03 11:18:56.975000,24.975,5,DW,0.3076923076923077,0.08008008008008008,1.0,9.0,right-puff,,1.0,,,,,1.0,,,,1.0,puff,9
29,2012-05-03 11:18:44.500000,2012-05-03 11:19:09.475000,24.975,5,DW,1.0,0.2602602602602602,1.0,10.0,right-puff,,1.0,,,,,1.0,,,,1.0,puff,9
30,2012-05-03 11:18:57,2012-05-03 11:19:21.975000,24.975,5,DW,1.0,0.2602602602602602,1.0,10.0,right-puff,,1.0,,,,,0.6406406406406406,,,,0.6406406406406406,puff,9
31,2012-05-03 11:19:09.500000,2012-05-03 11:19:34.475000,24.975,5,DW,,,,,,,1.0,,,,,0.14014014014014015,,,,0.14014014014014015,talking,5
32,2012-05-03 11:19:22,2012-05-03 11:19:46.975000,24.975,5,DW,,,,,,,1.0,,,,,,,,,,talking,5
33,2012-05-03 11:19:34.500000,2012-05-03 11:19:59.475000,24.975,5,DW,,,,,,,0.9009009009009008,,,,,,,0.0990990990990991,,,talking,5
34,2012-05-03 11:19:47,2012-05-03 11:20:11.975000,24.975,5,DW,,,,,,,0.40040040040040037,,,,,,,0.5995995995995995,,,talking,5
35,2012-05-03 11:19:59.500000,2012-05-03 11:20:24.475000,24.975,5,DW,,,,,,,,,,,,,,1.0,,,phone,3
36,2012-05-03 11:20:12,2012-05-03 11:20:36.975000,24.975,5,DW,,,,,,,,,,,,,,1.0,,,phone,3
37,2012-05-03 11:20:24.500000,2012-05-03 11:20:49.475000,24.975,5,DW,,,,,,,,,,,,,,1.0,,,phone,3
38,2012-05-03 11:20:37,2012-05-03 11:21:01.975000,24.975,5,DW,,,,,,,,,,,,,,1.0,,,phone,3
39,2012-05-03 11:20:49.500000,2012-05-03 11:21:14.475000,24.975,5,DW,,,,,,,,,,,,,,1.0,,,phone,3
40,2012-05-03 11:21:02,2012-05-03 11:21:26.975000,24.975,5,DW,,,,,,,,,,,,,,1.0,,,phone,3
41,2012-05-03 11:21:14.500000,2012-05-03 11:21:39.475000,24.975,5,DW,,,,,,,,,,,,,,0.9409409409409409,,,phone,3
42,2012-05-03 11:21:27,2012-05-03 11:21:51.975000,24.975,5,DW,,,,,,,0.11911911911911911,,,,,,,0.4404404404404404,,,phone,3
43,2012-05-03 11:21:39.500000,2012-05-03 11:22:04.475000,24.975,5,DW,,,,,,,0.6196196196196195,,,,,,,,,,talking,5
44,2012-05-03 11:21:52,2012-05-03 11:22:16.975000,24.975,5,DW,,,,,,,1.0,,,,,,,,,,talking,5
45,2012-05-03 11:22:04.500000,2012-05-03 11:22:29.475000,24.975,5,DW,,,,,,,1.0,,,,,,,,,,talking,5
46,2012-05-03 11:22:17,2012-05-03 11:22:41.975000,24.975,5,DW,,,,,,,1.0,,,,,,,,,,talking,5
47,2012-05-03 11:22:29.500000,2012-05-03 11:22:54.475000,24.975,5,DW,,,,,,,1.0,,,,,,,,,,talking,5
48,2012-05-03 11:22:42,2012-05-03 11:23:06.975000,24.975,5,DW,,,,,,,1.0,,,,,,,,,,talking,5
49,2012-05-03 11:22:54.500000,2012-05-03 11:23:19.475000,24.975,5,DW,,,,,,,1.0,,,,,,,,,,talking,5
50,2012-05-03 11:23:07,2012-05-03 11:23:31.975000,24.975,5,DW,,,,,,,1.0,,,,,,,,,,talking,5
51,2012-05-03 11:23:19.500000,2012-05-03 11:23:44.475000,24.975,5,DW,,,,,,,1.0,,,,,,,,,,talking,5
52,2012-05-03 11:23:32,2012-05-03 11:23:56.975000,24.975,5,DW,,,,,,,1.0,,,,,,,,,,talking,5
53,2012-05-03 11:23:44.500000,2012-05-03 11:24:09.475000,24.975,5,DW,,,,,,,1.0,,,,,,,,,,talking,5
54,2012-05-03 11:23:57,2012-05-03 11:24:21.975000,24.975,5,DW,,,,,,,1.0,,,,,,,,,,talking,5
55,2012-05-03 11:24:09.500000,2012-05-03 11:24:34.475000,24.975,5,DW,,,,,,,1.0,,,,,,,,,,talking,5
56,2012-05-03 11:24:22,2012-05-03 11:24:46.975000,24.975,5,DW,,,,,,,1.0,,,,,,,,,,talking,5
57,2012-05-03 11:24:34.500000,2012-05-03 11:24:59.475000,24.975,5,DW,,,,,,,1.0,,,,,,,,,,talking,5
58,2012-05-03 11:24:47,2012-05-03 11:25:11.975000,24.975,5,DW,,,,,,,1.0,,,,,,,,,,talking,5
59,2012-05-03 11:24:59.500000,2012-05-03 11:25:24.475000,24.975,5,DW,,,,,,,1.0,,,,,0.17917917917917917,,,,0.17917917917917917,talking,5
60,2012-05-03 11:25:12,2012-05-03 11:25:36.975000,24.975,5,DW,,,,,,,1.0,,,,,0.6796796796796797,,,,0.6796796796796797,talking,5
61,2012-05-03 11:25:24.500000,2012-05-03 11:25:49.475000,24.975,5,DW,,,,,,,1.0,,,,,1.0,,,,1.0,talking,5
62,2012-05-03 11:25:37,2012-05-03 11:26:01.975000,24.975,5,DW,,,,,,,1.0,,,,,1.0,,,,1.0,talking,5
63,2012-05-03 11:25:49.500000,2012-05-03 11:26:14.475000,24.975,5,DW,,,,,,,1.0,,,,,1.0,,,,1.0,talking,5
64,2012-05-03 11:26:02,2012-05-03 11:26:26.975000,24.975,5,DW,,,,,,,1.0,,,,,1.0,,,,1.0,talking,5
65,2012-05-03 11:26:14.500000,2012-05-03 11:26:39.475000,24.975,5,DW,,,,,,,1.0,,,,,1.0,,,,1.0,talking,5
66,2012-05-03 11:26:27,2012-05-03 11:26:51.975000,24.975,5,DW,,,,,,,1.0,,,,,1.0,,,,1.0,talking,5
67,2012-05-03 11:26:39.500000,2012-05-03 11:27:04.475000,24.975,5,DW,0.38269230769230766,0.19919919919919918,0.0,14.0,right-puff,,1.0,,,,,1.0,,,,1.0,puff,9
68,2012-05-03 11:26:52,2012-05-03 11:27:16.975000,24.975,5,DW,1.0,0.5205205205205204,0.0,14.0,right-puff,,1.0,,,,,1.0,,,,1.0,puff,9
69,2012-05-03 11:27:04.500000,2012-05-03 11:27:29.475000,24.975,5,DW,1.1903846153846154,0.6196196196196195,0.0,14.0,right-puff,,1.0,,,,,1.0,,,,1.0,puff,9
70,2012-05-03 11:27:17,2012-05-03 11:27:41.975000,24.975,5,DW,1.0,0.5505505505505505,0.0,15.0,right-puff,,1.0,,,,,1.0,,,,1.0,puff,9
71,2012-05-03 11:27:29.500000,2012-05-03 11:27:54.475000,24.975,5,DW,0.45454545454545453,0.2502502502502502,0.0,15.0,right-puff,,1.0,,,,,1.0,,,,1.0,puff,9
72,2012-05-03 11:27:42,2012-05-03 11:28:06.975000,24.975,5,DW,1.0,0.20020020020020018,1.0,16.0,right-puff,,1.0,,,,,1.0,,,,1.0,puff,9
73,2012-05-03 11:27:54.500000,2012-05-03 11:28:19.475000,24.975,5,DW,1.0,0.20020020020020018,1.0,16.0,right-puff,,1.0,,,,,1.0,,,,1.0,puff,9
74,2012-05-03 11:28:07,2012-05-03 11:28:31.975000,24.975,5,DW,,,,,,,1.0,,,,,1.0,,,,1.0,talking,5
75,2012-05-03 11:28:19.500000,2012-05-03 11:28:44.475000,24.975,5,DW,,,,,,,1.0,,,,,1.0,,,,1.0,talking,5
76,2012-05-03 11:28:32,2012-05-03 11:28:56.975000,24.975,5,DW,,,,,,,1.0,,,,,1.0,,,,1.0,talking,5
77,2012-05-03 11:28:44.500000,2012-05-03 11:29:09.475000,24.975,5,DW,,,,,,,1.0,,,,,1.0,,,,1.0,talking,5
78,2012-05-03 11:28:57,2012-05-03 11:29:21.975000,24.975,5,DW,0.25571428571428567,0.17917917917917917,0.0,17.0,right-puff,,1.0,,,,,1.0,,,,1.0,talking,5
79,2012-05-03 11:29:09.500000,2012-05-03 11:29:34.475000,24.975,5,DW,0.9700000000000001,0.6796796796796797,0.0,17.0,right-puff,,1.0,,,,,1.0,,,,1.0,puff,9
80,2012-05-03 11:29:22,2012-05-03 11:29:46.975000,24.975,5,DW,0.7428571428571429,0.5205205205205204,0.0,17.0,right-puff,,1.0,,,,,1.0,,,,1.0,puff,9
81,2012-05-03 11:29:34.500000,2012-05-03 11:29:59.475000,24.975,5,DW,0.02857142857142857,0.02002002002002002,0.0,17.0,right-puff,,1.0,,,,,1.0,,,,1.0,talking,5
82,2012-05-03 11:29:47,2012-05-03 11:30:11.975000,24.975,5,DW,,,,,,,0.8408408408408408,,0.15915915915915915,,,1.0,,,,1.0,talking,5
83,2012-05-03 11:29:59.500000,2012-05-03 11:30:24.475000,24.975,5,DW,1.0,0.2202202202202202,0.0,18.0,right-puff,,0.34034034034034033,,0.5205205205205204,,,1.0,,,,0.8608608608608608,puff,9
84,2012-05-03 11:30:12,2012-05-03 11:30:36.975000,24.975,5,DW,1.0,0.2202202202202202,0.0,18.0,right-puff,,,,0.36036036036036034,,,1.0,,,,0.36036036036036034,puff,9
85,2012-05-03 11:30:24.500000,2012-05-03 11:30:49.475000,24.975,5,DW,0.7227272727272728,0.15915915915915915,1.0,19.0,right-puff,,,,,,,1.0,,,,,puff,9
86,2012-05-03 11:30:37,2012-05-03 11:31:01.975000,24.975,5,DW,1.0,0.2202202202202202,1.0,19.0,right-puff,,,,,,,1.0,,,,,puff,9
87,2012-05-03 11:30:49.500000,2012-05-03 11:31:14.475000,24.975,5,DW,0.2727272727272727,0.06006006006006006,1.0,19.0,right-puff,,,,,,,1.0,,,,,others,0
88,2012-05-03 11:31:02,2012-05-03 11:31:26.975000,24.975,5,DW,,,,,,,,,,,,1.0,,,,,others,0
89,2012-05-03 11:31:14.500000,2012-05-03 11:31:39.475000,24.975,5,DW,1.0,0.3003003003003003,1.0,20.0,right-puff,,,,,,,1.0,,,,,puff,9
90,2012-05-03 11:31:27,2012-05-03 11:31:51.975000,24.975,5,DW,1.0,0.3003003003003003,1.0,20.0,right-puff,,,,,,,1.0,,,,,puff,9
91,2012-05-03 11:31:39.500000,2012-05-03 11:32:04.475000,24.975,5,DW,,,,,,,,,,,,1.0,,,,,others,0
92,2012-05-03 11:31:52,2012-05-03 11:32:16.975000,24.975,5,DW,,,,,,,0.3193193193193193,,,,,1.0,,,,0.3193193193193193,talking,5
93,2012-05-03 11:32:04.500000,2012-05-03 11:32:29.475000,24.975,5,DW,,,,,,,0.8198198198198199,,,,,1.0,,,,0.8198198198198199,talking,5
94,2012-05-03 11:32:17,2012-05-03 11:32:41.975000,24.975,5,DW,,,,,,,1.0,,,,,1.0,,,,1.0,talking,5
95,2012-05-03 11:32:29.500000,2012-05-03 11:32:54.475000,24.975,5,DW,,,,,,,1.0,,,,,1.0,,,,1.0,talking,5
96,2012-05-03 11:32:42,2012-05-03 11:33:06.975000,24.975,5,DW,,,,,,,1.0,,,,,1.0,,,,1.0,talking,5
97,2012-05-03 11:32:54.500000,2012-05-03 11:33:19.475000,24.975,5,DW,,,,,,,1.0,,,,,1.0,,,,1.0,talking,5
98,2012-05-03 11:33:07,2012-05-03 11:33:31.975000,24.975,5,DW,,,,,,,1.0,,,,,1.0,,,,1.0,talking,5
99,2012-05-03 11:33:19.500000,2012-05-03 11:33:44.475000,24.975,5,DW,,,,,,,1.0,,,,,1.0,,,,1.0,talking,5
100,2012-05-03 11:33:32,2012-05-03 11:33:56.975000,24.975,5,DW,1.0,0.14014014014014015,1.0,21.0,right-puff,,1.0,,,,,1.0,,,,1.0,puff,9
101,2012-05-03 11:33:44.500000,2012-05-03 11:34:09.475000,24.975,5,DW,1.0,0.14014014014014015,1.0,21.0,right-puff,,1.0,,,,,0.5005005005005004,,,,0.5005005005005004,puff,9
102,2012-05-03 11:33:57,2012-05-03 11:34:21.975000,24.975,5,DW,,,,,,,1.0,,,,,,,,,,talking,5
103,2012-05-03 11:34:09.500000,2012-05-03 11:34:34.475000,24.975,5,DW,,,,,,,1.0,,,,,,,,,,talking,5
104,2012-05-03 11:34:22,2012-05-03 11:34:46.975000,24.975,5,DW,,,,,,,1.0,,,,,,,,,,talking,5
105,2012-05-03 11:34:34.500000,2012-05-03 11:34:59.475000,24.975,5,DW,,,,,,,1.0,,,,,,,,,,talking,5
106,2012-05-03 11:34:47,2012-05-03 11:35:11.975000,24.975,5,DW,,,,,,,1.0,,,,,,,,,,talking,5
107,2012-05-03 11:34:59.500000,2012-05-03 11:35:24.475000,24.975,5,DW,,,,,,,1.0,,,,,,,,,,talking,5
108,2012-05-03 11:35:12,2012-05-03 11:35:36.975000,24.975,5,DW,,,,,,,1.0,,,,,,,,,,talking,5
109,2012-05-03 11:35:24.500000,2012-05-03 11:35:49.475000,24.975,5,DW,,,,,,,1.0,,,,,,,,,,talking,5
110,2012-05-03 11:35:37,2012-05-03 11:36:01.975000,24.975,5,DW,,,,,,,1.0,,,,,,,,,,talking,5
111,2012-05-03 11:35:49.500000,2012-05-03 11:36:14.475000,24.975,5,DW,,,,,,,1.0,,,,,,,,,,talking,5
112,2012-05-03 11:36:02,2012-05-03 11:36:26.975000,24.975,5,DW,,,,,,,1.0,,,,,,,,,,talking,5
113,2012-05-03 11:36:14.500000,2012-05-03 11:36:39.475000,24.975,5,DW,,,,,,,1.0,,,,,,,,,,talking,5
114,2012-05-03 11:36:27,2012-05-03 11:36:51.975000,24.975,5,DW,,,,,,,1.0,,,,,,,,,,talking,5
115,2012-05-03 11:36:39.500000,2012-05-03 11:37:04.475000,24.975,5,DW,,,,,,,1.0,,,,,,,,,,talking,5
116,2012-05-03 11:36:52,2012-05-03 11:37:16.975000,24.975,5,DW,,,,,,,1.0,,,,,,,,,,talking,5
117,2012-05-03 11:37:04.500000,2012-05-03 11:37:29.475000,24.975,5,DW,,,,,,,1.0,,,,,,,,,,talking,5
118,2012-05-03 11:37:17,2012-05-03 11:37:41.975000,24.975,5,DW,,,,,,,1.0,,,,,,,,,,talking,5
119,2012-05-03 11:37:29.500000,2012-05-03 11:37:54.475000,24.975,5,DW,,,,,,,1.0,,,,,,,,,,talking,5
120,2012-05-03 11:37:42,2012-05-03 11:38:06.975000,24.975,5,DW,,,,,,,1.0,,,,,,,,,,talking,5
121,2012-05-03 11:37:54.500000,2012-05-03 11:38:19.475000,24.975,5,DW,,,,,,,1.0,,,,,,,,,,talking,5
122,2012-05-03 11:38:07,2012-05-03 11:38:31.975000,24.975,5,DW,,,,,,,1.0,,,,,,,,,,talking,5
123,2012-05-03 11:38:19.500000,2012-05-03 11:38:44.475000,24.975,5,DW,,,,,,,1.0,,,,,,,,,,talking,5
124,2012-05-03 11:38:32,2012-05-03 11:38:56.975000,24.975,5,DW,,,,,,,1.0,,,,,,,,,,talking,5
125,2012-05-03 11:38:44.500000,2012-05-03 11:39:09.475000,24.975,5,DW,,,,,,,1.0,,,,,,,,,,talking,5
126,2012-05-03 11:38:57,2012-05-03 11:39:21.975000,24.975,5,DW,,,,,,,1.0,,,,,,,,,,talking,5
127,2012-05-03 11:39:09.500000,2012-05-03 11:39:34.475000,24.975,5,DW,,,,,,,1.0,,,,,,,,,,talking,5
128,2012-05-03 11:39:22,2012-05-03 11:39:46.975000,24.975,5,DW,,,,,,,1.0,,,,,,,,,,talking,5
129,2012-05-03 11:39:34.500000,2012-05-03 11:39:59.475000,24.975,5,DW,,,,,,,1.0,,,,,,,,,,talking,5
130,2012-05-03 11:39:47,2012-05-03 11:40:11.975000,24.975,5,DW,,,,,,,1.0,,,,,,,,,,talking,5
131,2012-05-03 11:39:59.500000,2012-05-03 11:40:24.475000,24.975,5,DW,,,,,,,1.0,,,,,,,,,,talking,5
132,2012-05-03 11:40:12,2012-05-03 11:40:36.975000,24.975,5,DW,,,,,,,1.0,,,,,,,,,,talking,5
133,2012-05-03 11:40:24.500000,2012-05-03 11:40:49.475000,24.975,5,DW,,,,,,,1.0,,,,,,,,,,talking,5
134,2012-05-03 11:40:37,2012-05-03 11:41:01.975000,24.975,5,DW,,,,,,,1.0,,,,,,,,,,talking,5
135,2012-05-03 11:40:49.500000,2012-05-03 11:41:14.475000,24.975,5,DW,,,,,,,1.0,,,,,,,,,,talking,5
136,2012-05-03 11:41:02,2012-05-03 11:41:26.975000,24.975,5,DW,,,,,,,1.0,,,,,,,,,,talking,5
137,2012-05-03 11:41:14.500000,2012-05-03 11:41:39.475000,24.975,5,DW,,,,,,,1.0,,,,,,,,,,talking,5
138,2012-05-03 11:41:27,2012-05-03 11:41:51.975000,24.975,5,DW,,,,,,,1.0,,,,,,,,,,talking,5
139,2012-05-03 11:41:39.500000,2012-05-03 11:42:04.475000,24.975,5,DW,,,,,,,1.0,,,,,,,,,,talking,5
140,2012-05-03 11:41:52,2012-05-03 11:42:16.975000,24.975,5,DW,,,,,,,1.0,,,,,,,,,,talking,5
141,2012-05-03 11:42:04.500000,2012-05-03 11:42:29.475000,24.975,5,DW,,,,,,,0.8608608608608608,,0.13913913913913914,,,,,,,,talking,5
142,2012-05-03 11:42:17,2012-05-03 11:42:41.975000,24.975,5,DW,,,,,,,0.36036036036036034,,0.6396396396396395,,,,,,,,drinking,8
143,2012-05-03 11:42:29.500000,2012-05-03 11:42:54.475000,24.975,5,DW,,,,,,,,,0.6606606606606606,,,,,,,,drinking,8
144,2012-05-03 11:42:42,2012-05-03 11:43:06.975000,24.975,5,DW,,,,,,,,,0.16016016016016016,,,,,,,,others,0
145,2012-05-03 11:42:54.500000,2012-05-03 11:43:19.475000,24.975,5,DW,,,,,,,0.019019019019019017,,,,,,,,,,others,0
146,2012-05-03 11:43:07,2012-05-03 11:43:31.975000,24.975,5,DW,,,,,,,0.5195195195195195,,,,,,,,,,talking,5
147,2012-05-03 11:43:19.500000,2012-05-03 11:43:44.475000,24.975,5,DW,,,,,,,1.0,,,,,,,,,,talking,5
148,2012-05-03 11:43:32,2012-05-03 11:43:56.975000,24.975,5,DW,,,,,,,1.0,,,,,,,,,,talking,5
149,2012-05-03 11:43:44.500000,2012-05-03 11:44:09.475000,24.975,5,DW,,,,,,,1.0,,,,,,,,,,talking,5
150,2012-05-03 11:43:57,2012-05-03 11:44:21.975000,24.975,5,DW,,,,,,,1.0,,,,,,,,,,talking,5
151,2012-05-03 11:44:09.500000,2012-05-03 11:44:34.475000,24.975,5,DW,,,,,,,1.0,,,,,,,,,,talking,5
152,2012-05-03 11:44:22,2012-05-03 11:44:46.975000,24.975,5,DW,,,,,,,1.0,,,,,,,,,,talking,5
153,2012-05-03 11:44:34.500000,2012-05-03 11:44:59.475000,24.975,5,DW,,,,,,,1.0,,,,,,,,,,talking,5
154,2012-05-03 11:44:47,2012-05-03 11:45:11.975000,24.975,5,DW,,,,,,,1.0,,,,,,,,,,talking,5
155,2012-05-03 11:44:59.500000,2012-05-03 11:45:24.475000,24.975,5,DW,,,,,,,1.0,,,,,,,,,,talking,5
156,2012-05-03 11:45:12,2012-05-03 11:45:36.975000,24.975,5,DW,,,,,,,1.0,,,,,,,,,,talking,5
157,2012-05-03 11:45:24.500000,2012-05-03 11:45:49.475000,24.975,5,DW,,,,,,,1.0,,,,,,,,,,talking,5
158,2012-05-03 11:45:37,2012-05-03 11:46:01.975000,24.975,5,DW,,,,,,,1.0,,,,,,,,,,talking,5
159,2012-05-03 11:45:49.500000,2012-05-03 11:46:14.475000,24.975,5,DW,,,,,,,1.0,,,,,,,,,,talking,5
160,2012-05-03 11:46:02,2012-05-03 11:46:26.975000,24.975,5,DW,,,,,,,1.0,,,,,,,,,,talking,5
161,2012-05-03 11:46:14.500000,2012-05-03 11:46:39.475000,24.975,5,DW,,,,,,,1.0,,,,,,,,,,talking,5
162,2012-05-03 11:46:27,2012-05-03 11:46:51.975000,24.975,5,DW,,,,,,,1.0,,,,,,,,,,talking,5
163,2012-05-03 11:46:39.500000,2012-05-03 11:47:04.475000,24.975,5,DW,,,,,,,1.0,,,,,,,,,,talking,5
164,2012-05-03 11:46:52,2012-05-03 11:47:16.975000,24.975,5,DW,,,,,,,1.0,,,,,,,,,,talking,5
165,2012-05-03 11:47:04.500000,2012-05-03 11:47:29.475000,24.975,5,DW,,,,,,,1.0,,,,,,,,,,talking,5
166,2012-05-03 11:47:17,2012-05-03 11:47:41.975000,24.975,5,DW,,,,,,,1.0,,,,,,,,,,talking,5
167,2012-05-03 11:47:29.500000,2012-05-03 11:47:54.475000,24.975,5,DW,,,,,,,1.0,,,,,,,,,,talking,5
168,2012-05-03 11:47:42,2012-05-03 11:48:06.975000,24.975,5,DW,,,,,,,1.0,,,,,,,,,,talking,5
169,2012-05-03 11:47:54.500000,2012-05-03 11:48:19.475000,24.975,5,DW,,,,,,,1.0,,,,,,,,,,rest,-1
170,2012-05-03 11:48:07,2012-05-03 11:48:31.975000,24.975,5,DW,,,,,,,1.0,,,,,,,,,,rest,-1
171,2012-05-03 11:48:19.500000,2012-05-03 11:48:44.475000,24.975,5,DW,,,,,,,1.0,,,,,,,,,,talking,5
172,2012-05-03 11:48:32,2012-05-03 11:48:56.975000,24.975,5,DW,,,,,,,0.8408408408408408,,,,,,,,,,talking,5
173,2012-05-03 11:48:44.500000,2012-05-03 11:49:09.475000,24.975,5,DW,,,,,,,0.34034034034034033,,,,,,,,0.019019019019019017,,talking,5
174,2012-05-03 11:48:57,2012-05-03 11:49:21.975000,24.975,5,DW,,,,,,,,,,,,,,,0.5195195195195195,,walking,1
175,2012-05-03 11:49:09.500000,2012-05-03 11:49:34.475000,24.975,5,DW,,,,,,,,,,,,,,,1.0,,walking,1
176,2012-05-03 11:49:22,2012-05-03 11:49:46.975000,24.975,5,DW,,,,,,,,,,,,,,,0.8798798798798799,,walking,1
177,2012-05-03 11:49:34.500000,2012-05-03 11:49:59.475000,24.975,5,DW,,,,,,,,,,,,,,,0.4604604604604604,,walking,1
178,2012-05-03 11:49:47,2012-05-03 11:50:11.975000,24.975,5,DW,,,,,,,,,,,,,,,0.08008008008008008,,rest,-1
179,2012-05-03 11:49:59.500000,2012-05-03 11:50:24.475000,24.975,5,DW,,,,,,,,,,,,,,,,,rest,-1
180,2012-05-03 11:50:12,2012-05-03 11:50:36.975000,24.975,5,DW,,,,,,,,,,,,,,,,,rest,-1
181,2012-05-03 11:50:24.500000,2012-05-03 11:50:49.475000,24.975,5,DW,,,,,,,,,,,,,,,,,rest,-1
182,2012-05-03 11:50:37,2012-05-03 11:51:01.975000,24.975,5,DW,,,,,,,,,,,,,,,,,rest,-1
183,2012-05-03 11:50:49.500000,2012-05-03 11:51:14.475000,24.975,5,DW,,,,,,,,,,,,,,,,,rest,-1
184,2012-05-03 11:51:02,2012-05-03 11:51:26.975000,24.975,5,DW,,,,,,,,,,,,,,,,,others,0
185,2012-05-03 11:51:14.500000,2012-05-03 11:51:39.475000,24.975,5,DW,,,,,,,,,,,,,,,,,others,0
186,2012-05-03 11:51:27,2012-05-03 11:51:51.975000,24.975,5,DW,,,,,,,,,,,,,,,,,rest,-1
187,2012-05-03 11:51:39.500000,2012-05-03 11:52:04.475000,24.975,5,DW,,,,,,,,,,,,,,,,,rest,-1
188,2012-05-03 11:51:52,2012-05-03 11:52:16.975000,24.975,5,DW,,,,,,,,,,,,,,,,,rest,-1
189,2012-05-03 11:52:04.500000,2012-05-03 11:52:29.475000,24.975,5,DW,,,,,,,,,,,,,,,,,rest,-1
190,2012-05-03 11:52:17,2012-05-03 11:52:41.975000,24.975,5,DW,,,,,,,,,,,,,,,,,rest,-1
191,2012-05-03 11:52:29.500000,2012-05-03 11:52:54.475000,24.975,5,DW,,,,,,,,,,,,,,,,,others,0
192,2012-05-03 11:52:42,2012-05-03 11:53:06.975000,24.975,5,DW,,,,,,,,,,,,,,,,,others,0
193,2012-05-03 11:52:54.500000,2012-05-03 11:53:19.475000,24.975,5,DW,,,,,,,,,,,,,,,,,others,0
194,2012-05-03 11:53:07,2012-05-03 11:53:31.975000,24.975,5,DW,,,,,,,,,,,,,,,,,others,0
195,2012-05-03 11:53:19.500000,2012-05-03 11:53:44.475000,24.975,5,DW,,,,,,,,,,,,,,,0.25925925925925924,,others,0
196,2012-05-03 11:53:32,2012-05-03 11:53:56.975000,24.975,5,DW,,,,,,,,0.4394394394394394,,,,,,,0.40040040040040037,,walking,1
197,2012-05-03 11:53:44.500000,2012-05-03 11:54:09.475000,24.975,5,DW,,,,,,,,0.93993993993994,,,,,,,0.14014014014014015,,others,0
198,2012-05-03 11:53:57,2012-05-03 11:54:21.975000,24.975,5,DW,,,,,,,,1.0,,,,,,,,,others,0
199,2012-05-03 11:54:09.500000,2012-05-03 11:54:34.475000,24.975,5,DW,,,,,,,,1.0,,,,,,,0.019019019019019017,,others,0
200,2012-05-03 11:54:22,2012-05-03 11:54:46.975000,24.975,5,DW,,,,,,,,0.5605605605605606,,,,,,,0.5195195195195195,,walking,1
201,2012-05-03 11:54:34.500000,2012-05-03 11:54:59.475000,24.975,5,DW,,,,,,,,0.06006006006006006,,,,,,,1.0,,walking,1
202,2012-05-03 11:54:47,2012-05-03 11:55:11.975000,24.975,5,DW,,,,,,,,,,,,,,,0.8008008008008007,,walking,1
203,2012-05-03 11:54:59.500000,2012-05-03 11:55:24.475000,24.975,5,DW,,,,,,,,,,,,,,,0.3003003003003003,,walking,1
204,2012-05-03 11:55:12,2012-05-03 11:55:36.975000,24.975,5,DW,,,,,,,,,,,,,,,,,others,0
205,2012-05-03 11:55:24.500000,2012-05-03 11:55:49.475000,24.975,5,DW,,,,,,,,,,,,,,,,,others,0
206,2012-05-03 11:55:37,2012-05-03 11:56:01.975000,24.975,5,DW,,,,,,,,,,,,,,,,,others,0
207,2012-05-03 11:55:49.500000,2012-05-03 11:56:14.475000,24.975,5,DW,,,,,,,,,,,,,,,,,others,0
208,2012-05-03 11:56:02,2012-05-03 11:56:26.975000,24.975,5,DW,,,,,,,0.15915915915915915,,,,,,,,,,others,0
209,2012-05-03 11:56:14.500000,2012-05-03 11:56:39.475000,24.975,5,DW,,,,,,,0.6596596596596597,,,,,,,,,,talking,5
210,2012-05-03 11:56:27,2012-05-03 11:56:51.975000,24.975,5,DW,,,,,,,0.6806806806806807,,,,,,,,,,talking,5
211,2012-05-03 11:56:39.500000,2012-05-03 11:57:04.475000,24.975,5,DW,,,,,,,0.18018018018018017,,,,,,,,,,others,0
212,2012-05-03 11:56:52,2012-05-03 11:57:16.975000,24.975,5,DW,,,,,,,,,,,,,,,,,others,0
213,2012-05-03 11:57:04.500000,2012-05-03 11:57:29.475000,24.975,5,DW,,,,,,,,,0.05905905905905906,,,,,,,,others,0
214,2012-05-03 11:57:17,2012-05-03 11:57:41.975000,24.975,5,DW,,,,,,,,,0.24024024024024024,,,,,,,,others,0
215,2012-05-03 11:57:29.500000,2012-05-03 11:57:54.475000,24.975,5,DW,,,,,,,,0.16016016016016016,0.18018018018018017,,,,,,,,others,0
216,2012-05-03 11:57:42,2012-05-03 11:58:06.975000,24.975,5,DW,,,,,,,,0.16016016016016016,,,,,,,,,others,0
217,2012-05-03 11:57:54.500000,2012-05-03 11:58:19.475000,24.975,5,DW,,,,,,,,,,,,,,,,,others,0
218,2012-05-03 11:58:07,2012-05-03 11:58:31.975000,24.975,5,DW,,,,,,,,,,,,,,,,,others,0
219,2012-05-03 11:58:19.500000,2012-05-03 11:58:44.475000,24.975,5,DW,,,,,,,,,,,,,,,,,others,0
220,2012-05-03 11:58:32,2012-05-03 11:58:56.975000,24.975,5,DW,,,,,,,,,,,,,,,,,others,0
221,2012-05-03 11:58:44.500000,2012-05-03 11:59:09.475000,24.975,5,DW,,,,,,,0.25925925925925924,,,,,,,,,,others,0
222,2012-05-03 11:58:57,2012-05-03 11:59:21.975000,24.975,5,DW,,,,,,,0.7597597597597597,,,,,,,,,,talking,5
223,2012-05-03 11:59:09.500000,2012-05-03 11:59:34.475000,24.975,5,DW,,,,,,,1.0,,,,,,,,,,talking,5
224,2012-05-03 11:59:22,2012-05-03 11:59:46.975000,24.975,5,DW,,,,,,,1.0,,,,,,,,,,talking,5
225,2012-05-03 11:59:34.500000,2012-05-03 11:59:59.475000,24.975,5,DW,,,,,,,1.0,,,,,,,,,,talking,5
226,2012-05-03 11:59:47,2012-05-03 12:00:11.975000,24.975,5,DW,,,,,,,1.0,,,,,,,,,,talking,5
227,2012-05-03 11:59:59.500000,2012-05-03 12:00:24.475000,24.975,5,DW,,,,,,,1.0,,,,,,,,,,talking,5
228,2012-05-03 12:00:12,2012-05-03 12:00:36.975000,24.975,5,DW,,,,,,,0.8408408408408408,,0.12012012012012012,,,,,,,,talking,5
229,2012-05-03 12:00:24.500000,2012-05-03 12:00:49.475000,24.975,5,DW,,,,,,,0.34034034034034033,,0.12012012012012012,,,,,,,,talking,5
230,2012-05-03 12:00:37,2012-05-03 12:01:01.975000,24.975,5,DW,,,,,,,0.47947947947947944,,,,,,,,,,talking,5
231,2012-05-03 12:00:49.500000,2012-05-03 12:01:14.475000,24.975,5,DW,,,,,,,0.97997997997998,,,,,,,,,,talking,5
232,2012-05-03 12:01:02,2012-05-03 12:01:26.975000,24.975,5,DW,,,,,,,1.0,,,,,,,,,,talking,5
233,2012-05-03 12:01:14.500000,2012-05-03 12:01:39.475000,24.975,5,DW,,,,,,,1.0,,,,,,,,,,talking,5
234,2012-05-03 12:01:27,2012-05-03 12:01:51.975000,24.975,5,DW,,,,,,,1.0,,,,,,,,,,talking,5
235,2012-05-03 12:01:39.500000,2012-05-03 12:02:04.475000,24.975,5,DW,,,,,,,1.0,,,,,,,,,,talking,5
236,2012-05-03 12:01:52,2012-05-03 12:02:16.975000,24.975,5,DW,,,,,,,1.0,,,,,,,,,,talking,5
237,2012-05-03 12:02:04.500000,2012-05-03 12:02:29.475000,24.975,5,DW,,,,,,,1.0,,,,,,,,,,talking,5
238,2012-05-03 12:02:17,2012-05-03 12:02:41.975000,24.975,5,DW,,,,,,,1.0,,,,,,,,,,talking,5
239,2012-05-03 12:02:29.500000,2012-05-03 12:02:54.475000,24.975,5,DW,,,,,,,1.0,,,,,,,,,,rest,-1
240,2012-05-03 12:02:42,2012-05-03 12:03:06.975000,24.975,5,DW,,,,,,,1.0,,,,,,,,,,rest,-1
241,2012-05-03 12:02:54.500000,2012-05-03 12:03:19.475000,24.975,5,DW,,,,,,,1.0,,,,,,,,,,rest,-1
242,2012-05-03 12:03:07,2012-05-03 12:03:31.975000,24.975,5,DW,,,,,,,1.0,,,,,,,,,,rest,-1
243,2012-05-03 12:03:19.500000,2012-05-03 12:03:44.475000,24.975,5,DW,,,,,,,1.0,,,,,,,,,,rest,-1
244,2012-05-03 12:03:32,2012-05-03 12:03:56.975000,24.975,5,DW,,,,,,,1.0,,,,,,,,,,rest,-1
245,2012-05-03 12:03:44.500000,2012-05-03 12:04:09.475000,24.975,5,DW,,,,,,,1.0,,,,,,,,,,talking,5
246,2012-05-03 12:03:57,2012-05-03 12:04:21.975000,24.975,5,DW,,,,,,,1.0,,,,,,,,,,talking,5
247,2012-05-03 12:04:09.500000,2012-05-03 12:04:34.475000,24.975,5,DW,,,,,,,1.0,,,,,,,,,,talking,5
248,2012-05-03 12:04:22,2012-05-03 12:04:46.975000,24.975,5,DW,,,,,,,1.0,,,,,,,,,,rest,-1
249,2012-05-03 12:04:34.500000,2012-05-03 12:04:59.475000,24.975,5,DW,,,,,,,1.0,,,,,,,,,,talking,5
250,2012-05-03 12:04:47,2012-05-03 12:05:11.975000,24.975,5,DW,,,,,,,1.0,,,,,,,,,,talking,5
251,2012-05-03 12:04:59.500000,2012-05-03 12:05:24.475000,24.975,5,DW,,,,,,,1.0,,,,,,,,,,talking,5
252,2012-05-03 12:05:12,2012-05-03 12:05:36.975000,24.975,5,DW,,,,,,,1.0,,,,,0.07907907907907907,,,,0.07907907907907907,talking,5
253,2012-05-03 12:05:24.500000,2012-05-03 12:05:49.475000,24.975,5,DW,,,,,,,0.5005005005005004,,,,,0.5795795795795795,,,,0.08008008008008008,talking,5
254,2012-05-03 12:05:37,2012-05-03 12:06:01.975000,24.975,5,DW,,,,,,,,,,,,1.0,,,,,others,0
255,2012-05-03 12:05:49.500000,2012-05-03 12:06:14.475000,24.975,5,DW,1.0,0.16016016016016016,1.0,23.0,right-puff,,,,,,,1.0,,,,,puff,9
256,2012-05-03 12:06:02,2012-05-03 12:06:26.975000,24.975,5,DW,1.0,0.16016016016016016,1.0,23.0,right-puff,,,,,,,1.0,,,,,puff,9
257,2012-05-03 12:06:14.500000,2012-05-03 12:06:39.475000,24.975,5,DW,1.0,0.24024024024024024,1.0,24.0,right-puff,,,,,,,1.0,,,,,puff,9
258,2012-05-03 12:06:27,2012-05-03 12:06:51.975000,24.975,5,DW,1.0,0.24024024024024024,1.0,24.0,right-puff,,,,,,,1.0,,,,,puff,9
259,2012-05-03 12:06:39.500000,2012-05-03 12:07:04.475000,24.975,5,DW,,,,,,,,,,,,1.0,,,,,rest,-1
260,2012-05-03 12:06:52,2012-05-03 12:07:16.975000,24.975,5,DW,1.0,0.19019019019019018,1.0,25.0,right-puff,,,,,,,1.0,,,,,puff,9
261,2012-05-03 12:07:04.500000,2012-05-03 12:07:29.475000,24.975,5,DW,1.0,0.19019019019019018,1.0,25.0,right-puff,,,,,,,1.0,,,,,puff,9
262,2012-05-03 12:07:17,2012-05-03 12:07:41.975000,24.975,5,DW,,,,,,,,,,,,1.0,,,,,rest,-1
263,2012-05-03 12:07:29.500000,2012-05-03 12:07:54.475000,24.975,5,DW,,,,,,,,,,,,1.0,,,,,rest,-1
264,2012-05-03 12:07:42,2012-05-03 12:08:06.975000,24.975,5,DW,,,,,,,,,,,,1.0,,,,,others,0
265,2012-05-03 12:07:54.500000,2012-05-03 12:08:19.475000,24.975,5,DW,,,,,,,,,,,,1.0,,,,,others,0
266,2012-05-03 12:08:07,2012-05-03 12:08:31.975000,24.975,5,DW,,,,,,,,,0.3593593593593593,,,1.0,,,,0.3593593593593593,drinking,8
267,2012-05-03 12:08:19.500000,2012-05-03 12:08:44.475000,24.975,5,DW,,,,,,,,,0.8598598598598599,,,1.0,,,,0.8598598598598599,drinking,8
268,2012-05-03 12:08:32,2012-05-03 12:08:56.975000,24.975,5,DW,,,,,,,,,1.0,,,1.0,,,,1.0,drinking,8
269,2012-05-03 12:08:44.500000,2012-05-03 12:09:09.475000,24.975,5,DW,1.0,0.18018018018018017,1.0,26.0,right-puff,,,,1.0,,,1.0,,,,1.0,puff,9
270,2012-05-03 12:08:57,2012-05-03 12:09:21.975000,24.975,5,DW,1.0,0.18018018018018017,1.0,26.0,right-puff,,,,1.0,,,1.0,,,,1.0,puff,9
271,2012-05-03 12:09:09.500000,2012-05-03 12:09:34.475000,24.975,5,DW,,,,,,,,,0.8608608608608608,,,1.0,,,,0.8608608608608608,drinking,8
272,2012-05-03 12:09:22,2012-05-03 12:09:46.975000,24.975,5,DW,,,,,,,,,0.36036036036036034,,,1.0,,,,0.36036036036036034,drinking,8
273,2012-05-03 12:09:34.500000,2012-05-03 12:09:59.475000,24.975,5,DW,,,,,,,,,,,,1.0,,,,,others,0
274,2012-05-03 12:09:47,2012-05-03 12:10:11.975000,24.975,5,DW,,,,,,,,,,,,1.0,,,,,others,0
275,2012-05-03 12:09:59.500000,2012-05-03 12:10:24.475000,24.975,5,DW,,,,,,,,,,,,1.0,,,,,others,0
276,2012-05-03 12:10:12,2012-05-03 12:10:36.975000,24.975,5,DW,,,,,,,,,,,,1.0,,,,,others,0
277,2012-05-03 12:10:24.500000,2012-05-03 12:10:49.475000,24.975,5,DW,,,,,,,,,,,,1.0,,,,,others,0
278,2012-05-03 12:10:37,2012-05-03 12:11:01.975000,24.975,5,DW,,,,,,,,,,,,1.0,,,,,others,0
279,2012-05-03 12:10:49.500000,2012-05-03 12:11:14.475000,24.975,5,DW,,,,,,,,,,,,1.0,,,,,others,0
280,2012-05-03 12:11:02,2012-05-03 12:11:26.975000,24.975,5,DW,,,,,,,,,,,0.47947947947947944,0.7607607607607607,,,,0.24024024024024024,eating,2
281,2012-05-03 12:11:14.500000,2012-05-03 12:11:39.475000,24.975,5,DW,,,,,,,,,,,0.97997997997998,0.2602602602602602,,,,0.24024024024024024,eating,2
282,2012-05-03 12:11:27,2012-05-03 12:11:51.975000,24.975,5,DW,,,,,,,,,,,1.0,,,,,,eating,2
283,2012-05-03 12:11:39.500000,2012-05-03 12:12:04.475000,24.975,5,DW,,,,,,,,,,,1.0,,,,,,eating,2
284,2012-05-03 12:11:52,2012-05-03 12:12:16.975000,24.975,5,DW,,,,,,,,,,,1.0,,,,,,eating,2
285,2012-05-03 12:12:04.500000,2012-05-03 12:12:29.475000,24.975,5,DW,,,,,,,,,,,1.0,,,,,,eating,2
286,2012-05-03 12:12:17,2012-05-03 12:12:41.975000,24.975,5,DW,,,,,,,,,,,1.0,,,,,,eating,2
287,2012-05-03 12:12:29.500000,2012-05-03 12:12:54.475000,24.975,5,DW,,,,,,,,,,,1.0,,,,,,eating,2
288,2012-05-03 12:12:42,2012-05-03 12:13:06.975000,24.975,5,DW,,,,,,,,,,,1.0,,,,,,eating,2
289,2012-05-03 12:12:54.500000,2012-05-03 12:13:19.475000,24.975,5,DW,,,,,,,,,,,1.0,,,,,,eating,2
290,2012-05-03 12:13:07,2012-05-03 12:13:31.975000,24.975,5,DW,,,,,,,,,,,1.0,,,,,,eating,2
291,2012-05-03 12:13:19.500000,2012-05-03 12:13:44.475000,24.975,5,DW,,,,,,,,,,,1.0,,,,,,eating,2
292,2012-05-03 12:13:32,2012-05-03 12:13:56.975000,24.975,5,DW,,,,,,,,,,,1.0,,,,,,rest,-1
293,2012-05-03 12:13:44.500000,2012-05-03 12:14:09.475000,24.975,5,DW,,,,,,,,,,,1.0,,,,,,eating,2
294,2012-05-03 12:13:57,2012-05-03 12:14:21.975000,24.975,5,DW,,,,,,,,,,,1.0,,,,,,eating,2
295,2012-05-03 12:14:09.500000,2012-05-03 12:14:34.475000,24.975,5,DW,,,,,,,,,,,1.0,,,,,,eating,2
296,2012-05-03 12:14:22,2012-05-03 12:14:46.975000,24.975,5,DW,,,,,,,,,,,1.0,,,,,,eating,2
297,2012-05-03 12:14:34.500000,2012-05-03 12:14:59.475000,24.975,5,DW,,,,,,,,,,,1.0,,,,,,eating,2
298,2012-05-03 12:14:47,2012-05-03 12:15:11.975000,24.975,5,DW,,,,,,,,,,,1.0,,,,,,eating,2
299,2012-05-03 12:14:59.500000,2012-05-03 12:15:24.475000,24.975,5,DW,,,,,,,,,,,1.0,,,,,,eating,2
300,2012-05-03 12:15:12,2012-05-03 12:15:36.975000,24.975,5,DW,,,,,,,,,,,1.0,,,,,,eating,2
301,2012-05-03 12:15:24.500000,2012-05-03 12:15:49.475000,24.975,5,DW,,,,,,,,,,,1.0,,,,,,eating,2
302,2012-05-03 12:15:37,2012-05-03 12:16:01.975000,24.975,5,DW,,,,,,,,,,,1.0,,,,,,eating,2
303,2012-05-03 12:15:49.500000,2012-05-03 12:16:14.475000,24.975,5,DW,,,,,,,,,,,1.0,,,,,,eating,2
304,2012-05-03 12:16:02,2012-05-03 12:16:26.975000,24.975,5,DW,,,,,,,,,,,1.0,,,,,,eating,2
305,2012-05-03 12:16:14.500000,2012-05-03 12:16:39.475000,24.975,5,DW,,,,,,,,,,,1.0,,,,,,eating,2
306,2012-05-03 12:16:27,2012-05-03 12:16:51.975000,24.975,5,DW,,,,,,,,,,,1.0,,,,,,eating,2
307,2012-05-03 12:16:39.500000,2012-05-03 12:17:04.475000,24.975,5,DW,,,,,,,,,,,1.0,,,,,,eating,2
308,2012-05-03 12:16:52,2012-05-03 12:17:16.975000,24.975,5,DW,,,,,,,,,,,1.0,,,,,,eating,2
309,2012-05-03 12:17:04.500000,2012-05-03 12:17:29.475000,24.975,5,DW,,,,,,,,,,,1.0,,,,,,eating,2
310,2012-05-03 12:17:17,2012-05-03 12:17:41.975000,24.975,5,DW,,,,,,,,,,,1.0,,,,,,eating,2
311,2012-05-03 12:17:29.500000,2012-05-03 12:17:54.475000,24.975,5,DW,,,,,,,,,,,1.0,,,,,,rest,-1
312,2012-05-03 12:17:42,2012-05-03 12:18:06.975000,24.975,5,DW,,,,,,,,,,,1.0,,,,,,eating,2
313,2012-05-03 12:17:54.500000,2012-05-03 12:18:19.475000,24.975,5,DW,,,,,,,,,,,1.0,,,,,,eating,2
314,2012-05-03 12:18:07,2012-05-03 12:18:31.975000,24.975,5,DW,,,,,,,,,0.24024024024024024,,0.7597597597597597,,,,,,eating,2
315,2012-05-03 12:18:19.500000,2012-05-03 12:18:44.475000,24.975,5,DW,,,,,,,,,0.24024024024024024,,0.7597597597597597,,,,,,eating,2
316,2012-05-03 12:18:32,2012-05-03 12:18:56.975000,24.975,5,DW,,,,,,,,,,,1.0,,,,,,eating,2
317,2012-05-03 12:18:44.500000,2012-05-03 12:19:09.475000,24.975,5,DW,,,,,,,,,,,1.0,,,,,,eating,2
318,2012-05-03 12:18:57,2012-05-03 12:19:21.975000,24.975,5,DW,,,,,,,,,,,1.0,,,,,,eating,2
319,2012-05-03 12:19:09.500000,2012-05-03 12:19:34.475000,24.975,5,DW,,,,,,,,,,,1.0,,,,,,eating,2
320,2012-05-03 12:19:22,2012-05-03 12:19:46.975000,24.975,5,DW,,,,,,,,,,,1.0,,,,,,eating,2
321,2012-05-03 12:19:34.500000,2012-05-03 12:19:59.475000,24.975,5,DW,,,,,,,,,,,1.0,,,,,,eating,2
322,2012-05-03 12:19:47,2012-05-03 12:20:11.975000,24.975,5,DW,,,,,,,,,,,1.0,,,,,,eating,2
323,2012-05-03 12:19:59.500000,2012-05-03 12:20:24.475000,24.975,5,DW,,,,,,,,,,,1.0,,,,,,eating,2
324,2012-05-03 12:20:12,2012-05-03 12:20:36.975000,24.975,5,DW,,,,,,,,,,,1.0,,,,,,eating,2
325,2012-05-03 12:20:24.500000,2012-05-03 12:20:49.475000,24.975,5,DW,,,,,,,,,,,1.0,,,,,,eating,2
326,2012-05-03 12:20:37,2012-05-03 12:21:01.975000,24.975,5,DW,,,,,,,,,,,1.0,,,,,,eating,2
327,2012-05-03 12:20:49.500000,2012-05-03 12:21:14.475000,24.975,5,DW,,,,,,,,,,,1.0,,,,,,eating,2
328,2012-05-03 12:21:02,2012-05-03 12:21:26.975000,24.975,5,DW,,,,,,,,,,,1.0,,,,,,eating,2
329,2012-05-03 12:21:14.500000,2012-05-03 12:21:39.475000,24.975,5,DW,,,,,,,,,,,1.0,,,,,,eating,2
330,2012-05-03 12:21:27,2012-05-03 12:21:51.975000,24.975,5,DW,,,,,,,,,,,1.0,,,,,,eating,2
331,2012-05-03 12:21:39.500000,2012-05-03 12:22:04.475000,24.975,5,DW,,,,,,,,,,,1.0,,,,,,eating,2
332,2012-05-03 12:21:52,2012-05-03 12:22:16.975000,24.975,5,DW,,,,,,,,,,,1.0,,,,,,eating,2
333,2012-05-03 12:22:04.500000,2012-05-03 12:22:29.475000,24.975,5,DW,,,,,,,,,,,1.0,,,,,,eating,2
334,2012-05-03 12:22:17,2012-05-03 12:22:41.975000,24.975,5,DW,,,,,,,,,,,1.0,,,,,,eating,2
335,2012-05-03 12:22:29.500000,2012-05-03 12:22:54.475000,24.975,5,DW,,,,,,,,,,,1.0,,,,,,eating,2
336,2012-05-03 12:22:42,2012-05-03 12:23:06.975000,24.975,5,DW,,,,,,,,,,,1.0,,,,,,eating,2
337,2012-05-03 12:22:54.500000,2012-05-03 12:23:19.475000,24.975,5,DW,,,,,,,,,,,1.0,,,,,,eating,2
338,2012-05-03 12:23:07,2012-05-03 12:23:31.975000,24.975,5,DW,,,,,,,,0.39939939939939934,,,0.6006006006006006,,,,,,eating,2
339,2012-05-03 12:23:19.500000,2012-05-03 12:23:44.475000,24.975,5,DW,,,,,,,,0.8998998998998999,,,0.10010010010010009,,,,,,others,0
340,2012-05-03 12:23:32,2012-05-03 12:23:56.975000,24.975,5,DW,,,,,,,,1.0,,,,,,,,,others,0
341,2012-05-03 12:23:44.500000,2012-05-03 12:24:09.475000,24.975,5,DW,,,,,,,,0.6206206206206206,,,,0.3393393393393393,,,,,others,0
342,2012-05-03 12:23:57,2012-05-03 12:24:21.975000,24.975,5,DW,0.9949999999999999,0.19919919919919918,0.0,28.0,right-puff,,,0.12012012012012012,,,,0.8398398398398399,,,,,puff,9
343,2012-05-03 12:24:09.500000,2012-05-03 12:24:34.475000,24.975,5,DW,1.0,0.20020020020020018,0.0,28.0,right-puff,,,,,,,1.0,,,,,puff,9
344,2012-05-03 12:24:22,2012-05-03 12:24:46.975000,24.975,5,DW,,,,,,,,,,,,1.0,,,,,others,0
345,2012-05-03 12:24:34.500000,2012-05-03 12:24:59.475000,24.975,5,DW,,,,,,,,,,,,1.0,,,,,others,0
346,2012-05-03 12:24:47,2012-05-03 12:25:11.975000,24.975,5,DW,,,,,,,,,,,,1.0,,,,,rest,-1
347,2012-05-03 12:24:59.500000,2012-05-03 12:25:24.475000,24.975,5,DW,,,,,,,,,,,,1.0,,,,,rest,-1
348,2012-05-03 12:25:12,2012-05-03 12:25:36.975000,24.975,5,DW,1.0,0.2502502502502502,1.0,29.0,right-puff,,,,,,,1.0,,,,,puff,9
349,2012-05-03 12:25:24.500000,2012-05-03 12:25:49.475000,24.975,5,DW,1.0,0.2502502502502502,1.0,29.0,right-puff,,,,,,,1.0,,,,,puff,9
350,2012-05-03 12:25:37,2012-05-03 12:26:01.975000,24.975,5,DW,,,,,,,,,,,,1.0,,,,,rest,-1
351,2012-05-03 12:25:49.500000,2012-05-03 12:26:14.475000,24.975,5,DW,0.908695652173913,0.20920920920920918,1.0,30.0,right-puff,,,,,,,1.0,,,,,puff,9
352,2012-05-03 12:26:02,2012-05-03 12:26:26.975000,24.975,5,DW,1.0,0.2302302302302302,1.0,30.0,right-puff,,,,,,,1.0,,,,,puff,9
353,2012-05-03 12:26:14.500000,2012-05-03 12:26:39.475000,24.975,5,DW,0.08695652173913043,0.02002002002002002,1.0,30.0,right-puff,,,,,,,1.0,,,,,others,0
354,2012-05-03 12:26:27,2012-05-03 12:26:51.975000,24.975,5,DW,1.0,0.27027027027027023,0.0,31.0,right-puff,,,,,,,1.0,0.47947947947947944,,,0.47947947947947944,puff,9
355,2012-05-03 12:26:39.500000,2012-05-03 12:27:04.475000,24.975,5,DW,1.0,0.27027027027027023,0.0,31.0,right-puff,,,,,,,1.0,0.97997997997998,,,0.97997997997998,puff,9
356,2012-05-03 12:26:52,2012-05-03 12:27:16.975000,24.975,5,DW,,,,,,,,,,,,1.0,1.0,,,1.0,rest,-1
357,2012-05-03 12:27:04.500000,2012-05-03 12:27:29.475000,24.975,5,DW,,,,,,,,,,,,1.0,1.0,,,1.0,rest,-1
358,2012-05-03 12:27:17,2012-05-03 12:27:41.975000,24.975,5,DW,,,,,,,,,,,,1.0,1.0,,,1.0,rest,-1
359,2012-05-03 12:27:29.500000,2012-05-03 12:27:54.475000,24.975,5,DW,,,,,,,,,,,,1.0,0.980980980980981,0.019019019019019017,,1.0,rest,-1
360,2012-05-03 12:27:42,2012-05-03 12:28:06.975000,24.975,5,DW,,,,,,,,,,,,1.0,0.4804804804804805,0.5195195195195195,,1.0,computer,4
361,2012-05-03 12:27:54.500000,2012-05-03 12:28:19.475000,24.975,5,DW,,,,,,,,,,,,1.0,0.45945945945945943,0.5405405405405405,,1.0,computer,4
362,2012-05-03 12:28:07,2012-05-03 12:28:31.975000,24.975,5,DW,,,,,,,,,,,,1.0,0.95995995995996,0.04004004004004004,,1.0,computer,4
363,2012-05-03 12:28:19.500000,2012-05-03 12:28:44.475000,24.975,5,DW,,,,,,,,,,,,1.0,1.0,,,1.0,computer,4
364,2012-05-03 12:28:32,2012-05-03 12:28:56.975000,24.975,5,DW,,,,,,,,,,,,1.0,1.0,,,1.0,rest,-1
365,2012-05-03 12:28:44.500000,2012-05-03 12:29:09.475000,24.975,5,DW,,,,,,,,,,,,1.0,0.5405405405405405,0.45945945945945943,,1.0,computer,4
366,2012-05-03 12:28:57,2012-05-03 12:29:21.975000,24.975,5,DW,,,,,,,,,,,,1.0,0.3193193193193193,0.6806806806806807,,1.0,computer,4
367,2012-05-03 12:29:09.500000,2012-05-03 12:29:34.475000,24.975,5,DW,,,,,,,,,,,,1.0,0.7797797797797797,0.2202202202202202,,1.0,computer,4
368,2012-05-03 12:29:22,2012-05-03 12:29:46.975000,24.975,5,DW,,,,,,,,,,,,1.0,1.0,,,1.0,rest,-1
369,2012-05-03 12:29:34.500000,2012-05-03 12:29:59.475000,24.975,5,DW,,,,,,,,,,,,1.0,1.0,,,1.0,computer,4
370,2012-05-03 12:29:47,2012-05-03 12:30:11.975000,24.975,5,DW,,,,,,,,,,,,1.0,1.0,,,1.0,computer,4
371,2012-05-03 12:29:59.500000,2012-05-03 12:30:24.475000,24.975,5,DW,,,,,,,,,,,,1.0,1.0,,,1.0,rest,-1
372,2012-05-03 12:30:12,2012-05-03 12:30:36.975000,24.975,5,DW,,,,,,,,,,,,1.0,1.0,,,1.0,rest,-1
373,2012-05-03 12:30:24.500000,2012-05-03 12:30:49.475000,24.975,5,DW,,,,,,,,,,,,1.0,1.0,,,1.0,rest,-1
374,2012-05-03 12:30:37,2012-05-03 12:31:01.975000,24.975,5,DW,,,,,,,,,,,,1.0,1.0,,,1.0,rest,-1
375,2012-05-03 12:30:49.500000,2012-05-03 12:31:14.475000,24.975,5,DW,,,,,,,,,,,,1.0,1.0,,,1.0,computer,4
376,2012-05-03 12:31:02,2012-05-03 12:31:26.975000,24.975,5,DW,,,,,,,,,,,,1.0,1.0,,,1.0,computer,4
377,2012-05-03 12:31:14.500000,2012-05-03 12:31:39.475000,24.975,5,DW,,,,,,,,,,,,1.0,1.0,,,1.0,computer,4
378,2012-05-03 12:31:27,2012-05-03 12:31:51.975000,24.975,5,DW,,,,,,,,,,,,1.0,1.0,,,1.0,computer,4
379,2012-05-03 12:31:39.500000,2012-05-03 12:32:04.475000,24.975,5,DW,,,,,,,,,,,,1.0,1.0,,,1.0,rest,-1
380,2012-05-03 12:31:52,2012-05-03 12:32:16.975000,24.975,5,DW,,,,,,,,,,,,1.0,1.0,,,1.0,rest,-1
381,2012-05-03 12:32:04.500000,2012-05-03 12:32:29.475000,24.975,5,DW,,,,,,,,,,,,0.5805805805805806,1.0,,,0.5805805805805806,computer,4
382,2012-05-03 12:32:17,2012-05-03 12:32:41.975000,24.975,5,DW,,,,,,,,,,,,0.08008008008008008,1.0,,,0.08008008008008008,computer,4
383,2012-05-03 12:32:29.500000,2012-05-03 12:32:54.475000,24.975,5,DW,,,,,,,,,,,,,1.0,,,,computer,4
384,2012-05-03 12:32:42,2012-05-03 12:33:06.975000,24.975,5,DW,,,,,,,,,,,,,1.0,,,,rest,-1
385,2012-05-03 12:32:54.500000,2012-05-03 12:33:19.475000,24.975,5,DW,,,,,,,,,,,,,1.0,,,,rest,-1
386,2012-05-03 12:33:07,2012-05-03 12:33:31.975000,24.975,5,DW,,,,,,,,,,,,,1.0,,,,rest,-1
387,2012-05-03 12:33:19.500000,2012-05-03 12:33:44.475000,24.975,5,DW,,,,,,,,,,,,,1.0,,,,rest,-1
388,2012-05-03 12:33:32,2012-05-03 12:33:56.975000,24.975,5,DW,,,,,,,,,,,,,1.0,,,,rest,-1
389,2012-05-03 12:33:44.500000,2012-05-03 12:34:09.475000,24.975,5,DW,,,,,,,,,,,,,1.0,,,,rest,-1
390,2012-05-03 12:33:57,2012-05-03 12:34:21.975000,24.975,5,DW,,,,,,,,,,,,,1.0,,,,rest,-1
391,2012-05-03 12:34:09.500000,2012-05-03 12:34:34.475000,24.975,5,DW,,,,,,,,,,,,,1.0,,,,rest,-1
392,2012-05-03 12:34:22,2012-05-03 12:34:46.975000,24.975,5,DW,,,,,,,,,,,,,1.0,,,,rest,-1
393,2012-05-03 12:34:34.500000,2012-05-03 12:34:59.475000,24.975,5,DW,,,,,,,,,,,,,1.0,,,,rest,-1
394,2012-05-03 12:34:47,2012-05-03 12:35:11.975000,24.975,5,DW,,,,,,,,,,,,,1.0,,,,rest,-1
395,2012-05-03 12:34:59.500000,2012-05-03 12:35:24.475000,24.975,5,DW,,,,,,,,,,,,,1.0,,,,rest,-1
396,2012-05-03 12:35:12,2012-05-03 12:35:36.975000,24.975,5,DW,,,,,,,,,,,,,1.0,,,,rest,-1
397,2012-05-03 12:35:24.500000,2012-05-03 12:35:49.475000,24.975,5,DW,,,,,,,,,,,,,1.0,,,,rest,-1
398,2012-05-03 12:35:37,2012-05-03 12:36:01.975000,24.975,5,DW,,,,,,,,,,,,,1.0,,,,computer,4
399,2012-05-03 12:35:49.500000,2012-05-03 12:36:14.475000,24.975,5,DW,,,,,,,,,,,,,1.0,,,,computer,4
400,2012-05-03 12:36:02,2012-05-03 12:36:26.975000,24.975,5,DW,,,,,,,,,,,,,1.0,,,,computer,4
401,2012-05-03 12:36:14.500000,2012-05-03 12:36:39.475000,24.975,5,DW,,,,,,,,,,,,,1.0,,,,computer,4
402,2012-05-03 12:36:27,2012-05-03 12:36:51.975000,24.975,5,DW,,,,,,,,,,,,,1.0,,,,rest,-1
403,2012-05-03 12:36:39.500000,2012-05-03 12:37:04.475000,24.975,5,DW,,,,,,,,,,,,,1.0,,,,computer,4
404,2012-05-03 12:36:52,2012-05-03 12:37:16.975000,24.975,5,DW,,,,,,,,,,,,,1.0,,,,computer,4
405,2012-05-03 12:37:04.500000,2012-05-03 12:37:29.475000,24.975,5,DW,,,,,,,,,,,,,1.0,,,,computer,4
406,2012-05-03 12:37:17,2012-05-03 12:37:41.975000,24.975,5,DW,,,,,,,,,,,,,1.0,,,,computer,4
407,2012-05-03 12:37:29.500000,2012-05-03 12:37:54.475000,24.975,5,DW,,,,,,,,,,,,,1.0,,,,computer,4
408,2012-05-03 12:37:42,2012-05-03 12:38:06.975000,24.975,5,DW,,,,,,,,,,,,,1.0,,,,rest,-1
409,2012-05-03 12:37:54.500000,2012-05-03 12:38:19.475000,24.975,5,DW,,,,,,,,,,,,,1.0,,,,rest,-1
410,2012-05-03 12:38:07,2012-05-03 12:38:31.975000,24.975,5,DW,,,,,,,,,,,,,1.0,,,,computer,4
411,2012-05-03 12:38:19.500000,2012-05-03 12:38:44.475000,24.975,5,DW,,,,,,,,,0.24024024024024024,,,,0.6606606606606606,,,,computer,4
412,2012-05-03 12:38:32,2012-05-03 12:38:56.975000,24.975,5,DW,,,,,,,0.4394394394394394,,0.24024024024024024,,,0.3193193193193193,0.16016016016016016,,,0.3193193193193193,talking,5
413,2012-05-03 12:38:44.500000,2012-05-03 12:39:09.475000,24.975,5,DW,,,,,,,0.93993993993994,,,,,0.8198198198198199,,,,0.8198198198198199,talking,5
414,2012-05-03 12:38:57,2012-05-03 12:39:21.975000,24.975,5,DW,,,,,,,0.8008008008008007,,,,,1.0,,0.19919919919919918,,1.0,talking,5
415,2012-05-03 12:39:09.500000,2012-05-03 12:39:34.475000,24.975,5,DW,,,,,,,0.3003003003003003,,,,,1.0,,0.6996996996996997,,1.0,talking,5
416,2012-05-03 12:39:22,2012-05-03 12:39:46.975000,24.975,5,DW,,,,,,,,,,,,1.0,,1.0,,1.0,phone,3
417,2012-05-03 12:39:34.500000,2012-05-03 12:39:59.475000,24.975,5,DW,,,,,,,,,,,,1.0,,1.0,,1.0,phone,3
418,2012-05-03 12:39:47,2012-05-03 12:40:11.975000,24.975,5,DW,,,,,,,,,,,,1.0,,1.0,,1.0,phone,3
419,2012-05-03 12:39:59.500000,2012-05-03 12:40:24.475000,24.975,5,DW,,,,,,,,,,,,1.0,,1.0,,1.0,phone,3
420,2012-05-03 12:40:12,2012-05-03 12:40:36.975000,24.975,5,DW,,,,,,,,,,,,1.0,,1.0,,1.0,phone,3
421,2012-05-03 12:40:24.500000,2012-05-03 12:40:49.475000,24.975,5,DW,,,,,,,,,,,,1.0,,1.0,,1.0,phone,3
422,2012-05-03 12:40:37,2012-05-03 12:41:01.975000,24.975,5,DW,,,,,,,,,,,,1.0,,1.0,,1.0,phone,3
423,2012-05-03 12:40:49.500000,2012-05-03 12:41:14.475000,24.975,5,DW,,,,,,,,,,,,1.0,,1.0,,1.0,phone,3
424,2012-05-03 12:41:02,2012-05-03 12:41:26.975000,24.975,5,DW,,,,,,,,,,,,1.0,,0.8808808808808808,,0.8808808808808808,phone,3
425,2012-05-03 12:41:14.500000,2012-05-03 12:41:39.475000,24.975,5,DW,,,,,,,,,,,,1.0,,0.4394394394394394,,0.4394394394394394,phone,3
426,2012-05-03 12:41:27,2012-05-03 12:41:51.975000,24.975,5,DW,,,,,,,,,,,,1.0,,0.5595595595595595,,0.5595595595595595,rest,-1
427,2012-05-03 12:41:39.500000,2012-05-03 12:42:04.475000,24.975,5,DW,,,,,,,,,,,,1.0,,1.0,,1.0,phone,3
428,2012-05-03 12:41:52,2012-05-03 12:42:16.975000,24.975,5,DW,,,,,,,,,,,,1.0,,1.0,,1.0,phone,3
429,2012-05-03 12:42:04.500000,2012-05-03 12:42:29.475000,24.975,5,DW,,,,,,,,,,,,1.0,,1.0,,1.0,phone,3
430,2012-05-03 12:42:17,2012-05-03 12:42:41.975000,24.975,5,DW,,,,,,,,,,,,1.0,,1.0,,1.0,rest,-1
431,2012-05-03 12:42:29.500000,2012-05-03 12:42:54.475000,24.975,5,DW,,,,,,,,,,,,1.0,,1.0,,1.0,phone,3
432,2012-05-03 12:42:42,2012-05-03 12:43:06.975000,24.975,5,DW,,,,,,,,,,,,1.0,,1.0,,1.0,phone,3
433,2012-05-03 12:42:54.500000,2012-05-03 12:43:19.475000,24.975,5,DW,,,,,,,,,,,,1.0,,1.0,,1.0,rest,-1
434,2012-05-03 12:43:07,2012-05-03 12:43:31.975000,24.975,5,DW,,,,,,,,,,,,1.0,,1.0,,1.0,rest,-1
435,2012-05-03 12:43:19.500000,2012-05-03 12:43:44.475000,24.975,5,DW,,,,,,,,,,,,1.0,,1.0,,1.0,rest,-1
436,2012-05-03 12:43:32,2012-05-03 12:43:56.975000,24.975,5,DW,,,,,,,,,,,,1.0,,1.0,,1.0,phone,3
437,2012-05-03 12:43:44.500000,2012-05-03 12:44:09.475000,24.975,5,DW,1.0,0.2802802802802803,0.0,44.0,right-puff,,,,,,,1.0,,0.5805805805805806,,0.5805805805805806,puff,9
438,2012-05-03 12:43:57,2012-05-03 12:44:21.975000,24.975,5,DW,1.0,0.2802802802802803,0.0,44.0,right-puff,,,,,,,1.0,,0.08008008008008008,,0.08008008008008008,puff,9
439,2012-05-03 12:44:09.500000,2012-05-03 12:44:34.475000,24.975,5,DW,1.5409090909090908,0.3393393393393393,1.0,45.0,right-puff,,,,,,,1.0,,,0.3793793793793793,0.3793793793793793,puff,9
440,2012-05-03 12:44:22,2012-05-03 12:44:46.975000,24.975,5,DW,1.9090909090909092,0.4204204204204204,1.0,45.0,right-puff,,,,,,,1.0,,,0.8798798798798799,0.8798798798798799,puff,9
441,2012-05-03 12:44:34.500000,2012-05-03 12:44:59.475000,24.975,5,DW,0.6950000000000001,0.13913913913913914,1.0,46.0,right-puff,,,,,,,1.0,,,1.0,1.0,puff,9
442,2012-05-03 12:44:47,2012-05-03 12:45:11.975000,24.975,5,DW,1.61875,0.25925925925925924,1.0,47.0,right-puff,,,,,,,1.0,,,1.0,1.0,puff,9
443,2012-05-03 12:44:59.500000,2012-05-03 12:45:24.475000,24.975,5,DW,1.5,0.24024024024024024,1.0,47.0,right-puff,,,,,,,0.5805805805805806,,,1.0,0.5805805805805806,puff,9
444,2012-05-03 12:45:12,2012-05-03 12:45:36.975000,24.975,5,DW,0.2857142857142857,0.04004004004004004,1.0,48.0,right-puff,,,,,,,0.08008008008008008,,,1.0,0.08008008008008008,walking,1
445,2012-05-03 12:45:24.500000,2012-05-03 12:45:49.475000,24.975,5,DW,,,,,,,,0.49949949949949946,,,,,,,0.5405405405405405,,walking,1
446,2012-05-03 12:45:37,2012-05-03 12:46:01.975000,24.975,5,DW,,,,,,,,1.0,,,,,,,0.04004004004004004,,others,0
447,2012-05-03 12:45:49.500000,2012-05-03 12:46:14.475000,24.975,5,DW,,,,,,,,1.0,,,,,,,,,others,0
448,2012-05-03 12:46:02,2012-05-03 12:46:26.975000,24.975,5,DW,,,,,,,,1.0,,,,,,,,,others,0
449,2012-05-03 12:46:14.500000,2012-05-03 12:46:39.475000,24.975,5,DW,,,,,,,,1.0,,,,,,,,,others,0
450,2012-05-03 12:46:27,2012-05-03 12:46:51.975000,24.975,5,DW,,,,,,,,1.0,,,,,,,,,others,0
451,2012-05-03 12:46:39.500000,2012-05-03 12:47:04.475000,24.975,5,DW,,,,,,,,1.0,,,,,,,,,others,0
452,2012-05-03 12:46:52,2012-05-03 12:47:16.975000,24.975,5,DW,,,,,,,,1.0,,,,,,,,,others,0
453,2012-05-03 12:47:04.500000,2012-05-03 12:47:29.475000,24.975,5,DW,,,,,,,,1.0,,,,,,,,,others,0
454,2012-05-03 12:47:17,2012-05-03 12:47:41.975000,24.975,5,DW,,,,,,,,1.0,,,,,,,,,others,0
455,2012-05-03 12:47:29.500000,2012-05-03 12:47:54.475000,24.975,5,DW,,,,,,,,1.0,,,,,,,,,others,0
456,2012-05-03 12:47:42,2012-05-03 12:48:06.975000,24.975,5,DW,,,,,,,,1.0,,,,,,,,,others,0
457,2012-05-03 12:47:54.500000,2012-05-03 12:48:19.475000,24.975,5,DW,,,,,,,,1.0,,,,,,,,,others,0
458,2012-05-03 12:48:07,2012-05-03 12:48:31.975000,24.975,5,DW,,,,,,,,1.0,,,,,,,,,others,0
459,2012-05-03 12:48:19.500000,2012-05-03 12:48:44.475000,24.975,5,DW,,,,,,,,1.0,,,,,,,,,others,0
460,2012-05-03 12:48:32,2012-05-03 12:48:56.975000,24.975,5,DW,,,,,,,,1.0,,,,,,,,,others,0
461,2012-05-03 12:48:44.500000,2012-05-03 12:49:09.475000,24.975,5,DW,,,,,,,,1.0,,,,,,,,,others,0
462,2012-05-03 12:48:57,2012-05-03 12:49:21.975000,24.975,5,DW,,,,,,,,0.8408408408408408,,,,,,0.039039039039039033,,,others,0
463,2012-05-03 12:49:09.500000,2012-05-03 12:49:34.475000,24.975,5,DW,,,,,,,,0.34034034034034033,,,,,,0.5395395395395395,,,phone,3
464,2012-05-03 12:49:22,2012-05-03 12:49:46.975000,24.975,5,DW,,,,,,,,,,,,,,1.0,,,phone,3
465,2012-05-03 12:49:34.500000,2012-05-03 12:49:59.475000,24.975,5,DW,,,,,,,,,,,,,,1.0,,,phone,3
466,2012-05-03 12:49:47,2012-05-03 12:50:11.975000,24.975,5,DW,,,,,,,,,,,,,,1.0,,,phone,3
467,2012-05-03 12:49:59.500000,2012-05-03 12:50:24.475000,24.975,5,DW,,,,,,,,,,,,,,1.0,,,phone,3
468,2012-05-03 12:50:12,2012-05-03 12:50:36.975000,24.975,5,DW,,,,,,,,,,,,,,1.0,,,phone,3
469,2012-05-03 12:50:24.500000,2012-05-03 12:50:49.475000,24.975,5,DW,,,,,,,,,,,,,,0.5005005005005004,,,phone,3
470,2012-05-03 12:50:37,2012-05-03 12:51:01.975000,24.975,5,DW,,,,,,,,,,,,,,,,,others,0
471,2012-05-03 12:50:49.500000,2012-05-03 12:51:14.475000,24.975,5,DW,,,,,,,,,,,,,,,,,others,0
472,2012-05-03 12:51:02,2012-05-03 12:51:26.975000,24.975,5,DW,,,,,,,,,,,,,,,,,others,0
473,2012-05-03 12:51:14.500000,2012-05-03 12:51:39.475000,24.975,5,DW,,,,,,,,,0.08008008008008008,,,,,,,,others,0
474,2012-05-03 12:51:27,2012-05-03 12:51:51.975000,24.975,5,DW,,,,,,,,,0.08008008008008008,,,,,,,,others,0
475,2012-05-03 12:51:39.500000,2012-05-03 12:52:04.475000,24.975,5,DW,,,,,,,,,,,,,,,,,others,0
476,2012-05-03 12:51:52,2012-05-03 12:52:16.975000,24.975,5,DW,,,,,,,,,,,,,,,,,others,0
477,2012-05-03 12:52:04.500000,2012-05-03 12:52:29.475000,24.975,5,DW,,,,,,,,,,,,,,,,,others,0
478,2012-05-03 12:52:17,2012-05-03 12:52:41.975000,24.975,5,DW,,,,,,,,,,,,,,,,,others,0
479,2012-05-03 12:52:29.500000,2012-05-03 12:52:54.475000,24.975,5,DW,,,,,,,,,,,,,,,,,others,0
480,2012-05-03 12:52:42,2012-05-03 12:53:06.975000,24.975,5,DW,,,,,,,,,,,,,,,,,others,0
481,2012-05-03 12:52:54.500000,2012-05-03 12:53:19.475000,24.975,5,DW,,,,,,,,,,,,,,,,,others,0
482,2012-05-03 12:53:07,2012-05-03 12:53:31.975000,24.975,5,DW,,,,,,,,,,,,,,,,,others,0
483,2012-05-03 12:53:19.500000,2012-05-03 12:53:44.475000,24.975,5,DW,,,,,,,,,,,,,,,,,others,0
484,2012-05-03 12:53:32,2012-05-03 12:53:56.975000,24.975,5,DW,,,,,,,,,,,,,,,,,others,0
485,2012-05-03 12:53:44.500000,2012-05-03 12:54:09.475000,24.975,5,DW,,,,,,,,,,,,,,,,,others,0
486,2012-05-03 12:53:57,2012-05-03 12:54:21.975000,24.975,5,DW,,,,,,,,,,,,,,,,,rest,-1
487,2012-05-03 12:54:09.500000,2012-05-03 12:54:34.475000,24.975,5,DW,,,,,,,,,,,,,,,,,rest,-1
488,2012-05-03 12:54:22,2012-05-03 12:54:46.975000,24.975,5,DW,,,,,,,,,,,,,,,,,rest,-1
489,2012-05-03 12:54:34.500000,2012-05-03 12:54:59.475000,24.975,5,DW,,,,,,,,,,,,,,,,,others,0
490,2012-05-03 12:54:47,2012-05-03 12:55:11.975000,24.975,5,DW,,,,,,,,,,,,,,,,,others,0
491,2012-05-03 12:54:59.500000,2012-05-03 12:55:24.475000,24.975,5,DW,,,,,,,,,,,,,,0.45945945945945943,,,phone,3
492,2012-05-03 12:55:12,2012-05-03 12:55:36.975000,24.975,5,DW,,,,,,,,,,,,0.11911911911911911,,0.95995995995996,,0.11911911911911911,phone,3
493,2012-05-03 12:55:24.500000,2012-05-03 12:55:49.475000,24.975,5,DW,,,,,,,,,,,,0.6196196196196195,,1.0,,0.6196196196196195,phone,3
494,2012-05-03 12:55:37,2012-05-03 12:56:01.975000,24.975,5,DW,0.4088235294117647,0.13913913913913914,0.0,50.0,right-puff,,,,,,,1.0,,1.0,,1.0,puff,9
495,2012-05-03 12:55:49.500000,2012-05-03 12:56:14.475000,24.975,5,DW,1.0,0.34034034034034033,0.0,50.0,right-puff,,,,,,,1.0,,1.0,,1.0,puff,9
496,2012-05-03 12:56:02,2012-05-03 12:56:26.975000,24.975,5,DW,0.5882352941176471,0.20020020020020018,0.0,50.0,right-puff,,,,,,,1.0,,1.0,,1.0,puff,9
497,2012-05-03 12:56:14.500000,2012-05-03 12:56:39.475000,24.975,5,DW,0.21071428571428572,0.05905905905905906,1.0,51.0,right-puff,,,,,,,1.0,,0.7007007007007007,,0.7007007007007007,phone,3
498,2012-05-03 12:56:27,2012-05-03 12:56:51.975000,24.975,5,DW,1.0,0.2802802802802803,1.0,51.0,right-puff,,,,,,,1.0,,0.20020020020020018,,0.20020020020020018,puff,9
499,2012-05-03 12:56:39.500000,2012-05-03 12:57:04.475000,24.975,5,DW,0.7857142857142857,0.2202202202202202,1.0,51.0,right-puff,,,,,,,1.0,,,,,puff,9
500,2012-05-03 12:56:52,2012-05-03 12:57:16.975000,24.975,5,DW,,,,,,,,,,,,1.0,,,,,rest,-1
501,2012-05-03 12:57:04.500000,2012-05-03 12:57:29.475000,24.975,5,DW,,,,,,,,,,,,1.0,,,,,rest,-1
502,2012-05-03 12:57:17,2012-05-03 12:57:41.975000,24.975,5,DW,0.6392857142857142,0.17917917917917917,1.0,52.0,right-puff,,,,,,,1.0,,,,,puff,9
503,2012-05-03 12:57:29.500000,2012-05-03 12:57:54.475000,24.975,5,DW,1.0,0.2802802802802803,1.0,52.0,right-puff,,,,,,,1.0,,,,,puff,9
504,2012-05-03 12:57:42,2012-05-03 12:58:06.975000,24.975,5,DW,0.35714285714285715,0.10010010010010009,1.0,52.0,right-puff,,,,,,,1.0,,,,,puff,9
505,2012-05-03 12:57:54.500000,2012-05-03 12:58:19.475000,24.975,5,DW,,,,,,,,,,,,1.0,,,,,others,0
506,2012-05-03 12:58:07,2012-05-03 12:58:31.975000,24.975,5,DW,,,,,,,,,,,,1.0,,,,,others,0
507,2012-05-03 12:58:19.500000,2012-05-03 12:58:44.475000,24.975,5,DW,,,,,,,,,,,,1.0,,,,,rest,-1
508,2012-05-03 12:58:32,2012-05-03 12:58:56.975000,24.975,5,DW,,,,,,,,,,,,1.0,,,,,others,0
509,2012-05-03 12:58:44.500000,2012-05-03 12:59:09.475000,24.975,5,DW,,,,,,,,,,,,1.0,,0.3393393393393393,,0.3393393393393393,phone,3
510,2012-05-03 12:58:57,2012-05-03 12:59:21.975000,24.975,5,DW,,,,,,,,,,,,1.0,,0.8398398398398399,,0.8398398398398399,phone,3
511,2012-05-03 12:59:09.500000,2012-05-03 12:59:34.475000,24.975,5,DW,,,,,,,,,,,,1.0,,1.0,,1.0,phone,3
512,2012-05-03 12:59:22,2012-05-03 12:59:46.975000,24.975,5,DW,,,,,,,,,,,,1.0,,1.0,,1.0,rest,-1
513,2012-05-03 12:59:34.500000,2012-05-03 12:59:59.475000,24.975,5,DW,,,,,,,,,,,,1.0,,1.0,,1.0,rest,-1
514,2012-05-03 12:59:47,2012-05-03 13:00:11.975000,24.975,5,DW,,,,,,,,,,,,1.0,,1.0,,1.0,rest,-1
515,2012-05-03 12:59:59.500000,2012-05-03 13:00:24.475000,24.975,5,DW,,,,,,,,,,,,1.0,,1.0,,1.0,rest,-1
516,2012-05-03 13:00:12,2012-05-03 13:00:36.975000,24.975,5,DW,,,,,,,,,,,,1.0,,1.0,,1.0,rest,-1
517,2012-05-03 13:00:24.500000,2012-05-03 13:00:49.475000,24.975,5,DW,,,,,,,,,,,,1.0,,1.0,,1.0,rest,-1
518,2012-05-03 13:00:37,2012-05-03 13:01:01.975000,24.975,5,DW,,,,,,,,,,,,1.0,,1.0,,1.0,rest,-1
519,2012-05-03 13:00:49.500000,2012-05-03 13:01:14.475000,24.975,5,DW,,,,,,,,,,,,1.0,,1.0,,1.0,phone,3
520,2012-05-03 13:01:02,2012-05-03 13:01:26.975000,24.975,5,DW,,,,,,,,,,,,1.0,,1.0,,1.0,phone,3
521,2012-05-03 13:01:14.500000,2012-05-03 13:01:39.475000,24.975,5,DW,,,,,,,,,,,,1.0,,1.0,,1.0,phone,3
522,2012-05-03 13:01:27,2012-05-03 13:01:51.975000,24.975,5,DW,,,,,,,,,,,,1.0,,1.0,,1.0,rest,-1
523,2012-05-03 13:01:39.500000,2012-05-03 13:02:04.475000,24.975,5,DW,,,,,,,,,,,,1.0,,1.0,,1.0,rest,-1
524,2012-05-03 13:01:52,2012-05-03 13:02:16.975000,24.975,5,DW,,,,,,,,,,,,0.5205205205205204,,1.0,,0.5205205205205204,rest,-1
525,2012-05-03 13:02:04.500000,2012-05-03 13:02:29.475000,24.975,5,DW,,,,,,,,,,,,0.02002002002002002,,1.0,,0.02002002002002002,phone,3
526,2012-05-03 13:02:17,2012-05-03 13:02:41.975000,24.975,5,DW,,,,,,,,,,,,,,1.0,,,phone,3
527,2012-05-03 13:02:29.500000,2012-05-03 13:02:54.475000,24.975,5,DW,,,,,,,,,,,,,,1.0,,,phone,3
528,2012-05-03 13:02:42,2012-05-03 13:03:06.975000,24.975,5,DW,,,,,,,,,,,,,,1.0,,,phone,3
529,2012-05-03 13:02:54.500000,2012-05-03 13:03:19.475000,24.975,5,DW,,,,,,,,,,,,,,1.0,,,phone,3
530,2012-05-03 13:03:07,2012-05-03 13:03:31.975000,24.975,5,DW,,,,,,,,,,,,,,1.0,,,phone,3
531,2012-05-03 13:03:19.500000,2012-05-03 13:03:44.475000,24.975,5,DW,,,,,,,,,,,,,,1.0,,,phone,3
532,2012-05-03 13:03:32,2012-05-03 13:03:56.975000,24.975,5,DW,,,,,,,,,,,,,,1.0,,,phone,3
533,2012-05-03 13:03:44.500000,2012-05-03 13:04:09.475000,24.975,5,DW,,,,,,,,,,,,,,1.0,,,phone,3
534,2012-05-03 13:03:57,2012-05-03 13:04:21.975000,24.975,5,DW,,,,,,,,,,,,,,1.0,,,phone,3
535,2012-05-03 13:04:09.500000,2012-05-03 13:04:34.475000,24.975,5,DW,,,,,,,,,,,,,,1.0,,,phone,3
536,2012-05-03 13:04:22,2012-05-03 13:04:46.975000,24.975,5,DW,,,,,,,,,,,,,,1.0,,,phone,3
537,2012-05-03 13:04:34.500000,2012-05-03 13:04:59.475000,24.975,5,DW,,,,,,,,,,,,,,1.0,,,phone,3
538,2012-05-03 13:04:47,2012-05-03 13:05:11.975000,24.975,5,DW,,,,,,,,,,,,,,1.0,,,phone,3
539,2012-05-03 13:04:59.500000,2012-05-03 13:05:24.475000,24.975,5,DW,,,,,,,,,,,,,,1.0,,,phone,3
540,2012-05-03 13:05:12,2012-05-03 13:05:36.975000,24.975,5,DW,,,,,,,,,,,,,,1.0,,,phone,3
541,2012-05-03 13:05:24.500000,2012-05-03 13:05:49.475000,24.975,5,DW,,,,,,,,,,,,,,1.0,,,phone,3
542,2012-05-03 13:05:37,2012-05-03 13:06:01.975000,24.975,5,DW,,,,,,,,,,,,,,1.0,,,phone,3
543,2012-05-03 13:05:49.500000,2012-05-03 13:06:14.475000,24.975,5,DW,,,,,,,,,,,,,,1.0,,,phone,3
544,2012-05-03 13:06:02,2012-05-03 13:06:26.975000,24.975,5,DW,,,,,,,,,,,,,,1.0,,,phone,3
545,2012-05-03 13:06:14.500000,2012-05-03 13:06:39.475000,24.975,5,DW,,,,,,,,,,,,,,1.0,,,phone,3
546,2012-05-03 13:06:27,2012-05-03 13:06:51.975000,24.975,5,DW,,,,,,,,,,,,,,1.0,,,phone,3
547,2012-05-03 13:06:39.500000,2012-05-03 13:07:04.475000,24.975,5,DW,,,,,,,,,,,,,,1.0,,,phone,3
548,2012-05-03 13:06:52,2012-05-03 13:07:16.975000,24.975,5,DW,,,,,,,,,,,,,,1.0,,,phone,3
549,2012-05-03 13:07:04.500000,2012-05-03 13:07:29.475000,24.975,5,DW,,,,,,,,,,,,,,1.0,,,phone,3
550,2012-05-03 13:07:17,2012-05-03 13:07:41.975000,24.975,5,DW,,,,,,,,,,,,,,1.0,,,phone,3
551,2012-05-03 13:07:29.500000,2012-05-03 13:07:54.475000,24.975,5,DW,,,,,,,,,,,,,,1.0,,,phone,3
552,2012-05-03 13:07:42,2012-05-03 13:08:06.975000,24.975,5,DW,,,,,,,,,,,,,,1.0,,,phone,3
553,2012-05-03 13:07:54.500000,2012-05-03 13:08:19.475000,24.975,5,DW,,,,,,,,,,,,,,1.0,,,phone,3
554,2012-05-03 13:08:07,2012-05-03 13:08:31.975000,24.975,5,DW,,,,,,,,,,,,,,1.0,,,phone,3
555,2012-05-03 13:08:19.500000,2012-05-03 13:08:44.475000,24.975,5,DW,,,,,,,,,,,,,,1.0,,,phone,3
556,2012-05-03 13:08:32,2012-05-03 13:08:56.975000,24.975,5,DW,,,,,,,,,,,,,,1.0,,,phone,3
557,2012-05-03 13:08:44.500000,2012-05-03 13:09:09.475000,24.975,5,DW,,,,,,,,,,,,,,1.0,,,phone,3
558,2012-05-03 13:08:57,2012-05-03 13:09:21.975000,24.975,5,DW,,,,,,,,,,,,,,1.0,,,phone,3
559,2012-05-03 13:09:09.500000,2012-05-03 13:09:30,20.5,5,DW,,,,,,,,,,,,,,1.0,,,phone,3
560,2012-05-03 13:09:22,2012-05-03 13:09:30,8.0,5,DW,,,,,,,,,,,,,,1.0,,,rest,-1
