segment,STARTTIME,ENDTIME,seg duration,session,sensor,inside puff/puff duration,inside puff/segment duration,prototypical?,puff index,puff side,car percentage,talk percentage,unknown percentage,drinking percentage,reading percentage,eating percentage,smoking percentage,computer percentage,phone percentage,walking percentage,superposition percentage,name,target
0,2012-11-06 11:27:25,2012-11-06 11:27:38.975000,13.975,7,DW,,,,,,,,,,,,,,,,,others,0
1,2012-11-06 11:27:32,2012-11-06 11:27:45.975000,13.975,7,DW,,,,,,,,,,,,,,,,,others,0
2,2012-11-06 11:27:39,2012-11-06 11:27:52.975000,13.975,7,DW,,,,,,,,,,,,,,,,,others,0
3,2012-11-06 11:27:46,2012-11-06 11:27:59.975000,13.975,7,DW,,,,,,,,,,,,,,,,,others,0
4,2012-11-06 11:27:53,2012-11-06 11:28:06.975000,13.975,7,DW,,,,,,,,,,,,,,,,,others,0
5,2012-11-06 11:28:00,2012-11-06 11:28:13.975000,13.975,7,DW,,,,,,,,,,,,,,,,,others,0
6,2012-11-06 11:28:07,2012-11-06 11:28:20.975000,13.975,7,DW,,,,,,,,,,,,,,,,,others,0
7,2012-11-06 11:28:14,2012-11-06 11:28:27.975000,13.975,7,DW,,,,,,,,,,,,,,,,,others,0
8,2012-11-06 11:28:21,2012-11-06 11:28:34.975000,13.975,7,DW,,,,,,,,,,,,,,,,,others,0
9,2012-11-06 11:28:28,2012-11-06 11:28:41.975000,13.975,7,DW,,,,,,,,,,,,,,,,,others,0
10,2012-11-06 11:28:35,2012-11-06 11:28:48.975000,13.975,7,DW,,,,,,,,,,,,,,,,,others,0
11,2012-11-06 11:28:42,2012-11-06 11:28:55.975000,13.975,7,DW,,,,,,,,,,,,,,,,,others,0
12,2012-11-06 11:28:49,2012-11-06 11:29:02.975000,13.975,7,DW,,,,,,,,,,,,,,,,,others,0
13,2012-11-06 11:28:56,2012-11-06 11:29:09.975000,13.975,7,DW,,,,,,,,,,,,,,,,,others,0
14,2012-11-06 11:29:03,2012-11-06 11:29:16.975000,13.975,7,DW,,,,,,,,,,,,,,,,,others,0
15,2012-11-06 11:29:10,2012-11-06 11:29:23.975000,13.975,7,DW,,,,,,,,,,,,,,,,,others,0
16,2012-11-06 11:29:17,2012-11-06 11:29:30.975000,13.975,7,DW,,,,,,,,,,,,,,,,,others,0
17,2012-11-06 11:29:24,2012-11-06 11:29:37.975000,13.975,7,DW,,,,,,,,,,,,,,,,,others,0
18,2012-11-06 11:29:31,2012-11-06 11:29:44.975000,13.975,7,DW,,,,,,,,,,,,,,,,,rest,-1
19,2012-11-06 11:29:38,2012-11-06 11:29:51.975000,13.975,7,DW,,,,,,,,,,,,,,,,,others,0
20,2012-11-06 11:29:45,2012-11-06 11:29:58.975000,13.975,7,DW,,,,,,,,,,,,,,,,,others,0
21,2012-11-06 11:29:52,2012-11-06 11:30:05.975000,13.975,7,DW,,,,,,,,0.21466905187835422,,,,,,,,,others,0
22,2012-11-06 11:29:59,2012-11-06 11:30:12.975000,13.975,7,DW,,,,,,,,0.21466905187835422,,,,,,,,,others,0
23,2012-11-06 11:30:06,2012-11-06 11:30:19.975000,13.975,7,DW,,,,,,,,,,,,,,,,,rest,-1
24,2012-11-06 11:30:13,2012-11-06 11:30:26.975000,13.975,7,DW,,,,,,,,,,,,,,,,,rest,-1
25,2012-11-06 11:30:20,2012-11-06 11:30:33.975000,13.975,7,DW,,,,,,,,,,,,,,,,,others,0
26,2012-11-06 11:30:27,2012-11-06 11:30:40.975000,13.975,7,DW,,,,,,,,,,,,,,,,,others,0
27,2012-11-06 11:30:34,2012-11-06 11:30:47.975000,13.975,7,DW,,,,,,,,,,,,,,,,,others,0
28,2012-11-06 11:30:41,2012-11-06 11:30:54.975000,13.975,7,DW,,,,,,,,,,,,,,,,,rest,-1
29,2012-11-06 11:30:48,2012-11-06 11:31:01.975000,13.975,7,DW,,,,,,,,,,,,,,,,,others,0
30,2012-11-06 11:30:55,2012-11-06 11:31:08.975000,13.975,7,DW,,,,,,,,,,,,,,,,,others,0
31,2012-11-06 11:31:02,2012-11-06 11:31:15.975000,13.975,7,DW,,,,,,,0.4991055456171735,,,,,,,,,,rest,-1
32,2012-11-06 11:31:09,2012-11-06 11:31:22.975000,13.975,7,DW,,,,,,,1.0,,,,,,,,,,talking,5
33,2012-11-06 11:31:16,2012-11-06 11:31:29.975000,13.975,7,DW,,,,,,,1.0,,,,,,,,,,talking,5
34,2012-11-06 11:31:23,2012-11-06 11:31:36.975000,13.975,7,DW,,,,,,,1.0,,,,,,,,,,talking,5
35,2012-11-06 11:31:30,2012-11-06 11:31:43.975000,13.975,7,DW,,,,,,,1.0,,,,,,,,,,talking,5
36,2012-11-06 11:31:37,2012-11-06 11:31:50.975000,13.975,7,DW,,,,,,,1.0,,,,,,,,,,talking,5
37,2012-11-06 11:31:44,2012-11-06 11:31:57.975000,13.975,7,DW,,,,,,,1.0,,,,,,,,,,talking,5
38,2012-11-06 11:31:51,2012-11-06 11:32:04.975000,13.975,7,DW,,,,,,,1.0,,,,,,,,,,talking,5
39,2012-11-06 11:31:58,2012-11-06 11:32:11.975000,13.975,7,DW,,,,,,,1.0,,,,,,,,,,rest,-1
40,2012-11-06 11:32:05,2012-11-06 11:32:18.975000,13.975,7,DW,,,,,,,1.0,,,,,,,,,,rest,-1
41,2012-11-06 11:32:12,2012-11-06 11:32:25.975000,13.975,7,DW,,,,,,,1.0,,,,,,,,,,rest,-1
42,2012-11-06 11:32:19,2012-11-06 11:32:32.975000,13.975,7,DW,,,,,,,1.0,,,,,,,,,,rest,-1
43,2012-11-06 11:32:26,2012-11-06 11:32:39.975000,13.975,7,DW,,,,,,,1.0,,,,,,,,,,talking,5
44,2012-11-06 11:32:33,2012-11-06 11:32:46.975000,13.975,7,DW,,,,,,,1.0,,,,,,,,,,talking,5
45,2012-11-06 11:32:40,2012-11-06 11:32:53.975000,13.975,7,DW,,,,,,,1.0,,,,,,,,,,talking,5
46,2012-11-06 11:32:47,2012-11-06 11:33:00.975000,13.975,7,DW,,,,,,,1.0,,,,,,,,,,talking,5
47,2012-11-06 11:32:54,2012-11-06 11:33:07.975000,13.975,7,DW,,,,,,,1.0,,,,,,,,,,talking,5
48,2012-11-06 11:33:01,2012-11-06 11:33:14.975000,13.975,7,DW,,,,,,,1.0,,,,,0.28443649373881935,,,,0.28443649373881935,talking,5
49,2012-11-06 11:33:08,2012-11-06 11:33:21.975000,13.975,7,DW,,,,,,,1.0,,,,,0.7853309481216458,,,,0.7853309481216458,talking,5
50,2012-11-06 11:33:15,2012-11-06 11:33:28.975000,13.975,7,DW,,,,,,,0.5724508050089445,,,,,1.0,,,,0.5724508050089445,talking,5
51,2012-11-06 11:33:22,2012-11-06 11:33:35.975000,13.975,7,DW,,,,,,,0.07155635062611806,,,,,1.0,,,,0.07155635062611806,others,0
52,2012-11-06 11:33:29,2012-11-06 11:33:42.975000,13.975,7,DW,,,,,,,,,,,,1.0,,,,,others,0
53,2012-11-06 11:33:36,2012-11-06 11:33:49.975000,13.975,7,DW,,,,,,,,,,,,1.0,,,,,others,0
54,2012-11-06 11:33:43,2012-11-06 11:33:56.975000,13.975,7,DW,,,,,,,,,,,,1.0,,,,,others,0
55,2012-11-06 11:33:50,2012-11-06 11:34:03.975000,13.975,7,DW,,,,,,,,,,,,1.0,,,,,rest,-1
56,2012-11-06 11:33:57,2012-11-06 11:34:10.975000,13.975,7,DW,0.9944444444444444,0.32021466905187834,0.0,1.0,right-puff,,,,,,,1.0,,,,,rest,-1
57,2012-11-06 11:34:04,2012-11-06 11:34:17.975000,13.975,7,DW,1.0,0.3220035778175313,0.0,1.0,right-puff,,,,,,,1.0,,,,,puff,9
58,2012-11-06 11:34:11,2012-11-06 11:34:24.975000,13.975,7,DW,0.99375,0.28443649373881935,1.0,2.0,right-puff,,,,,,,1.0,,,,,puff,9
59,2012-11-06 11:34:18,2012-11-06 11:34:31.975000,13.975,7,DW,1.0,0.28622540250447226,1.0,2.0,right-puff,,,,,,,1.0,,,,,puff,9
60,2012-11-06 11:34:25,2012-11-06 11:34:38.975000,13.975,7,DW,,,,,,,,,,,,1.0,,,,,others,0
61,2012-11-06 11:34:32,2012-11-06 11:34:45.975000,13.975,7,DW,,,,,,,,,,,,1.0,,,,,others,0
62,2012-11-06 11:34:39,2012-11-06 11:34:52.975000,13.975,7,DW,,,,,,,,,,,,1.0,,,,,others,0
63,2012-11-06 11:34:46,2012-11-06 11:34:59.975000,13.975,7,DW,1.0,0.42933810375670844,0.0,3.0,right-puff,,,,,,,1.0,,,,,puff,9
64,2012-11-06 11:34:53,2012-11-06 11:35:06.975000,13.975,7,DW,1.0,0.42933810375670844,0.0,3.0,right-puff,,,,,,,1.0,,,,,puff,9
65,2012-11-06 11:35:00,2012-11-06 11:35:13.975000,13.975,7,DW,,,,,,,,0.35778175313059035,,,,1.0,,,,0.35778175313059035,others,0
66,2012-11-06 11:35:07,2012-11-06 11:35:20.975000,13.975,7,DW,,,,,,,,0.35778175313059035,,,,1.0,,,,0.35778175313059035,others,0
67,2012-11-06 11:35:14,2012-11-06 11:35:27.975000,13.975,7,DW,,,,,,,,,,,,1.0,,,,,others,0
68,2012-11-06 11:35:21,2012-11-06 11:35:34.975000,13.975,7,DW,,,,,,,,,,,,1.0,,,,,others,0
69,2012-11-06 11:35:28,2012-11-06 11:35:41.975000,13.975,7,DW,1.0,0.35778175313059035,1.0,4.0,right-puff,,,,,,,1.0,,,,,puff,9
70,2012-11-06 11:35:35,2012-11-06 11:35:48.975000,13.975,7,DW,1.0,0.35778175313059035,1.0,4.0,right-puff,,,,,,,1.0,,,,,puff,9
71,2012-11-06 11:35:42,2012-11-06 11:35:55.975000,13.975,7,DW,0.1735294117647059,0.10554561717352416,0.0,5.0,right-puff,,,,,,,1.0,,,,,others,0
72,2012-11-06 11:35:49,2012-11-06 11:36:02.975000,13.975,7,DW,0.9970588235294118,0.6064400715563506,0.0,5.0,right-puff,,,,,,,1.0,,,,,puff,9
73,2012-11-06 11:35:56,2012-11-06 11:36:09.975000,13.975,7,DW,0.8235294117647058,0.5008944543828265,0.0,5.0,right-puff,,,,,,,1.0,,,,,puff,9
74,2012-11-06 11:36:03,2012-11-06 11:36:16.975000,13.975,7,DW,1.0,0.28622540250447226,1.0,6.0,right-puff,,,,,,,1.0,,,,,puff,9
75,2012-11-06 11:36:10,2012-11-06 11:36:23.975000,13.975,7,DW,1.0,0.28622540250447226,1.0,6.0,right-puff,,,,,,,1.0,,,,,puff,9
76,2012-11-06 11:36:17,2012-11-06 11:36:30.975000,13.975,7,DW,,,,,,,,,,,,1.0,,,,,others,0
77,2012-11-06 11:36:24,2012-11-06 11:36:37.975000,13.975,7,DW,,,,,,,0.28443649373881935,,,,,1.0,,,,0.28443649373881935,others,0
78,2012-11-06 11:36:31,2012-11-06 11:36:44.975000,13.975,7,DW,1.0,0.1967799642218247,0.0,7.0,right-puff,,0.28622540250447226,,,,,1.0,,,,0.28622540250447226,puff,9
79,2012-11-06 11:36:38,2012-11-06 11:36:51.975000,13.975,7,DW,1.0,0.1967799642218247,0.0,7.0,right-puff,,,,,,,1.0,,,,,puff,9
80,2012-11-06 11:36:45,2012-11-06 11:36:58.975000,13.975,7,DW,1.0,0.28622540250447226,0.0,8.0,right-puff,,,,,,,1.0,,,,,puff,9
81,2012-11-06 11:36:52,2012-11-06 11:37:05.975000,13.975,7,DW,2.375,0.6797853309481217,0.0,8.0,right-puff,,,,,,,1.0,,,,,puff,9
82,2012-11-06 11:36:59,2012-11-06 11:37:12.975000,13.975,7,DW,1.0,0.3935599284436494,1.0,9.0,right-puff,,,,,,,1.0,,,,,puff,9
83,2012-11-06 11:37:06,2012-11-06 11:37:19.975000,13.975,7,DW,,,,,,,,,,,,1.0,,,,,others,0
84,2012-11-06 11:37:13,2012-11-06 11:37:26.975000,13.975,7,DW,0.11875,0.03398926654740608,0.0,10.0,right-puff,,,,,,,1.0,,,,,others,0
85,2012-11-06 11:37:20,2012-11-06 11:37:33.975000,13.975,7,DW,1.0,0.28622540250447226,0.0,10.0,right-puff,,,,,,,1.0,,,,,puff,9
86,2012-11-06 11:37:27,2012-11-06 11:37:40.975000,13.975,7,DW,0.875,0.25044722719141327,0.0,10.0,right-puff,,,,,,,1.0,,,,,puff,9
87,2012-11-06 11:37:34,2012-11-06 11:37:47.975000,13.975,7,DW,,,,,,,,,,,,1.0,,,,,others,0
88,2012-11-06 11:37:41,2012-11-06 11:37:54.975000,13.975,7,DW,,,,,,,,,,,,1.0,,,,,others,0
89,2012-11-06 11:37:48,2012-11-06 11:38:01.975000,13.975,7,DW,,,,,,,,,,,,1.0,,,,,others,0
90,2012-11-06 11:37:55,2012-11-06 11:38:08.975000,13.975,7,DW,,,,,,,,,,,,1.0,,,,,others,0
91,2012-11-06 11:38:02,2012-11-06 11:38:15.975000,13.975,7,DW,,,,,,,,,,,,1.0,,,,,others,0
92,2012-11-06 11:38:09,2012-11-06 11:38:22.975000,13.975,7,DW,,,,,,,,,,,,1.0,,,,,others,0
93,2012-11-06 11:38:16,2012-11-06 11:38:29.975000,13.975,7,DW,,,,,,,,0.4275491949910554,,,,1.0,,,,0.4275491949910554,others,0
94,2012-11-06 11:38:23,2012-11-06 11:38:36.975000,13.975,7,DW,,,,,,,,0.42933810375670844,,,,1.0,,,,0.42933810375670844,others,0
95,2012-11-06 11:38:30,2012-11-06 11:38:43.975000,13.975,7,DW,,,,,,,,,,,,1.0,,,,,others,0
96,2012-11-06 11:38:37,2012-11-06 11:38:50.975000,13.975,7,DW,,,,,,,,,,,,1.0,,,,,others,0
97,2012-11-06 11:38:44,2012-11-06 11:38:57.975000,13.975,7,DW,,,,,,,,,,,,1.0,,,,,others,0
98,2012-11-06 11:38:51,2012-11-06 11:39:04.975000,13.975,7,DW,1.0,0.25044722719141327,0.0,12.0,right-puff,,,,,,,1.0,,,,,puff,9
99,2012-11-06 11:38:58,2012-11-06 11:39:11.975000,13.975,7,DW,1.0,0.25044722719141327,0.0,12.0,right-puff,,,,,,,1.0,,,,,puff,9
100,2012-11-06 11:39:05,2012-11-06 11:39:18.975000,13.975,7,DW,,,,,,,,,,,,1.0,,,,,others,0
101,2012-11-06 11:39:12,2012-11-06 11:39:25.975000,13.975,7,DW,,,,,,,,,,,,1.0,,,,,others,0
102,2012-11-06 11:39:19,2012-11-06 11:39:32.975000,13.975,7,DW,,,,,,,,,,,,1.0,,,,,rest,-1
103,2012-11-06 11:39:26,2012-11-06 11:39:39.975000,13.975,7,DW,,,,,,,,,,,,1.0,,,,,others,0
104,2012-11-06 11:39:33,2012-11-06 11:39:46.975000,13.975,7,DW,0.5685714285714285,0.3559928443649374,0.0,13.0,right-puff,,,,,,,1.0,,,,,puff,9
105,2012-11-06 11:39:40,2012-11-06 11:39:53.975000,13.975,7,DW,1.0,0.6261180679785331,0.0,13.0,right-puff,,,,,,,1.0,,,,,puff,9
106,2012-11-06 11:39:47,2012-11-06 11:40:00.975000,13.975,7,DW,0.42857142857142855,0.26833631484794274,0.0,13.0,right-puff,,,,,,,1.0,,,,,puff,9
107,2012-11-06 11:39:54,2012-11-06 11:40:07.975000,13.975,7,DW,,,,,,,,,,,,1.0,,,,,others,0
108,2012-11-06 11:40:01,2012-11-06 11:40:14.975000,13.975,7,DW,,,,,,,,,,,,1.0,,,,,others,0
109,2012-11-06 11:40:08,2012-11-06 11:40:21.975000,13.975,7,DW,,,,,,,,,,,,1.0,,,,,others,0
110,2012-11-06 11:40:15,2012-11-06 11:40:28.975000,13.975,7,DW,0.49642857142857144,0.2486583184257603,0.0,14.0,right-puff,,,,,,,1.0,,,,,puff,9
111,2012-11-06 11:40:22,2012-11-06 11:40:35.975000,13.975,7,DW,1.0,0.5008944543828265,0.0,14.0,right-puff,,,,,,,1.0,,,,,rest,-1
112,2012-11-06 11:40:29,2012-11-06 11:40:42.975000,13.975,7,DW,0.5,0.25044722719141327,0.0,14.0,right-puff,,,,,,,1.0,,,,,puff,9
113,2012-11-06 11:40:36,2012-11-06 11:40:49.975000,13.975,7,DW,,,,,,,,,,,,1.0,,,,,others,0
114,2012-11-06 11:40:43,2012-11-06 11:40:56.975000,13.975,7,DW,,,,,,,,,,,,1.0,,,,,others,0
115,2012-11-06 11:40:50,2012-11-06 11:41:03.975000,13.975,7,DW,,,,,,,,,,,,1.0,,,,,others,0
116,2012-11-06 11:40:57,2012-11-06 11:41:10.975000,13.975,7,DW,,,,,,,,,,,,1.0,,,,,others,0
117,2012-11-06 11:41:04,2012-11-06 11:41:17.975000,13.975,7,DW,,,,,,,,,,,,1.0,,,,,others,0
118,2012-11-06 11:41:11,2012-11-06 11:41:24.975000,13.975,7,DW,,,,,,,,,,,,1.0,,,,,others,0
119,2012-11-06 11:41:18,2012-11-06 11:41:31.975000,13.975,7,DW,,,,,,,,,,,,1.0,,,,,others,0
120,2012-11-06 11:41:25,2012-11-06 11:41:38.975000,13.975,7,DW,0.2681818181818182,0.10554561717352416,0.0,15.0,right-puff,,,,,,,1.0,,,,,others,0
121,2012-11-06 11:41:32,2012-11-06 11:41:45.975000,13.975,7,DW,1.0,0.3935599284436494,0.0,15.0,right-puff,,,,,,,1.0,,,,,puff,9
122,2012-11-06 11:41:39,2012-11-06 11:41:52.975000,13.975,7,DW,0.7272727272727273,0.28622540250447226,0.0,15.0,right-puff,,,,,,,1.0,,,,,puff,9
123,2012-11-06 11:41:46,2012-11-06 11:41:59.975000,13.975,7,DW,,,,,,,,,,,,1.0,,,,,others,0
124,2012-11-06 11:41:53,2012-11-06 11:42:06.975000,13.975,7,DW,,,,,,,,,,,,1.0,,,,,others,0
125,2012-11-06 11:42:00,2012-11-06 11:42:13.975000,13.975,7,DW,,,,,,,,,,,,1.0,,,,,others,0
126,2012-11-06 11:42:07,2012-11-06 11:42:20.975000,13.975,7,DW,,,,,,,,,,,,1.0,,,,,others,0
127,2012-11-06 11:42:14,2012-11-06 11:42:27.975000,13.975,7,DW,0.4972222222222222,0.32021466905187834,0.0,16.0,right-puff,,,,,,,1.0,,,,,puff,9
128,2012-11-06 11:42:21,2012-11-06 11:42:34.975000,13.975,7,DW,1.0,0.6440071556350626,0.0,16.0,right-puff,,0.28443649373881935,,,,,1.0,,,,0.28443649373881935,puff,9
129,2012-11-06 11:42:28,2012-11-06 11:42:41.975000,13.975,7,DW,0.5,0.3220035778175313,0.0,16.0,right-puff,,0.7853309481216458,,,,,1.0,,,,0.7853309481216458,puff,9
130,2012-11-06 11:42:35,2012-11-06 11:42:48.975000,13.975,7,DW,,,,,,,1.0,,,,,1.0,,,,1.0,talking,5
131,2012-11-06 11:42:42,2012-11-06 11:42:55.975000,13.975,7,DW,1.0,0.17889087656529518,0.0,17.0,right-puff,,1.0,,,,,1.0,,,,1.0,puff,9
132,2012-11-06 11:42:49,2012-11-06 11:43:02.975000,13.975,7,DW,1.9899999999999998,0.3559928443649374,0.0,17.0,right-puff,,1.0,,,,,1.0,,,,1.0,puff,9
133,2012-11-06 11:42:56,2012-11-06 11:43:09.975000,13.975,7,DW,1.0,0.3935599284436494,0.0,18.0,right-puff,,1.0,,,,,1.0,,,,1.0,puff,9
134,2012-11-06 11:43:03,2012-11-06 11:43:16.975000,13.975,7,DW,0.5454545454545454,0.21466905187835422,0.0,18.0,right-puff,,1.0,,,,,1.0,,,,1.0,puff,9
135,2012-11-06 11:43:10,2012-11-06 11:43:23.975000,13.975,7,DW,,,,,,,1.0,,,,,1.0,,,,1.0,talking,5
136,2012-11-06 11:43:17,2012-11-06 11:43:30.975000,13.975,7,DW,0.55,0.17710196779964224,0.0,19.0,right-puff,,1.0,,,,,1.0,,,,1.0,puff,9
137,2012-11-06 11:43:24,2012-11-06 11:43:37.975000,13.975,7,DW,1.0,0.3220035778175313,0.0,19.0,right-puff,,1.0,,,,,1.0,,,,1.0,puff,9
138,2012-11-06 11:43:31,2012-11-06 11:43:44.975000,13.975,7,DW,0.4444444444444444,0.14311270125223613,0.0,19.0,right-puff,,1.0,,,,,1.0,,,,1.0,puff,9
139,2012-11-06 11:43:38,2012-11-06 11:43:51.975000,13.975,7,DW,,,,,,,1.0,,,,,1.0,,,,1.0,talking,5
140,2012-11-06 11:43:45,2012-11-06 11:43:58.975000,13.975,7,DW,0.9944444444444444,0.32021466905187834,0.0,20.0,right-puff,,1.0,,,,,1.0,,,,1.0,puff,9
141,2012-11-06 11:43:52,2012-11-06 11:44:05.975000,13.975,7,DW,1.0,0.3220035778175313,0.0,20.0,right-puff,,1.0,,,,,1.0,,,,1.0,puff,9
142,2012-11-06 11:43:59,2012-11-06 11:44:12.975000,13.975,7,DW,,,,,,,1.0,,,,,1.0,,,,1.0,talking,5
143,2012-11-06 11:44:06,2012-11-06 11:44:19.975000,13.975,7,DW,,,,,,,1.0,,,,,1.0,,,,1.0,talking,5
144,2012-11-06 11:44:13,2012-11-06 11:44:26.975000,13.975,7,DW,,,,,,,1.0,,,,,1.0,,,,1.0,talking,5
145,2012-11-06 11:44:20,2012-11-06 11:44:33.975000,13.975,7,DW,,,,,,,1.0,,,,,1.0,,,,1.0,talking,5
146,2012-11-06 11:44:27,2012-11-06 11:44:40.975000,13.975,7,DW,,,,,,,1.0,,,,,1.0,,,,1.0,talking,5
147,2012-11-06 11:44:34,2012-11-06 11:44:47.975000,13.975,7,DW,,,,,,,1.0,,,,,1.0,,,,1.0,talking,5
148,2012-11-06 11:44:41,2012-11-06 11:44:54.975000,13.975,7,DW,,,,,,,1.0,,,,,1.0,,,,1.0,talking,5
149,2012-11-06 11:44:48,2012-11-06 11:45:01.975000,13.975,7,DW,,,,,,,1.0,,,,,1.0,,,,1.0,rest,-1
150,2012-11-06 11:44:55,2012-11-06 11:45:08.975000,13.975,7,DW,,,,,,,1.0,,,,,1.0,,,,1.0,talking,5
151,2012-11-06 11:45:02,2012-11-06 11:45:15.975000,13.975,7,DW,0.20526315789473684,0.06976744186046512,1.0,23.0,right-puff,,1.0,,,,,1.0,,,,1.0,talking,5
152,2012-11-06 11:45:09,2012-11-06 11:45:22.975000,13.975,7,DW,1.0,0.33989266547406083,1.0,23.0,right-puff,,0.7155635062611807,,,,,1.0,,,,0.7155635062611807,puff,9
153,2012-11-06 11:45:16,2012-11-06 11:45:29.975000,13.975,7,DW,0.7894736842105263,0.26833631484794274,1.0,23.0,right-puff,,0.21466905187835422,,,,,1.0,,,,0.21466905187835422,puff,9
154,2012-11-06 11:45:23,2012-11-06 11:45:36.975000,13.975,7,DW,,,,,,,,,,,,1.0,,,,,others,0
155,2012-11-06 11:45:30,2012-11-06 11:45:43.975000,13.975,7,DW,,,,,,,,,,,,1.0,,,,,others,0
156,2012-11-06 11:45:37,2012-11-06 11:45:50.975000,13.975,7,DW,0.3266666666666667,0.08765652951699464,0.0,24.0,right-puff,,,,,,,1.0,,,,,puff,9
157,2012-11-06 11:45:44,2012-11-06 11:45:57.975000,13.975,7,DW,1.5266666666666666,0.4096601073345259,0.0,24.0,right-puff,,,,,,,1.0,,,,,puff,9
158,2012-11-06 11:45:51,2012-11-06 11:46:04.975000,13.975,7,DW,1.8,0.48300536672629696,0.0,24.0,right-puff,,,,,,,1.0,,,,,puff,9
159,2012-11-06 11:45:58,2012-11-06 11:46:11.975000,13.975,7,DW,0.5294117647058824,0.16100178890876565,1.0,25.0,right-puff,,,,,,,1.0,,,,,puff,9
160,2012-11-06 11:46:05,2012-11-06 11:46:18.975000,13.975,7,DW,,,,,,,,,,,,1.0,,,,,others,0
161,2012-11-06 11:46:12,2012-11-06 11:46:25.975000,13.975,7,DW,0.24375,0.06976744186046512,1.0,26.0,right-puff,,,,,,,1.0,,,,,others,0
162,2012-11-06 11:46:19,2012-11-06 11:46:32.975000,13.975,7,DW,1.0,0.28622540250447226,1.0,26.0,right-puff,,,,,,,1.0,,,,,puff,9
163,2012-11-06 11:46:26,2012-11-06 11:46:39.975000,13.975,7,DW,0.75,0.21466905187835422,1.0,26.0,right-puff,,,,,,,1.0,,,,,puff,9
164,2012-11-06 11:46:33,2012-11-06 11:46:46.975000,13.975,7,DW,,,,,,,,,,,,1.0,,,,,others,0
165,2012-11-06 11:46:40,2012-11-06 11:46:53.975000,13.975,7,DW,,,,,,,,,,,,1.0,,,,,others,0
166,2012-11-06 11:46:47,2012-11-06 11:47:00.975000,13.975,7,DW,,,,,,,,,,,,1.0,,,,,others,0
167,2012-11-06 11:46:54,2012-11-06 11:47:07.975000,13.975,7,DW,1.0,0.28622540250447226,1.0,27.0,right-puff,,,,,,,1.0,,,,,puff,9
168,2012-11-06 11:47:01,2012-11-06 11:47:14.975000,13.975,7,DW,1.0,0.28622540250447226,1.0,27.0,right-puff,,,,,,,1.0,,,,,puff,9
169,2012-11-06 11:47:08,2012-11-06 11:47:21.975000,13.975,7,DW,,,,,,,,,,,,1.0,,,,,others,0
170,2012-11-06 11:47:15,2012-11-06 11:47:28.975000,13.975,7,DW,,,,,,,,,,,,1.0,,,,,others,0
171,2012-11-06 11:47:22,2012-11-06 11:47:35.975000,13.975,7,DW,,,,,,,,,,,,1.0,,,,,others,0
172,2012-11-06 11:47:29,2012-11-06 11:47:42.975000,13.975,7,DW,,,,,,,,,,,,0.7871198568872988,,,,,others,0
173,2012-11-06 11:47:36,2012-11-06 11:47:49.975000,13.975,7,DW,,,,,,,,,,,,0.28622540250447226,,,,,others,0
174,2012-11-06 11:47:43,2012-11-06 11:47:56.975000,13.975,7,DW,,,,,,,,,,,,,,,,,others,0
175,2012-11-06 11:47:50,2012-11-06 11:48:03.975000,13.975,7,DW,,,,,,,,,,,,,,,,,others,0
176,2012-11-06 11:47:57,2012-11-06 11:48:10.975000,13.975,7,DW,,,,,,,,,,,,,,,,,others,0
177,2012-11-06 11:48:04,2012-11-06 11:48:17.975000,13.975,7,DW,,,,,,,,,,,,,,,,,others,0
178,2012-11-06 11:48:11,2012-11-06 11:48:24.975000,13.975,7,DW,,,,,,,,,,,,,,,,,others,0
179,2012-11-06 11:48:18,2012-11-06 11:48:31.975000,13.975,7,DW,,,,,,,,,,,,,,,,,others,0
180,2012-11-06 11:48:25,2012-11-06 11:48:38.975000,13.975,7,DW,,,,,,,,,,,,,,,,,others,0
181,2012-11-06 11:48:32,2012-11-06 11:48:45.975000,13.975,7,DW,,,,,,,,,,,,,,,,,rest,-1
182,2012-11-06 11:48:39,2012-11-06 11:48:52.975000,13.975,7,DW,,,,,,,,0.06976744186046512,,,,,,,,,others,0
183,2012-11-06 11:48:46,2012-11-06 11:48:59.975000,13.975,7,DW,,,,,,,,0.5706618962432916,,,,,,,,,others,0
184,2012-11-06 11:48:53,2012-11-06 11:49:06.975000,13.975,7,DW,,,,,,,,1.0,,,,,,,,,others,0
185,2012-11-06 11:49:00,2012-11-06 11:49:13.975000,13.975,7,DW,,,,,,,,1.0,,,,,,,,,others,0
186,2012-11-06 11:49:07,2012-11-06 11:49:20.975000,13.975,7,DW,,,,,,,,1.0,,,,,,,,,others,0
187,2012-11-06 11:49:14,2012-11-06 11:49:27.975000,13.975,7,DW,,,,,,,,1.0,,,,,,,,,others,0
188,2012-11-06 11:49:21,2012-11-06 11:49:34.975000,13.975,7,DW,,,,,,,,1.0,,,,,,,,,others,0
189,2012-11-06 11:49:28,2012-11-06 11:49:41.975000,13.975,7,DW,,,,,,,,1.0,,,,,,,,,others,0
190,2012-11-06 11:49:35,2012-11-06 11:49:48.975000,13.975,7,DW,,,,,,,,1.0,,,,,,,,,others,0
191,2012-11-06 11:49:42,2012-11-06 11:49:55.975000,13.975,7,DW,,,,,,,,1.0,,,,,,,,,rest,-1
192,2012-11-06 11:49:49,2012-11-06 11:50:02.975000,13.975,7,DW,,,,,,,,1.0,,,,,,,,,others,0
193,2012-11-06 11:49:56,2012-11-06 11:50:09.975000,13.975,7,DW,,,,,,,0.21288014311270126,0.7871198568872988,,,,,,,,,others,0
194,2012-11-06 11:50:03,2012-11-06 11:50:16.975000,13.975,7,DW,,,,,,,0.7137745974955277,0.28622540250447226,,,,,,,,,talking,5
195,2012-11-06 11:50:10,2012-11-06 11:50:23.975000,13.975,7,DW,,,,,,,1.0,,,,,,,,,,rest,-1
196,2012-11-06 11:50:17,2012-11-06 11:50:30.975000,13.975,7,DW,,,,,,,1.0,,,,,,,,,,talking,5
197,2012-11-06 11:50:24,2012-11-06 11:50:37.975000,13.975,7,DW,,,,,,,1.0,,,,,,,,,,talking,5
198,2012-11-06 11:50:31,2012-11-06 11:50:44.975000,13.975,7,DW,,,,,,,1.0,,,,,,,,,,talking,5
199,2012-11-06 11:50:38,2012-11-06 11:50:51.975000,13.975,7,DW,,,,,,,1.0,,,,,,,,,,talking,5
200,2012-11-06 11:50:45,2012-11-06 11:50:58.975000,13.975,7,DW,,,,,,,1.0,,,,,,,,,,talking,5
201,2012-11-06 11:50:52,2012-11-06 11:51:05.975000,13.975,7,DW,,,,,,,1.0,,,,,,,,,,talking,5
202,2012-11-06 11:50:59,2012-11-06 11:51:12.975000,13.975,7,DW,,,,,,,1.0,,,,,,,,,,talking,5
203,2012-11-06 11:51:06,2012-11-06 11:51:19.975000,13.975,7,DW,,,,,,,1.0,,,,,,,,,,talking,5
204,2012-11-06 11:51:13,2012-11-06 11:51:26.975000,13.975,7,DW,,,,,,,1.0,,,,,,,,,,talking,5
205,2012-11-06 11:51:20,2012-11-06 11:51:33.975000,13.975,7,DW,,,,,,,1.0,,,,,,,,,,talking,5
206,2012-11-06 11:51:27,2012-11-06 11:51:40.975000,13.975,7,DW,,,,,,,1.0,,,,,,,,,,talking,5
207,2012-11-06 11:51:34,2012-11-06 11:51:47.975000,13.975,7,DW,,,,,,,1.0,,,,,,,,,,talking,5
208,2012-11-06 11:51:41,2012-11-06 11:51:54.975000,13.975,7,DW,,,,,,,1.0,,,,,,,,,,talking,5
209,2012-11-06 11:51:48,2012-11-06 11:52:01.975000,13.975,7,DW,,,,,,,1.0,,,,,,,,,,talking,5
210,2012-11-06 11:51:55,2012-11-06 11:52:08.975000,13.975,7,DW,,,,,,,1.0,,,,,,,,,,talking,5
211,2012-11-06 11:52:02,2012-11-06 11:52:15.975000,13.975,7,DW,,,,,,,1.0,,,,,,,,,,talking,5
212,2012-11-06 11:52:09,2012-11-06 11:52:22.975000,13.975,7,DW,,,,,,,1.0,,,,,,,,,,talking,5
213,2012-11-06 11:52:16,2012-11-06 11:52:29.975000,13.975,7,DW,,,,,,,1.0,,,,,,,,,,talking,5
214,2012-11-06 11:52:23,2012-11-06 11:52:36.975000,13.975,7,DW,,,,,,,1.0,,,,,,,,,,talking,5
215,2012-11-06 11:52:30,2012-11-06 11:52:43.975000,13.975,7,DW,,,,,,,1.0,,,,,,,,,,talking,5
216,2012-11-06 11:52:37,2012-11-06 11:52:50.975000,13.975,7,DW,,,,,,,1.0,,,,,,,,,,talking,5
217,2012-11-06 11:52:44,2012-11-06 11:52:57.975000,13.975,7,DW,,,,,,,1.0,,,,,,,,,,talking,5
218,2012-11-06 11:52:51,2012-11-06 11:53:04.975000,13.975,7,DW,,,,,,,1.0,,,,,,,,,,rest,-1
219,2012-11-06 11:52:58,2012-11-06 11:53:11.975000,13.975,7,DW,,,,,,,1.0,,,,,,,,,,talking,5
220,2012-11-06 11:53:05,2012-11-06 11:53:18.975000,13.975,7,DW,,,,,,,1.0,,,,,,,,,,talking,5
221,2012-11-06 11:53:12,2012-11-06 11:53:25.975000,13.975,7,DW,,,,,,,1.0,,,,,,,,,,rest,-1
222,2012-11-06 11:53:19,2012-11-06 11:53:32.975000,13.975,7,DW,,,,,,,1.0,,,,,,,,,,rest,-1
223,2012-11-06 11:53:26,2012-11-06 11:53:39.975000,13.975,7,DW,,,,,,,1.0,,,,,,,,,,rest,-1
224,2012-11-06 11:53:33,2012-11-06 11:53:46.975000,13.975,7,DW,,,,,,,1.0,,,,,,,,,,talking,5
225,2012-11-06 11:53:40,2012-11-06 11:53:53.975000,13.975,7,DW,,,,,,,1.0,,,,,,,,,,talking,5
226,2012-11-06 11:53:47,2012-11-06 11:54:00.975000,13.975,7,DW,,,,,,,1.0,,,,,,,,,,talking,5
227,2012-11-06 11:53:54,2012-11-06 11:54:07.975000,13.975,7,DW,,,,,,,1.0,,,,,,,,,,talking,5
228,2012-11-06 11:54:01,2012-11-06 11:54:14.975000,13.975,7,DW,,,,,,,1.0,,,,,,,,,,talking,5
229,2012-11-06 11:54:08,2012-11-06 11:54:21.975000,13.975,7,DW,,,,,,,1.0,,,,,,,,,,talking,5
230,2012-11-06 11:54:15,2012-11-06 11:54:28.975000,13.975,7,DW,,,,,,,1.0,,,,,,,,,,talking,5
231,2012-11-06 11:54:22,2012-11-06 11:54:35.975000,13.975,7,DW,,,,,,,1.0,,,,,,,,,,talking,5
232,2012-11-06 11:54:29,2012-11-06 11:54:42.975000,13.975,7,DW,,,,,,,1.0,,,,,,,,,,talking,5
233,2012-11-06 11:54:36,2012-11-06 11:54:49.975000,13.975,7,DW,,,,,,,1.0,,,,,,,,,,talking,5
234,2012-11-06 11:54:43,2012-11-06 11:54:56.975000,13.975,7,DW,,,,,,,1.0,,,,,,,,,,talking,5
235,2012-11-06 11:54:50,2012-11-06 11:55:03.975000,13.975,7,DW,,,,,,,1.0,,,,,,,,,,talking,5
236,2012-11-06 11:54:57,2012-11-06 11:55:10.975000,13.975,7,DW,,,,,,,1.0,,,,,,,,,,talking,5
237,2012-11-06 11:55:04,2012-11-06 11:55:17.975000,13.975,7,DW,,,,,,,1.0,,,,,,,,,,talking,5
238,2012-11-06 11:55:11,2012-11-06 11:55:24.975000,13.975,7,DW,,,,,,,0.7155635062611807,,,,,,,0.28443649373881935,,,talking,5
239,2012-11-06 11:55:18,2012-11-06 11:55:31.975000,13.975,7,DW,,,,,,,0.21466905187835422,,,,,,,0.7853309481216458,,,rest,-1
240,2012-11-06 11:55:25,2012-11-06 11:55:38.975000,13.975,7,DW,,,,,,,,,,,,,,1.0,,,rest,-1
241,2012-11-06 11:55:32,2012-11-06 11:55:45.975000,13.975,7,DW,,,,,,,,,,,,,,1.0,,,phone,3
242,2012-11-06 11:55:39,2012-11-06 11:55:52.975000,13.975,7,DW,,,,,,,,,,,,,,1.0,,,phone,3
243,2012-11-06 11:55:46,2012-11-06 11:55:59.975000,13.975,7,DW,,,,,,,,,,,,,,1.0,,,phone,3
244,2012-11-06 11:55:53,2012-11-06 11:56:06.975000,13.975,7,DW,,,,,,,,,,,,,,1.0,,,phone,3
245,2012-11-06 11:56:00,2012-11-06 11:56:13.975000,13.975,7,DW,,,,,,,,,,,,,,1.0,,,phone,3
246,2012-11-06 11:56:07,2012-11-06 11:56:20.975000,13.975,7,DW,,,,,,,0.4991055456171735,,,,,,,0.5008944543828265,,,talking,5
247,2012-11-06 11:56:14,2012-11-06 11:56:27.975000,13.975,7,DW,,,,,,,1.0,,,,,,,,,,talking,5
248,2012-11-06 11:56:21,2012-11-06 11:56:34.975000,13.975,7,DW,,,,,,,1.0,,,,,,,,,,talking,5
249,2012-11-06 11:56:28,2012-11-06 11:56:41.975000,13.975,7,DW,,,,,,,1.0,,,,,,,,,,talking,5
250,2012-11-06 11:56:35,2012-11-06 11:56:48.975000,13.975,7,DW,,,,,,,1.0,,,,,,,,,,talking,5
251,2012-11-06 11:56:42,2012-11-06 11:56:55.975000,13.975,7,DW,,,,,,,0.9302325581395349,,,,,,,0.06976744186046512,,,talking,5
252,2012-11-06 11:56:49,2012-11-06 11:57:02.975000,13.975,7,DW,,,,,,,0.42933810375670844,,,,,,,0.5706618962432916,,,talking,5
253,2012-11-06 11:56:56,2012-11-06 11:57:09.975000,13.975,7,DW,,,,,,,,,,,,,,1.0,,,phone,3
254,2012-11-06 11:57:03,2012-11-06 11:57:16.975000,13.975,7,DW,,,,,,,0.28443649373881935,,,,,,,0.7155635062611807,,,phone,3
255,2012-11-06 11:57:10,2012-11-06 11:57:23.975000,13.975,7,DW,,,,,,,0.7853309481216458,,,,,,,0.21466905187835422,,,talking,5
256,2012-11-06 11:57:17,2012-11-06 11:57:30.975000,13.975,7,DW,,,,,,,1.0,,,,,,,,,,talking,5
257,2012-11-06 11:57:24,2012-11-06 11:57:37.975000,13.975,7,DW,,,,,,,1.0,,,,,,,,,,talking,5
258,2012-11-06 11:57:31,2012-11-06 11:57:44.975000,13.975,7,DW,,,,,,,1.0,,,,,,,,,,talking,5
259,2012-11-06 11:57:38,2012-11-06 11:57:51.975000,13.975,7,DW,,,,,,,1.0,,,,,,,,,,talking,5
260,2012-11-06 11:57:45,2012-11-06 11:57:58.975000,13.975,7,DW,,,,,,,1.0,,,,,,,,,,talking,5
261,2012-11-06 11:57:52,2012-11-06 11:58:05.975000,13.975,7,DW,,,,,,,1.0,,,,,,,,,,talking,5
262,2012-11-06 11:57:59,2012-11-06 11:58:12.975000,13.975,7,DW,,,,,,,1.0,,,,,,,,,,talking,5
263,2012-11-06 11:58:06,2012-11-06 11:58:19.975000,13.975,7,DW,,,,,,,1.0,,,,,,,,,,talking,5
264,2012-11-06 11:58:13,2012-11-06 11:58:26.975000,13.975,7,DW,,,,,,,1.0,,,,,,,,,,talking,5
265,2012-11-06 11:58:20,2012-11-06 11:58:33.975000,13.975,7,DW,,,,,,,1.0,,,,,,,,,,talking,5
266,2012-11-06 11:58:27,2012-11-06 11:58:40.975000,13.975,7,DW,,,,,,,1.0,,,,,,,,,,talking,5
267,2012-11-06 11:58:34,2012-11-06 11:58:47.975000,13.975,7,DW,,,,,,,1.0,,,,,,,,,,talking,5
268,2012-11-06 11:58:41,2012-11-06 11:58:54.975000,13.975,7,DW,,,,,,,1.0,,,,,,,,,,talking,5
269,2012-11-06 11:58:48,2012-11-06 11:59:01.975000,13.975,7,DW,,,,,,,1.0,,,,,,,,,,talking,5
270,2012-11-06 11:58:55,2012-11-06 11:59:08.975000,13.975,7,DW,,,,,,,1.0,,,,,,,,,,talking,5
271,2012-11-06 11:59:02,2012-11-06 11:59:15.975000,13.975,7,DW,,,,,,,1.0,,,,,,,,,,talking,5
272,2012-11-06 11:59:09,2012-11-06 11:59:22.975000,13.975,7,DW,,,,,,,1.0,,,,,,,,,,talking,5
273,2012-11-06 11:59:16,2012-11-06 11:59:29.975000,13.975,7,DW,,,,,,,1.0,,,,,,,,,,rest,-1
274,2012-11-06 11:59:23,2012-11-06 11:59:36.975000,13.975,7,DW,,,,,,,1.0,,,,,,,,,,talking,5
275,2012-11-06 11:59:30,2012-11-06 11:59:43.975000,13.975,7,DW,,,,,,,1.0,,,,,,,,,,talking,5
276,2012-11-06 11:59:37,2012-11-06 11:59:50.975000,13.975,7,DW,,,,,,,1.0,,,,,,,,,,talking,5
277,2012-11-06 11:59:44,2012-11-06 11:59:57.975000,13.975,7,DW,,,,,,,1.0,,,,,,,,,,talking,5
278,2012-11-06 11:59:51,2012-11-06 12:00:04.975000,13.975,7,DW,,,,,,,1.0,,,,,,,,,,talking,5
279,2012-11-06 11:59:58,2012-11-06 12:00:11.975000,13.975,7,DW,,,,,,,1.0,,,,,,,,,,talking,5
280,2012-11-06 12:00:05,2012-11-06 12:00:18.975000,13.975,7,DW,,,,,,,1.0,,,,,,,,,,talking,5
281,2012-11-06 12:00:12,2012-11-06 12:00:25.975000,13.975,7,DW,,,,,,,1.0,,,,,,,,,,talking,5
282,2012-11-06 12:00:19,2012-11-06 12:00:32.975000,13.975,7,DW,,,,,,,1.0,,,,,,,,,,talking,5
283,2012-11-06 12:00:26,2012-11-06 12:00:39.975000,13.975,7,DW,,,,,,,1.0,,,,,,,,,,talking,5
284,2012-11-06 12:00:33,2012-11-06 12:00:46.975000,13.975,7,DW,,,,,,,1.0,,,,,,,,,,talking,5
285,2012-11-06 12:00:40,2012-11-06 12:00:53.975000,13.975,7,DW,,,,,,,1.0,,,,,,,,,,talking,5
286,2012-11-06 12:00:47,2012-11-06 12:01:00.975000,13.975,7,DW,,,,,,,0.7155635062611807,,,,,,,,0.3559928443649374,,talking,5
287,2012-11-06 12:00:54,2012-11-06 12:01:07.975000,13.975,7,DW,,,,,,,0.21466905187835422,,,,,,,,0.8568872987477638,,walking,1
288,2012-11-06 12:01:01,2012-11-06 12:01:14.975000,13.975,7,DW,,,,,,,,,,,,,,,1.0,,walking,1
289,2012-11-06 12:01:08,2012-11-06 12:01:21.975000,13.975,7,DW,,,,,,,,,,,,,,,1.0,,walking,1
290,2012-11-06 12:01:15,2012-11-06 12:01:28.975000,13.975,7,DW,,,,,,,,,,,,,,,1.0,,walking,1
291,2012-11-06 12:01:22,2012-11-06 12:01:35.975000,13.975,7,DW,,,,,,,,,,,,,,,1.0,,walking,1
292,2012-11-06 12:01:29,2012-11-06 12:01:42.975000,13.975,7,DW,,,,,,,,,,,,,,,0.5724508050089445,,walking,1
293,2012-11-06 12:01:36,2012-11-06 12:01:49.975000,13.975,7,DW,,,,,,,,,,,,,,,0.07155635062611806,,rest,-1
294,2012-11-06 12:01:43,2012-11-06 12:01:56.975000,13.975,7,DW,,,,,,,,,,,,,,,,,rest,-1
295,2012-11-06 12:01:50,2012-11-06 12:02:03.975000,13.975,7,DW,,,,,,,,,,,,,,,,,others,0
296,2012-11-06 12:01:57,2012-11-06 12:02:10.975000,13.975,7,DW,,,,,,,,,,,,,,,,,rest,-1
297,2012-11-06 12:02:04,2012-11-06 12:02:17.975000,13.975,7,DW,,,,,,,,,,,,,,,,,others,0
298,2012-11-06 12:02:11,2012-11-06 12:02:24.975000,13.975,7,DW,,,,,,,,,,,,,,,,,others,0
299,2012-11-06 12:02:18,2012-11-06 12:02:31.975000,13.975,7,DW,,,,,,,,,,,,,,,,,rest,-1
300,2012-11-06 12:02:25,2012-11-06 12:02:38.975000,13.975,7,DW,,,,,,,,,,,,,,,,,rest,-1
301,2012-11-06 12:02:32,2012-11-06 12:02:45.975000,13.975,7,DW,,,,,,,,,,,,,,,,,others,0
302,2012-11-06 12:02:39,2012-11-06 12:02:52.975000,13.975,7,DW,,,,,,,,,,,,,,,,,others,0
303,2012-11-06 12:02:46,2012-11-06 12:02:59.975000,13.975,7,DW,,,,,,,,,,,,,,,,,others,0
304,2012-11-06 12:02:53,2012-11-06 12:03:06.975000,13.975,7,DW,,,,,,,,,,,,,,,,,others,0
305,2012-11-06 12:03:00,2012-11-06 12:03:13.975000,13.975,7,DW,,,,,,,,,,,,,,,,,others,0
306,2012-11-06 12:03:07,2012-11-06 12:03:20.975000,13.975,7,DW,,,,,,,,,,,,,,,,,rest,-1
307,2012-11-06 12:03:14,2012-11-06 12:03:27.975000,13.975,7,DW,,,,,,,,,,,,,,,,,rest,-1
308,2012-11-06 12:03:21,2012-11-06 12:03:34.975000,13.975,7,DW,,,,,,,,,,,,,,,,,rest,-1
309,2012-11-06 12:03:28,2012-11-06 12:03:41.975000,13.975,7,DW,,,,,,,,,,,,,,,,,rest,-1
310,2012-11-06 12:03:35,2012-11-06 12:03:48.975000,13.975,7,DW,,,,,,,,,,,,,,,,,rest,-1
311,2012-11-06 12:03:42,2012-11-06 12:03:55.975000,13.975,7,DW,,,,,,,,,,,,,,,,,rest,-1
312,2012-11-06 12:03:49,2012-11-06 12:04:02.975000,13.975,7,DW,,,,,,,,,,,,,,,,,rest,-1
313,2012-11-06 12:03:56,2012-11-06 12:04:09.975000,13.975,7,DW,,,,,,,,,,,,,,,,,others,0
314,2012-11-06 12:04:03,2012-11-06 12:04:16.975000,13.975,7,DW,,,,,,,,,,,,,,,,,rest,-1
315,2012-11-06 12:04:10,2012-11-06 12:04:23.975000,13.975,7,DW,,,,,,,,,,,,,,,,,rest,-1
316,2012-11-06 12:04:17,2012-11-06 12:04:30.975000,13.975,7,DW,,,,,,,,,,,,,,,,,rest,-1
317,2012-11-06 12:04:24,2012-11-06 12:04:37.975000,13.975,7,DW,,,,,,,,,,,,,,,,,rest,-1
318,2012-11-06 12:04:31,2012-11-06 12:04:44.975000,13.975,7,DW,,,,,,,,,,,,,,,,,others,0
319,2012-11-06 12:04:38,2012-11-06 12:04:51.975000,13.975,7,DW,,,,,,,,,,,,,,,,,others,0
320,2012-11-06 12:04:45,2012-11-06 12:04:58.975000,13.975,7,DW,,,,,,,,,,,,,,,,,rest,-1
321,2012-11-06 12:04:52,2012-11-06 12:05:05.975000,13.975,7,DW,,,,,,,,,,,,,,,,,rest,-1
322,2012-11-06 12:04:59,2012-11-06 12:05:12.975000,13.975,7,DW,,,,,,,,,,,,,,,,,rest,-1
323,2012-11-06 12:05:06,2012-11-06 12:05:19.975000,13.975,7,DW,,,,,,,,,,,,,,,,,rest,-1
324,2012-11-06 12:05:13,2012-11-06 12:05:26.975000,13.975,7,DW,,,,,,,,,,,,,,,,,rest,-1
325,2012-11-06 12:05:20,2012-11-06 12:05:33.975000,13.975,7,DW,,,,,,,,,,,,,,,,,rest,-1
326,2012-11-06 12:05:27,2012-11-06 12:05:40.975000,13.975,7,DW,,,,,,,,,,,,,,,,,others,0
327,2012-11-06 12:05:34,2012-11-06 12:05:47.975000,13.975,7,DW,,,,,,,,,,,,,,,,,others,0
328,2012-11-06 12:05:41,2012-11-06 12:05:54.975000,13.975,7,DW,,,,,,,,,,,,,,,,,others,0
329,2012-11-06 12:05:48,2012-11-06 12:06:01.975000,13.975,7,DW,,,,,,,,,,,,,,,,,others,0
330,2012-11-06 12:05:55,2012-11-06 12:06:08.975000,13.975,7,DW,,,,,,,,,,,,,,,,,others,0
331,2012-11-06 12:06:02,2012-11-06 12:06:15.975000,13.975,7,DW,,,,,,,,,,,,,,,,,others,0
332,2012-11-06 12:06:09,2012-11-06 12:06:22.975000,13.975,7,DW,,,,,,,,,,,,,,,,,rest,-1
333,2012-11-06 12:06:16,2012-11-06 12:06:29.975000,13.975,7,DW,,,,,,,,,,,,,,,,,others,0
334,2012-11-06 12:06:23,2012-11-06 12:06:36.975000,13.975,7,DW,,,,,,,,,,,,,,,,,others,0
335,2012-11-06 12:06:30,2012-11-06 12:06:43.975000,13.975,7,DW,,,,,,,,,,,,,,,0.1413237924865832,,others,0
336,2012-11-06 12:06:37,2012-11-06 12:06:50.975000,13.975,7,DW,,,,,,,,,,,,,,,0.6422182468694096,,walking,1
337,2012-11-06 12:06:44,2012-11-06 12:06:57.975000,13.975,7,DW,,,,,,,,,,,,,,,0.5724508050089445,,walking,1
338,2012-11-06 12:06:51,2012-11-06 12:07:04.975000,13.975,7,DW,,,,,,,,,,,,,,,0.07155635062611806,,others,0
339,2012-11-06 12:06:58,2012-11-06 12:07:11.975000,13.975,7,DW,,,,,,,,,,,,,,,,,others,0
340,2012-11-06 12:07:05,2012-11-06 12:07:18.975000,13.975,7,DW,,,,,,,,,,,,,,,,,others,0
341,2012-11-06 12:07:12,2012-11-06 12:07:25.975000,13.975,7,DW,,,,,,,,,,,,,,,,,others,0
342,2012-11-06 12:07:19,2012-11-06 12:07:32.975000,13.975,7,DW,,,,,,,,,,,,,,,,,others,0
343,2012-11-06 12:07:26,2012-11-06 12:07:39.975000,13.975,7,DW,,,,,,,,,,,,,,,,,others,0
344,2012-11-06 12:07:33,2012-11-06 12:07:46.975000,13.975,7,DW,,,,,,,,,,,,,,,0.4275491949910554,,walking,1
345,2012-11-06 12:07:40,2012-11-06 12:07:53.975000,13.975,7,DW,,,,,,,,,,,,,,,0.9284436493738819,,walking,1
346,2012-11-06 12:07:47,2012-11-06 12:08:00.975000,13.975,7,DW,,,,,,,,,,,,,,,1.0,,walking,1
347,2012-11-06 12:07:54,2012-11-06 12:08:07.975000,13.975,7,DW,,,,,,,,,,,,,,,0.9302325581395349,,walking,1
348,2012-11-06 12:08:01,2012-11-06 12:08:14.975000,13.975,7,DW,,,,,,,,,,,,,,,0.42933810375670844,,walking,1
349,2012-11-06 12:08:08,2012-11-06 12:08:21.975000,13.975,7,DW,,,,,,,,,,,,,,,,,others,0
350,2012-11-06 12:08:15,2012-11-06 12:08:28.975000,13.975,7,DW,,,,,,,,,,,,,,,,,others,0
351,2012-11-06 12:08:22,2012-11-06 12:08:35.975000,13.975,7,DW,,,,,,,,,,,,,,,,,others,0
352,2012-11-06 12:08:29,2012-11-06 12:08:42.975000,13.975,7,DW,,,,,,,,,,,,,,,,,others,0
353,2012-11-06 12:08:36,2012-11-06 12:08:49.975000,13.975,7,DW,,,,,,,,,,,,,,,,,others,0
354,2012-11-06 12:08:43,2012-11-06 12:08:56.975000,13.975,7,DW,,,,,,,,,,,,,,,,,others,0
355,2012-11-06 12:08:50,2012-11-06 12:09:03.975000,13.975,7,DW,,,,,,,,,,,,,,,,,others,0
356,2012-11-06 12:08:57,2012-11-06 12:09:10.975000,13.975,7,DW,,,,,,,,,,,,,,,,,others,0
357,2012-11-06 12:09:04,2012-11-06 12:09:17.975000,13.975,7,DW,,,,,,,,,,,,,,,,,others,0
358,2012-11-06 12:09:11,2012-11-06 12:09:24.975000,13.975,7,DW,,,,,,,,,,,,0.06976744186046512,,,,,others,0
359,2012-11-06 12:09:18,2012-11-06 12:09:31.975000,13.975,7,DW,,,,,,,,,,,,0.5706618962432916,,,,,others,0
360,2012-11-06 12:09:25,2012-11-06 12:09:38.975000,13.975,7,DW,,,,,,,,,,,,1.0,,,,,others,0
361,2012-11-06 12:09:32,2012-11-06 12:09:45.975000,13.975,7,DW,,,,,,,,,,,,1.0,,,,,others,0
362,2012-11-06 12:09:39,2012-11-06 12:09:52.975000,13.975,7,DW,,,,,,,,,,,,1.0,,,,,rest,-1
363,2012-11-06 12:09:46,2012-11-06 12:09:59.975000,13.975,7,DW,,,,,,,,,,,,1.0,,,,,others,0
364,2012-11-06 12:09:53,2012-11-06 12:10:06.975000,13.975,7,DW,,,,,,,,,,,,1.0,,,,,others,0
365,2012-11-06 12:10:00,2012-11-06 12:10:13.975000,13.975,7,DW,,,,,,,,,,,,1.0,,,,,others,0
366,2012-11-06 12:10:07,2012-11-06 12:10:20.975000,13.975,7,DW,,,,,,,,,,,,1.0,,,,,others,0
367,2012-11-06 12:10:14,2012-11-06 12:10:27.975000,13.975,7,DW,,,,,,,,,0.4275491949910554,,,1.0,,,,0.4275491949910554,drinking,8
368,2012-11-06 12:10:21,2012-11-06 12:10:34.975000,13.975,7,DW,,,,,,,,,0.9284436493738819,,,1.0,,,,0.9284436493738819,rest,-1
369,2012-11-06 12:10:28,2012-11-06 12:10:41.975000,13.975,7,DW,,,,,,,,,1.0,,,1.0,,,,1.0,rest,-1
370,2012-11-06 12:10:35,2012-11-06 12:10:48.975000,13.975,7,DW,,,,,,,,,1.0,,,1.0,,,,1.0,drinking,8
371,2012-11-06 12:10:42,2012-11-06 12:10:55.975000,13.975,7,DW,0.26756756756756755,0.17710196779964224,0.0,30.0,right-puff,,,,1.0,,,1.0,,,,1.0,drinking,8
372,2012-11-06 12:10:49,2012-11-06 12:11:02.975000,13.975,7,DW,1.0,0.6618962432915921,0.0,30.0,right-puff,,,,1.0,,,1.0,,,,1.0,puff,9
373,2012-11-06 12:10:56,2012-11-06 12:11:09.975000,13.975,7,DW,0.7297297297297297,0.48300536672629696,0.0,30.0,right-puff,,,,1.0,,,1.0,,,,1.0,puff,9
374,2012-11-06 12:11:03,2012-11-06 12:11:16.975000,13.975,7,DW,0.4538461538461539,0.10554561717352416,0.0,31.0,right-puff,,,,1.0,,,1.0,,,,1.0,puff,9
375,2012-11-06 12:11:10,2012-11-06 12:11:23.975000,13.975,7,DW,1.0,0.23255813953488372,0.0,31.0,right-puff,,,,0.6440071556350626,,,1.0,,,,0.6440071556350626,puff,9
376,2012-11-06 12:11:17,2012-11-06 12:11:30.975000,13.975,7,DW,0.5384615384615384,0.12522361359570663,0.0,31.0,right-puff,,,,0.4991055456171735,,,1.0,,,,0.4991055456171735,puff,9
377,2012-11-06 12:11:24,2012-11-06 12:11:37.975000,13.975,7,DW,,,,,,,,,0.35778175313059035,,,1.0,,,,0.35778175313059035,drinking,8
378,2012-11-06 12:11:31,2012-11-06 12:11:44.975000,13.975,7,DW,,,,,,,,,,,,1.0,,,,,others,0
379,2012-11-06 12:11:38,2012-11-06 12:11:51.975000,13.975,7,DW,,,,,,,,,,,,1.0,,,,,others,0
380,2012-11-06 12:11:45,2012-11-06 12:11:58.975000,13.975,7,DW,,,,,,,,,,,,1.0,,,,,others,0
381,2012-11-06 12:11:52,2012-11-06 12:12:05.975000,13.975,7,DW,,,,,,,,,,,,1.0,,,,,others,0
382,2012-11-06 12:11:59,2012-11-06 12:12:12.975000,13.975,7,DW,,,,,,,,,,,,1.0,,,,,others,0
383,2012-11-06 12:12:06,2012-11-06 12:12:19.975000,13.975,7,DW,,,,,,,,,,,,1.0,,,,,others,0
384,2012-11-06 12:12:13,2012-11-06 12:12:26.975000,13.975,7,DW,0.9949999999999999,0.3559928443649374,0.0,33.0,right-puff,,,,,,,1.0,,,,,puff,9
385,2012-11-06 12:12:20,2012-11-06 12:12:33.975000,13.975,7,DW,1.0,0.35778175313059035,0.0,33.0,right-puff,,,,,,,1.0,,,,,rest,-1
386,2012-11-06 12:12:27,2012-11-06 12:12:40.975000,13.975,7,DW,,,,,,,,,0.07155635062611806,,,1.0,,,,0.07155635062611806,rest,-1
387,2012-11-06 12:12:34,2012-11-06 12:12:47.975000,13.975,7,DW,1.0,0.26833631484794274,0.0,34.0,right-puff,,,,0.07155635062611806,,,1.0,,,,0.07155635062611806,puff,9
388,2012-11-06 12:12:41,2012-11-06 12:12:54.975000,13.975,7,DW,1.0,0.26833631484794274,0.0,34.0,right-puff,,,,,,,1.0,,,,,puff,9
389,2012-11-06 12:12:48,2012-11-06 12:13:01.975000,13.975,7,DW,,,,,,,,,,,,1.0,,,,,rest,-1
390,2012-11-06 12:12:55,2012-11-06 12:13:08.975000,13.975,7,DW,,,,,,,,,,,,0.6440071556350626,,,,,others,0
391,2012-11-06 12:13:02,2012-11-06 12:13:15.975000,13.975,7,DW,,,,,,,,,,,,0.14311270125223613,,,0.4275491949910554,,walking,1
392,2012-11-06 12:13:09,2012-11-06 12:13:22.975000,13.975,7,DW,,,,,,,,,,,,,,,0.9284436493738819,,walking,1
393,2012-11-06 12:13:16,2012-11-06 12:13:29.975000,13.975,7,DW,,,,,,,,,,,,,,,1.0,,walking,1
394,2012-11-06 12:13:23,2012-11-06 12:13:36.975000,13.975,7,DW,,,,,,,,,,,,,,,1.0,,walking,1
395,2012-11-06 12:13:30,2012-11-06 12:13:43.975000,13.975,7,DW,,,,,,,,,,,,,,,1.0,,walking,1
396,2012-11-06 12:13:37,2012-11-06 12:13:50.975000,13.975,7,DW,,,,,,,,,,,,,,,1.0,,walking,1
397,2012-11-06 12:13:44,2012-11-06 12:13:57.975000,13.975,7,DW,,,,,,,,,,,,,,,1.0,,walking,1
398,2012-11-06 12:13:51,2012-11-06 12:14:04.975000,13.975,7,DW,,,,,,,,,,,,,,,1.0,,walking,1
399,2012-11-06 12:13:58,2012-11-06 12:14:11.975000,13.975,7,DW,,,,,,,,,,,,,,,1.0,,walking,1
400,2012-11-06 12:14:05,2012-11-06 12:14:18.975000,13.975,7,DW,,,,,,,,,,,,,,,1.0,,walking,1
401,2012-11-06 12:14:12,2012-11-06 12:14:25.975000,13.975,7,DW,,,,,,,,,,,,,,,1.0,,walking,1
402,2012-11-06 12:14:19,2012-11-06 12:14:32.975000,13.975,7,DW,,,,,,,,,,,,,,,1.0,,walking,1
403,2012-11-06 12:14:26,2012-11-06 12:14:39.975000,13.975,7,DW,,,,,,,,,,,,,,,1.0,,rest,-1
404,2012-11-06 12:14:33,2012-11-06 12:14:46.975000,13.975,7,DW,,,,,,,,,,,,,,,1.0,,rest,-1
405,2012-11-06 12:14:40,2012-11-06 12:14:53.975000,13.975,7,DW,,,,,,,,,,,,,,,1.0,,rest,-1
406,2012-11-06 12:14:47,2012-11-06 12:15:00.975000,13.975,7,DW,,,,,,,,,,,,,,,1.0,,walking,1
407,2012-11-06 12:14:54,2012-11-06 12:15:07.975000,13.975,7,DW,,,,,,,,,,,,,,,1.0,,walking,1
408,2012-11-06 12:15:01,2012-11-06 12:15:14.975000,13.975,7,DW,,,,,,,,,,,,,,,1.0,,walking,1
409,2012-11-06 12:15:08,2012-11-06 12:15:21.975000,13.975,7,DW,,,,,,,,,,,,,,,1.0,,walking,1
410,2012-11-06 12:15:15,2012-11-06 12:15:28.975000,13.975,7,DW,,,,,,,,,,,,,,,1.0,,walking,1
411,2012-11-06 12:15:22,2012-11-06 12:15:35.975000,13.975,7,DW,,,,,,,,,,,,,,,1.0,,walking,1
412,2012-11-06 12:15:29,2012-11-06 12:15:42.975000,13.975,7,DW,,,,,,,,,,,,,,,1.0,,walking,1
413,2012-11-06 12:15:36,2012-11-06 12:15:49.975000,13.975,7,DW,,,,,,,,,,,,,,,1.0,,walking,1
414,2012-11-06 12:15:43,2012-11-06 12:15:56.975000,13.975,7,DW,,,,,,,,,,,,,,,1.0,,walking,1
415,2012-11-06 12:15:50,2012-11-06 12:16:03.975000,13.975,7,DW,,,,,,,,,,,,,,,1.0,,walking,1
416,2012-11-06 12:15:57,2012-11-06 12:16:10.975000,13.975,7,DW,,,,,,,,,,,,,,,1.0,,walking,1
417,2012-11-06 12:16:04,2012-11-06 12:16:17.975000,13.975,7,DW,,,,,,,,,,,,,,,0.8586762075134169,,walking,1
418,2012-11-06 12:16:11,2012-11-06 12:16:24.975000,13.975,7,DW,,,,,,,,,,,,,,,0.35778175313059035,,walking,1
419,2012-11-06 12:16:18,2012-11-06 12:16:31.975000,13.975,7,DW,,,,,,,,,,,0.4991055456171735,,,,,,eating,2
420,2012-11-06 12:16:25,2012-11-06 12:16:38.975000,13.975,7,DW,,,,,,,,,,,1.0,,,,,,eating,2
421,2012-11-06 12:16:32,2012-11-06 12:16:45.975000,13.975,7,DW,,,,,,,,,,,1.0,,,,,,eating,2
422,2012-11-06 12:16:39,2012-11-06 12:16:52.975000,13.975,7,DW,,,,,,,,,,,1.0,,,,,,eating,2
423,2012-11-06 12:16:46,2012-11-06 12:16:59.975000,13.975,7,DW,,,,,,,,,,,1.0,,,,,,eating,2
424,2012-11-06 12:16:53,2012-11-06 12:17:06.975000,13.975,7,DW,,,,,,,,,,,1.0,,,,,,rest,-1
425,2012-11-06 12:17:00,2012-11-06 12:17:13.975000,13.975,7,DW,,,,,,,,,,,1.0,,,,,,eating,2
426,2012-11-06 12:17:07,2012-11-06 12:17:20.975000,13.975,7,DW,,,,,,,,,,,1.0,,,,,,eating,2
427,2012-11-06 12:17:14,2012-11-06 12:17:27.975000,13.975,7,DW,,,,,,,,,,,1.0,,,,,,eating,2
428,2012-11-06 12:17:21,2012-11-06 12:17:34.975000,13.975,7,DW,,,,,,,,,,,1.0,,,,,,eating,2
429,2012-11-06 12:17:28,2012-11-06 12:17:41.975000,13.975,7,DW,,,,,,,,,,,1.0,,,,,,rest,-1
430,2012-11-06 12:17:35,2012-11-06 12:17:48.975000,13.975,7,DW,,,,,,,,,,,1.0,,,,,,rest,-1
431,2012-11-06 12:17:42,2012-11-06 12:17:55.975000,13.975,7,DW,,,,,,,,,,,1.0,,,,,,eating,2
432,2012-11-06 12:17:49,2012-11-06 12:18:02.975000,13.975,7,DW,,,,,,,,,,,1.0,,,,,,eating,2
433,2012-11-06 12:17:56,2012-11-06 12:18:09.975000,13.975,7,DW,,,,,,,,,,,1.0,,,,,,eating,2
434,2012-11-06 12:18:03,2012-11-06 12:18:16.975000,13.975,7,DW,,,,,,,,,,,1.0,,,,,,eating,2
435,2012-11-06 12:18:10,2012-11-06 12:18:23.975000,13.975,7,DW,,,,,,,,,,,1.0,,,,,,eating,2
436,2012-11-06 12:18:17,2012-11-06 12:18:30.975000,13.975,7,DW,,,,,,,,,,,1.0,,,,,,eating,2
437,2012-11-06 12:18:24,2012-11-06 12:18:37.975000,13.975,7,DW,,,,,,,,,,,1.0,,,,,,eating,2
438,2012-11-06 12:18:31,2012-11-06 12:18:44.975000,13.975,7,DW,,,,,,,,,,,1.0,,,,,,eating,2
439,2012-11-06 12:18:38,2012-11-06 12:18:51.975000,13.975,7,DW,,,,,,,,,,,1.0,,,,,,eating,2
440,2012-11-06 12:18:45,2012-11-06 12:18:58.975000,13.975,7,DW,,,,,,,,,,,1.0,,,,,,eating,2
441,2012-11-06 12:18:52,2012-11-06 12:19:05.975000,13.975,7,DW,,,,,,,,,,,1.0,,,,,,eating,2
442,2012-11-06 12:18:59,2012-11-06 12:19:12.975000,13.975,7,DW,,,,,,,,,,,1.0,,,,,,eating,2
443,2012-11-06 12:19:06,2012-11-06 12:19:19.975000,13.975,7,DW,,,,,,,,,,,1.0,,,,,,eating,2
444,2012-11-06 12:19:13,2012-11-06 12:19:26.975000,13.975,7,DW,,,,,,,,,,,1.0,,,,,,eating,2
445,2012-11-06 12:19:20,2012-11-06 12:19:33.975000,13.975,7,DW,,,,,,,,,,,1.0,,,,,,eating,2
446,2012-11-06 12:19:27,2012-11-06 12:19:40.975000,13.975,7,DW,,,,,,,,,,,1.0,,,,,,eating,2
447,2012-11-06 12:19:34,2012-11-06 12:19:47.975000,13.975,7,DW,,,,,,,,,,,1.0,,,,,,eating,2
448,2012-11-06 12:19:41,2012-11-06 12:19:54.975000,13.975,7,DW,,,,,,,,,,,1.0,,,,,,eating,2
449,2012-11-06 12:19:48,2012-11-06 12:20:01.975000,13.975,7,DW,,,,,,,,,,,1.0,,,,,,eating,2
450,2012-11-06 12:19:55,2012-11-06 12:20:08.975000,13.975,7,DW,,,,,,,,,,,1.0,,,,,,eating,2
451,2012-11-06 12:20:02,2012-11-06 12:20:15.975000,13.975,7,DW,,,,,,,,,,,1.0,,,,,,eating,2
452,2012-11-06 12:20:09,2012-11-06 12:20:22.975000,13.975,7,DW,,,,,,,,,,,1.0,,,,,,eating,2
453,2012-11-06 12:20:16,2012-11-06 12:20:29.975000,13.975,7,DW,,,,,,,,,,,1.0,,,,,,eating,2
454,2012-11-06 12:20:23,2012-11-06 12:20:36.975000,13.975,7,DW,,,,,,,,,,,1.0,,,,,,eating,2
455,2012-11-06 12:20:30,2012-11-06 12:20:43.975000,13.975,7,DW,,,,,,,,,,,1.0,,,,,,rest,-1
456,2012-11-06 12:20:37,2012-11-06 12:20:50.975000,13.975,7,DW,,,,,,,,,,,1.0,,,,,,eating,2
457,2012-11-06 12:20:44,2012-11-06 12:20:57.975000,13.975,7,DW,,,,,,,,,,,1.0,,,,,,eating,2
458,2012-11-06 12:20:51,2012-11-06 12:21:04.975000,13.975,7,DW,,,,,,,,,,,1.0,,,,,,eating,2
459,2012-11-06 12:20:58,2012-11-06 12:21:11.975000,13.975,7,DW,,,,,,,,,,,1.0,,,,,,eating,2
460,2012-11-06 12:21:05,2012-11-06 12:21:18.975000,13.975,7,DW,,,,,,,,,,,1.0,,,,,,eating,2
461,2012-11-06 12:21:12,2012-11-06 12:21:25.975000,13.975,7,DW,,,,,,,,,,,1.0,,,,,,eating,2
462,2012-11-06 12:21:19,2012-11-06 12:21:32.975000,13.975,7,DW,,,,,,,,,,,1.0,,,,,,eating,2
463,2012-11-06 12:21:26,2012-11-06 12:21:39.975000,13.975,7,DW,,,,,,,,,,,1.0,,,,,,eating,2
464,2012-11-06 12:21:33,2012-11-06 12:21:46.975000,13.975,7,DW,,,,,,,,,,,1.0,,,,,,eating,2
465,2012-11-06 12:21:40,2012-11-06 12:21:53.975000,13.975,7,DW,,,,,,,,,,,1.0,,,,,,eating,2
466,2012-11-06 12:21:47,2012-11-06 12:22:00.975000,13.975,7,DW,,,,,,,,,,,1.0,,,,,,eating,2
467,2012-11-06 12:21:54,2012-11-06 12:22:07.975000,13.975,7,DW,,,,,,,,,,,1.0,,,,,,eating,2
468,2012-11-06 12:22:01,2012-11-06 12:22:14.975000,13.975,7,DW,,,,,,,,,,,1.0,,,,,,eating,2
469,2012-11-06 12:22:08,2012-11-06 12:22:21.975000,13.975,7,DW,,,,,,,,,,,1.0,,,,,,eating,2
470,2012-11-06 12:22:15,2012-11-06 12:22:28.975000,13.975,7,DW,,,,,,,,,,,1.0,,,,,,eating,2
471,2012-11-06 12:22:22,2012-11-06 12:22:35.975000,13.975,7,DW,,,,,,,,,,,1.0,,,,,,eating,2
472,2012-11-06 12:22:29,2012-11-06 12:22:42.975000,13.975,7,DW,,,,,,,,,,,1.0,,,,,,eating,2
473,2012-11-06 12:22:36,2012-11-06 12:22:49.975000,13.975,7,DW,,,,,,,,,,,1.0,,,,,,eating,2
474,2012-11-06 12:22:43,2012-11-06 12:22:56.975000,13.975,7,DW,,,,,,,,,,,1.0,,,,,,eating,2
475,2012-11-06 12:22:50,2012-11-06 12:23:03.975000,13.975,7,DW,,,,,,,,,,,1.0,,,,,,eating,2
476,2012-11-06 12:22:57,2012-11-06 12:23:10.975000,13.975,7,DW,,,,,,,,,,,1.0,,,,,,eating,2
477,2012-11-06 12:23:04,2012-11-06 12:23:17.975000,13.975,7,DW,,,,,,,,,,,1.0,,,,,,eating,2
478,2012-11-06 12:23:11,2012-11-06 12:23:24.975000,13.975,7,DW,,,,,,,,,,,1.0,,,,,,eating,2
479,2012-11-06 12:23:18,2012-11-06 12:23:31.975000,13.975,7,DW,,,,,,,,,,,1.0,,,,,,eating,2
480,2012-11-06 12:23:25,2012-11-06 12:23:38.975000,13.975,7,DW,,,,,,,,,,,1.0,,,,,,eating,2
481,2012-11-06 12:23:32,2012-11-06 12:23:45.975000,13.975,7,DW,,,,,,,,,,,1.0,,,,,,eating,2
482,2012-11-06 12:23:39,2012-11-06 12:23:52.975000,13.975,7,DW,,,,,,,,,,,1.0,,,,,,rest,-1
483,2012-11-06 12:23:46,2012-11-06 12:23:59.975000,13.975,7,DW,,,,,,,,,,,1.0,,,,,,rest,-1
484,2012-11-06 12:23:53,2012-11-06 12:24:06.975000,13.975,7,DW,,,,,,,,,,,1.0,,,,,,rest,-1
485,2012-11-06 12:24:00,2012-11-06 12:24:13.975000,13.975,7,DW,,,,,,,,,,,1.0,,,,,,eating,2
486,2012-11-06 12:24:07,2012-11-06 12:24:20.975000,13.975,7,DW,,,,,,,,,,,1.0,,,,,,eating,2
487,2012-11-06 12:24:14,2012-11-06 12:24:27.975000,13.975,7,DW,,,,,,,,,,,1.0,,,,,,eating,2
488,2012-11-06 12:24:21,2012-11-06 12:24:34.975000,13.975,7,DW,,,,,,,,,,,1.0,,,,,,eating,2
489,2012-11-06 12:24:28,2012-11-06 12:24:41.975000,13.975,7,DW,,,,,,,,,,,1.0,,,,,,eating,2
490,2012-11-06 12:24:35,2012-11-06 12:24:48.975000,13.975,7,DW,,,,,,,,,,,1.0,,,,,,rest,-1
491,2012-11-06 12:24:42,2012-11-06 12:24:55.975000,13.975,7,DW,,,,,,,,,,,1.0,,,,,,eating,2
492,2012-11-06 12:24:49,2012-11-06 12:25:02.975000,13.975,7,DW,,,,,,,,,,,1.0,,,,,,eating,2
493,2012-11-06 12:24:56,2012-11-06 12:25:09.975000,13.975,7,DW,,,,,,,,,,,1.0,,,,,,rest,-1
494,2012-11-06 12:25:03,2012-11-06 12:25:16.975000,13.975,7,DW,,,,,,,,,,,1.0,,,,,,eating,2
495,2012-11-06 12:25:10,2012-11-06 12:25:23.975000,13.975,7,DW,,,,,,,,,,,1.0,,,,,,eating,2
496,2012-11-06 12:25:17,2012-11-06 12:25:30.975000,13.975,7,DW,,,,,,,,,,,1.0,,,,,,eating,2
497,2012-11-06 12:25:24,2012-11-06 12:25:37.975000,13.975,7,DW,,,,,,,,,,,1.0,,,,,,eating,2
498,2012-11-06 12:25:31,2012-11-06 12:25:44.975000,13.975,7,DW,,,,,,,,,,,1.0,,,,,,eating,2
499,2012-11-06 12:25:38,2012-11-06 12:25:51.975000,13.975,7,DW,,,,,,,,,,,1.0,,,,,,eating,2
500,2012-11-06 12:25:45,2012-11-06 12:25:58.975000,13.975,7,DW,,,,,,,,,,,1.0,,,,,,eating,2
501,2012-11-06 12:25:52,2012-11-06 12:26:05.975000,13.975,7,DW,,,,,,,,,,,1.0,,,,,,eating,2
502,2012-11-06 12:25:59,2012-11-06 12:26:12.975000,13.975,7,DW,,,,,,,,,,,1.0,,,,,,eating,2
503,2012-11-06 12:26:06,2012-11-06 12:26:19.975000,13.975,7,DW,,,,,,,,,,,1.0,,,,,,eating,2
504,2012-11-06 12:26:13,2012-11-06 12:26:26.975000,13.975,7,DW,,,,,,,,,,,1.0,,,,,,eating,2
505,2012-11-06 12:26:20,2012-11-06 12:26:33.975000,13.975,7,DW,,,,,,,,,,,1.0,,,,,,eating,2
506,2012-11-06 12:26:27,2012-11-06 12:26:40.975000,13.975,7,DW,,,,,,,,,,,1.0,,,,,,eating,2
507,2012-11-06 12:26:34,2012-11-06 12:26:47.975000,13.975,7,DW,,,,,,,,,,,1.0,,,,,,eating,2
508,2012-11-06 12:26:41,2012-11-06 12:26:54.975000,13.975,7,DW,,,,,,,,,,,1.0,,,,,,eating,2
509,2012-11-06 12:26:48,2012-11-06 12:27:01.975000,13.975,7,DW,,,,,,,,,,,1.0,,,,,,eating,2
510,2012-11-06 12:26:55,2012-11-06 12:27:08.975000,13.975,7,DW,,,,,,,,,,,1.0,,,,,,rest,-1
511,2012-11-06 12:27:02,2012-11-06 12:27:15.975000,13.975,7,DW,,,,,,,,,,,1.0,,,,,,eating,2
512,2012-11-06 12:27:09,2012-11-06 12:27:22.975000,13.975,7,DW,,,,,,,,,,,1.0,,,,,,eating,2
513,2012-11-06 12:27:16,2012-11-06 12:27:29.975000,13.975,7,DW,,,,,,,,,,,1.0,,,,,,eating,2
514,2012-11-06 12:27:23,2012-11-06 12:27:36.975000,13.975,7,DW,,,,,,,,,,,1.0,,,,,,eating,2
515,2012-11-06 12:27:30,2012-11-06 12:27:43.975000,13.975,7,DW,,,,,,,,,,,1.0,,,,,,eating,2
516,2012-11-06 12:27:37,2012-11-06 12:27:50.975000,13.975,7,DW,,,,,,,,,,,1.0,,,,,,eating,2
517,2012-11-06 12:27:44,2012-11-06 12:27:57.975000,13.975,7,DW,,,,,,,,,,,1.0,,,,,,eating,2
518,2012-11-06 12:27:51,2012-11-06 12:28:04.975000,13.975,7,DW,,,,,,,,,,,1.0,,,,,,eating,2
519,2012-11-06 12:27:58,2012-11-06 12:28:11.975000,13.975,7,DW,,,,,,,,,0.3559928443649374,,0.6440071556350626,,,,,,drinking,8
520,2012-11-06 12:28:05,2012-11-06 12:28:18.975000,13.975,7,DW,,,,,,,,,0.42933810375670844,,0.5706618962432916,,,,,,drinking,8
521,2012-11-06 12:28:12,2012-11-06 12:28:25.975000,13.975,7,DW,,,,,,,,,0.07155635062611806,,0.9284436493738819,,,,,,eating,2
522,2012-11-06 12:28:19,2012-11-06 12:28:32.975000,13.975,7,DW,,,,,,,,,,,1.0,,,,,,eating,2
523,2012-11-06 12:28:26,2012-11-06 12:28:39.975000,13.975,7,DW,,,,,,,,,,,1.0,,,,,,eating,2
524,2012-11-06 12:28:33,2012-11-06 12:28:46.975000,13.975,7,DW,,,,,,,,,,,1.0,,,,,,eating,2
525,2012-11-06 12:28:40,2012-11-06 12:28:53.975000,13.975,7,DW,,,,,,,,,,,1.0,,,,,,rest,-1
526,2012-11-06 12:28:47,2012-11-06 12:29:00.975000,13.975,7,DW,,,,,,,,,,,1.0,,,,,,eating,2
527,2012-11-06 12:28:54,2012-11-06 12:29:07.975000,13.975,7,DW,,,,,,,,,,,1.0,,,,,,eating,2
528,2012-11-06 12:29:01,2012-11-06 12:29:14.975000,13.975,7,DW,,,,,,,,,,,1.0,,,,,,eating,2
529,2012-11-06 12:29:08,2012-11-06 12:29:21.975000,13.975,7,DW,,,,,,,,,,,1.0,,,,,,eating,2
530,2012-11-06 12:29:15,2012-11-06 12:29:28.975000,13.975,7,DW,,,,,,,,,,,1.0,,,,,,rest,-1
531,2012-11-06 12:29:22,2012-11-06 12:29:35.975000,13.975,7,DW,,,,,,,,,,,1.0,,,,,,eating,2
532,2012-11-06 12:29:29,2012-11-06 12:29:42.975000,13.975,7,DW,,,,,,,,,,,1.0,,,,,,eating,2
533,2012-11-06 12:29:36,2012-11-06 12:29:49.975000,13.975,7,DW,,,,,,,,,,,1.0,,,,,,eating,2
534,2012-11-06 12:29:43,2012-11-06 12:29:56.975000,13.975,7,DW,,,,,,,,,,,1.0,,,,,,eating,2
535,2012-11-06 12:29:50,2012-11-06 12:30:03.975000,13.975,7,DW,,,,,,,,,,,1.0,,,,,,rest,-1
536,2012-11-06 12:29:57,2012-11-06 12:30:10.975000,13.975,7,DW,,,,,,,,,,,1.0,,,,,,eating,2
537,2012-11-06 12:30:04,2012-11-06 12:30:17.975000,13.975,7,DW,,,,,,,,,,,1.0,,,,,,eating,2
538,2012-11-06 12:30:11,2012-11-06 12:30:24.975000,13.975,7,DW,,,,,,,,,,,1.0,,,,,,eating,2
539,2012-11-06 12:30:18,2012-11-06 12:30:31.975000,13.975,7,DW,,,,,,,,,,,1.0,,,,,,eating,2
540,2012-11-06 12:30:25,2012-11-06 12:30:38.975000,13.975,7,DW,,,,,,,,,,,1.0,,,,,,rest,-1
541,2012-11-06 12:30:32,2012-11-06 12:30:45.975000,13.975,7,DW,,,,,,,,,,,1.0,,,,,,eating,2
542,2012-11-06 12:30:39,2012-11-06 12:30:52.975000,13.975,7,DW,,,,,,,,,,,1.0,,,,,,eating,2
543,2012-11-06 12:30:46,2012-11-06 12:30:59.975000,13.975,7,DW,,,,,,,,,,,1.0,,,,,,eating,2
544,2012-11-06 12:30:53,2012-11-06 12:31:06.975000,13.975,7,DW,,,,,,,,,,,1.0,,,,,,eating,2
545,2012-11-06 12:31:00,2012-11-06 12:31:13.975000,13.975,7,DW,,,,,,,,,,,1.0,,,,,,eating,2
546,2012-11-06 12:31:07,2012-11-06 12:31:20.975000,13.975,7,DW,,,,,,,,,,,1.0,,,,,,eating,2
547,2012-11-06 12:31:14,2012-11-06 12:31:27.975000,13.975,7,DW,,,,,,,,,,,1.0,,,,,,eating,2
548,2012-11-06 12:31:21,2012-11-06 12:31:34.975000,13.975,7,DW,,,,,,,,,,,1.0,,,,,,eating,2
549,2012-11-06 12:31:28,2012-11-06 12:31:41.975000,13.975,7,DW,,,,,,,,,,,1.0,,,,,,eating,2
550,2012-11-06 12:31:35,2012-11-06 12:31:48.975000,13.975,7,DW,,,,,,,,,,,1.0,,,,,,eating,2
551,2012-11-06 12:31:42,2012-11-06 12:31:55.975000,13.975,7,DW,,,,,,,,,,,1.0,,,,,,eating,2
552,2012-11-06 12:31:49,2012-11-06 12:32:02.975000,13.975,7,DW,,,,,,,,,,,1.0,,,,,,eating,2
553,2012-11-06 12:31:56,2012-11-06 12:32:09.975000,13.975,7,DW,,,,,,,,,,,1.0,,,,,,eating,2
554,2012-11-06 12:32:03,2012-11-06 12:32:16.975000,13.975,7,DW,,,,,,,,,,,1.0,,,,,,eating,2
555,2012-11-06 12:32:10,2012-11-06 12:32:23.975000,13.975,7,DW,,,,,,,,,,,1.0,,,,,,eating,2
556,2012-11-06 12:32:17,2012-11-06 12:32:30.975000,13.975,7,DW,,,,,,,,,,,1.0,,,,,,rest,-1
557,2012-11-06 12:32:24,2012-11-06 12:32:37.975000,13.975,7,DW,,,,,,,,,,,1.0,,,,,,rest,-1
558,2012-11-06 12:32:31,2012-11-06 12:32:44.975000,13.975,7,DW,,,,,,,,,,,1.0,,,,,,eating,2
559,2012-11-06 12:32:38,2012-11-06 12:32:51.975000,13.975,7,DW,,,,,,,,,,,1.0,,,,,,eating,2
560,2012-11-06 12:32:45,2012-11-06 12:32:58.975000,13.975,7,DW,,,,,,,,,,,1.0,,,,,,rest,-1
561,2012-11-06 12:32:52,2012-11-06 12:33:05.975000,13.975,7,DW,,,,,,,,,,,1.0,,,,,,rest,-1
562,2012-11-06 12:32:59,2012-11-06 12:33:12.975000,13.975,7,DW,,,,,,,,,,,1.0,,,,,,eating,2
563,2012-11-06 12:33:06,2012-11-06 12:33:19.975000,13.975,7,DW,,,,,,,,,,,1.0,,,,,,eating,2
564,2012-11-06 12:33:13,2012-11-06 12:33:26.975000,13.975,7,DW,,,,,,,,,,,1.0,,,,,,eating,2
565,2012-11-06 12:33:20,2012-11-06 12:33:33.975000,13.975,7,DW,,,,,,,,,,,1.0,,,,,,eating,2
566,2012-11-06 12:33:27,2012-11-06 12:33:40.975000,13.975,7,DW,,,,,,,,,,,1.0,,,,,,eating,2
567,2012-11-06 12:33:34,2012-11-06 12:33:47.975000,13.975,7,DW,,,,,,,,,,,1.0,,,,,,eating,2
568,2012-11-06 12:33:41,2012-11-06 12:33:54.975000,13.975,7,DW,,,,,,,,,,,1.0,,,,,,eating,2
569,2012-11-06 12:33:48,2012-11-06 12:34:01.975000,13.975,7,DW,,,,,,,,,,,1.0,,,,,,eating,2
570,2012-11-06 12:33:55,2012-11-06 12:34:08.975000,13.975,7,DW,,,,,,,,,,,1.0,,,,,,eating,2
571,2012-11-06 12:34:02,2012-11-06 12:34:15.975000,13.975,7,DW,,,,,,,,,,,1.0,,,,,,eating,2
572,2012-11-06 12:34:09,2012-11-06 12:34:22.975000,13.975,7,DW,,,,,,,,,,,1.0,,,,,,eating,2
573,2012-11-06 12:34:16,2012-11-06 12:34:29.975000,13.975,7,DW,,,,,,,,,,,1.0,,,,,,eating,2
574,2012-11-06 12:34:23,2012-11-06 12:34:36.975000,13.975,7,DW,,,,,,,,,,,1.0,,,,,,eating,2
575,2012-11-06 12:34:30,2012-11-06 12:34:43.975000,13.975,7,DW,,,,,,,,,,,1.0,,,,,,eating,2
576,2012-11-06 12:34:37,2012-11-06 12:34:50.975000,13.975,7,DW,,,,,,,,,,,1.0,,,,,,eating,2
577,2012-11-06 12:34:44,2012-11-06 12:34:57.975000,13.975,7,DW,,,,,,,,,,,1.0,,,,,,eating,2
578,2012-11-06 12:34:51,2012-11-06 12:35:04.975000,13.975,7,DW,,,,,,,,,,,1.0,,,,,,eating,2
579,2012-11-06 12:34:58,2012-11-06 12:35:11.975000,13.975,7,DW,,,,,,,,,,,1.0,,,,,,eating,2
580,2012-11-06 12:35:05,2012-11-06 12:35:18.975000,13.975,7,DW,,,,,,,,,,,1.0,,,,,,rest,-1
581,2012-11-06 12:35:12,2012-11-06 12:35:25.975000,13.975,7,DW,,,,,,,,,,,1.0,,,,,,eating,2
582,2012-11-06 12:35:19,2012-11-06 12:35:32.975000,13.975,7,DW,,,,,,,,,,,1.0,,,,,,eating,2
583,2012-11-06 12:35:26,2012-11-06 12:35:39.975000,13.975,7,DW,,,,,,,,,,,1.0,,,,,,eating,2
584,2012-11-06 12:35:33,2012-11-06 12:35:46.975000,13.975,7,DW,,,,,,,,,,,1.0,,,,,,eating,2
585,2012-11-06 12:35:40,2012-11-06 12:35:53.975000,13.975,7,DW,,,,,,,,,,,1.0,,,,,,eating,2
586,2012-11-06 12:35:47,2012-11-06 12:36:00.975000,13.975,7,DW,,,,,,,,,,,1.0,,,,,,eating,2
587,2012-11-06 12:35:54,2012-11-06 12:36:07.975000,13.975,7,DW,,,,,,,,,,,1.0,,,,,,eating,2
588,2012-11-06 12:36:01,2012-11-06 12:36:14.975000,13.975,7,DW,,,,,,,,,,,1.0,,,,,,rest,-1
589,2012-11-06 12:36:08,2012-11-06 12:36:21.975000,13.975,7,DW,,,,,,,,,,,1.0,,,,,,rest,-1
590,2012-11-06 12:36:15,2012-11-06 12:36:28.975000,13.975,7,DW,,,,,,,,,,,1.0,,,,,,eating,2
591,2012-11-06 12:36:22,2012-11-06 12:36:35.975000,13.975,7,DW,,,,,,,,,,,1.0,,,,,,eating,2
592,2012-11-06 12:36:29,2012-11-06 12:36:42.975000,13.975,7,DW,,,,,,,,,,,1.0,,,,,,eating,2
593,2012-11-06 12:36:36,2012-11-06 12:36:49.975000,13.975,7,DW,,,,,,,,,,,1.0,,,,,,eating,2
594,2012-11-06 12:36:43,2012-11-06 12:36:56.975000,13.975,7,DW,,,,,,,,,,,1.0,,,,,,eating,2
595,2012-11-06 12:36:50,2012-11-06 12:37:03.975000,13.975,7,DW,,,,,,,,,,,1.0,,,,,,eating,2
596,2012-11-06 12:36:57,2012-11-06 12:37:10.975000,13.975,7,DW,,,,,,,,,,,1.0,,,,,,eating,2
597,2012-11-06 12:37:04,2012-11-06 12:37:17.975000,13.975,7,DW,,,,,,,,,,,1.0,,,,,,eating,2
598,2012-11-06 12:37:11,2012-11-06 12:37:24.975000,13.975,7,DW,,,,,,,,,,,0.9302325581395349,,,,,,eating,2
599,2012-11-06 12:37:18,2012-11-06 12:37:31.975000,13.975,7,DW,,,,,,,,,,,0.7853309481216458,,,,,,eating,2
600,2012-11-06 12:37:25,2012-11-06 12:37:38.975000,13.975,7,DW,,,,,,,,,,,0.8568872987477638,,,,,,eating,2
601,2012-11-06 12:37:32,2012-11-06 12:37:45.975000,13.975,7,DW,,,,,,,,,,,1.0,,,,,,eating,2
602,2012-11-06 12:37:39,2012-11-06 12:37:52.975000,13.975,7,DW,,,,,,,,,,,1.0,,,,,,eating,2
603,2012-11-06 12:37:46,2012-11-06 12:37:59.975000,13.975,7,DW,,,,,,,,,,,1.0,,,,,,eating,2
604,2012-11-06 12:37:53,2012-11-06 12:38:06.975000,13.975,7,DW,,,,,,,,,,,1.0,,,,,,eating,2
605,2012-11-06 12:38:00,2012-11-06 12:38:13.975000,13.975,7,DW,,,,,,,,,,,1.0,,,,,,eating,2
606,2012-11-06 12:38:07,2012-11-06 12:38:20.975000,13.975,7,DW,,,,,,,,,,,1.0,,,,,,eating,2
607,2012-11-06 12:38:14,2012-11-06 12:38:27.975000,13.975,7,DW,,,,,,,,,,,1.0,,,,,,eating,2
608,2012-11-06 12:38:21,2012-11-06 12:38:34.975000,13.975,7,DW,,,,,,,,,,,1.0,,,,,,eating,2
609,2012-11-06 12:38:28,2012-11-06 12:38:41.975000,13.975,7,DW,,,,,,,,,,,1.0,,,,,,eating,2
610,2012-11-06 12:38:35,2012-11-06 12:38:48.975000,13.975,7,DW,,,,,,,,,,,1.0,,,,,,eating,2
611,2012-11-06 12:38:42,2012-11-06 12:38:55.975000,13.975,7,DW,,,,,,,,,,,1.0,,,,,,eating,2
612,2012-11-06 12:38:49,2012-11-06 12:39:02.975000,13.975,7,DW,,,,,,,,,,,1.0,,,,,,eating,2
613,2012-11-06 12:38:56,2012-11-06 12:39:09.975000,13.975,7,DW,,,,,,,,,,,1.0,,,,,,eating,2
614,2012-11-06 12:39:03,2012-11-06 12:39:16.975000,13.975,7,DW,,,,,,,,,,,1.0,,,,,,rest,-1
615,2012-11-06 12:39:10,2012-11-06 12:39:23.975000,13.975,7,DW,,,,,,,,,,,1.0,,,,,,eating,2
616,2012-11-06 12:39:17,2012-11-06 12:39:30.975000,13.975,7,DW,,,,,,,,,,,1.0,,,,,,eating,2
617,2012-11-06 12:39:24,2012-11-06 12:39:37.975000,13.975,7,DW,,,,,,,,,,,1.0,,,,,,eating,2
618,2012-11-06 12:39:31,2012-11-06 12:39:44.975000,13.975,7,DW,,,,,,,,,,,1.0,,,,,,eating,2
619,2012-11-06 12:39:38,2012-11-06 12:39:51.975000,13.975,7,DW,,,,,,,,,,,1.0,,,,,,eating,2
620,2012-11-06 12:39:45,2012-11-06 12:39:58.975000,13.975,7,DW,,,,,,,,,,,1.0,,,,,,eating,2
621,2012-11-06 12:39:52,2012-11-06 12:40:05.975000,13.975,7,DW,,,,,,,,,,,1.0,,,,,,eating,2
622,2012-11-06 12:39:59,2012-11-06 12:40:12.975000,13.975,7,DW,,,,,,,,,,,1.0,,,,,,eating,2
623,2012-11-06 12:40:06,2012-11-06 12:40:19.975000,13.975,7,DW,,,,,,,,,,,1.0,,,,,,eating,2
624,2012-11-06 12:40:13,2012-11-06 12:40:26.975000,13.975,7,DW,,,,,,,,,,,1.0,,,,,,eating,2
625,2012-11-06 12:40:20,2012-11-06 12:40:33.975000,13.975,7,DW,,,,,,,,,,,1.0,,,,,,eating,2
626,2012-11-06 12:40:27,2012-11-06 12:40:40.975000,13.975,7,DW,,,,,,,,,,,1.0,,,,,,eating,2
627,2012-11-06 12:40:34,2012-11-06 12:40:47.975000,13.975,7,DW,,,,,,,,,,,1.0,,,,,,eating,2
628,2012-11-06 12:40:41,2012-11-06 12:40:54.975000,13.975,7,DW,,,,,,,,,,,1.0,,,,,,eating,2
629,2012-11-06 12:40:48,2012-11-06 12:41:01.975000,13.975,7,DW,,,,,,,,,,,1.0,,,,,,eating,2
630,2012-11-06 12:40:55,2012-11-06 12:41:08.975000,13.975,7,DW,,,,,,,,,,,1.0,,,,,,eating,2
631,2012-11-06 12:41:02,2012-11-06 12:41:15.975000,13.975,7,DW,,,,,,,,,,,1.0,,,,,,eating,2
632,2012-11-06 12:41:09,2012-11-06 12:41:22.975000,13.975,7,DW,,,,,,,0.3559928443649374,,,,0.6440071556350626,,,,,,talking,5
633,2012-11-06 12:41:16,2012-11-06 12:41:29.975000,13.975,7,DW,,,,,,,0.8568872987477638,,,,0.14311270125223613,,,,,,talking,5
634,2012-11-06 12:41:23,2012-11-06 12:41:36.975000,13.975,7,DW,,,,,,,1.0,,,,,,,,,,talking,5
635,2012-11-06 12:41:30,2012-11-06 12:41:43.975000,13.975,7,DW,,,,,,,1.0,,,,,,,,,,talking,5
636,2012-11-06 12:41:37,2012-11-06 12:41:50.975000,13.975,7,DW,,,,,,,1.0,,,,,,,,,,talking,5
637,2012-11-06 12:41:44,2012-11-06 12:41:57.975000,13.975,7,DW,,,,,,,1.0,,,,,,,,,,talking,5
638,2012-11-06 12:41:51,2012-11-06 12:42:04.975000,13.975,7,DW,,,,,,,1.0,,,,,,,,,,talking,5
639,2012-11-06 12:41:58,2012-11-06 12:42:11.975000,13.975,7,DW,,,,,,,1.0,,,,,,,,,,talking,5
640,2012-11-06 12:42:05,2012-11-06 12:42:18.975000,13.975,7,DW,,,,,,,1.0,,,,,,,,,,talking,5
641,2012-11-06 12:42:12,2012-11-06 12:42:25.975000,13.975,7,DW,,,,,,,0.6440071556350626,,,,0.3559928443649374,,,,,,talking,5
642,2012-11-06 12:42:19,2012-11-06 12:42:32.975000,13.975,7,DW,,,,,,,0.14311270125223613,,,,0.8568872987477638,,,,,,eating,2
643,2012-11-06 12:42:26,2012-11-06 12:42:39.975000,13.975,7,DW,,,,,,,,,,,1.0,,,,,,eating,2
644,2012-11-06 12:42:33,2012-11-06 12:42:46.975000,13.975,7,DW,,,,,,,,,,,1.0,,,,,,eating,2
645,2012-11-06 12:42:40,2012-11-06 12:42:53.975000,13.975,7,DW,,,,,,,,,,,1.0,,,,,,eating,2
646,2012-11-06 12:42:47,2012-11-06 12:43:00.975000,13.975,7,DW,,,,,,,,,,,1.0,,,,,,eating,2
647,2012-11-06 12:42:54,2012-11-06 12:43:07.975000,13.975,7,DW,,,,,,,,,,,1.0,,,,,,eating,2
648,2012-11-06 12:43:01,2012-11-06 12:43:14.975000,13.975,7,DW,,,,,,,,,,,1.0,,,,,,eating,2
649,2012-11-06 12:43:08,2012-11-06 12:43:21.975000,13.975,7,DW,,,,,,,,,,,1.0,,,,,,eating,2
650,2012-11-06 12:43:15,2012-11-06 12:43:28.975000,13.975,7,DW,,,,,,,,,,,1.0,,,,,,eating,2
651,2012-11-06 12:43:22,2012-11-06 12:43:35.975000,13.975,7,DW,,,,,,,,,,,1.0,,,,,,eating,2
652,2012-11-06 12:43:29,2012-11-06 12:43:42.975000,13.975,7,DW,,,,,,,,,,,1.0,,,,,,eating,2
653,2012-11-06 12:43:36,2012-11-06 12:43:49.975000,13.975,7,DW,,,,,,,,,,,1.0,,,,,,eating,2
654,2012-11-06 12:43:43,2012-11-06 12:43:56.975000,13.975,7,DW,,,,,,,,,,,1.0,,,,,,eating,2
655,2012-11-06 12:43:50,2012-11-06 12:44:03.975000,13.975,7,DW,,,,,,,,,,,1.0,,,,,,eating,2
656,2012-11-06 12:43:57,2012-11-06 12:44:10.975000,13.975,7,DW,,,,,,,,,,,1.0,,,,,,eating,2
657,2012-11-06 12:44:04,2012-11-06 12:44:17.975000,13.975,7,DW,,,,,,,,,,,1.0,,,,,,rest,-1
658,2012-11-06 12:44:11,2012-11-06 12:44:24.975000,13.975,7,DW,,,,,,,,,,,1.0,,,,,,eating,2
659,2012-11-06 12:44:18,2012-11-06 12:44:31.975000,13.975,7,DW,,,,,,,,,,,1.0,,,,,,eating,2
660,2012-11-06 12:44:25,2012-11-06 12:44:38.975000,13.975,7,DW,,,,,,,,,,,1.0,,,,,,eating,2
661,2012-11-06 12:44:32,2012-11-06 12:44:45.975000,13.975,7,DW,,,,,,,,,,,1.0,,,,,,eating,2
662,2012-11-06 12:44:39,2012-11-06 12:44:52.975000,13.975,7,DW,,,,,,,,,,,1.0,,,,,,eating,2
663,2012-11-06 12:44:46,2012-11-06 12:44:59.975000,13.975,7,DW,,,,,,,,,,,1.0,,,,,,eating,2
664,2012-11-06 12:44:53,2012-11-06 12:45:06.975000,13.975,7,DW,,,,,,,,,,,1.0,,,,,,rest,-1
665,2012-11-06 12:45:00,2012-11-06 12:45:13.975000,13.975,7,DW,,,,,,,,,,,1.0,,,,,,rest,-1
666,2012-11-06 12:45:07,2012-11-06 12:45:20.975000,13.975,7,DW,,,,,,,,,,,1.0,,,,,,rest,-1
667,2012-11-06 12:45:14,2012-11-06 12:45:27.975000,13.975,7,DW,,,,,,,,,,,1.0,,,,,,rest,-1
668,2012-11-06 12:45:21,2012-11-06 12:45:34.975000,13.975,7,DW,,,,,,,,,,,1.0,,,,,,eating,2
669,2012-11-06 12:45:28,2012-11-06 12:45:41.975000,13.975,7,DW,,,,,,,,,,,1.0,,,,,,eating,2
670,2012-11-06 12:45:35,2012-11-06 12:45:48.975000,13.975,7,DW,,,,,,,,,,,1.0,,,,,,eating,2
671,2012-11-06 12:45:42,2012-11-06 12:45:55.975000,13.975,7,DW,,,,,,,,,,,1.0,,,,,,eating,2
672,2012-11-06 12:45:49,2012-11-06 12:46:02.975000,13.975,7,DW,,,,,,,,,,,1.0,,,,,,eating,2
673,2012-11-06 12:45:56,2012-11-06 12:46:09.975000,13.975,7,DW,,,,,,,,,,,1.0,,,,,,eating,2
674,2012-11-06 12:46:03,2012-11-06 12:46:16.975000,13.975,7,DW,,,,,,,,,,,1.0,,,,,,eating,2
675,2012-11-06 12:46:10,2012-11-06 12:46:23.975000,13.975,7,DW,,,,,,,,,,,1.0,,,,,,eating,2
676,2012-11-06 12:46:17,2012-11-06 12:46:30.975000,13.975,7,DW,,,,,,,,,,,1.0,,,,,,eating,2
677,2012-11-06 12:46:24,2012-11-06 12:46:37.975000,13.975,7,DW,,,,,,,,,,,1.0,,,,,,eating,2
678,2012-11-06 12:46:31,2012-11-06 12:46:44.975000,13.975,7,DW,,,,,,,,,,,1.0,,,,,,eating,2
679,2012-11-06 12:46:38,2012-11-06 12:46:51.975000,13.975,7,DW,,,,,,,,,,,0.9302325581395349,,,,,,eating,2
680,2012-11-06 12:46:45,2012-11-06 12:46:58.975000,13.975,7,DW,,,,,,,,,,,0.42933810375670844,,,,,,eating,2
681,2012-11-06 12:46:52,2012-11-06 12:47:05.975000,13.975,7,DW,,,,,,,,,,,,,,,,,others,0
682,2012-11-06 12:46:59,2012-11-06 12:47:12.975000,13.975,7,DW,,,,,,,,,,,,,,,,,others,0
683,2012-11-06 12:47:06,2012-11-06 12:47:19.975000,13.975,7,DW,,,,,,,,,,,,,,,,,others,0
684,2012-11-06 12:47:13,2012-11-06 12:47:26.975000,13.975,7,DW,,,,,,,,,,,,,,,,,others,0
685,2012-11-06 12:47:20,2012-11-06 12:47:33.975000,13.975,7,DW,,,,,,,,,,,,,,,,,others,0
686,2012-11-06 12:47:27,2012-11-06 12:47:40.975000,13.975,7,DW,,,,,,,,,,,,,,,,,others,0
687,2012-11-06 12:47:34,2012-11-06 12:47:47.975000,13.975,7,DW,,,,,,,,,,,,,,,,,others,0
688,2012-11-06 12:47:41,2012-11-06 12:47:54.975000,13.975,7,DW,,,,,,,,,,,,,,,,,others,0
689,2012-11-06 12:47:48,2012-11-06 12:48:01.975000,13.975,7,DW,,,,,,,,,,,,,,,,,rest,-1
690,2012-11-06 12:47:55,2012-11-06 12:48:08.975000,13.975,7,DW,,,,,,,,,,,,,,,,,others,0
691,2012-11-06 12:48:02,2012-11-06 12:48:15.975000,13.975,7,DW,,,,,,,,,,,,,,,0.28443649373881935,,others,0
692,2012-11-06 12:48:09,2012-11-06 12:48:22.975000,13.975,7,DW,,,,,,,,,,,,,,,0.7853309481216458,,walking,1
693,2012-11-06 12:48:16,2012-11-06 12:48:29.975000,13.975,7,DW,,,,,,,,,,,,,,,1.0,,walking,1
694,2012-11-06 12:48:23,2012-11-06 12:48:36.975000,13.975,7,DW,,,,,,,,,,,,,,,1.0,,walking,1
695,2012-11-06 12:48:30,2012-11-06 12:48:43.975000,13.975,7,DW,,,,,,,,,,,,,,,1.0,,walking,1
696,2012-11-06 12:48:37,2012-11-06 12:48:50.975000,13.975,7,DW,,,,,,,,,,,,0.3559928443649374,,,0.7871198568872988,0.14311270125223613,walking,1
697,2012-11-06 12:48:44,2012-11-06 12:48:57.975000,13.975,7,DW,,,,,,,,,,,,0.8568872987477638,,,0.28622540250447226,0.14311270125223613,others,0
698,2012-11-06 12:48:51,2012-11-06 12:49:04.975000,13.975,7,DW,,,,,,,,,,,,1.0,,,,,others,0
699,2012-11-06 12:48:58,2012-11-06 12:49:11.975000,13.975,7,DW,0.19,0.03398926654740608,0.0,36.0,right-puff,,,,,,,1.0,,,,,others,0
700,2012-11-06 12:49:05,2012-11-06 12:49:18.975000,13.975,7,DW,1.0,0.17889087656529518,0.0,36.0,right-puff,,,,,,,1.0,,,,,puff,9
701,2012-11-06 12:49:12,2012-11-06 12:49:25.975000,13.975,7,DW,0.8,0.14311270125223613,0.0,36.0,right-puff,,,,,,,1.0,,,,,puff,9
702,2012-11-06 12:49:19,2012-11-06 12:49:32.975000,13.975,7,DW,,,,,,,,,,,,1.0,,,,,others,0
703,2012-11-06 12:49:26,2012-11-06 12:49:39.975000,13.975,7,DW,,,,,,,,,,,,1.0,,,,,rest,-1
704,2012-11-06 12:49:33,2012-11-06 12:49:46.975000,13.975,7,DW,,,,,,,,,,,,1.0,,,,,others,0
705,2012-11-06 12:49:40,2012-11-06 12:49:53.975000,13.975,7,DW,,,,,,,,,,,,1.0,,,,,others,0
706,2012-11-06 12:49:47,2012-11-06 12:50:00.975000,13.975,7,DW,,,,,,,,,,,,1.0,,,,,rest,-1
707,2012-11-06 12:49:54,2012-11-06 12:50:07.975000,13.975,7,DW,,,,,,,,,,,,1.0,,,,,rest,-1
708,2012-11-06 12:50:01,2012-11-06 12:50:14.975000,13.975,7,DW,,,,,,,,,,,,1.0,,,,,rest,-1
709,2012-11-06 12:50:08,2012-11-06 12:50:21.975000,13.975,7,DW,,,,,,,,,,,,1.0,,,,,rest,-1
710,2012-11-06 12:50:15,2012-11-06 12:50:28.975000,13.975,7,DW,,,,,,,,,,,,1.0,,,,,rest,-1
711,2012-11-06 12:50:22,2012-11-06 12:50:35.975000,13.975,7,DW,0.2636363636363636,0.0518783542039356,0.0,38.0,right-puff,,,,,,,1.0,,,,,others,0
712,2012-11-06 12:50:29,2012-11-06 12:50:42.975000,13.975,7,DW,1.0,0.1967799642218247,0.0,38.0,right-puff,,,,,,,1.0,,,,,puff,9
713,2012-11-06 12:50:36,2012-11-06 12:50:49.975000,13.975,7,DW,0.7272727272727273,0.14311270125223613,0.0,38.0,right-puff,,,,,,,1.0,,,,,puff,9
714,2012-11-06 12:50:43,2012-11-06 12:50:56.975000,13.975,7,DW,,,,,,,,,,,,1.0,,,,,rest,-1
715,2012-11-06 12:50:50,2012-11-06 12:51:03.975000,13.975,7,DW,1.0,0.25044722719141327,0.0,39.0,right-puff,,,,,,,1.0,,,,,puff,9
716,2012-11-06 12:50:57,2012-11-06 12:51:10.975000,13.975,7,DW,1.0,0.25044722719141327,0.0,39.0,right-puff,,,,,,,1.0,,0.4991055456171735,,0.4991055456171735,puff,9
717,2012-11-06 12:51:04,2012-11-06 12:51:17.975000,13.975,7,DW,,,,,,,,,,,,1.0,,1.0,,1.0,rest,-1
718,2012-11-06 12:51:11,2012-11-06 12:51:24.975000,13.975,7,DW,,,,,,,,,,,,1.0,,1.0,,1.0,rest,-1
719,2012-11-06 12:51:18,2012-11-06 12:51:31.975000,13.975,7,DW,,,,,,,,,,,,1.0,,1.0,,1.0,phone,3
720,2012-11-06 12:51:25,2012-11-06 12:51:38.975000,13.975,7,DW,,,,,,,,,,,,1.0,,1.0,,1.0,phone,3
721,2012-11-06 12:51:32,2012-11-06 12:51:45.975000,13.975,7,DW,,,,,,,,,,,,1.0,,1.0,,1.0,phone,3
722,2012-11-06 12:51:39,2012-11-06 12:51:52.975000,13.975,7,DW,,,,,,,,,,,,1.0,,1.0,,1.0,rest,-1
723,2012-11-06 12:51:46,2012-11-06 12:51:59.975000,13.975,7,DW,,,,,,,,,,,,1.0,,1.0,,1.0,rest,-1
724,2012-11-06 12:51:53,2012-11-06 12:52:06.975000,13.975,7,DW,,,,,,,,,,,,1.0,,1.0,,1.0,rest,-1
725,2012-11-06 12:52:00,2012-11-06 12:52:13.975000,13.975,7,DW,,,,,,,,,,,,1.0,,1.0,,1.0,phone,3
726,2012-11-06 12:52:07,2012-11-06 12:52:20.975000,13.975,7,DW,,,,,,,,,,,,1.0,,1.0,,1.0,phone,3
727,2012-11-06 12:52:14,2012-11-06 12:52:27.975000,13.975,7,DW,,,,,,,,,,,,1.0,,1.0,,1.0,phone,3
728,2012-11-06 12:52:21,2012-11-06 12:52:34.975000,13.975,7,DW,,,,,,,,,,,,1.0,,1.0,,1.0,rest,-1
729,2012-11-06 12:52:28,2012-11-06 12:52:41.975000,13.975,7,DW,0.5444444444444445,0.08765652951699464,0.0,40.0,right-puff,,,,,,,1.0,,1.0,,1.0,puff,9
730,2012-11-06 12:52:35,2012-11-06 12:52:48.975000,13.975,7,DW,1.0,0.16100178890876565,0.0,40.0,right-puff,,,,,,,1.0,,1.0,,1.0,puff,9
731,2012-11-06 12:52:42,2012-11-06 12:52:55.975000,13.975,7,DW,0.4444444444444444,0.07155635062611806,0.0,40.0,right-puff,,,,,,,1.0,,1.0,,1.0,puff,9
732,2012-11-06 12:52:49,2012-11-06 12:53:02.975000,13.975,7,DW,,,,,,,,,,,,1.0,,1.0,,1.0,rest,-1
733,2012-11-06 12:52:56,2012-11-06 12:53:09.975000,13.975,7,DW,,,,,,,,,,,,1.0,,1.0,,1.0,phone,3
734,2012-11-06 12:53:03,2012-11-06 12:53:16.975000,13.975,7,DW,,,,,,,,,,,,1.0,,1.0,,1.0,phone,3
735,2012-11-06 12:53:10,2012-11-06 12:53:23.975000,13.975,7,DW,,,,,,,,,,,,1.0,,1.0,,1.0,rest,-1
736,2012-11-06 12:53:17,2012-11-06 12:53:30.975000,13.975,7,DW,,,,,,,,,,,,1.0,,1.0,,1.0,phone,3
737,2012-11-06 12:53:24,2012-11-06 12:53:37.975000,13.975,7,DW,,,,,,,,,,,,1.0,,0.8586762075134169,,0.8586762075134169,phone,3
738,2012-11-06 12:53:31,2012-11-06 12:53:44.975000,13.975,7,DW,,,,,,,,,,,,1.0,,0.35778175313059035,,0.35778175313059035,phone,3
739,2012-11-06 12:53:38,2012-11-06 12:53:51.975000,13.975,7,DW,,,,,,,,,,,,1.0,,,,,others,0
740,2012-11-06 12:53:45,2012-11-06 12:53:58.975000,13.975,7,DW,,,,,,,,,,,,1.0,,,,,others,0
741,2012-11-06 12:53:52,2012-11-06 12:54:05.975000,13.975,7,DW,,,,,,,,,,,,1.0,,,,,others,0
742,2012-11-06 12:53:59,2012-11-06 12:54:12.975000,13.975,7,DW,,,,,,,,,,,,1.0,,,,,others,0
743,2012-11-06 12:54:06,2012-11-06 12:54:19.975000,13.975,7,DW,,,,,,,,,,,,1.0,,,,,others,0
744,2012-11-06 12:54:13,2012-11-06 12:54:26.975000,13.975,7,DW,,,,,,,,,,,,1.0,,,,,others,0
745,2012-11-06 12:54:20,2012-11-06 12:54:33.975000,13.975,7,DW,,,,,,,,,,,,1.0,,,,,others,0
746,2012-11-06 12:54:27,2012-11-06 12:54:40.975000,13.975,7,DW,,,,,,,,,,,,1.0,,,,,others,0
747,2012-11-06 12:54:34,2012-11-06 12:54:47.975000,13.975,7,DW,,,,,,,,,,,,1.0,,,,,others,0
748,2012-11-06 12:54:41,2012-11-06 12:54:54.975000,13.975,7,DW,,,,,,,,,,,,1.0,,,,,others,0
749,2012-11-06 12:54:48,2012-11-06 12:55:01.975000,13.975,7,DW,,,,,,,,,,,,1.0,,,,,others,0
750,2012-11-06 12:54:55,2012-11-06 12:55:08.975000,13.975,7,DW,,,,,,,,,,,,1.0,,,,,others,0
751,2012-11-06 12:55:02,2012-11-06 12:55:15.975000,13.975,7,DW,,,,,,,,,,,,1.0,,,,,others,0
752,2012-11-06 12:55:09,2012-11-06 12:55:22.975000,13.975,7,DW,,,,,,,,,,,,1.0,,,,,others,0
753,2012-11-06 12:55:16,2012-11-06 12:55:29.975000,13.975,7,DW,1.0,0.25044722719141327,1.0,42.0,right-puff,,,,,,,1.0,,,,,puff,9
754,2012-11-06 12:55:23,2012-11-06 12:55:36.975000,13.975,7,DW,2.0714285714285716,0.5187835420393561,1.0,42.0,right-puff,,,,,,,1.0,,,,,puff,9
755,2012-11-06 12:55:30,2012-11-06 12:55:43.975000,13.975,7,DW,1.0,0.26833631484794274,0.0,43.0,right-puff,,,,,,,1.0,,,,,puff,9
756,2012-11-06 12:55:37,2012-11-06 12:55:50.975000,13.975,7,DW,,,,,,,,,,,,1.0,,,,,others,0
757,2012-11-06 12:55:44,2012-11-06 12:55:57.975000,13.975,7,DW,,,,,,,,,,,,1.0,,,,,others,0
758,2012-11-06 12:55:51,2012-11-06 12:56:04.975000,13.975,7,DW,,,,,,,,,,,,1.0,,,,,others,0
759,2012-11-06 12:55:58,2012-11-06 12:56:11.975000,13.975,7,DW,,,,,,,,,,,,1.0,,,,,others,0
760,2012-11-06 12:56:05,2012-11-06 12:56:18.975000,13.975,7,DW,,,,,,,,,,,,1.0,,,,,others,0
761,2012-11-06 12:56:12,2012-11-06 12:56:25.975000,13.975,7,DW,,,,,,,,,,,,1.0,,,,,others,0
762,2012-11-06 12:56:19,2012-11-06 12:56:32.975000,13.975,7,DW,,,,,,,,,,,,1.0,,,,,others,0
763,2012-11-06 12:56:26,2012-11-06 12:56:39.975000,13.975,7,DW,,,,,,,,,,,,0.7871198568872988,,,,,others,0
764,2012-11-06 12:56:33,2012-11-06 12:56:46.975000,13.975,7,DW,,,,,,,,,,,,0.28622540250447226,,,,,others,0
765,2012-11-06 12:56:40,2012-11-06 12:56:53.975000,13.975,7,DW,,,,,,,,,,,,,,,,,others,0
766,2012-11-06 12:56:47,2012-11-06 12:57:00.975000,13.975,7,DW,,,,,,,,,,,,,,,,,others,0
767,2012-11-06 12:56:54,2012-11-06 12:57:07.975000,13.975,7,DW,,,,,,,,,,,,,,,,,others,0
768,2012-11-06 12:57:01,2012-11-06 12:57:14.975000,13.975,7,DW,,,,,,,,,,,,,,,,,others,0
769,2012-11-06 12:57:08,2012-11-06 12:57:21.975000,13.975,7,DW,,,,,,,,,,,,,,,,,others,0
770,2012-11-06 12:57:15,2012-11-06 12:57:28.975000,13.975,7,DW,,,,,,,,,,,,,,,,,others,0
771,2012-11-06 12:57:22,2012-11-06 12:57:35.975000,13.975,7,DW,,,,,,,,,,,,,,,,,others,0
772,2012-11-06 12:57:29,2012-11-06 12:57:42.975000,13.975,7,DW,,,,,,,,,,,,,,,,,others,0
773,2012-11-06 12:57:36,2012-11-06 12:57:49.975000,13.975,7,DW,,,,,,,,,,,,,,,,,others,0
774,2012-11-06 12:57:43,2012-11-06 12:57:56.975000,13.975,7,DW,,,,,,,,,,,,,,,,,others,0
775,2012-11-06 12:57:50,2012-11-06 12:58:03.975000,13.975,7,DW,,,,,,,,,,,,,,,,,others,0
776,2012-11-06 12:57:57,2012-11-06 12:58:10.975000,13.975,7,DW,,,,,,,,,,,,,,,,,others,0
777,2012-11-06 12:58:04,2012-11-06 12:58:17.975000,13.975,7,DW,,,,,,,,,,,,,,,,,rest,-1
778,2012-11-06 12:58:11,2012-11-06 12:58:24.975000,13.975,7,DW,,,,,,,,,,,,,,,,,others,0
779,2012-11-06 12:58:18,2012-11-06 12:58:31.975000,13.975,7,DW,,,,,,,,,,,,,,,,,others,0
780,2012-11-06 12:58:25,2012-11-06 12:58:38.975000,13.975,7,DW,,,,,,,,,,,,,,,,,others,0
781,2012-11-06 12:58:32,2012-11-06 12:58:45.975000,13.975,7,DW,,,,,,,,,,,,,,,,,others,0
782,2012-11-06 12:58:39,2012-11-06 12:58:52.975000,13.975,7,DW,,,,,,,,,,,,,,,,,others,0
783,2012-11-06 12:58:46,2012-11-06 12:58:59.975000,13.975,7,DW,,,,,,,,,,,,,,,,,others,0
784,2012-11-06 12:58:53,2012-11-06 12:59:06.975000,13.975,7,DW,,,,,,,,,,,,,,,,,others,0
785,2012-11-06 12:59:00,2012-11-06 12:59:13.975000,13.975,7,DW,,,,,,,,,,,,,,,,,others,0
786,2012-11-06 12:59:07,2012-11-06 12:59:20.975000,13.975,7,DW,,,,,,,,,,,,,,,,,others,0
787,2012-11-06 12:59:14,2012-11-06 12:59:27.975000,13.975,7,DW,,,,,,,,,,,,,,,,,others,0
788,2012-11-06 12:59:21,2012-11-06 12:59:34.975000,13.975,7,DW,,,,,,,,,,,,,,,,,others,0
789,2012-11-06 12:59:28,2012-11-06 12:59:41.975000,13.975,7,DW,,,,,,,,,,,,,,,,,others,0
790,2012-11-06 12:59:35,2012-11-06 12:59:48.975000,13.975,7,DW,,,,,,,,,,,,,,,,,others,0
791,2012-11-06 12:59:42,2012-11-06 12:59:55.975000,13.975,7,DW,,,,,,,,,,,,,,,,,others,0
792,2012-11-06 12:59:49,2012-11-06 13:00:02.975000,13.975,7,DW,,,,,,,,,,,,,,,,,others,0
793,2012-11-06 12:59:56,2012-11-06 13:00:09.975000,13.975,7,DW,,,,,,,,,,,,,,,,,others,0
794,2012-11-06 13:00:03,2012-11-06 13:00:16.975000,13.975,7,DW,,,,,,,,,,,,,,,,,others,0
795,2012-11-06 13:00:10,2012-11-06 13:00:23.975000,13.975,7,DW,,,,,,,,,,,,,,,,,others,0
796,2012-11-06 13:00:17,2012-11-06 13:00:30.975000,13.975,7,DW,,,,,,,,,,,,,,,,,others,0
797,2012-11-06 13:00:24,2012-11-06 13:00:37.975000,13.975,7,DW,,,,,,,,,,,,,,,,,others,0
798,2012-11-06 13:00:31,2012-11-06 13:00:44.975000,13.975,7,DW,,,,,,,,,,,,,,,,,others,0
799,2012-11-06 13:00:38,2012-11-06 13:00:51.975000,13.975,7,DW,,,,,,,,,,,,,,,,,others,0
800,2012-11-06 13:00:45,2012-11-06 13:00:58.975000,13.975,7,DW,,,,,,,,,,,,,,,,,others,0
801,2012-11-06 13:00:52,2012-11-06 13:01:05.975000,13.975,7,DW,,,,,,,,,,,,,,,,,others,0
802,2012-11-06 13:00:59,2012-11-06 13:01:12.975000,13.975,7,DW,,,,,,,,,,,,,,,,,others,0
803,2012-11-06 13:01:06,2012-11-06 13:01:19.975000,13.975,7,DW,,,,,,,,,,,,,,,,,others,0
804,2012-11-06 13:01:13,2012-11-06 13:01:26.975000,13.975,7,DW,,,,,,,,,,,,,,,,,rest,-1
805,2012-11-06 13:01:20,2012-11-06 13:01:33.975000,13.975,7,DW,,,,,,,,,,,,,,,,,rest,-1
806,2012-11-06 13:01:27,2012-11-06 13:01:40.975000,13.975,7,DW,,,,,,,,,,,,,,,,,others,0
807,2012-11-06 13:01:34,2012-11-06 13:01:47.975000,13.975,7,DW,,,,,,,,,,,,,,,,,others,0
808,2012-11-06 13:01:41,2012-11-06 13:01:54.975000,13.975,7,DW,,,,,,,,,,,,,,,,,others,0
809,2012-11-06 13:01:48,2012-11-06 13:02:01.975000,13.975,7,DW,,,,,,,,,,,,,,,,,others,0
810,2012-11-06 13:01:55,2012-11-06 13:02:08.975000,13.975,7,DW,,,,,,,,,,,,,,,,,others,0
811,2012-11-06 13:02:02,2012-11-06 13:02:15.975000,13.975,7,DW,,,,,,,,,,,,,,,,,rest,-1
812,2012-11-06 13:02:09,2012-11-06 13:02:22.975000,13.975,7,DW,,,,,,,,,,,,,,,,,rest,-1
813,2012-11-06 13:02:16,2012-11-06 13:02:29.975000,13.975,7,DW,,,,,,,,,,,,,,,,,others,0
814,2012-11-06 13:02:23,2012-11-06 13:02:36.975000,13.975,7,DW,,,,,,,,,,,,,,,,,others,0
815,2012-11-06 13:02:30,2012-11-06 13:02:43.975000,13.975,7,DW,,,,,,,,,,,,,,,,,others,0
816,2012-11-06 13:02:37,2012-11-06 13:02:50.975000,13.975,7,DW,,,,,,,,,,,,,,,,,others,0
817,2012-11-06 13:02:44,2012-11-06 13:02:57.975000,13.975,7,DW,,,,,,,,,,,,,,,0.4991055456171735,,walking,1
818,2012-11-06 13:02:51,2012-11-06 13:03:04.975000,13.975,7,DW,,,,,,,,,,,,,,,1.0,,walking,1
819,2012-11-06 13:02:58,2012-11-06 13:03:11.975000,13.975,7,DW,,,,,,,,,,,,,,,1.0,,walking,1
820,2012-11-06 13:03:05,2012-11-06 13:03:18.975000,13.975,7,DW,,,,,,,,,,,,,,,1.0,,walking,1
821,2012-11-06 13:03:12,2012-11-06 13:03:25.975000,13.975,7,DW,,,,,,0.21288014311270126,,,,,,,,,0.7871198568872988,,walking,1
822,2012-11-06 13:03:19,2012-11-06 13:03:32.975000,13.975,7,DW,,,,,,0.7137745974955277,,,,,,,,,0.28622540250447226,,in car,7
823,2012-11-06 13:03:26,2012-11-06 13:03:39.975000,13.975,7,DW,,,,,,1.0,,,,,,0.21288014311270126,,,,0.21288014311270126,in car,7
824,2012-11-06 13:03:33,2012-11-06 13:03:46.975000,13.975,7,DW,,,,,,1.0,,,,,,0.7137745974955277,,,,0.7137745974955277,in car,7
825,2012-11-06 13:03:40,2012-11-06 13:03:53.975000,13.975,7,DW,,,,,,1.0,,,,,,1.0,,,,1.0,in car,7
826,2012-11-06 13:03:47,2012-11-06 13:04:00.975000,13.975,7,DW,,,,,,1.0,,,,,,1.0,,,,1.0,in car,7
827,2012-11-06 13:03:54,2012-11-06 13:04:07.975000,13.975,7,DW,,,,,,1.0,,,,,,1.0,,,,1.0,in car,7
828,2012-11-06 13:04:01,2012-11-06 13:04:14.975000,13.975,7,DW,,,,,,1.0,,,,,,1.0,,,,1.0,in car,7
829,2012-11-06 13:04:08,2012-11-06 13:04:21.975000,13.975,7,DW,,,,,,1.0,,,,,,1.0,,,,1.0,in car,7
830,2012-11-06 13:04:15,2012-11-06 13:04:28.975000,13.975,7,DW,,,,,,1.0,,,,,,1.0,,,,1.0,in car,7
831,2012-11-06 13:04:22,2012-11-06 13:04:35.975000,13.975,7,DW,,,,,,1.0,,,,,,1.0,,,,1.0,in car,7
832,2012-11-06 13:04:29,2012-11-06 13:04:42.975000,13.975,7,DW,,,,,,1.0,,,,,,1.0,,,,1.0,in car,7
833,2012-11-06 13:04:36,2012-11-06 13:04:49.975000,13.975,7,DW,,,,,,1.0,,,,,,1.0,,,,1.0,in car,7
834,2012-11-06 13:04:43,2012-11-06 13:04:56.975000,13.975,7,DW,,,,,,1.0,,,,,,1.0,,,,1.0,in car,7
835,2012-11-06 13:04:50,2012-11-06 13:05:03.975000,13.975,7,DW,,,,,,1.0,,,,,,1.0,,,,1.0,in car,7
836,2012-11-06 13:04:57,2012-11-06 13:05:10.975000,13.975,7,DW,,,,,,1.0,,,,,,1.0,,,,1.0,in car,7
837,2012-11-06 13:05:04,2012-11-06 13:05:17.975000,13.975,7,DW,,,,,,1.0,,,,,,1.0,,,,1.0,in car,7
838,2012-11-06 13:05:11,2012-11-06 13:05:24.975000,13.975,7,DW,,,,,,1.0,,,,,,1.0,,,,1.0,in car,7
839,2012-11-06 13:05:18,2012-11-06 13:05:31.975000,13.975,7,DW,,,,,,0.9302325581395349,,,,,,1.0,,,0.1413237924865832,1.0,in car,7
840,2012-11-06 13:05:25,2012-11-06 13:05:38.975000,13.975,7,DW,,,,,,0.42933810375670844,,,,,,1.0,,,0.6422182468694096,1.0,in car,7
841,2012-11-06 13:05:32,2012-11-06 13:05:45.975000,13.975,7,DW,,,,,,,,,,,,1.0,,,1.0,1.0,walking,1
842,2012-11-06 13:05:39,2012-11-06 13:05:52.975000,13.975,7,DW,,,,,,,,,,,,1.0,,,1.0,1.0,walking,1
843,2012-11-06 13:05:46,2012-11-06 13:05:59.975000,13.975,7,DW,,,,,,,,,,,,1.0,,,1.0,1.0,walking,1
844,2012-11-06 13:05:53,2012-11-06 13:06:06.975000,13.975,7,DW,,,,,,,,,,,,1.0,,,1.0,1.0,walking,1
845,2012-11-06 13:06:00,2012-11-06 13:06:13.975000,13.975,7,DW,,,,,,,,,,,,1.0,,,0.5724508050089445,0.5724508050089445,walking,1
846,2012-11-06 13:06:07,2012-11-06 13:06:20.975000,13.975,7,DW,,,,,,,,,0.14311270125223613,,,1.0,,,0.07155635062611806,0.21466905187835422,others,0
847,2012-11-06 13:06:14,2012-11-06 13:06:27.975000,13.975,7,DW,,,,,,,,,0.14311270125223613,,,1.0,,,,0.14311270125223613,others,0
848,2012-11-06 13:06:21,2012-11-06 13:06:34.975000,13.975,7,DW,0.39333333333333337,0.10554561717352416,0.0,49.0,right-puff,,,,,,,1.0,,,,,puff,9
849,2012-11-06 13:06:28,2012-11-06 13:06:41.975000,13.975,7,DW,1.0,0.26833631484794274,0.0,49.0,right-puff,,0.1413237924865832,,,,,1.0,,,,0.1413237924865832,puff,9
850,2012-11-06 13:06:35,2012-11-06 13:06:48.975000,13.975,7,DW,0.6,0.16100178890876565,0.0,49.0,right-puff,,0.6422182468694096,,,,,1.0,,,,0.6422182468694096,puff,9
851,2012-11-06 13:06:42,2012-11-06 13:06:55.975000,13.975,7,DW,,,,,,,1.0,,,,,1.0,,,,1.0,talking,5
852,2012-11-06 13:06:49,2012-11-06 13:07:02.975000,13.975,7,DW,,,,,,,1.0,,,,,1.0,,,,1.0,talking,5
853,2012-11-06 13:06:56,2012-11-06 13:07:09.975000,13.975,7,DW,,,,,,,1.0,,,,,1.0,,,,1.0,rest,-1
854,2012-11-06 13:07:03,2012-11-06 13:07:16.975000,13.975,7,DW,,,,,,,1.0,,,,,1.0,,,,1.0,talking,5
855,2012-11-06 13:07:10,2012-11-06 13:07:23.975000,13.975,7,DW,,,,,,,0.5724508050089445,,,,,1.0,,,,0.5724508050089445,talking,5
856,2012-11-06 13:07:17,2012-11-06 13:07:30.975000,13.975,7,DW,,,,,,,0.07155635062611806,,,,,1.0,,,,0.07155635062611806,others,0
857,2012-11-06 13:07:24,2012-11-06 13:07:37.975000,13.975,7,DW,,,,,,,,,,,,1.0,,,,,others,0
858,2012-11-06 13:07:31,2012-11-06 13:07:44.975000,13.975,7,DW,,,,,,,,,,,,1.0,,,,,others,0
859,2012-11-06 13:07:38,2012-11-06 13:07:51.975000,13.975,7,DW,,,,,,,,,,,,1.0,,,,,others,0
860,2012-11-06 13:07:45,2012-11-06 13:07:58.975000,13.975,7,DW,,,,,,,,,,,,1.0,,,,,others,0
861,2012-11-06 13:07:52,2012-11-06 13:08:05.975000,13.975,7,DW,,,,,,,,,,,,1.0,,,,,others,0
862,2012-11-06 13:07:59,2012-11-06 13:08:12.975000,13.975,7,DW,,,,,,,,,,,,1.0,,,,,others,0
863,2012-11-06 13:08:06,2012-11-06 13:08:19.975000,13.975,7,DW,,,,,,,,,,,,1.0,,,,,others,0
864,2012-11-06 13:08:13,2012-11-06 13:08:26.975000,13.975,7,DW,,,,,,,,,,,,1.0,,,,,others,0
865,2012-11-06 13:08:20,2012-11-06 13:08:33.975000,13.975,7,DW,,,,,,,,,,,,1.0,,,,,others,0
866,2012-11-06 13:08:27,2012-11-06 13:08:40.975000,13.975,7,DW,,,,,,,,,,,,1.0,,,,,others,0
867,2012-11-06 13:08:34,2012-11-06 13:08:47.975000,13.975,7,DW,,,,,,,,,,,,1.0,,,,,others,0
868,2012-11-06 13:08:41,2012-11-06 13:08:54.975000,13.975,7,DW,,,,,,,,,,,,1.0,,,,,others,0
869,2012-11-06 13:08:48,2012-11-06 13:09:01.975000,13.975,7,DW,,,,,,,,,,,,1.0,,0.3559928443649374,,0.3559928443649374,phone,3
870,2012-11-06 13:08:55,2012-11-06 13:09:08.975000,13.975,7,DW,,,,,,,,,,,,1.0,,0.8568872987477638,,0.8568872987477638,phone,3
871,2012-11-06 13:09:02,2012-11-06 13:09:15.975000,13.975,7,DW,,,,,,,,,,,,1.0,,1.0,,1.0,phone,3
872,2012-11-06 13:09:09,2012-11-06 13:09:22.975000,13.975,7,DW,,,,,,,,,,,,1.0,,1.0,,1.0,phone,3
873,2012-11-06 13:09:16,2012-11-06 13:09:29.975000,13.975,7,DW,,,,,,,,,,,,1.0,,1.0,,1.0,phone,3
874,2012-11-06 13:09:23,2012-11-06 13:09:36.975000,13.975,7,DW,,,,,,,,,,,,1.0,,1.0,,1.0,phone,3
875,2012-11-06 13:09:30,2012-11-06 13:09:43.975000,13.975,7,DW,,,,,,,,,,,,1.0,,1.0,,1.0,phone,3
876,2012-11-06 13:09:37,2012-11-06 13:09:50.975000,13.975,7,DW,,,,,,,,,,,,1.0,,1.0,,1.0,phone,3
877,2012-11-06 13:09:44,2012-11-06 13:09:57.975000,13.975,7,DW,,,,,,,,,,,,1.0,,1.0,,1.0,phone,3
878,2012-11-06 13:09:51,2012-11-06 13:10:04.975000,13.975,7,DW,,,,,,,,,,,,1.0,,1.0,,1.0,phone,3
879,2012-11-06 13:09:58,2012-11-06 13:10:11.975000,13.975,7,DW,,,,,,,,,,,,1.0,,1.0,,1.0,phone,3
880,2012-11-06 13:10:05,2012-11-06 13:10:18.975000,13.975,7,DW,,,,,,,,,,,,1.0,,1.0,,1.0,phone,3
881,2012-11-06 13:10:12,2012-11-06 13:10:25.975000,13.975,7,DW,,,,,,,,,,,,1.0,,1.0,,1.0,phone,3
882,2012-11-06 13:10:19,2012-11-06 13:10:32.975000,13.975,7,DW,,,,,,,,,,,,1.0,,1.0,,1.0,phone,3
883,2012-11-06 13:10:26,2012-11-06 13:10:39.975000,13.975,7,DW,,,,,,,,,,,,1.0,,1.0,,1.0,phone,3
884,2012-11-06 13:10:33,2012-11-06 13:10:46.975000,13.975,7,DW,,,,,,,,,,,,1.0,,1.0,,1.0,phone,3
885,2012-11-06 13:10:40,2012-11-06 13:10:53.975000,13.975,7,DW,,,,,,,,,,,,1.0,,1.0,,1.0,rest,-1
886,2012-11-06 13:10:47,2012-11-06 13:11:00.975000,13.975,7,DW,,,,,,,,,,,,1.0,,1.0,,1.0,phone,3
887,2012-11-06 13:10:54,2012-11-06 13:11:07.975000,13.975,7,DW,,,,,,,0.4275491949910554,,,,,1.0,,0.5724508050089445,,1.0,talking,5
888,2012-11-06 13:11:01,2012-11-06 13:11:14.975000,13.975,7,DW,0.5424242424242424,0.32021466905187834,1.0,53.0,right-puff,,0.9284436493738819,,,,,1.0,,0.07155635062611806,,1.0,puff,9
889,2012-11-06 13:11:08,2012-11-06 13:11:21.975000,13.975,7,DW,1.0,0.590339892665474,1.0,53.0,right-puff,,1.0,,,,,1.0,,,,1.0,puff,9
890,2012-11-06 13:11:15,2012-11-06 13:11:28.975000,13.975,7,DW,0.45454545454545453,0.26833631484794274,1.0,53.0,right-puff,,1.0,,,,,1.0,,,,1.0,puff,9
891,2012-11-06 13:11:22,2012-11-06 13:11:35.975000,13.975,7,DW,,,,,,,1.0,,,,,1.0,,,,1.0,talking,5
892,2012-11-06 13:11:29,2012-11-06 13:11:42.975000,13.975,7,DW,,,,,,,1.0,,,,,1.0,,,,1.0,talking,5
893,2012-11-06 13:11:36,2012-11-06 13:11:49.975000,13.975,7,DW,,,,,,,1.0,,,,,1.0,,,,1.0,talking,5
894,2012-11-06 13:11:43,2012-11-06 13:11:56.975000,13.975,7,DW,0.10555555555555556,0.03398926654740608,0.0,54.0,right-puff,,1.0,,,,,1.0,,,,1.0,talking,5
895,2012-11-06 13:11:50,2012-11-06 13:12:03.975000,13.975,7,DW,1.0,0.3220035778175313,0.0,54.0,right-puff,,1.0,,,,,1.0,,,,1.0,puff,9
896,2012-11-06 13:11:57,2012-11-06 13:12:10.975000,13.975,7,DW,0.8888888888888888,0.28622540250447226,0.0,54.0,right-puff,,1.0,,,,,1.0,,,,1.0,puff,9
897,2012-11-06 13:12:04,2012-11-06 13:12:17.975000,13.975,7,DW,,,,,,,1.0,,,,,1.0,,,,1.0,talking,5
898,2012-11-06 13:12:11,2012-11-06 13:12:24.975000,13.975,7,DW,0.3277777777777778,0.10554561717352416,0.0,55.0,right-puff,,1.0,,,,,1.0,,,,1.0,puff,9
899,2012-11-06 13:12:18,2012-11-06 13:12:31.975000,13.975,7,DW,1.0,0.3220035778175313,0.0,55.0,right-puff,,1.0,,,,,1.0,,,,1.0,puff,9
900,2012-11-06 13:12:25,2012-11-06 13:12:38.975000,13.975,7,DW,0.6666666666666666,0.21466905187835422,0.0,55.0,right-puff,,1.0,,,,,1.0,,,,1.0,puff,9
901,2012-11-06 13:12:32,2012-11-06 13:12:45.975000,13.975,7,DW,,,,,,,1.0,,,,,1.0,,,,1.0,talking,5
902,2012-11-06 13:12:39,2012-11-06 13:12:52.975000,13.975,7,DW,,,,,,,1.0,,,,,1.0,,,,1.0,talking,5
903,2012-11-06 13:12:46,2012-11-06 13:12:59.975000,13.975,7,DW,,,,,,,1.0,,,,,1.0,,,,1.0,talking,5
904,2012-11-06 13:12:53,2012-11-06 13:13:06.975000,13.975,7,DW,,,,,,,1.0,,,,,0.5724508050089445,,,,0.5724508050089445,talking,5
905,2012-11-06 13:13:00,2012-11-06 13:13:12,12.0,7,DW,,,,,,,1.0,,,,,0.08333333333333333,,,,0.08333333333333333,talking,5
906,2012-11-06 13:13:07,2012-11-06 13:13:12,5.0,7,DW,,,,,,,1.0,,,,,,,,,,talking,5
