,segment,STARTTIME,ENDTIME,seg duration,session,sensor,inside puff/puff duration,inside puff/segment duration,prototypical?,puff index,puff side,car percentage,talk percentage,unknown percentage,drinking percentage,reading percentage,eating percentage,smoking percentage,computer percentage,phone percentage,walking percentage,superposition percentage,name,target
0,0,2011-10-27 11:23:22,2011-10-27 11:23:38.975000,16.975,1,BFW,,,,,,,,,,,,,,,0.117820324005891,,others,0
1,1,2011-10-27 11:23:30.500000,2011-10-27 11:23:47.475000,16.975,1,BFW,,,,,,,,,,,,,,,,,others,0
2,2,2011-10-27 11:23:39,2011-10-27 11:23:55.975000,16.975,1,BFW,,,,,,,,,,,,,,,,,rest,-1
3,3,2011-10-27 11:23:47.500000,2011-10-27 11:24:04.475000,16.975,1,BFW,,,,,,,,,,,,,,,,,others,0
4,4,2011-10-27 11:23:56,2011-10-27 11:24:12.975000,16.975,1,BFW,,,,,,,,,,,,,,,,,others,0
5,5,2011-10-27 11:24:04.500000,2011-10-27 11:24:21.475000,16.975,1,BFW,,,,,,,,,,,,,,,,,others,0
6,6,2011-10-27 11:24:13,2011-10-27 11:24:29.975000,16.975,1,BFW,,,,,,,,0.235640648011782,,,,,,,,,others,0
7,7,2011-10-27 11:24:21.500000,2011-10-27 11:24:38.475000,16.975,1,BFW,,,,,,,,0.235640648011782,,,,,,,,,others,0
8,8,2011-10-27 11:24:30,2011-10-27 11:24:46.975000,16.975,1,BFW,,,,,,,,,,,,,,,,,others,0
9,9,2011-10-27 11:24:38.500000,2011-10-27 11:24:55.475000,16.975,1,BFW,,,,,,,,,,,,,,0.49926362297496313,,,phone,3
10,10,2011-10-27 11:24:47,2011-10-27 11:25:03.975000,16.975,1,BFW,,,,,,,,,,,,,,1.0,,,phone,3
11,11,2011-10-27 11:24:55.500000,2011-10-27 11:25:12.475000,16.975,1,BFW,,,,,,,,,,,,,,1.0,,,phone,3
12,12,2011-10-27 11:25:04,2011-10-27 11:25:20.975000,16.975,1,BFW,,,,,,,,,,,,,,1.0,0.3519882179675994,,phone,3
13,13,2011-10-27 11:25:12.500000,2011-10-27 11:25:29.475000,16.975,1,BFW,,,,,,,,,,,,,,1.0,0.8527245949926361,,phone,3
14,14,2011-10-27 11:25:21,2011-10-27 11:25:37.975000,16.975,1,BFW,,,,,,,,,,,,,,1.0,0.5301914580265096,,phone,3
15,15,2011-10-27 11:25:29.500000,2011-10-27 11:25:46.475000,16.975,1,BFW,,,,,,,,,,,,,,1.0,0.02945508100147275,,phone,3
16,16,2011-10-27 11:25:38,2011-10-27 11:25:54.975000,16.975,1,BFW,,,,,,,,,,,,,,1.0,0.11634756995581737,,phone,3
17,17,2011-10-27 11:25:46.500000,2011-10-27 11:26:03.475000,16.975,1,BFW,,,,,,,,,,,,,,1.0,0.353460972017673,,phone,3
18,18,2011-10-27 11:25:55,2011-10-27 11:26:11.975000,16.975,1,BFW,,,,,,,0.17525773195876287,,,,,,,0.8247422680412371,0.5301914580265096,,phone,3
19,19,2011-10-27 11:26:03.500000,2011-10-27 11:26:20.475000,16.975,1,BFW,,,,,,,0.6759941089837996,,,,,,,0.32400589101620025,0.2945508100147275,,talking,5
20,20,2011-10-27 11:26:12,2011-10-27 11:26:28.975000,16.975,1,BFW,,,,,,,1.0,,,,,,,,,,talking,5
21,21,2011-10-27 11:26:20.500000,2011-10-27 11:26:37.475000,16.975,1,BFW,,,,,,,1.0,,,,,,,,,,talking,5
22,22,2011-10-27 11:26:29,2011-10-27 11:26:45.975000,16.975,1,BFW,,,,,,,1.0,,,,,,,,,,talking,5
23,23,2011-10-27 11:26:37.500000,2011-10-27 11:26:54.475000,16.975,1,BFW,,,,,,,1.0,,,,,,,,,,talking,5
24,24,2011-10-27 11:26:46,2011-10-27 11:27:02.975000,16.975,1,BFW,,,,,,,1.0,,,,,,,,,,talking,5
25,25,2011-10-27 11:26:54.500000,2011-10-27 11:27:11.475000,16.975,1,BFW,,,,,,,1.0,,,,,,,,,,talking,5
26,26,2011-10-27 11:27:03,2011-10-27 11:27:19.975000,16.975,1,BFW,,,,,,,1.0,,,,,,,,,,talking,5
27,27,2011-10-27 11:27:11.500000,2011-10-27 11:27:28.475000,16.975,1,BFW,,,,,,,1.0,,,,,,,,,,talking,5
28,28,2011-10-27 11:27:20,2011-10-27 11:27:36.975000,16.975,1,BFW,,,,,,,1.0,,,,,,,,0.3519882179675994,,talking,5
29,29,2011-10-27 11:27:28.500000,2011-10-27 11:27:45.475000,16.975,1,BFW,,,,,,,1.0,,,,,,,,0.7658321060382915,,talking,5
30,30,2011-10-27 11:27:37,2011-10-27 11:27:53.975000,16.975,1,BFW,,,,,,,1.0,,,,,,,,0.41237113402061853,,talking,5
31,31,2011-10-27 11:27:45.500000,2011-10-27 11:28:02.475000,16.975,1,BFW,,,,,,,1.0,,,,,,,,,,talking,5
32,32,2011-10-27 11:27:54,2011-10-27 11:28:10.975000,16.975,1,BFW,,,,,,,0.7658321060382915,,,,,,,,0.17525773195876287,,talking,5
33,33,2011-10-27 11:28:02.500000,2011-10-27 11:28:19.475000,16.975,1,BFW,,,,,,,0.2650957290132548,,,,,,,,0.353460972017673,,walking,1
34,34,2011-10-27 11:28:11,2011-10-27 11:28:27.975000,16.975,1,BFW,,,,,,,,,,,,,,,0.46980854197349037,,walking,1
35,35,2011-10-27 11:28:19.500000,2011-10-27 11:28:36.475000,16.975,1,BFW,,,,,,,,,,,,,,,0.5301914580265096,,walking,1
36,36,2011-10-27 11:28:28,2011-10-27 11:28:44.975000,16.975,1,BFW,,,,,,,,,,,,,,,0.41089837997054485,,walking,1
37,37,2011-10-27 11:28:36.500000,2011-10-27 11:28:53.475000,16.975,1,BFW,,,,,,,,,,,,,,,0.5301914580265096,,walking,1
38,38,2011-10-27 11:28:45,2011-10-27 11:29:01.975000,16.975,1,BFW,,,,,,,,,,,,,,,0.353460972017673,,walking,1
39,39,2011-10-27 11:28:53.500000,2011-10-27 11:29:10.475000,16.975,1,BFW,0.2882352941176471,0.07216494845360824,1.0,0.0,left-puff,,,,0.2636229749631811,,,0.49926362297496313,,,,0.2636229749631811,drinking,8
40,40,2011-10-27 11:29:02,2011-10-27 11:29:18.975000,16.975,1,BFW,1.3470588235294116,0.337260677466863,1.0,0.0,left-puff,,,,0.7643593519882179,,,1.0,,,,0.7643593519882179,puff,9
41,41,2011-10-27 11:29:10.500000,2011-10-27 11:29:27.475000,16.975,1,BFW,1.7647058823529411,0.4418262150220913,1.0,0.0,left-puff,,,,1.0,,,1.0,,,,1.0,puff,9
42,42,2011-10-27 11:29:19,2011-10-27 11:29:35.975000,16.975,1,BFW,0.6666666666666666,0.1767304860088365,1.0,1.0,left-puff,,,,1.0,,,1.0,,,,1.0,puff,9
43,43,2011-10-27 11:29:27.500000,2011-10-27 11:29:44.475000,16.975,1,BFW,1.0,0.2650957290132548,1.0,2.0,left-puff,,,,1.0,,,1.0,,,,1.0,puff,9
44,44,2011-10-27 11:29:36,2011-10-27 11:29:52.975000,16.975,1,BFW,1.1055555555555554,0.29307805596465386,1.0,2.0,left-puff,,,,1.0,,,1.0,,,,1.0,puff,9
45,45,2011-10-27 11:29:44.500000,2011-10-27 11:30:01.475000,16.975,1,BFW,1.0,0.2650957290132548,1.0,3.0,left-puff,,,,1.0,,,1.0,,,,1.0,puff,9
46,46,2011-10-27 11:29:53,2011-10-27 11:30:09.975000,16.975,1,BFW,0.8888888888888888,0.235640648011782,1.0,3.0,left-puff,,,,1.0,,,1.0,,,,1.0,puff,9
47,47,2011-10-27 11:30:01.500000,2011-10-27 11:30:18.475000,16.975,1,BFW,,,,,,,,,1.0,,,1.0,,,,1.0,drinking,8
48,48,2011-10-27 11:30:10,2011-10-27 11:30:26.975000,16.975,1,BFW,1.0,0.20618556701030927,1.0,4.0,right-puff,,,,1.0,,,1.0,,,,1.0,puff,9
49,49,2011-10-27 11:30:18.500000,2011-10-27 11:30:35.475000,16.975,1,BFW,1.0,0.20618556701030927,1.0,4.0,right-puff,,,,1.0,,,1.0,,,,1.0,puff,9
50,50,2011-10-27 11:30:27,2011-10-27 11:30:43.975000,16.975,1,BFW,,,,,,,,,0.7658321060382915,,,1.0,,0.23416789396170837,,1.0,drinking,8
51,51,2011-10-27 11:30:35.500000,2011-10-27 11:30:52.475000,16.975,1,BFW,,,,,,,,,0.2650957290132548,,,1.0,,0.7349042709867452,,1.0,drinking,8
52,52,2011-10-27 11:30:44,2011-10-27 11:31:00.975000,16.975,1,BFW,1.0,0.353460972017673,0.0,5.0,right-puff,,,,,,,1.0,,1.0,,1.0,puff,9
53,53,2011-10-27 11:30:52.500000,2011-10-27 11:31:09.475000,16.975,1,BFW,1.0,0.353460972017673,0.0,5.0,right-puff,,,,,,,1.0,,1.0,,1.0,puff,9
54,54,2011-10-27 11:31:01,2011-10-27 11:31:17.975000,16.975,1,BFW,1.0,0.1767304860088365,1.0,6.0,right-puff,,,,,,,1.0,,1.0,,1.0,puff,9
55,55,2011-10-27 11:31:09.500000,2011-10-27 11:31:26.475000,16.975,1,BFW,1.0,0.1767304860088365,1.0,6.0,right-puff,,,,,,,1.0,,1.0,,1.0,puff,9
56,56,2011-10-27 11:31:18,2011-10-27 11:31:34.975000,16.975,1,BFW,,,,,,,,,,,,1.0,,1.0,,1.0,phone,3
57,57,2011-10-27 11:31:26.500000,2011-10-27 11:31:43.475000,16.975,1,BFW,,,,,,,,,,,,1.0,,1.0,,1.0,phone,3
58,58,2011-10-27 11:31:35,2011-10-27 11:31:51.975000,16.975,1,BFW,1.0,0.14727540500736375,1.0,7.0,right-puff,,,,,,,1.0,,1.0,,1.0,puff,9
59,59,2011-10-27 11:31:43.500000,2011-10-27 11:32:00.475000,16.975,1,BFW,1.0,0.14727540500736375,1.0,7.0,right-puff,,,,,,,1.0,,1.0,,1.0,puff,9
60,60,2011-10-27 11:31:52,2011-10-27 11:32:08.975000,16.975,1,BFW,0.55,0.14580265095729011,0.0,8.0,right-puff,,,,,,,1.0,,1.0,,1.0,puff,9
61,61,2011-10-27 11:32:00.500000,2011-10-27 11:32:17.475000,16.975,1,BFW,1.0,0.2650957290132548,0.0,8.0,right-puff,,,,,,,1.0,,1.0,,1.0,puff,9
62,62,2011-10-27 11:32:09,2011-10-27 11:32:25.975000,16.975,1,BFW,0.4444444444444444,0.117820324005891,0.0,8.0,right-puff,,,,,,,1.0,,1.0,,1.0,puff,9
63,63,2011-10-27 11:32:17.500000,2011-10-27 11:32:34.475000,16.975,1,BFW,,,,,,,,,,,,1.0,,1.0,,1.0,phone,3
64,64,2011-10-27 11:32:26,2011-10-27 11:32:42.975000,16.975,1,BFW,0.55,0.14580265095729011,1.0,9.0,right-puff,,,,,,,1.0,,1.0,,1.0,puff,9
65,65,2011-10-27 11:32:34.500000,2011-10-27 11:32:51.475000,16.975,1,BFW,1.0,0.2650957290132548,1.0,9.0,right-puff,,,,,,,1.0,,1.0,,1.0,puff,9
66,66,2011-10-27 11:32:43,2011-10-27 11:32:59.975000,16.975,1,BFW,0.4444444444444444,0.117820324005891,1.0,9.0,right-puff,,,,,,,1.0,,1.0,,1.0,puff,9
67,67,2011-10-27 11:32:51.500000,2011-10-27 11:33:08.475000,16.975,1,BFW,,,,,,,,,,,,1.0,,1.0,,1.0,phone,3
68,68,2011-10-27 11:33:00,2011-10-27 11:33:16.975000,16.975,1,BFW,,,,,,,,,0.23416789396170837,,,1.0,,0.7658321060382915,,1.0,phone,3
69,69,2011-10-27 11:33:08.500000,2011-10-27 11:33:25.475000,16.975,1,BFW,0.6055555555555556,0.1605301914580265,1.0,10.0,right-puff,,,,0.235640648011782,,,1.0,,0.7643593519882179,,1.0,puff,9
70,70,2011-10-27 11:33:17,2011-10-27 11:33:33.975000,16.975,1,BFW,1.0,0.2650957290132548,1.0,10.0,right-puff,,,,,,,1.0,,1.0,,1.0,puff,9
71,71,2011-10-27 11:33:25.500000,2011-10-27 11:33:42.475000,16.975,1,BFW,0.3888888888888889,0.10309278350515463,1.0,10.0,right-puff,,,,,,,1.0,,1.0,,1.0,puff,9
72,72,2011-10-27 11:33:34,2011-10-27 11:33:50.975000,16.975,1,BFW,,,,,,,,,,,,1.0,,1.0,,1.0,phone,3
73,73,2011-10-27 11:33:42.500000,2011-10-27 11:33:59.475000,16.975,1,BFW,,,,,,,,,0.117820324005891,,,1.0,,0.8821796759941088,,1.0,phone,3
74,74,2011-10-27 11:33:51,2011-10-27 11:34:07.975000,16.975,1,BFW,,,,,,,,,0.117820324005891,,,1.0,,0.8821796759941088,,1.0,phone,3
75,75,2011-10-27 11:33:59.500000,2011-10-27 11:34:16.475000,16.975,1,BFW,1.0,0.353460972017673,1.0,11.0,right-puff,,,,,,,1.0,,1.0,,1.0,puff,9
76,76,2011-10-27 11:34:08,2011-10-27 11:34:24.975000,16.975,1,BFW,1.0,0.353460972017673,1.0,11.0,right-puff,,,,,,,1.0,,1.0,,1.0,puff,9
77,77,2011-10-27 11:34:16.500000,2011-10-27 11:34:33.475000,16.975,1,BFW,1.0,0.2503681885125184,1.0,12.0,right-puff,,,,,,,1.0,,1.0,,1.0,puff,9
78,78,2011-10-27 11:34:25,2011-10-27 11:34:41.975000,16.975,1,BFW,1.0,0.2503681885125184,1.0,12.0,right-puff,,,,0.0589101620029455,,,1.0,,0.9410898379970544,,1.0,puff,9
79,79,2011-10-27 11:34:33.500000,2011-10-27 11:34:50.475000,16.975,1,BFW,,,,,,,,,0.0589101620029455,,,1.0,,0.9131075110456554,,0.9720176730486008,phone,3
80,80,2011-10-27 11:34:42,2011-10-27 11:34:58.975000,16.975,1,BFW,,,,,,,,,,,,1.0,,0.471281296023564,,0.471281296023564,phone,3
81,81,2011-10-27 11:34:50.500000,2011-10-27 11:35:07.475000,16.975,1,BFW,,,,,,,,,,,,1.0,,,,,others,0
82,82,2011-10-27 11:34:59,2011-10-27 11:35:15.975000,16.975,1,BFW,,,,,,,,,,,,1.0,,,,,others,0
83,83,2011-10-27 11:35:07.500000,2011-10-27 11:35:24.475000,16.975,1,BFW,,,,,,,,,,,,1.0,,,,,others,0
84,84,2011-10-27 11:35:16,2011-10-27 11:35:32.975000,16.975,1,BFW,0.9944444444444444,0.2636229749631811,1.0,13.0,left-puff,,,,,,,1.0,,,,,puff,9
85,85,2011-10-27 11:35:24.500000,2011-10-27 11:35:41.475000,16.975,1,BFW,1.0,0.2650957290132548,1.0,13.0,left-puff,,,,,,,1.0,,,,,puff,9
86,86,2011-10-27 11:35:33,2011-10-27 11:35:49.975000,16.975,1,BFW,1.0,0.2650957290132548,1.0,14.0,left-puff,,,,,,,1.0,,,,,puff,9
87,87,2011-10-27 11:35:41.500000,2011-10-27 11:35:58.475000,16.975,1,BFW,1.0,0.2650957290132548,1.0,14.0,left-puff,,,,,,,1.0,,,,,puff,9
88,88,2011-10-27 11:35:50,2011-10-27 11:36:06.975000,16.975,1,BFW,,,,,,,,,,,,1.0,,,,,others,0
89,89,2011-10-27 11:35:58.500000,2011-10-27 11:36:15.475000,16.975,1,BFW,1.0,0.2945508100147275,1.0,15.0,left-puff,,,,,,,1.0,,,,,puff,9
90,90,2011-10-27 11:36:07,2011-10-27 11:36:23.975000,16.975,1,BFW,1.0,0.2945508100147275,1.0,15.0,left-puff,,,,,,,1.0,,,,,puff,9
91,91,2011-10-27 11:36:15.500000,2011-10-27 11:36:32.475000,16.975,1,BFW,,,,,,,,,,,,1.0,,,,,others,0
92,92,2011-10-27 11:36:24,2011-10-27 11:36:40.975000,16.975,1,BFW,1.0,0.3092783505154639,1.0,16.0,left-puff,,,,,,,1.0,,,,,puff,9
93,93,2011-10-27 11:36:32.500000,2011-10-27 11:36:49.475000,16.975,1,BFW,1.0,0.3092783505154639,1.0,16.0,left-puff,,,,,,,1.0,,,,,puff,9
94,94,2011-10-27 11:36:41,2011-10-27 11:36:57.975000,16.975,1,BFW,,,,,,,,,,,,1.0,,,,,others,0
95,95,2011-10-27 11:36:49.500000,2011-10-27 11:37:06.475000,16.975,1,BFW,,,,,,,,,,,,1.0,,,,,others,0
96,96,2011-10-27 11:36:58,2011-10-27 11:37:14.975000,16.975,1,BFW,,,,,,,,,,,,1.0,,,,,rest,-1
97,97,2011-10-27 11:37:06.500000,2011-10-27 11:37:23.475000,16.975,1,BFW,1.0,0.235640648011782,1.0,17.0,left-puff,,,,,,,1.0,,,,,puff,9
98,98,2011-10-27 11:37:15,2011-10-27 11:37:31.975000,16.975,1,BFW,1.0,0.235640648011782,1.0,17.0,left-puff,,,,,,,1.0,,,,,puff,9
99,99,2011-10-27 11:37:23.500000,2011-10-27 11:37:40.475000,16.975,1,BFW,,,,,,,,,0.08689248895434462,,,1.0,,,,0.08689248895434462,others,0
100,100,2011-10-27 11:37:32,2011-10-27 11:37:48.975000,16.975,1,BFW,,,,,,,,,0.2945508100147275,,,1.0,,,,0.2945508100147275,drinking,8
101,101,2011-10-27 11:37:40.500000,2011-10-27 11:37:57.475000,16.975,1,BFW,0.060000000000000005,0.013254786450662739,1.0,18.0,left-puff,,,,0.20618556701030927,,,1.0,,,,0.20618556701030927,others,0
102,102,2011-10-27 11:37:49,2011-10-27 11:38:05.975000,16.975,1,BFW,1.0,0.22091310751104565,1.0,18.0,left-puff,,,,,,,1.0,,,,,puff,9
103,103,2011-10-27 11:37:57.500000,2011-10-27 11:38:14.475000,16.975,1,BFW,0.9333333333333333,0.20618556701030927,1.0,18.0,left-puff,,,,,,,1.0,,,,,puff,9
104,104,2011-10-27 11:38:06,2011-10-27 11:38:22.975000,16.975,1,BFW,,,,,,,,,,,,1.0,,,,,others,0
105,105,2011-10-27 11:38:14.500000,2011-10-27 11:38:31.475000,16.975,1,BFW,0.6846153846153846,0.13107511045655376,1.0,19.0,left-puff,,,,,,,1.0,,,,,others,0
106,106,2011-10-27 11:38:23,2011-10-27 11:38:39.975000,16.975,1,BFW,1.0,0.1914580265095729,1.0,19.0,left-puff,,,,,,,1.0,,,,,puff,9
107,107,2011-10-27 11:38:31.500000,2011-10-27 11:38:48.475000,16.975,1,BFW,0.3076923076923077,0.0589101620029455,1.0,19.0,left-puff,,,,,,,1.0,,,,,puff,9
108,108,2011-10-27 11:38:40,2011-10-27 11:38:56.975000,16.975,1,BFW,1.0,0.2503681885125184,1.0,20.0,left-puff,,,,,,,1.0,,,,,puff,9
109,109,2011-10-27 11:38:48.500000,2011-10-27 11:39:05.475000,16.975,1,BFW,1.0,0.2503681885125184,1.0,20.0,left-puff,,,,,,,1.0,,,,,puff,9
110,110,2011-10-27 11:38:57,2011-10-27 11:39:13.975000,16.975,1,BFW,,,,,,,,,,,,1.0,,,,,others,0
111,111,2011-10-27 11:39:05.500000,2011-10-27 11:39:22.475000,16.975,1,BFW,1.0,0.2798232695139911,1.0,21.0,left-puff,,,,0.027982326951399114,,,1.0,,,,0.027982326951399114,puff,9
112,112,2011-10-27 11:39:14,2011-10-27 11:39:30.975000,16.975,1,BFW,1.0999999999999999,0.30780559646539024,1.0,21.0,left-puff,,,,0.41237113402061853,,,1.0,,,,0.41237113402061853,puff,9
113,113,2011-10-27 11:39:22.500000,2011-10-27 11:39:39.475000,16.975,1,BFW,1.0,0.2650957290132548,1.0,22.0,left-puff,,,,0.3829160530191458,,,1.0,,,,0.3829160530191458,puff,9
114,114,2011-10-27 11:39:31,2011-10-27 11:39:47.975000,16.975,1,BFW,0.8888888888888888,0.235640648011782,1.0,22.0,left-puff,,,,,,,1.0,,,,,puff,9
115,115,2011-10-27 11:39:39.500000,2011-10-27 11:39:56.475000,16.975,1,BFW,1.0,0.20618556701030927,0.0,23.0,left-puff,,,,,,,0.9131075110456554,,,,,puff,9
116,116,2011-10-27 11:39:48,2011-10-27 11:40:04.975000,16.975,1,BFW,1.0,0.20618556701030927,0.0,23.0,left-puff,,,,,,,0.41237113402061853,,,0.29307805596465386,,puff,9
117,117,2011-10-27 11:39:56.500000,2011-10-27 11:40:13.475000,16.975,1,BFW,,,,,,,,,,,,,,,0.7938144329896907,,walking,1
118,118,2011-10-27 11:40:05,2011-10-27 11:40:21.975000,16.975,1,BFW,,,,,,,,,,,,,,,1.0,,walking,1
119,119,2011-10-27 11:40:13.500000,2011-10-27 11:40:30.475000,16.975,1,BFW,,,,,,,,,,,,,,,0.6185567010309277,,walking,1
120,120,2011-10-27 11:40:22,2011-10-27 11:40:38.975000,16.975,1,BFW,,,,,,,,0.46980854197349037,,,,,,,0.471281296023564,,walking,1
121,121,2011-10-27 11:40:30.500000,2011-10-27 11:40:47.475000,16.975,1,BFW,,,,,,,,0.5301914580265096,,,,,,,0.353460972017673,,walking,1
122,122,2011-10-27 11:40:39,2011-10-27 11:40:55.975000,16.975,1,BFW,,,,,,,,0.5287187039764358,,,,,,,,,others,0
123,123,2011-10-27 11:40:47.500000,2011-10-27 11:41:04.475000,16.975,1,BFW,,,,,,,,0.9705449189985272,,,,,,,,,others,0
124,124,2011-10-27 11:40:56,2011-10-27 11:41:12.975000,16.975,1,BFW,,,,,,,,1.0,,,,,,,,,others,0
125,125,2011-10-27 11:41:04.500000,2011-10-27 11:41:21.475000,16.975,1,BFW,,,,,,,,1.0,,,,,,,,,others,0
126,126,2011-10-27 11:41:13,2011-10-27 11:41:29.975000,16.975,1,BFW,,,,,,,,1.0,,,,,,,,,others,0
127,127,2011-10-27 11:41:21.500000,2011-10-27 11:41:38.475000,16.975,1,BFW,,,,,,,,1.0,,,,,,,0.4403534609720176,,walking,1
128,128,2011-10-27 11:41:30,2011-10-27 11:41:46.975000,16.975,1,BFW,,,,,,,,1.0,,,,,,,0.9410898379970544,,walking,1
129,129,2011-10-27 11:41:38.500000,2011-10-27 11:41:55.475000,16.975,1,BFW,,,,,,,,1.0,,,,,,,1.0,,walking,1
130,130,2011-10-27 11:41:47,2011-10-27 11:42:03.975000,16.975,1,BFW,,,,,,,,1.0,,,,,,,0.942562592047128,,walking,1
131,131,2011-10-27 11:41:55.500000,2011-10-27 11:42:12.475000,16.975,1,BFW,,,,,,,,0.5596465390279822,,,,,,,0.4418262150220913,,walking,1
132,132,2011-10-27 11:42:04,2011-10-27 11:42:20.975000,16.975,1,BFW,,,,,,,,0.0589101620029455,,,0.46980854197349037,,,,,,eating,2
133,133,2011-10-27 11:42:12.500000,2011-10-27 11:42:29.475000,16.975,1,BFW,,,,,,,,,,,0.9705449189985272,,,,,,eating,2
134,134,2011-10-27 11:42:21,2011-10-27 11:42:37.975000,16.975,1,BFW,,,,,,,,,,,1.0,,,,,,eating,2
135,135,2011-10-27 11:42:29.500000,2011-10-27 11:42:46.475000,16.975,1,BFW,,,,,,,,,,,1.0,,,,,,eating,2
136,136,2011-10-27 11:42:38,2011-10-27 11:42:54.975000,16.975,1,BFW,,,,,,,,,,,1.0,,,,,,eating,2
137,137,2011-10-27 11:42:46.500000,2011-10-27 11:43:03.475000,16.975,1,BFW,,,,,,,,,,,1.0,,,,,,eating,2
138,138,2011-10-27 11:42:55,2011-10-27 11:43:11.975000,16.975,1,BFW,,,,,,,,,,,1.0,,,,,,eating,2
139,139,2011-10-27 11:43:03.500000,2011-10-27 11:43:20.475000,16.975,1,BFW,,,,,,,,,,,1.0,,,,,,eating,2
140,140,2011-10-27 11:43:12,2011-10-27 11:43:28.975000,16.975,1,BFW,,,,,,,,,,,1.0,,,,,,eating,2
141,141,2011-10-27 11:43:20.500000,2011-10-27 11:43:37.475000,16.975,1,BFW,,,,,,,,,,,1.0,,,,,,eating,2
142,142,2011-10-27 11:43:29,2011-10-27 11:43:45.975000,16.975,1,BFW,,,,,,,,,,,1.0,,,,,,eating,2
143,143,2011-10-27 11:43:37.500000,2011-10-27 11:43:54.475000,16.975,1,BFW,,,,,,,,,,,1.0,,,,,,eating,2
144,144,2011-10-27 11:43:46,2011-10-27 11:44:02.975000,16.975,1,BFW,,,,,,,,,,,1.0,,,,,,eating,2
145,145,2011-10-27 11:43:54.500000,2011-10-27 11:44:11.475000,16.975,1,BFW,,,,,,,,,,,1.0,,,,,,eating,2
146,146,2011-10-27 11:44:03,2011-10-27 11:44:19.975000,16.975,1,BFW,,,,,,,,,,,1.0,,,,,,eating,2
147,147,2011-10-27 11:44:11.500000,2011-10-27 11:44:28.475000,16.975,1,BFW,,,,,,,,,,,1.0,,,,,,eating,2
148,148,2011-10-27 11:44:20,2011-10-27 11:44:36.975000,16.975,1,BFW,,,,,,,,,,,1.0,,,,,,eating,2
149,149,2011-10-27 11:44:28.500000,2011-10-27 11:44:45.475000,16.975,1,BFW,,,,,,,,,,,1.0,,,,,,eating,2
150,150,2011-10-27 11:44:37,2011-10-27 11:44:53.975000,16.975,1,BFW,,,,,,,,,,,1.0,,,,,,eating,2
151,151,2011-10-27 11:44:45.500000,2011-10-27 11:45:02.475000,16.975,1,BFW,,,,,,,,,,,1.0,,,,,,eating,2
152,152,2011-10-27 11:44:54,2011-10-27 11:45:10.975000,16.975,1,BFW,,,,,,,,,,,1.0,,,,,,eating,2
153,153,2011-10-27 11:45:02.500000,2011-10-27 11:45:19.475000,16.975,1,BFW,,,,,,,,,,,1.0,,,,,,eating,2
154,154,2011-10-27 11:45:11,2011-10-27 11:45:27.975000,16.975,1,BFW,,,,,,,,,,,1.0,,,,,,eating,2
155,155,2011-10-27 11:45:19.500000,2011-10-27 11:45:36.475000,16.975,1,BFW,,,,,,,,,,,1.0,,,,,,eating,2
156,156,2011-10-27 11:45:28,2011-10-27 11:45:44.975000,16.975,1,BFW,,,,,,,,,,,1.0,,,,,,eating,2
157,157,2011-10-27 11:45:36.500000,2011-10-27 11:45:53.475000,16.975,1,BFW,,,,,,,,,,,1.0,,,,,,eating,2
158,158,2011-10-27 11:45:45,2011-10-27 11:46:01.975000,16.975,1,BFW,,,,,,,,,,,1.0,,,,,,eating,2
159,159,2011-10-27 11:45:53.500000,2011-10-27 11:46:10.475000,16.975,1,BFW,,,,,,,,,,,1.0,,,,,,eating,2
160,160,2011-10-27 11:46:02,2011-10-27 11:46:18.975000,16.975,1,BFW,,,,,,,,,,,1.0,,,,,,eating,2
161,161,2011-10-27 11:46:10.500000,2011-10-27 11:46:27.475000,16.975,1,BFW,,,,,,,,,,,1.0,,,,,,eating,2
162,162,2011-10-27 11:46:19,2011-10-27 11:46:35.975000,16.975,1,BFW,,,,,,,,,,,1.0,,,,,,eating,2
163,163,2011-10-27 11:46:27.500000,2011-10-27 11:46:44.475000,16.975,1,BFW,,,,,,,,,,,1.0,,,,,,eating,2
164,164,2011-10-27 11:46:36,2011-10-27 11:46:52.975000,16.975,1,BFW,,,,,,,,,,,1.0,,,,,,eating,2
165,165,2011-10-27 11:46:44.500000,2011-10-27 11:47:01.475000,16.975,1,BFW,,,,,,,,,,,1.0,,,,,,eating,2
166,166,2011-10-27 11:46:53,2011-10-27 11:47:09.975000,16.975,1,BFW,,,,,,,,,,,1.0,,,,,,eating,2
167,167,2011-10-27 11:47:01.500000,2011-10-27 11:47:18.475000,16.975,1,BFW,,,,,,,,,,,1.0,,,,,,eating,2
168,168,2011-10-27 11:47:10,2011-10-27 11:47:26.975000,16.975,1,BFW,,,,,,,,,,,1.0,,,,,,eating,2
169,169,2011-10-27 11:47:18.500000,2011-10-27 11:47:35.475000,16.975,1,BFW,,,,,,,,,,,1.0,,,,,,eating,2
170,170,2011-10-27 11:47:27,2011-10-27 11:47:43.975000,16.975,1,BFW,,,,,,,,,,,1.0,,,,,,eating,2
171,171,2011-10-27 11:47:35.500000,2011-10-27 11:47:52.475000,16.975,1,BFW,,,,,,,,,,,1.0,,,,,,eating,2
172,172,2011-10-27 11:47:44,2011-10-27 11:48:00.975000,16.975,1,BFW,,,,,,,,,,,1.0,,,,,,eating,2
173,173,2011-10-27 11:47:52.500000,2011-10-27 11:48:09.475000,16.975,1,BFW,,,,,,,,,,,1.0,,,,,,eating,2
174,174,2011-10-27 11:48:01,2011-10-27 11:48:17.975000,16.975,1,BFW,,,,,,,,,,,1.0,,,,,,eating,2
175,175,2011-10-27 11:48:09.500000,2011-10-27 11:48:26.475000,16.975,1,BFW,,,,,,,,,,,1.0,,,,,,eating,2
176,176,2011-10-27 11:48:18,2011-10-27 11:48:34.975000,16.975,1,BFW,,,,,,,,,,,1.0,,,,,,eating,2
177,177,2011-10-27 11:48:26.500000,2011-10-27 11:48:43.475000,16.975,1,BFW,,,,,,,,,,,1.0,,,,,,eating,2
178,178,2011-10-27 11:48:35,2011-10-27 11:48:51.975000,16.975,1,BFW,,,,,,,,,,,1.0,,,,,,eating,2
179,179,2011-10-27 11:48:43.500000,2011-10-27 11:49:00.475000,16.975,1,BFW,,,,,,,,,,,1.0,,,,,,eating,2
180,180,2011-10-27 11:48:52,2011-10-27 11:49:08.975000,16.975,1,BFW,,,,,,,,,,,1.0,,,,,,eating,2
181,181,2011-10-27 11:49:00.500000,2011-10-27 11:49:17.475000,16.975,1,BFW,,,,,,,,,,,1.0,,,,,,eating,2
182,182,2011-10-27 11:49:09,2011-10-27 11:49:25.975000,16.975,1,BFW,,,,,,,,,,,1.0,,,,,,eating,2
183,183,2011-10-27 11:49:17.500000,2011-10-27 11:49:34.475000,16.975,1,BFW,,,,,,,,,,,1.0,,,,,,eating,2
184,184,2011-10-27 11:49:26,2011-10-27 11:49:42.975000,16.975,1,BFW,,,,,,,,,,,1.0,,,,,,eating,2
185,185,2011-10-27 11:49:34.500000,2011-10-27 11:49:51.475000,16.975,1,BFW,,,,,,,,,,,1.0,,,,,,eating,2
186,186,2011-10-27 11:49:43,2011-10-27 11:49:59.975000,16.975,1,BFW,,,,,,,,,,,1.0,,,,,,eating,2
187,187,2011-10-27 11:49:51.500000,2011-10-27 11:50:08.475000,16.975,1,BFW,,,,,,,,,,,1.0,,,,,,eating,2
188,188,2011-10-27 11:50:00,2011-10-27 11:50:16.975000,16.975,1,BFW,,,,,,,,,,,1.0,,,,,,eating,2
189,189,2011-10-27 11:50:08.500000,2011-10-27 11:50:25.475000,16.975,1,BFW,,,,,,,,,,,1.0,,,,,,eating,2
190,190,2011-10-27 11:50:17,2011-10-27 11:50:33.975000,16.975,1,BFW,,,,,,,,,,,1.0,,,,,,eating,2
191,191,2011-10-27 11:50:25.500000,2011-10-27 11:50:42.475000,16.975,1,BFW,,,,,,,,,,,1.0,,,,,,eating,2
192,192,2011-10-27 11:50:34,2011-10-27 11:50:50.975000,16.975,1,BFW,,,,,,,,,,,1.0,,,,,,eating,2
193,193,2011-10-27 11:50:42.500000,2011-10-27 11:50:59.475000,16.975,1,BFW,,,,,,,,,,,1.0,,,,,,eating,2
194,194,2011-10-27 11:50:51,2011-10-27 11:51:07.975000,16.975,1,BFW,,,,,,,,,,,1.0,,,,,,eating,2
195,195,2011-10-27 11:50:59.500000,2011-10-27 11:51:16.475000,16.975,1,BFW,,,,,,,,,,,1.0,,,,,,eating,2
196,196,2011-10-27 11:51:08,2011-10-27 11:51:24.975000,16.975,1,BFW,,,,,,,,,,,1.0,,,,,,eating,2
197,197,2011-10-27 11:51:16.500000,2011-10-27 11:51:33.475000,16.975,1,BFW,,,,,,,,,,,1.0,,,,,,eating,2
198,198,2011-10-27 11:51:25,2011-10-27 11:51:41.975000,16.975,1,BFW,,,,,,,,,,,1.0,,,,,,eating,2
199,199,2011-10-27 11:51:33.500000,2011-10-27 11:51:50.475000,16.975,1,BFW,,,,,,,,,,,1.0,,,,,,eating,2
200,200,2011-10-27 11:51:42,2011-10-27 11:51:58.975000,16.975,1,BFW,,,,,,,,,,,1.0,,,,,,eating,2
201,201,2011-10-27 11:51:50.500000,2011-10-27 11:52:07.475000,16.975,1,BFW,,,,,,,,,,,1.0,0.2636229749631811,,,,0.2636229749631811,eating,2
202,202,2011-10-27 11:51:59,2011-10-27 11:52:15.975000,16.975,1,BFW,0.7071428571428572,0.14580265095729011,1.0,24.0,left-puff,,,,,,1.0,0.7643593519882179,,,,0.7643593519882179,puff,9
203,203,2011-10-27 11:52:07.500000,2011-10-27 11:52:24.475000,16.975,1,BFW,1.0,0.20618556701030927,1.0,24.0,left-puff,,,,,,1.0,1.0,,,,1.0,puff,9
204,204,2011-10-27 11:52:16,2011-10-27 11:52:32.975000,16.975,1,BFW,1.5714285714285714,0.32400589101620025,1.0,24.0,left-puff,,,,,,1.0,1.0,,,,1.0,puff,9
205,205,2011-10-27 11:52:24.500000,2011-10-27 11:52:41.475000,16.975,1,BFW,1.0,0.2650957290132548,1.0,25.0,left-puff,,,,,,1.0,1.0,,,,1.0,puff,9
206,206,2011-10-27 11:52:33,2011-10-27 11:52:49.975000,16.975,1,BFW,1.0,0.3092783505154639,1.0,26.0,left-puff,,,,,,1.0,1.0,,,,1.0,puff,9
207,207,2011-10-27 11:52:41.500000,2011-10-27 11:52:58.475000,16.975,1,BFW,1.0,0.3092783505154639,1.0,26.0,left-puff,,,,0.14580265095729011,,0.8541973490427098,1.0,,,,1.0,puff,9
208,208,2011-10-27 11:52:50,2011-10-27 11:53:06.975000,16.975,1,BFW,1.0,0.2798232695139911,1.0,27.0,left-puff,,,,0.1767304860088365,,0.8232695139911634,1.0,,,,1.0,puff,9
209,209,2011-10-27 11:52:58.500000,2011-10-27 11:53:15.475000,16.975,1,BFW,1.0,0.2798232695139911,1.0,27.0,left-puff,,,,0.02945508100147275,,0.9705449189985272,1.0,,,,1.0,puff,9
210,210,2011-10-27 11:53:07,2011-10-27 11:53:23.975000,16.975,1,BFW,,,,,,,,,,,1.0,1.0,,,,1.0,eating,2
211,211,2011-10-27 11:53:15.500000,2011-10-27 11:53:32.475000,16.975,1,BFW,,,,,,,,,,,1.0,1.0,,,,1.0,eating,2
212,212,2011-10-27 11:53:24,2011-10-27 11:53:40.975000,16.975,1,BFW,,,,,,,,,,,1.0,1.0,,,,1.0,eating,2
213,213,2011-10-27 11:53:32.500000,2011-10-27 11:53:49.475000,16.975,1,BFW,,,,,,,,,,,1.0,1.0,,,,1.0,eating,2
214,214,2011-10-27 11:53:41,2011-10-27 11:53:57.975000,16.975,1,BFW,0.93125,0.21944035346097202,1.0,28.0,left-puff,,,,,,1.0,1.0,,,,1.0,puff,9
215,215,2011-10-27 11:53:49.500000,2011-10-27 11:54:06.475000,16.975,1,BFW,1.0,0.235640648011782,1.0,28.0,left-puff,,,,0.08689248895434462,,0.9131075110456554,1.0,,,,1.0,puff,9
216,216,2011-10-27 11:53:58,2011-10-27 11:54:14.975000,16.975,1,BFW,0.0625,0.014727540500736375,1.0,28.0,left-puff,,,,0.1767304860088365,,0.8232695139911634,1.0,,,,1.0,eating,2
217,217,2011-10-27 11:54:06.500000,2011-10-27 11:54:23.475000,16.975,1,BFW,,,,,,,,,0.08836524300441825,,0.9116347569955816,1.0,,,,1.0,eating,2
218,218,2011-10-27 11:54:15,2011-10-27 11:54:31.975000,16.975,1,BFW,,,,,,,,,,,1.0,1.0,,,,1.0,eating,2
219,219,2011-10-27 11:54:23.500000,2011-10-27 11:54:40.475000,16.975,1,BFW,,,,,,,,,,,1.0,1.0,,,,1.0,eating,2
220,220,2011-10-27 11:54:32,2011-10-27 11:54:48.975000,16.975,1,BFW,0.7266666666666667,0.1605301914580265,1.0,29.0,left-puff,,,,,,1.0,1.0,,,,1.0,puff,9
221,221,2011-10-27 11:54:40.500000,2011-10-27 11:54:57.475000,16.975,1,BFW,1.0,0.22091310751104565,1.0,29.0,left-puff,,,,,,1.0,1.0,,,,1.0,puff,9
222,222,2011-10-27 11:54:49,2011-10-27 11:55:05.975000,16.975,1,BFW,0.26666666666666666,0.0589101620029455,1.0,29.0,left-puff,,,,,,1.0,1.0,,,,1.0,eating,2
223,223,2011-10-27 11:54:57.500000,2011-10-27 11:55:14.475000,16.975,1,BFW,,,,,,,,,,,1.0,1.0,,,,1.0,eating,2
224,224,2011-10-27 11:55:06,2011-10-27 11:55:22.975000,16.975,1,BFW,1.5499999999999998,0.41089837997054485,1.0,30.0,left-puff,,,,,,1.0,1.0,,,,1.0,puff,9
225,225,2011-10-27 11:55:14.500000,2011-10-27 11:55:31.475000,16.975,1,BFW,1.8888888888888888,0.5007363770250368,1.0,30.0,left-puff,,,,,,1.0,1.0,,,,1.0,puff,9
226,226,2011-10-27 11:55:23,2011-10-27 11:55:39.975000,16.975,1,BFW,0.375,0.08836524300441825,1.0,31.0,left-puff,,,,,,1.0,1.0,,,,1.0,puff,9
227,227,2011-10-27 11:55:31.500000,2011-10-27 11:55:48.475000,16.975,1,BFW,,,,,,,,0.2636229749631811,,,0.7363770250368188,1.0,,,,1.0,eating,2
228,228,2011-10-27 11:55:40,2011-10-27 11:55:56.975000,16.975,1,BFW,,,,,,,,0.7643593519882179,,,0.235640648011782,1.0,,,,1.0,others,0
229,229,2011-10-27 11:55:48.500000,2011-10-27 11:56:05.475000,16.975,1,BFW,,,,,,,,1.0,,,,1.0,,,,1.0,others,0
230,230,2011-10-27 11:55:57,2011-10-27 11:56:13.975000,16.975,1,BFW,,,,,,,,1.0,,,,1.0,,,,1.0,others,0
231,231,2011-10-27 11:56:05.500000,2011-10-27 11:56:22.475000,16.975,1,BFW,,,,,,,,1.0,,,,1.0,,,,1.0,others,0
232,232,2011-10-27 11:56:14,2011-10-27 11:56:30.975000,16.975,1,BFW,,,,,,,,1.0,,,,1.0,,,,1.0,others,0
233,233,2011-10-27 11:56:22.500000,2011-10-27 11:56:39.475000,16.975,1,BFW,,,,,,,,1.0,,,,1.0,,,,1.0,others,0
234,234,2011-10-27 11:56:31,2011-10-27 11:56:47.975000,16.975,1,BFW,,,,,,,,1.0,,,,1.0,,,,1.0,others,0
235,235,2011-10-27 11:56:39.500000,2011-10-27 11:56:56.475000,16.975,1,BFW,,,,,,,,1.0,,,,1.0,,,,1.0,others,0
236,236,2011-10-27 11:56:48,2011-10-27 11:57:04.975000,16.975,1,BFW,,,,,,,,1.0,,,,1.0,,,,1.0,others,0
237,237,2011-10-27 11:56:56.500000,2011-10-27 11:57:13.475000,16.975,1,BFW,,,,,,,,0.5007363770250368,,,0.49926362297496313,1.0,,,,1.0,eating,2
238,238,2011-10-27 11:57:05,2011-10-27 11:57:21.975000,16.975,1,BFW,,,,,,,,,,,1.0,1.0,,,,1.0,eating,2
239,239,2011-10-27 11:57:13.500000,2011-10-27 11:57:30.475000,16.975,1,BFW,,,,,,,,,,,1.0,1.0,,,,1.0,eating,2
240,240,2011-10-27 11:57:22,2011-10-27 11:57:38.975000,16.975,1,BFW,,,,,,,,,,,0.589101620029455,1.0,,,,0.589101620029455,eating,2
241,241,2011-10-27 11:57:30.500000,2011-10-27 11:57:47.475000,16.975,1,BFW,,,,,,,,,,,0.08836524300441825,1.0,,,,0.08836524300441825,others,0
242,242,2011-10-27 11:57:39,2011-10-27 11:57:55.975000,16.975,1,BFW,,,,,,,,,,,,1.0,,,,,others,0
243,243,2011-10-27 11:57:47.500000,2011-10-27 11:58:04.475000,16.975,1,BFW,,,,,,,,,,,0.3814432989690721,1.0,,,,0.3814432989690721,eating,2
244,244,2011-10-27 11:57:56,2011-10-27 11:58:12.975000,16.975,1,BFW,,,,,,,,,,,0.8821796759941088,1.0,,,,0.8821796759941088,eating,2
245,245,2011-10-27 11:58:04.500000,2011-10-27 11:58:21.475000,16.975,1,BFW,,,,,,,,,,,0.5007363770250368,1.0,,,,0.5007363770250368,eating,2
246,246,2011-10-27 11:58:13,2011-10-27 11:58:29.975000,16.975,1,BFW,0.07307692307692307,0.027982326951399114,1.0,32.0,left-puff,,,,,,,1.0,,,,,others,0
247,247,2011-10-27 11:58:21.500000,2011-10-27 11:58:38.475000,16.975,1,BFW,1.0,0.3829160530191458,1.0,32.0,left-puff,,,,,,,1.0,,,,,puff,9
248,248,2011-10-27 11:58:30,2011-10-27 11:58:46.975000,16.975,1,BFW,0.9230769230769231,0.353460972017673,1.0,32.0,left-puff,,,,0.1767304860088365,,,1.0,,,,0.1767304860088365,puff,9
249,249,2011-10-27 11:58:38.500000,2011-10-27 11:58:55.475000,16.975,1,BFW,0.7071428571428572,0.14580265095729011,1.0,33.0,left-puff,,,,0.1767304860088365,,,1.0,,,,0.1767304860088365,puff,9
250,250,2011-10-27 11:58:47,2011-10-27 11:59:03.975000,16.975,1,BFW,1.0,0.20618556701030927,1.0,33.0,left-puff,,,,,,,1.0,,,,,puff,9
251,251,2011-10-27 11:58:55.500000,2011-10-27 11:59:12.475000,16.975,1,BFW,0.2857142857142857,0.0589101620029455,1.0,33.0,left-puff,,,,,,,1.0,,,,,others,0
252,252,2011-10-27 11:59:04,2011-10-27 11:59:20.975000,16.975,1,BFW,1.0,0.1767304860088365,1.0,34.0,left-puff,,,,,,,1.0,,,,,puff,9
253,253,2011-10-27 11:59:12.500000,2011-10-27 11:59:29.475000,16.975,1,BFW,1.0,0.1767304860088365,1.0,34.0,left-puff,,,,,,,1.0,,,,,puff,9
254,254,2011-10-27 11:59:21,2011-10-27 11:59:37.975000,16.975,1,BFW,1.0,0.20618556701030927,1.0,35.0,right-puff,,,,,,,1.0,,,,,puff,9
255,255,2011-10-27 11:59:29.500000,2011-10-27 11:59:46.475000,16.975,1,BFW,1.0,0.20618556701030927,1.0,35.0,right-puff,,,,,,,1.0,,,,,puff,9
256,256,2011-10-27 11:59:38,2011-10-27 11:59:54.975000,16.975,1,BFW,1.0,0.2503681885125184,1.0,36.0,right-puff,,,,,,,1.0,,,,,puff,9
257,257,2011-10-27 11:59:46.500000,2011-10-27 12:00:03.475000,16.975,1,BFW,1.0,0.2503681885125184,1.0,36.0,right-puff,,,,,,,1.0,,0.20471281296023564,,0.20471281296023564,puff,9
258,258,2011-10-27 11:59:55,2011-10-27 12:00:11.975000,16.975,1,BFW,,,,,,,,,,,,1.0,,0.7054491899852724,,0.7054491899852724,phone,3
259,259,2011-10-27 12:00:03.500000,2011-10-27 12:00:20.475000,16.975,1,BFW,,,,,,,,,,,,1.0,,1.0,,1.0,phone,3
260,260,2011-10-27 12:00:12,2011-10-27 12:00:28.975000,16.975,1,BFW,,,,,,,,,,,,1.0,,1.0,,1.0,phone,3
261,261,2011-10-27 12:00:20.500000,2011-10-27 12:00:37.475000,16.975,1,BFW,0.21666666666666667,0.05743740795287187,1.0,37.0,right-puff,,,,,,,1.0,,1.0,,1.0,phone,3
262,262,2011-10-27 12:00:29,2011-10-27 12:00:45.975000,16.975,1,BFW,1.0,0.2650957290132548,1.0,37.0,right-puff,,,,,,,1.0,,1.0,,1.0,puff,9
263,263,2011-10-27 12:00:37.500000,2011-10-27 12:00:54.475000,16.975,1,BFW,0.7777777777777778,0.20618556701030927,1.0,37.0,right-puff,,,,,,,1.0,,1.0,,1.0,puff,9
264,264,2011-10-27 12:00:46,2011-10-27 12:01:02.975000,16.975,1,BFW,,,,,,,,,,,,1.0,,1.0,,1.0,phone,3
265,265,2011-10-27 12:00:54.500000,2011-10-27 12:01:11.475000,16.975,1,BFW,,,,,,,,,,,,1.0,,1.0,,1.0,phone,3
266,266,2011-10-27 12:01:03,2011-10-27 12:01:19.975000,16.975,1,BFW,1.0,0.2650957290132548,1.0,38.0,right-puff,,,,,,,1.0,,1.0,,1.0,puff,9
267,267,2011-10-27 12:01:11.500000,2011-10-27 12:01:28.475000,16.975,1,BFW,1.0,0.2650957290132548,1.0,38.0,right-puff,,,,,,,1.0,,1.0,,1.0,puff,9
268,268,2011-10-27 12:01:20,2011-10-27 12:01:36.975000,16.975,1,BFW,,,,,,,,,0.0589101620029455,,,1.0,,0.9410898379970544,,1.0,phone,3
269,269,2011-10-27 12:01:28.500000,2011-10-27 12:01:45.475000,16.975,1,BFW,,,,,,,,,0.0589101620029455,,,1.0,,0.9410898379970544,,1.0,phone,3
270,270,2011-10-27 12:01:37,2011-10-27 12:01:53.975000,16.975,1,BFW,1.0,0.235640648011782,0.0,39.0,right-puff,,,,,,,1.0,,1.0,,1.0,puff,9
271,271,2011-10-27 12:01:45.500000,2011-10-27 12:02:02.475000,16.975,1,BFW,1.61875,0.3814432989690721,0.0,39.0,right-puff,,,,,,,1.0,,1.0,,1.0,puff,9
272,272,2011-10-27 12:01:54,2011-10-27 12:02:10.975000,16.975,1,BFW,1.0,0.235640648011782,0.0,40.0,right-puff,,,,,,,1.0,,1.0,,1.0,puff,9
273,273,2011-10-27 12:02:02.500000,2011-10-27 12:02:19.475000,16.975,1,BFW,0.375,0.08836524300441825,0.0,40.0,right-puff,,,,,,,1.0,,1.0,,1.0,puff,9
274,274,2011-10-27 12:02:11,2011-10-27 12:02:27.975000,16.975,1,BFW,,,,,,,,,0.1767304860088365,,,1.0,0.0589101620029455,0.7643593519882179,,1.0,phone,3
275,275,2011-10-27 12:02:19.500000,2011-10-27 12:02:36.475000,16.975,1,BFW,0.9352941176470588,0.23416789396170837,1.0,41.0,right-puff,,,,0.1767304860088365,,,1.0,0.0589101620029455,0.7643593519882179,,1.0,puff,9
276,276,2011-10-27 12:02:28,2011-10-27 12:02:44.975000,16.975,1,BFW,1.0,0.2503681885125184,1.0,41.0,right-puff,,,,,,,1.0,,1.0,,1.0,puff,9
277,277,2011-10-27 12:02:36.500000,2011-10-27 12:02:53.475000,16.975,1,BFW,0.058823529411764705,0.014727540500736375,1.0,41.0,right-puff,,,,,,,1.0,,1.0,,1.0,phone,3
278,278,2011-10-27 12:02:45,2011-10-27 12:03:01.975000,16.975,1,BFW,,,,,,,,,,,,1.0,,1.0,,1.0,rest,-1
279,279,2011-10-27 12:02:53.500000,2011-10-27 12:03:10.475000,16.975,1,BFW,0.85,0.17525773195876287,1.0,42.0,right-puff,,,,,,,1.0,,1.0,,1.0,puff,9
280,280,2011-10-27 12:03:02,2011-10-27 12:03:18.975000,16.975,1,BFW,1.0,0.20618556701030927,1.0,42.0,right-puff,,,,,,,1.0,,1.0,,1.0,puff,9
281,281,2011-10-27 12:03:10.500000,2011-10-27 12:03:27.475000,16.975,1,BFW,0.14285714285714285,0.02945508100147275,1.0,42.0,right-puff,,,,,,,1.0,,1.0,,1.0,rest,-1
282,282,2011-10-27 12:03:19,2011-10-27 12:03:35.975000,16.975,1,BFW,,,,,,,,,,,,1.0,,1.0,,1.0,phone,3
283,283,2011-10-27 12:03:27.500000,2011-10-27 12:03:44.475000,16.975,1,BFW,0.6357142857142858,0.13107511045655376,1.0,43.0,right-puff,,,,,,,1.0,,1.0,,1.0,puff,9
284,284,2011-10-27 12:03:36,2011-10-27 12:03:52.975000,16.975,1,BFW,1.0,0.20618556701030927,1.0,43.0,right-puff,,,,,,,1.0,,1.0,,1.0,puff,9
285,285,2011-10-27 12:03:44.500000,2011-10-27 12:04:01.475000,16.975,1,BFW,0.35714285714285715,0.07363770250368187,1.0,43.0,right-puff,,,,,,,1.0,,1.0,,1.0,rest,-1
286,286,2011-10-27 12:03:53,2011-10-27 12:04:09.975000,16.975,1,BFW,,,,,,,,,,,,1.0,,1.0,,1.0,rest,-1
287,287,2011-10-27 12:04:01.500000,2011-10-27 12:04:18.475000,16.975,1,BFW,1.0,0.1914580265095729,1.0,44.0,right-puff,,,,,,,1.0,,1.0,,1.0,puff,9
288,288,2011-10-27 12:04:10,2011-10-27 12:04:26.975000,16.975,1,BFW,1.0,0.1914580265095729,1.0,44.0,right-puff,,,,,,,1.0,,1.0,,1.0,puff,9
289,289,2011-10-27 12:04:18.500000,2011-10-27 12:04:35.475000,16.975,1,BFW,,,,,,,,,,,,1.0,,1.0,,1.0,phone,3
290,290,2011-10-27 12:04:27,2011-10-27 12:04:43.975000,16.975,1,BFW,,,,,,,,,,,,1.0,,1.0,,1.0,phone,3
291,291,2011-10-27 12:04:35.500000,2011-10-27 12:04:52.475000,16.975,1,BFW,,,,,,,,,,,,1.0,,1.0,,1.0,rest,-1
292,292,2011-10-27 12:04:44,2011-10-27 12:05:00.975000,16.975,1,BFW,0.6583333333333333,0.11634756995581737,1.0,45.0,right-puff,,,,,,,1.0,,1.0,,1.0,puff,9
293,293,2011-10-27 12:04:52.500000,2011-10-27 12:05:09.475000,16.975,1,BFW,1.0,0.1767304860088365,1.0,45.0,right-puff,,,,,,,1.0,,1.0,,1.0,puff,9
294,294,2011-10-27 12:05:01,2011-10-27 12:05:17.975000,16.975,1,BFW,0.3333333333333333,0.0589101620029455,1.0,45.0,right-puff,,,,,,,1.0,,1.0,,1.0,rest,-1
295,295,2011-10-27 12:05:09.500000,2011-10-27 12:05:26.475000,16.975,1,BFW,,,,,,,,,,,,1.0,,1.0,,1.0,rest,-1
296,296,2011-10-27 12:05:18,2011-10-27 12:05:34.975000,16.975,1,BFW,,,,,,,,,0.05743740795287187,,,1.0,,0.942562592047128,,1.0,phone,3
297,297,2011-10-27 12:05:26.500000,2011-10-27 12:05:43.475000,16.975,1,BFW,,,,,,,,,0.1767304860088365,,,1.0,,0.8232695139911634,,1.0,phone,3
298,298,2011-10-27 12:05:35,2011-10-27 12:05:51.975000,16.975,1,BFW,,,,,,,,,0.117820324005891,,,1.0,,0.8821796759941088,,1.0,phone,3
299,299,2011-10-27 12:05:43.500000,2011-10-27 12:06:00.475000,16.975,1,BFW,,,,,,,,,,,,1.0,,1.0,,1.0,rest,-1
300,300,2011-10-27 12:05:52,2011-10-27 12:06:08.975000,16.975,1,BFW,,,,,,,,,,,,1.0,,1.0,,1.0,rest,-1
301,301,2011-10-27 12:06:00.500000,2011-10-27 12:06:17.475000,16.975,1,BFW,,,,,,,,,,,,1.0,,1.0,,1.0,rest,-1
302,302,2011-10-27 12:06:09,2011-10-27 12:06:25.975000,16.975,1,BFW,,,,,,,,,,,,1.0,,1.0,,1.0,rest,-1
303,303,2011-10-27 12:06:17.500000,2011-10-27 12:06:34.475000,16.975,1,BFW,0.5750000000000001,0.101620029455081,1.0,46.0,right-puff,,,,,,,1.0,,1.0,,1.0,puff,9
304,304,2011-10-27 12:06:26,2011-10-27 12:06:42.975000,16.975,1,BFW,1.0,0.1767304860088365,1.0,46.0,right-puff,,,,,,,1.0,,1.0,,1.0,puff,9
305,305,2011-10-27 12:06:34.500000,2011-10-27 12:06:51.475000,16.975,1,BFW,0.4166666666666667,0.07363770250368187,1.0,46.0,right-puff,,,,,,,1.0,,1.0,,1.0,puff,9
306,306,2011-10-27 12:06:43,2011-10-27 12:06:59.975000,16.975,1,BFW,,,,,,,,,,,,1.0,,1.0,,1.0,phone,3
307,307,2011-10-27 12:06:51.500000,2011-10-27 12:07:08.475000,16.975,1,BFW,0.36875,0.08689248895434462,1.0,47.0,right-puff,,,,,,,1.0,,1.0,,1.0,puff,9
308,308,2011-10-27 12:07:00,2011-10-27 12:07:16.975000,16.975,1,BFW,1.75,0.41237113402061853,1.0,47.0,right-puff,,,,,,,1.0,,1.0,,1.0,puff,9
309,309,2011-10-27 12:07:08.500000,2011-10-27 12:07:25.475000,16.975,1,BFW,1.375,0.32400589101620025,1.0,47.0,right-puff,,,,,,,1.0,,1.0,,1.0,puff,9
310,310,2011-10-27 12:07:17,2011-10-27 12:07:33.975000,16.975,1,BFW,0.7722222222222223,0.20471281296023564,1.0,49.0,right-puff,,,,,,,1.0,,1.0,,1.0,puff,9
311,311,2011-10-27 12:07:25.500000,2011-10-27 12:07:42.475000,16.975,1,BFW,1.0,0.2650957290132548,1.0,49.0,right-puff,,,,,,,1.0,,1.0,,1.0,puff,9
312,312,2011-10-27 12:07:34,2011-10-27 12:07:50.975000,16.975,1,BFW,0.2222222222222222,0.0589101620029455,1.0,49.0,right-puff,,,,,,,1.0,,1.0,,1.0,phone,3
313,313,2011-10-27 12:07:42.500000,2011-10-27 12:07:59.475000,16.975,1,BFW,,,,,,,,,,,,1.0,,1.0,,1.0,phone,3
314,314,2011-10-27 12:07:51,2011-10-27 12:08:07.975000,16.975,1,BFW,,,,,,,,,,,,1.0,,1.0,,1.0,phone,3
315,315,2011-10-27 12:07:59.500000,2011-10-27 12:08:16.475000,16.975,1,BFW,,,,,,,,,,,,1.0,,1.0,,1.0,rest,-1
316,316,2011-10-27 12:08:08,2011-10-27 12:08:24.975000,16.975,1,BFW,0.29500000000000004,0.08689248895434462,1.0,50.0,right-puff,,,,,,,1.0,,1.0,,1.0,phone,3
317,317,2011-10-27 12:08:16.500000,2011-10-27 12:08:33.475000,16.975,1,BFW,1.0,0.2945508100147275,1.0,50.0,right-puff,,,,,,,1.0,,1.0,,1.0,puff,9
318,318,2011-10-27 12:08:25,2011-10-27 12:08:41.975000,16.975,1,BFW,0.7,0.20618556701030927,1.0,50.0,right-puff,,,,,,,1.0,,1.0,,1.0,puff,9
319,319,2011-10-27 12:08:33.500000,2011-10-27 12:08:50.475000,16.975,1,BFW,,,,,,,,,,,,1.0,,1.0,,1.0,phone,3
320,320,2011-10-27 12:08:42,2011-10-27 12:08:58.975000,16.975,1,BFW,,,,,,,,,,,,1.0,,1.0,,1.0,phone,3
321,321,2011-10-27 12:08:50.500000,2011-10-27 12:09:07.475000,16.975,1,BFW,1.0,0.20618556701030927,0.0,51.0,right-puff,,,,,,,1.0,,1.0,,1.0,puff,9
322,322,2011-10-27 12:08:59,2011-10-27 12:09:15.975000,16.975,1,BFW,1.0,0.20618556701030927,0.0,51.0,right-puff,,,,,,,0.589101620029455,,1.0,,0.589101620029455,puff,9
323,323,2011-10-27 12:09:07.500000,2011-10-27 12:09:24.475000,16.975,1,BFW,,,,,,,,,,,,0.08836524300441825,,1.0,,0.08836524300441825,phone,3
324,324,2011-10-27 12:09:16,2011-10-27 12:09:32.975000,16.975,1,BFW,,,,,,,,,,,,,,1.0,,,phone,3
325,325,2011-10-27 12:09:24.500000,2011-10-27 12:09:41.475000,16.975,1,BFW,,,,,,,,,,,,,,1.0,,,phone,3
326,326,2011-10-27 12:09:33,2011-10-27 12:09:49.975000,16.975,1,BFW,,,,,,,,,,,,,,1.0,,,phone,3
327,327,2011-10-27 12:09:41.500000,2011-10-27 12:09:58.475000,16.975,1,BFW,,,,,,,,,,,,,,1.0,,,phone,3
328,328,2011-10-27 12:09:50,2011-10-27 12:10:06.975000,16.975,1,BFW,,,,,,,,,,,,,,1.0,,,phone,3
329,329,2011-10-27 12:09:58.500000,2011-10-27 12:10:15.475000,16.975,1,BFW,,,,,,,,,,,,,,1.0,,,phone,3
330,330,2011-10-27 12:10:07,2011-10-27 12:10:23.975000,16.975,1,BFW,,,,,,,,,,,,,,0.7658321060382915,,,phone,3
331,331,2011-10-27 12:10:15.500000,2011-10-27 12:10:32.475000,16.975,1,BFW,,,,,,,,,,,,0.027982326951399114,,0.2650957290132548,,,others,0
332,332,2011-10-27 12:10:24,2011-10-27 12:10:40.975000,16.975,1,BFW,,,,,,,,,,,,0.5287187039764358,,,,,others,0
333,333,2011-10-27 12:10:32.500000,2011-10-27 12:10:49.475000,16.975,1,BFW,,,,,,,,,,,,1.0,,,,,others,0
334,334,2011-10-27 12:10:41,2011-10-27 12:10:57.975000,16.975,1,BFW,,,,,,,,,,,,1.0,,,,,others,0
335,335,2011-10-27 12:10:49.500000,2011-10-27 12:11:06.475000,16.975,1,BFW,,,,,,,,,,,,1.0,,,,,others,0
336,336,2011-10-27 12:10:58,2011-10-27 12:11:14.975000,16.975,1,BFW,0.24583333333333335,0.08689248895434462,1.0,52.0,left-puff,,,,,,,1.0,,,,,others,0
337,337,2011-10-27 12:11:06.500000,2011-10-27 12:11:23.475000,16.975,1,BFW,1.0,0.353460972017673,1.0,52.0,left-puff,,,,,,,1.0,,,,,puff,9
338,338,2011-10-27 12:11:15,2011-10-27 12:11:31.975000,16.975,1,BFW,0.75,0.2650957290132548,1.0,52.0,left-puff,,,,,,,1.0,,,,,puff,9
339,339,2011-10-27 12:11:23.500000,2011-10-27 12:11:40.475000,16.975,1,BFW,1.0,0.4418262150220913,0.0,53.0,right-puff,,,,,,,1.0,,,,,puff,9
340,340,2011-10-27 12:11:32,2011-10-27 12:11:48.975000,16.975,1,BFW,0.5333333333333333,0.235640648011782,0.0,53.0,right-puff,,,,,,,1.0,,,,,puff,9
341,341,2011-10-27 12:11:40.500000,2011-10-27 12:11:57.475000,16.975,1,BFW,,,,,,,,,,,,1.0,,,,,others,0
342,342,2011-10-27 12:11:49,2011-10-27 12:12:05.975000,16.975,1,BFW,,,,,,,,,,,,1.0,,,,,others,0
343,343,2011-10-27 12:11:57.500000,2011-10-27 12:12:14.475000,16.975,1,BFW,,,,,,,,,,,,1.0,,,,,others,0
344,344,2011-10-27 12:12:06,2011-10-27 12:12:22.975000,16.975,1,BFW,,,,,,,,,,,,1.0,,,,,others,0
345,345,2011-10-27 12:12:14.500000,2011-10-27 12:12:31.475000,16.975,1,BFW,,,,,,,,,,,,1.0,,,,,others,0
346,346,2011-10-27 12:12:23,2011-10-27 12:12:39.975000,16.975,1,BFW,,,,,,,,,,,,1.0,,,,,others,0
347,347,2011-10-27 12:12:31.500000,2011-10-27 12:12:48.475000,16.975,1,BFW,,,,,,,,,,,,1.0,,,,,others,0
348,348,2011-10-27 12:12:40,2011-10-27 12:12:56.975000,16.975,1,BFW,,,,,,,,,,,,1.0,,,,,others,0
349,349,2011-10-27 12:12:48.500000,2011-10-27 12:13:05.475000,16.975,1,BFW,,,,,,,,,,,,1.0,,,,,others,0
350,350,2011-10-27 12:12:57,2011-10-27 12:13:13.975000,16.975,1,BFW,,,,,,,,,,,,1.0,,,,,others,0
351,351,2011-10-27 12:13:05.500000,2011-10-27 12:13:22.475000,16.975,1,BFW,,,,,,,,,,,,1.0,,,,,others,0
352,352,2011-10-27 12:13:14,2011-10-27 12:13:30.975000,16.975,1,BFW,,,,,,,,,,,,1.0,,,,,others,0
353,353,2011-10-27 12:13:22.500000,2011-10-27 12:13:39.475000,16.975,1,BFW,,,,,,,,,,,,1.0,,,,,others,0
354,354,2011-10-27 12:13:31,2011-10-27 12:13:47.975000,16.975,1,BFW,,,,,,,,,,,,1.0,,,,,others,0
355,355,2011-10-27 12:13:39.500000,2011-10-27 12:13:56.475000,16.975,1,BFW,,,,,,,,,,,,1.0,,,,,others,0
356,356,2011-10-27 12:13:48,2011-10-27 12:14:04.975000,16.975,1,BFW,,,,,,,,,0.05743740795287187,,,1.0,0.2945508100147275,,,0.3519882179675994,others,0
357,357,2011-10-27 12:13:56.500000,2011-10-27 12:14:13.475000,16.975,1,BFW,,,,,,,,,0.0589101620029455,,,1.0,0.7938144329896907,,,0.8527245949926361,computer,4
358,358,2011-10-27 12:14:05,2011-10-27 12:14:21.975000,16.975,1,BFW,,,,,,,,,,,,1.0,1.0,,,1.0,computer,4
359,359,2011-10-27 12:14:13.500000,2011-10-27 12:14:30.475000,16.975,1,BFW,0.8833333333333333,0.23416789396170837,0.0,54.0,right-puff,,,,,,,1.0,1.0,,,1.0,puff,9
360,360,2011-10-27 12:14:22,2011-10-27 12:14:38.975000,16.975,1,BFW,1.0,0.2650957290132548,0.0,54.0,right-puff,,,,,,,1.0,1.0,,,1.0,puff,9
361,361,2011-10-27 12:14:30.500000,2011-10-27 12:14:47.475000,16.975,1,BFW,0.1111111111111111,0.02945508100147275,0.0,54.0,right-puff,,,,,,,1.0,1.0,,,1.0,computer,4
362,362,2011-10-27 12:14:39,2011-10-27 12:14:55.975000,16.975,1,BFW,,,,,,,,,,,,1.0,1.0,,,1.0,rest,-1
363,363,2011-10-27 12:14:47.500000,2011-10-27 12:15:04.475000,16.975,1,BFW,,,,,,,,,,,,1.0,1.0,,,1.0,computer,4
364,364,2011-10-27 12:14:56,2011-10-27 12:15:12.975000,16.975,1,BFW,,,,,,,,,,,,1.0,1.0,,,1.0,computer,4
365,365,2011-10-27 12:15:04.500000,2011-10-27 12:15:21.475000,16.975,1,BFW,0.6142857142857143,0.18998527245949925,1.0,55.0,right-puff,,,,,,,1.0,1.0,,,1.0,puff,9
366,366,2011-10-27 12:15:13,2011-10-27 12:15:29.975000,16.975,1,BFW,1.0,0.3092783505154639,1.0,55.0,right-puff,,,,,,,1.0,1.0,,,1.0,puff,9
367,367,2011-10-27 12:15:21.500000,2011-10-27 12:15:38.475000,16.975,1,BFW,0.38095238095238093,0.117820324005891,1.0,55.0,right-puff,,,,,,,1.0,1.0,,,1.0,puff,9
368,368,2011-10-27 12:15:30,2011-10-27 12:15:46.975000,16.975,1,BFW,,,,,,,,,0.117820324005891,,,1.0,0.8821796759941088,,,1.0,computer,4
369,369,2011-10-27 12:15:38.500000,2011-10-27 12:15:55.475000,16.975,1,BFW,,,,,,,,,0.117820324005891,,,1.0,0.8821796759941088,,,1.0,computer,4
370,370,2011-10-27 12:15:47,2011-10-27 12:16:03.975000,16.975,1,BFW,,,,,,,,,,,,1.0,1.0,,,1.0,computer,4
371,371,2011-10-27 12:15:55.500000,2011-10-27 12:16:12.475000,16.975,1,BFW,,,,,,,,,,,,1.0,1.0,,,1.0,computer,4
372,372,2011-10-27 12:16:04,2011-10-27 12:16:20.975000,16.975,1,BFW,,,,,,,,,,,,1.0,1.0,,,1.0,computer,4
373,373,2011-10-27 12:16:12.500000,2011-10-27 12:16:29.475000,16.975,1,BFW,,,,,,,,,,,,1.0,1.0,,,1.0,computer,4
374,374,2011-10-27 12:16:21,2011-10-27 12:16:37.975000,16.975,1,BFW,,,,,,,,,,,,1.0,1.0,,,1.0,computer,4
375,375,2011-10-27 12:16:29.500000,2011-10-27 12:16:46.475000,16.975,1,BFW,,,,,,,,,,,,1.0,1.0,,,1.0,rest,-1
376,376,2011-10-27 12:16:38,2011-10-27 12:16:54.975000,16.975,1,BFW,,,,,,,,,,,,1.0,1.0,,,1.0,computer,4
377,377,2011-10-27 12:16:46.500000,2011-10-27 12:17:03.475000,16.975,1,BFW,0.40588235294117647,0.101620029455081,1.0,56.0,right-puff,,,,,,,1.0,1.0,,,1.0,puff,9
378,378,2011-10-27 12:16:55,2011-10-27 12:17:11.975000,16.975,1,BFW,1.0,0.2503681885125184,1.0,56.0,right-puff,,,,,,,1.0,1.0,,,1.0,puff,9
379,379,2011-10-27 12:17:03.500000,2011-10-27 12:17:20.475000,16.975,1,BFW,0.5882352941176471,0.14727540500736375,1.0,56.0,right-puff,,,,,,,1.0,1.0,,,1.0,puff,9
380,380,2011-10-27 12:17:12,2011-10-27 12:17:28.975000,16.975,1,BFW,,,,,,,,,,,,1.0,1.0,,,1.0,computer,4
381,381,2011-10-27 12:17:20.500000,2011-10-27 12:17:37.475000,16.975,1,BFW,,,,,,,,,,,,1.0,1.0,,,1.0,computer,4
382,382,2011-10-27 12:17:29,2011-10-27 12:17:45.975000,16.975,1,BFW,,,,,,,,,,,,1.0,1.0,,,1.0,computer,4
383,383,2011-10-27 12:17:37.500000,2011-10-27 12:17:54.475000,16.975,1,BFW,,,,,,,,,,,,1.0,1.0,,,1.0,rest,-1
384,384,2011-10-27 12:17:46,2011-10-27 12:18:02.975000,16.975,1,BFW,,,,,,,,,,,,1.0,1.0,,,1.0,computer,4
385,385,2011-10-27 12:17:54.500000,2011-10-27 12:18:11.475000,16.975,1,BFW,,,,,,,,,,,,1.0,1.0,,,1.0,computer,4
386,386,2011-10-27 12:18:03,2011-10-27 12:18:19.975000,16.975,1,BFW,,,,,,,,,,,,1.0,1.0,,,1.0,rest,-1
387,387,2011-10-27 12:18:11.500000,2011-10-27 12:18:28.475000,16.975,1,BFW,,,,,,,,,,,,1.0,1.0,,,1.0,computer,4
388,388,2011-10-27 12:18:20,2011-10-27 12:18:36.975000,16.975,1,BFW,,,,,,,,,,,,1.0,1.0,,,1.0,computer,4
389,389,2011-10-27 12:18:28.500000,2011-10-27 12:18:45.475000,16.975,1,BFW,,,,,,,,,,,,1.0,1.0,,,1.0,computer,4
390,390,2011-10-27 12:18:37,2011-10-27 12:18:53.975000,16.975,1,BFW,,,,,,,,,,,,1.0,1.0,,,1.0,computer,4
391,391,2011-10-27 12:18:45.500000,2011-10-27 12:19:02.475000,16.975,1,BFW,,,,,,,,,,,,1.0,1.0,,,1.0,computer,4
392,392,2011-10-27 12:18:54,2011-10-27 12:19:10.975000,16.975,1,BFW,0.24375,0.05743740795287187,1.0,57.0,right-puff,,,,,,,1.0,1.0,,,1.0,computer,4
393,393,2011-10-27 12:19:02.500000,2011-10-27 12:19:19.475000,16.975,1,BFW,1.0,0.235640648011782,1.0,57.0,right-puff,,,,,,,1.0,1.0,,,1.0,puff,9
394,394,2011-10-27 12:19:11,2011-10-27 12:19:27.975000,16.975,1,BFW,0.75,0.1767304860088365,1.0,57.0,right-puff,,,,,,,1.0,1.0,,,1.0,puff,9
395,395,2011-10-27 12:19:19.500000,2011-10-27 12:19:36.475000,16.975,1,BFW,,,,,,,,,,,,1.0,1.0,,,1.0,computer,4
396,396,2011-10-27 12:19:28,2011-10-27 12:19:44.975000,16.975,1,BFW,,,,,,,,,,,,1.0,1.0,,,1.0,rest,-1
397,397,2011-10-27 12:19:36.500000,2011-10-27 12:19:53.475000,16.975,1,BFW,,,,,,,,,,,,1.0,1.0,,,1.0,rest,-1
398,398,2011-10-27 12:19:45,2011-10-27 12:20:01.975000,16.975,1,BFW,,,,,,,,,,,,1.0,1.0,,,1.0,computer,4
399,399,2011-10-27 12:19:53.500000,2011-10-27 12:20:10.475000,16.975,1,BFW,,,,,,,,,,,,1.0,1.0,,,1.0,computer,4
400,400,2011-10-27 12:20:02,2011-10-27 12:20:18.975000,16.975,1,BFW,,,,,,,,,,,,1.0,1.0,,,1.0,computer,4
401,401,2011-10-27 12:20:10.500000,2011-10-27 12:20:27.475000,16.975,1,BFW,,,,,,,,,,,,1.0,1.0,,,1.0,computer,4
402,402,2011-10-27 12:20:19,2011-10-27 12:20:35.975000,16.975,1,BFW,,,,,,,,,,,,1.0,1.0,,,1.0,computer,4
403,403,2011-10-27 12:20:27.500000,2011-10-27 12:20:44.475000,16.975,1,BFW,,,,,,,,,,,,1.0,1.0,,,1.0,rest,-1
404,404,2011-10-27 12:20:36,2011-10-27 12:20:52.975000,16.975,1,BFW,1.0,0.16200294550810013,1.0,58.0,right-puff,,,,,,,1.0,1.0,,,1.0,puff,9
405,405,2011-10-27 12:20:44.500000,2011-10-27 12:21:01.475000,16.975,1,BFW,1.0,0.16200294550810013,1.0,58.0,right-puff,,,,,,,1.0,1.0,,,1.0,puff,9
406,406,2011-10-27 12:20:53,2011-10-27 12:21:09.975000,16.975,1,BFW,,,,,,,,,,,,1.0,1.0,,,1.0,computer,4
407,407,2011-10-27 12:21:01.500000,2011-10-27 12:21:18.475000,16.975,1,BFW,,,,,,,,,,,,1.0,1.0,,,1.0,rest,-1
408,408,2011-10-27 12:21:10,2011-10-27 12:21:26.975000,16.975,1,BFW,,,,,,,,,,,,1.0,1.0,,,1.0,computer,4
409,409,2011-10-27 12:21:18.500000,2011-10-27 12:21:35.475000,16.975,1,BFW,0.8833333333333333,0.23416789396170837,1.0,59.0,right-puff,,,,,,,1.0,1.0,,,1.0,puff,9
410,410,2011-10-27 12:21:27,2011-10-27 12:21:43.975000,16.975,1,BFW,1.0,0.2650957290132548,1.0,59.0,right-puff,,,,,,,1.0,1.0,,,1.0,puff,9
411,411,2011-10-27 12:21:35.500000,2011-10-27 12:21:52.475000,16.975,1,BFW,0.1111111111111111,0.02945508100147275,1.0,59.0,right-puff,,,,,,,1.0,1.0,,,1.0,computer,4
412,412,2011-10-27 12:21:44,2011-10-27 12:22:00.975000,16.975,1,BFW,0.052941176470588235,0.013254786450662739,1.0,60.0,right-puff,,,,,,,1.0,1.0,,,1.0,computer,4
413,413,2011-10-27 12:21:52.500000,2011-10-27 12:22:09.475000,16.975,1,BFW,1.0,0.2503681885125184,1.0,60.0,right-puff,,,,,,,1.0,1.0,,,1.0,puff,9
414,414,2011-10-27 12:22:01,2011-10-27 12:22:17.975000,16.975,1,BFW,0.9411764705882353,0.235640648011782,1.0,60.0,right-puff,,,,,,,1.0,1.0,,,1.0,puff,9
415,415,2011-10-27 12:22:09.500000,2011-10-27 12:22:26.475000,16.975,1,BFW,,,,,,,,,,,,1.0,1.0,,,1.0,computer,4
416,416,2011-10-27 12:22:18,2011-10-27 12:22:34.975000,16.975,1,BFW,,,,,,,,,,,,1.0,1.0,,,1.0,computer,4
417,417,2011-10-27 12:22:26.500000,2011-10-27 12:22:43.475000,16.975,1,BFW,0.55,0.14580265095729011,1.0,61.0,left-puff,,,,,,,1.0,1.0,,,1.0,puff,9
418,418,2011-10-27 12:22:35,2011-10-27 12:22:51.975000,16.975,1,BFW,1.0,0.2650957290132548,1.0,61.0,left-puff,,,,,,,1.0,1.0,,,1.0,puff,9
419,419,2011-10-27 12:22:43.500000,2011-10-27 12:23:00.475000,16.975,1,BFW,0.4444444444444444,0.117820324005891,1.0,61.0,left-puff,,,,,,,1.0,1.0,,,1.0,puff,9
420,420,2011-10-27 12:22:52,2011-10-27 12:23:08.975000,16.975,1,BFW,,,,,,,,,,,,1.0,1.0,,,1.0,rest,-1
421,421,2011-10-27 12:23:00.500000,2011-10-27 12:23:17.475000,16.975,1,BFW,0.11875,0.027982326951399114,1.0,62.0,left-puff,,,,,,,1.0,1.0,,,1.0,rest,-1
422,422,2011-10-27 12:23:09,2011-10-27 12:23:25.975000,16.975,1,BFW,1.0,0.235640648011782,1.0,62.0,left-puff,,,,,,,1.0,1.0,,,1.0,puff,9
423,423,2011-10-27 12:23:17.500000,2011-10-27 12:23:34.475000,16.975,1,BFW,0.875,0.20618556701030927,1.0,62.0,left-puff,,,,,,,1.0,1.0,,,1.0,puff,9
424,424,2011-10-27 12:23:26,2011-10-27 12:23:42.975000,16.975,1,BFW,,,,,,,,,,,,1.0,1.0,,,1.0,computer,4
425,425,2011-10-27 12:23:34.500000,2011-10-27 12:23:51.475000,16.975,1,BFW,,,,,,,,,,,,1.0,1.0,,,1.0,computer,4
426,426,2011-10-27 12:23:43,2011-10-27 12:23:59.975000,16.975,1,BFW,,,,,,,,,,,,1.0,1.0,,,1.0,computer,4
427,427,2011-10-27 12:23:51.500000,2011-10-27 12:24:08.475000,16.975,1,BFW,,,,,,,,,,,,1.0,1.0,,,1.0,computer,4
428,428,2011-10-27 12:24:00,2011-10-27 12:24:16.975000,16.975,1,BFW,,,,,,,,,,,,1.0,1.0,,,1.0,computer,4
429,429,2011-10-27 12:24:08.500000,2011-10-27 12:24:25.475000,16.975,1,BFW,,,,,,,,,,,,1.0,1.0,,,1.0,computer,4
430,430,2011-10-27 12:24:17,2011-10-27 12:24:33.975000,16.975,1,BFW,,,,,,,,,,,,1.0,1.0,,,1.0,computer,4
431,431,2011-10-27 12:24:25.500000,2011-10-27 12:24:42.475000,16.975,1,BFW,,,,,,,,,,,,1.0,1.0,,,1.0,computer,4
432,432,2011-10-27 12:24:34,2011-10-27 12:24:50.975000,16.975,1,BFW,,,,,,,,,,,,1.0,1.0,,,1.0,computer,4
433,433,2011-10-27 12:24:42.500000,2011-10-27 12:24:59.475000,16.975,1,BFW,,,,,,,,,,,,1.0,1.0,,,1.0,computer,4
434,434,2011-10-27 12:24:51,2011-10-27 12:25:07.975000,16.975,1,BFW,1.0,0.1914580265095729,0.0,63.0,left-puff,,,,,,,1.0,1.0,,,1.0,puff,9
435,435,2011-10-27 12:24:59.500000,2011-10-27 12:25:16.475000,16.975,1,BFW,1.0,0.1914580265095729,0.0,63.0,left-puff,,,,,,,1.0,1.0,,,1.0,puff,9
436,436,2011-10-27 12:25:08,2011-10-27 12:25:24.975000,16.975,1,BFW,,,,,,,,,,,,1.0,1.0,,,1.0,rest,-1
437,437,2011-10-27 12:25:16.500000,2011-10-27 12:25:33.475000,16.975,1,BFW,,,,,,,,,,,,1.0,1.0,,,1.0,computer,4
438,438,2011-10-27 12:25:25,2011-10-27 12:25:41.975000,16.975,1,BFW,1.0,0.20618556701030927,0.0,64.0,right-puff,,,,,,,1.0,1.0,,,1.0,puff,9
439,439,2011-10-27 12:25:33.500000,2011-10-27 12:25:50.475000,16.975,1,BFW,1.0,0.20618556701030927,0.0,64.0,right-puff,,,,,,,1.0,1.0,,,1.0,puff,9
440,440,2011-10-27 12:25:42,2011-10-27 12:25:58.975000,16.975,1,BFW,,,,,,,,,,,,1.0,1.0,,,1.0,rest,-1
441,441,2011-10-27 12:25:50.500000,2011-10-27 12:26:07.475000,16.975,1,BFW,1.0,0.20618556701030927,1.0,65.0,right-puff,,,,,,,1.0,1.0,,,1.0,puff,9
442,442,2011-10-27 12:25:59,2011-10-27 12:26:15.975000,16.975,1,BFW,1.0,0.20618556701030927,1.0,65.0,right-puff,,,,,,,1.0,1.0,,,1.0,puff,9
443,443,2011-10-27 12:26:07.500000,2011-10-27 12:26:24.475000,16.975,1,BFW,,,,,,,,,,,,1.0,1.0,,,1.0,rest,-1
444,444,2011-10-27 12:26:16,2011-10-27 12:26:32.975000,16.975,1,BFW,,,,,,,,,,,,1.0,1.0,,,1.0,rest,-1
445,445,2011-10-27 12:26:24.500000,2011-10-27 12:26:41.475000,16.975,1,BFW,,,,,,,,,,,,1.0,1.0,,,1.0,rest,-1
446,446,2011-10-27 12:26:33,2011-10-27 12:26:49.975000,16.975,1,BFW,,,,,,,,,,,,1.0,1.0,,,1.0,rest,-1
447,447,2011-10-27 12:26:41.500000,2011-10-27 12:26:58.475000,16.975,1,BFW,,,,,,,,,,,,1.0,1.0,,,1.0,rest,-1
448,448,2011-10-27 12:26:50,2011-10-27 12:27:06.975000,16.975,1,BFW,0.99375,0.23416789396170837,0.0,66.0,left-puff,,,,,,,1.0,1.0,,,1.0,puff,9
449,449,2011-10-27 12:26:58.500000,2011-10-27 12:27:15.475000,16.975,1,BFW,2.0,0.471281296023564,0.0,66.0,left-puff,,,,,,,1.0,1.0,,,1.0,puff,9
450,450,2011-10-27 12:27:07,2011-10-27 12:27:23.975000,16.975,1,BFW,1.0,0.235640648011782,1.0,67.0,left-puff,,,,,,,1.0,1.0,,,1.0,puff,9
451,451,2011-10-27 12:27:15.500000,2011-10-27 12:27:32.475000,16.975,1,BFW,,,,,,,,,,,,1.0,1.0,,,1.0,rest,-1
452,452,2011-10-27 12:27:24,2011-10-27 12:27:40.975000,16.975,1,BFW,0.42142857142857143,0.08689248895434462,0.0,68.0,left-puff,,,,,,,1.0,1.0,,,1.0,puff,9
453,453,2011-10-27 12:27:32.500000,2011-10-27 12:27:49.475000,16.975,1,BFW,1.0,0.20618556701030927,0.0,68.0,left-puff,,,,,,,1.0,1.0,,,1.0,puff,9
454,454,2011-10-27 12:27:41,2011-10-27 12:27:57.975000,16.975,1,BFW,0.5714285714285714,0.117820324005891,0.0,68.0,left-puff,,,,,,,1.0,1.0,,,1.0,puff,9
455,455,2011-10-27 12:27:49.500000,2011-10-27 12:28:06.475000,16.975,1,BFW,,,,,,,,,,,,1.0,1.0,,,1.0,rest,-1
456,456,2011-10-27 12:27:58,2011-10-27 12:28:14.975000,16.975,1,BFW,,,,,,,,,,,,1.0,1.0,,,1.0,rest,-1
457,457,2011-10-27 12:28:06.500000,2011-10-27 12:28:23.475000,16.975,1,BFW,,,,,,,,,,,,1.0,1.0,,,1.0,rest,-1
458,458,2011-10-27 12:28:15,2011-10-27 12:28:31.975000,16.975,1,BFW,,,,,,,,,,,,1.0,1.0,,,1.0,rest,-1
459,459,2011-10-27 12:28:23.500000,2011-10-27 12:28:40.475000,16.975,1,BFW,0.8250000000000001,0.14580265095729011,0.0,69.0,left-puff,,,,,,,1.0,1.0,,,1.0,puff,9
460,460,2011-10-27 12:28:32,2011-10-27 12:28:48.975000,16.975,1,BFW,1.0,0.1767304860088365,0.0,69.0,left-puff,,,,,,,1.0,1.0,,,1.0,puff,9
461,461,2011-10-27 12:28:40.500000,2011-10-27 12:28:57.475000,16.975,1,BFW,0.16666666666666666,0.02945508100147275,0.0,69.0,left-puff,,,,,,,1.0,1.0,,,1.0,computer,4
462,462,2011-10-27 12:28:49,2011-10-27 12:29:05.975000,16.975,1,BFW,,,,,,,,,,,,1.0,1.0,,,1.0,rest,-1
463,463,2011-10-27 12:28:57.500000,2011-10-27 12:29:14.475000,16.975,1,BFW,,,,,,,,,,,,1.0,1.0,,,1.0,computer,4
464,464,2011-10-27 12:29:06,2011-10-27 12:29:22.975000,16.975,1,BFW,,,,,,,,,,,,1.0,1.0,,,1.0,computer,4
465,465,2011-10-27 12:29:14.500000,2011-10-27 12:29:31.475000,16.975,1,BFW,0.4388888888888889,0.11634756995581737,0.0,70.0,left-puff,,,,,,,1.0,1.0,,,1.0,puff,9
466,466,2011-10-27 12:29:23,2011-10-27 12:29:39.975000,16.975,1,BFW,1.0,0.2650957290132548,0.0,70.0,left-puff,,,,,,,1.0,1.0,,,1.0,puff,9
467,467,2011-10-27 12:29:31.500000,2011-10-27 12:29:48.475000,16.975,1,BFW,0.5555555555555556,0.14727540500736375,0.0,70.0,left-puff,,,,,,,1.0,1.0,,,1.0,rest,-1
468,468,2011-10-27 12:29:40,2011-10-27 12:29:56.975000,16.975,1,BFW,,,,,,,,,,,,1.0,1.0,,,1.0,rest,-1
469,469,2011-10-27 12:29:48.500000,2011-10-27 12:30:05.475000,16.975,1,BFW,,,,,,,,,,,,1.0,1.0,,,1.0,rest,-1
470,470,2011-10-27 12:29:57,2011-10-27 12:30:13.975000,16.975,1,BFW,,,,,,,,,,,,1.0,1.0,,,1.0,rest,-1
471,471,2011-10-27 12:30:05.500000,2011-10-27 12:30:22.475000,16.975,1,BFW,,,,,,,,,,,,1.0,1.0,,,1.0,rest,-1
472,472,2011-10-27 12:30:14,2011-10-27 12:30:30.975000,16.975,1,BFW,,,,,,,,,,,,1.0,1.0,,,1.0,rest,-1
473,473,2011-10-27 12:30:22.500000,2011-10-27 12:30:39.475000,16.975,1,BFW,1.0,0.22091310751104565,1.0,71.0,left-puff,,,,,,,1.0,1.0,,,1.0,puff,9
474,474,2011-10-27 12:30:31,2011-10-27 12:30:47.975000,16.975,1,BFW,1.0,0.22091310751104565,1.0,71.0,left-puff,,,,,,,1.0,1.0,,,1.0,puff,9
475,475,2011-10-27 12:30:39.500000,2011-10-27 12:30:56.475000,16.975,1,BFW,,,,,,,,,,,,1.0,1.0,,,1.0,computer,4
476,476,2011-10-27 12:30:48,2011-10-27 12:31:04.975000,16.975,1,BFW,,,,,,,,,,,,1.0,1.0,,,1.0,computer,4
477,477,2011-10-27 12:30:56.500000,2011-10-27 12:31:13.475000,16.975,1,BFW,,,,,,,,,,,,1.0,1.0,,,1.0,computer,4
478,478,2011-10-27 12:31:05,2011-10-27 12:31:21.975000,16.975,1,BFW,,,,,,,,,,,,1.0,1.0,,,1.0,rest,-1
479,479,2011-10-27 12:31:13.500000,2011-10-27 12:31:30.475000,16.975,1,BFW,,,,,,,,,,,,1.0,1.0,,,1.0,rest,-1
480,480,2011-10-27 12:31:22,2011-10-27 12:31:38.975000,16.975,1,BFW,1.0,0.235640648011782,1.0,72.0,right-puff,,,,,,,1.0,1.0,,,1.0,puff,9
481,481,2011-10-27 12:31:30.500000,2011-10-27 12:31:47.475000,16.975,1,BFW,1.0,0.235640648011782,1.0,72.0,right-puff,,,,,,,1.0,1.0,,,1.0,puff,9
482,482,2011-10-27 12:31:39,2011-10-27 12:31:55.975000,16.975,1,BFW,,,,,,,,,,,,1.0,1.0,,,1.0,computer,4
483,483,2011-10-27 12:31:47.500000,2011-10-27 12:32:04.475000,16.975,1,BFW,,,,,,,,,,,,1.0,1.0,,,1.0,rest,-1
484,484,2011-10-27 12:31:56,2011-10-27 12:32:12.975000,16.975,1,BFW,,,,,,,,,,,,1.0,1.0,,,1.0,rest,-1
485,485,2011-10-27 12:32:04.500000,2011-10-27 12:32:21.475000,16.975,1,BFW,,,,,,,,,,,,1.0,1.0,,,1.0,computer,4
486,486,2011-10-27 12:32:13,2011-10-27 12:32:29.975000,16.975,1,BFW,,,,,,,,,,,,1.0,1.0,,,1.0,computer,4
487,487,2011-10-27 12:32:21.500000,2011-10-27 12:32:38.475000,16.975,1,BFW,,,,,,,,,,,,1.0,1.0,,,1.0,computer,4
488,488,2011-10-27 12:32:30,2011-10-27 12:32:46.975000,16.975,1,BFW,,,,,,,,,,,,1.0,1.0,,,1.0,computer,4
489,489,2011-10-27 12:32:38.500000,2011-10-27 12:32:55.475000,16.975,1,BFW,,,,,,,,,,,,1.0,1.0,,,1.0,rest,-1
490,490,2011-10-27 12:32:47,2011-10-27 12:33:03.975000,16.975,1,BFW,,,,,,,,,,,,1.0,1.0,,,1.0,rest,-1
491,491,2011-10-27 12:32:55.500000,2011-10-27 12:33:12.475000,16.975,1,BFW,,,,,,,,,,,,1.0,1.0,,,1.0,rest,-1
492,492,2011-10-27 12:33:04,2011-10-27 12:33:20.975000,16.975,1,BFW,0.7071428571428572,0.14580265095729011,1.0,73.0,left-puff,,,,,,,1.0,1.0,,,1.0,puff,9
493,493,2011-10-27 12:33:12.500000,2011-10-27 12:33:29.475000,16.975,1,BFW,1.0,0.20618556701030927,1.0,73.0,left-puff,,,,,,,0.6774668630338733,1.0,,,0.6774668630338733,puff,9
494,494,2011-10-27 12:33:21,2011-10-27 12:33:37.975000,16.975,1,BFW,0.2857142857142857,0.0589101620029455,1.0,73.0,left-puff,,,,,,,0.1767304860088365,1.0,,,0.1767304860088365,computer,4
495,495,2011-10-27 12:33:29.500000,2011-10-27 12:33:46.475000,16.975,1,BFW,,,,,,,,,,,,,1.0,,,,computer,4
496,496,2011-10-27 12:33:38,2011-10-27 12:33:54.975000,16.975,1,BFW,,,,,,,,,,,,,1.0,,,,computer,4
497,497,2011-10-27 12:33:46.500000,2011-10-27 12:34:03.475000,16.975,1,BFW,,,,,,,,,,,,,1.0,,,,computer,4
498,498,2011-10-27 12:33:55,2011-10-27 12:34:11.975000,16.975,1,BFW,,,,,,,,,,,,,1.0,,,,computer,4
499,499,2011-10-27 12:34:03.500000,2011-10-27 12:34:20.475000,16.975,1,BFW,,,,,,,,,,,,,1.0,,,,computer,4
500,500,2011-10-27 12:34:12,2011-10-27 12:34:28.975000,16.975,1,BFW,,,,,,,,,,,,,1.0,,,,rest,-1
501,501,2011-10-27 12:34:20.500000,2011-10-27 12:34:37.475000,16.975,1,BFW,,,,,,,,,,,,,1.0,,,,computer,4
502,502,2011-10-27 12:34:29,2011-10-27 12:34:45.975000,16.975,1,BFW,,,,,,,,,,,,,1.0,,,,computer,4
503,503,2011-10-27 12:34:37.500000,2011-10-27 12:34:54.475000,16.975,1,BFW,,,,,,,,,,,,,1.0,,,,computer,4
504,504,2011-10-27 12:34:46,2011-10-27 12:35:02.975000,16.975,1,BFW,,,,,,,,,,,,,1.0,,,,computer,4
505,505,2011-10-27 12:34:54.500000,2011-10-27 12:35:11.475000,16.975,1,BFW,,,,,,,,,,,,,1.0,,,,computer,4
506,506,2011-10-27 12:35:03,2011-10-27 12:35:19.975000,16.975,1,BFW,,,,,,,,,,,,,1.0,,,,computer,4
507,507,2011-10-27 12:35:11.500000,2011-10-27 12:35:28.475000,16.975,1,BFW,,,,,,,,,,,,,1.0,,,,computer,4
508,508,2011-10-27 12:35:20,2011-10-27 12:35:36.975000,16.975,1,BFW,,,,,,,,,,,,,1.0,,,,computer,4
509,509,2011-10-27 12:35:28.500000,2011-10-27 12:35:45.475000,16.975,1,BFW,,,,,,,,,,,,,1.0,,,,computer,4
510,510,2011-10-27 12:35:37,2011-10-27 12:35:53.975000,16.975,1,BFW,,,,,,,,,,,,,1.0,,,,computer,4
511,511,2011-10-27 12:35:45.500000,2011-10-27 12:36:02.475000,16.975,1,BFW,,,,,,,,,,,,,1.0,,,,computer,4
512,512,2011-10-27 12:35:54,2011-10-27 12:36:10.975000,16.975,1,BFW,,,,,,,,,,,,,1.0,,,,computer,4
513,513,2011-10-27 12:36:02.500000,2011-10-27 12:36:19.475000,16.975,1,BFW,,,,,,,,,,,,,1.0,,,,rest,-1
514,514,2011-10-27 12:36:11,2011-10-27 12:36:27.975000,16.975,1,BFW,,,,,,,,,,,,,1.0,,,,computer,4
515,515,2011-10-27 12:36:19.500000,2011-10-27 12:36:36.475000,16.975,1,BFW,1.0,0.14727540500736375,1.0,74.0,left-puff,,,,,,,0.49926362297496313,1.0,,,0.49926362297496313,puff,9
516,516,2011-10-27 12:36:28,2011-10-27 12:36:44.975000,16.975,1,BFW,1.0,0.14727540500736375,1.0,74.0,left-puff,,,,,,,1.0,1.0,,,1.0,puff,9
517,517,2011-10-27 12:36:36.500000,2011-10-27 12:36:53.475000,16.975,1,BFW,,,,,,,,,,,,1.0,1.0,,,1.0,computer,4
518,518,2011-10-27 12:36:45,2011-10-27 12:37:01.975000,16.975,1,BFW,,,,,,,,,,,,1.0,1.0,,,1.0,computer,4
519,519,2011-10-27 12:36:53.500000,2011-10-27 12:37:10.475000,16.975,1,BFW,,,,,,,,,,,,1.0,1.0,,,1.0,rest,-1
520,520,2011-10-27 12:37:02,2011-10-27 12:37:18.975000,16.975,1,BFW,,,,,,,,,,,,1.0,1.0,,,1.0,computer,4
521,521,2011-10-27 12:37:10.500000,2011-10-27 12:37:27.475000,16.975,1,BFW,1.0,0.16200294550810013,1.0,75.0,right-puff,,,,,,,1.0,1.0,,,1.0,puff,9
522,522,2011-10-27 12:37:19,2011-10-27 12:37:35.975000,16.975,1,BFW,1.0,0.16200294550810013,1.0,75.0,right-puff,,,,,,,1.0,1.0,,,1.0,puff,9
523,523,2011-10-27 12:37:27.500000,2011-10-27 12:37:44.475000,16.975,1,BFW,,,,,,,,,,,,1.0,1.0,,,1.0,computer,4
524,524,2011-10-27 12:37:36,2011-10-27 12:37:52.975000,16.975,1,BFW,,,,,,,,,,,,1.0,1.0,,,1.0,computer,4
525,525,2011-10-27 12:37:44.500000,2011-10-27 12:38:01.475000,16.975,1,BFW,,,,,,,,,,,,1.0,1.0,,,1.0,rest,-1
526,526,2011-10-27 12:37:53,2011-10-27 12:38:09.975000,16.975,1,BFW,,,,,,,,,,,,1.0,1.0,,,1.0,rest,-1
527,527,2011-10-27 12:38:01.500000,2011-10-27 12:38:18.475000,16.975,1,BFW,,,,,,,,,,,,1.0,1.0,,,1.0,rest,-1
528,528,2011-10-27 12:38:10,2011-10-27 12:38:26.975000,16.975,1,BFW,,,,,,,,,,,,1.0,1.0,,,1.0,rest,-1
529,529,2011-10-27 12:38:18.500000,2011-10-27 12:38:35.475000,16.975,1,BFW,,,,,,,,,,,,1.0,1.0,,,1.0,rest,-1
530,530,2011-10-27 12:38:27,2011-10-27 12:38:43.975000,16.975,1,BFW,,,,,,,,,,,,1.0,1.0,,,1.0,computer,4
531,531,2011-10-27 12:38:35.500000,2011-10-27 12:38:52.475000,16.975,1,BFW,,,,,,,,,,,,1.0,1.0,,,1.0,computer,4
532,532,2011-10-27 12:38:44,2011-10-27 12:39:00.975000,16.975,1,BFW,,,,,,,,,,,,1.0,1.0,,,1.0,computer,4
533,533,2011-10-27 12:38:52.500000,2011-10-27 12:39:09.475000,16.975,1,BFW,,,,,,,,,,,,1.0,1.0,,,1.0,computer,4
534,534,2011-10-27 12:39:01,2011-10-27 12:39:17.975000,16.975,1,BFW,,,,,,,,,,,,1.0,1.0,,,1.0,computer,4
535,535,2011-10-27 12:39:09.500000,2011-10-27 12:39:26.475000,16.975,1,BFW,,,,,,,,,,,,1.0,1.0,,,1.0,rest,-1
536,536,2011-10-27 12:39:18,2011-10-27 12:39:34.975000,16.975,1,BFW,,,,,,,,,,,,1.0,1.0,,,1.0,rest,-1
537,537,2011-10-27 12:39:26.500000,2011-10-27 12:39:43.475000,16.975,1,BFW,,,,,,,,,,,,1.0,1.0,,,1.0,rest,-1
538,538,2011-10-27 12:39:35,2011-10-27 12:39:51.975000,16.975,1,BFW,,,,,,,,,,,,1.0,1.0,,,1.0,rest,-1
539,539,2011-10-27 12:39:43.500000,2011-10-27 12:40:00.475000,16.975,1,BFW,,,,,,,,,,,,1.0,1.0,,,1.0,rest,-1
540,540,2011-10-27 12:39:52,2011-10-27 12:40:08.975000,16.975,1,BFW,,,,,,,,,,,,1.0,1.0,,,1.0,rest,-1
541,541,2011-10-27 12:40:00.500000,2011-10-27 12:40:17.475000,16.975,1,BFW,,,,,,,,,,,,1.0,1.0,,,1.0,rest,-1
542,542,2011-10-27 12:40:09,2011-10-27 12:40:25.975000,16.975,1,BFW,,,,,,,,,,,,1.0,1.0,,,1.0,rest,-1
543,543,2011-10-27 12:40:17.500000,2011-10-27 12:40:34.475000,16.975,1,BFW,,,,,,,,,,,,1.0,1.0,,,1.0,rest,-1
544,544,2011-10-27 12:40:26,2011-10-27 12:40:42.975000,16.975,1,BFW,,,,,,,,,,,,1.0,1.0,,,1.0,rest,-1
545,545,2011-10-27 12:40:34.500000,2011-10-27 12:40:51.475000,16.975,1,BFW,,,,,,,,,,,,1.0,1.0,,,1.0,rest,-1
546,546,2011-10-27 12:40:43,2011-10-27 12:40:59.975000,16.975,1,BFW,,,,,,,,,,,,1.0,1.0,,,1.0,computer,4
547,547,2011-10-27 12:40:51.500000,2011-10-27 12:41:08.475000,16.975,1,BFW,,,,,,,,,,,,1.0,1.0,,,1.0,rest,-1
548,548,2011-10-27 12:41:00,2011-10-27 12:41:16.975000,16.975,1,BFW,,,,,,,,,,,,1.0,1.0,,,1.0,rest,-1
549,549,2011-10-27 12:41:08.500000,2011-10-27 12:41:25.475000,16.975,1,BFW,0.74375,0.17525773195876287,0.0,76.0,left-puff,,,,,,,1.0,1.0,,,1.0,puff,9
550,550,2011-10-27 12:41:17,2011-10-27 12:41:33.975000,16.975,1,BFW,1.55625,0.36671575846833576,0.0,76.0,left-puff,,,,,,,1.0,1.0,,,1.0,puff,9
551,551,2011-10-27 12:41:25.500000,2011-10-27 12:41:42.475000,16.975,1,BFW,1.8125,0.4270986745213549,0.0,76.0,left-puff,,,,,,,1.0,1.0,,,1.0,puff,9
552,552,2011-10-27 12:41:34,2011-10-27 12:41:50.975000,16.975,1,BFW,0.8888888888888888,0.235640648011782,1.0,78.0,left-puff,,,,,,,1.0,1.0,,,1.0,puff,9
553,553,2011-10-27 12:41:42.500000,2011-10-27 12:41:59.475000,16.975,1,BFW,,,,,,,,,,,,1.0,1.0,,,1.0,computer,4
554,554,2011-10-27 12:41:51,2011-10-27 12:42:07.975000,16.975,1,BFW,1.0,0.22091310751104565,1.0,79.0,left-puff,,,,,,,1.0,1.0,,,1.0,puff,9
555,555,2011-10-27 12:41:59.500000,2011-10-27 12:42:16.475000,16.975,1,BFW,1.0,0.22091310751104565,1.0,79.0,left-puff,,,,,,,1.0,1.0,,,1.0,puff,9
556,556,2011-10-27 12:42:08,2011-10-27 12:42:24.975000,16.975,1,BFW,1.0,0.235640648011782,1.0,80.0,left-puff,,,,,,,1.0,1.0,,,1.0,puff,9
557,557,2011-10-27 12:42:16.500000,2011-10-27 12:42:33.475000,16.975,1,BFW,1.0,0.235640648011782,1.0,80.0,left-puff,,,,,,,1.0,1.0,,,1.0,puff,9
558,558,2011-10-27 12:42:25,2011-10-27 12:42:41.975000,16.975,1,BFW,,,,,,,,,,,,1.0,1.0,,,1.0,rest,-1
559,559,2011-10-27 12:42:33.500000,2011-10-27 12:42:50.475000,16.975,1,BFW,,,,,,,,,,,,1.0,1.0,,,1.0,rest,-1
560,560,2011-10-27 12:42:42,2011-10-27 12:42:58.975000,16.975,1,BFW,,,,,,,,,,,,1.0,1.0,,,1.0,computer,4
561,561,2011-10-27 12:42:50.500000,2011-10-27 12:43:07.475000,16.975,1,BFW,,,,,,,,,,,,1.0,1.0,,,1.0,computer,4
562,562,2011-10-27 12:42:59,2011-10-27 12:43:15.975000,16.975,1,BFW,,,,,,,,,,,,1.0,1.0,,,1.0,computer,4
563,563,2011-10-27 12:43:07.500000,2011-10-27 12:43:24.475000,16.975,1,BFW,,,,,,,,,,,,1.0,1.0,,,1.0,rest,-1
564,564,2011-10-27 12:43:16,2011-10-27 12:43:32.975000,16.975,1,BFW,,,,,,,,,,,,1.0,1.0,,,1.0,rest,-1
565,565,2011-10-27 12:43:24.500000,2011-10-27 12:43:41.475000,16.975,1,BFW,,,,,,,,,,,,1.0,1.0,,,1.0,rest,-1
566,566,2011-10-27 12:43:33,2011-10-27 12:43:49.975000,16.975,1,BFW,,,,,,,,,,,,1.0,1.0,,,1.0,rest,-1
567,567,2011-10-27 12:43:41.500000,2011-10-27 12:43:58.475000,16.975,1,BFW,1.0,0.2945508100147275,1.0,81.0,left-puff,,,,,,,1.0,1.0,,,1.0,puff,9
568,568,2011-10-27 12:43:50,2011-10-27 12:44:06.975000,16.975,1,BFW,1.0,0.2945508100147275,1.0,81.0,left-puff,,,,,,,1.0,1.0,,,1.0,puff,9
569,569,2011-10-27 12:43:58.500000,2011-10-27 12:44:15.475000,16.975,1,BFW,,,,,,,,,,,,1.0,1.0,,,1.0,rest,-1
570,570,2011-10-27 12:44:07,2011-10-27 12:44:23.975000,16.975,1,BFW,,,,,,,,,,,,1.0,1.0,,,1.0,rest,-1
571,571,2011-10-27 12:44:15.500000,2011-10-27 12:44:32.475000,16.975,1,BFW,,,,,,,,,,,,1.0,0.7363770250368188,,,0.7363770250368188,computer,4
572,572,2011-10-27 12:44:24,2011-10-27 12:44:40.975000,16.975,1,BFW,,,,,,,,,,,,1.0,0.41237113402061853,,,0.41237113402061853,computer,4
573,573,2011-10-27 12:44:32.500000,2011-10-27 12:44:49.475000,16.975,1,BFW,,,,,,,,,,0.027982326951399114,,1.0,0.1767304860088365,,,0.20471281296023564,others,0
574,574,2011-10-27 12:44:41,2011-10-27 12:44:57.975000,16.975,1,BFW,,,,,,,,,,0.5287187039764358,,1.0,,,,0.5287187039764358,reading,6
575,575,2011-10-27 12:44:49.500000,2011-10-27 12:45:06.475000,16.975,1,BFW,1.0,0.20618556701030927,0.0,82.0,right-puff,,,,,1.0,,1.0,,,,1.0,puff,9
576,576,2011-10-27 12:44:58,2011-10-27 12:45:14.975000,16.975,1,BFW,2.0,0.41237113402061853,0.0,82.0,right-puff,,,,,1.0,,1.0,,,,1.0,puff,9
577,577,2011-10-27 12:45:06.500000,2011-10-27 12:45:23.475000,16.975,1,BFW,1.0,0.20618556701030927,0.0,83.0,right-puff,,,,,1.0,,1.0,,,,1.0,puff,9
578,578,2011-10-27 12:45:15,2011-10-27 12:45:31.975000,16.975,1,BFW,,,,,,,,,,1.0,,1.0,,,,1.0,reading,6
579,579,2011-10-27 12:45:23.500000,2011-10-27 12:45:40.475000,16.975,1,BFW,1.0,0.20618556701030927,0.0,84.0,right-puff,,,,,1.0,,1.0,,,,1.0,puff,9
580,580,2011-10-27 12:45:32,2011-10-27 12:45:48.975000,16.975,1,BFW,1.0,0.20618556701030927,0.0,84.0,right-puff,,,,,1.0,,1.0,,,,1.0,puff,9
581,581,2011-10-27 12:45:40.500000,2011-10-27 12:45:57.475000,16.975,1,BFW,,,,,,,,,,1.0,,1.0,,,,1.0,reading,6
582,582,2011-10-27 12:45:49,2011-10-27 12:46:05.975000,16.975,1,BFW,,,,,,,,,,1.0,,1.0,,,,1.0,reading,6
583,583,2011-10-27 12:45:57.500000,2011-10-27 12:46:14.475000,16.975,1,BFW,,,,,,,,,,1.0,,1.0,,,,1.0,reading,6
584,584,2011-10-27 12:46:06,2011-10-27 12:46:22.975000,16.975,1,BFW,,,,,,,,,,1.0,,1.0,,,,1.0,reading,6
585,585,2011-10-27 12:46:14.500000,2011-10-27 12:46:31.475000,16.975,1,BFW,,,,,,,,,,1.0,,1.0,,,,1.0,reading,6
586,586,2011-10-27 12:46:23,2011-10-27 12:46:39.975000,16.975,1,BFW,,,,,,,,,,1.0,,1.0,,,,1.0,reading,6
587,587,2011-10-27 12:46:31.500000,2011-10-27 12:46:48.475000,16.975,1,BFW,,,,,,,,,,1.0,,1.0,,,,1.0,reading,6
588,588,2011-10-27 12:46:40,2011-10-27 12:46:56.975000,16.975,1,BFW,,,,,,,,,,1.0,,1.0,,,,1.0,reading,6
589,589,2011-10-27 12:46:48.500000,2011-10-27 12:47:05.475000,16.975,1,BFW,,,,,,,,,,0.7363770250368188,,1.0,,,,0.7363770250368188,reading,6
590,590,2011-10-27 12:46:57,2011-10-27 12:47:13.975000,16.975,1,BFW,,,,,,,,,,0.235640648011782,,1.0,,,,0.235640648011782,others,0
591,591,2011-10-27 12:47:05.500000,2011-10-27 12:47:22.475000,16.975,1,BFW,,,,,,,,,,,,1.0,,,,,others,0
592,592,2011-10-27 12:47:14,2011-10-27 12:47:30.975000,16.975,1,BFW,,,,,,,,,,,,1.0,,,,,others,0
593,593,2011-10-27 12:47:22.500000,2011-10-27 12:47:39.475000,16.975,1,BFW,,,,,,,,,,,,1.0,0.027982326951399114,,,0.027982326951399114,others,0
594,594,2011-10-27 12:47:31,2011-10-27 12:47:47.975000,16.975,1,BFW,,,,,,,,,0.1767304860088365,,,1.0,0.0589101620029455,,,0.235640648011782,others,0
595,595,2011-10-27 12:47:39.500000,2011-10-27 12:47:56.475000,16.975,1,BFW,,,,,,,,,0.1767304860088365,,,1.0,0.02945508100147275,,,0.20618556701030927,others,0
596,596,2011-10-27 12:47:48,2011-10-27 12:48:04.975000,16.975,1,BFW,,,,,,,,,,,,1.0,,,,,others,0
597,597,2011-10-27 12:47:56.500000,2011-10-27 12:48:13.475000,16.975,1,BFW,1.0,0.32400589101620025,1.0,85.0,left-puff,,,,,,,1.0,,,,,puff,9
598,598,2011-10-27 12:48:05,2011-10-27 12:48:21.975000,16.975,1,BFW,1.0,0.32400589101620025,1.0,85.0,left-puff,,,,,,,1.0,,,,,puff,9
599,599,2011-10-27 12:48:13.500000,2011-10-27 12:48:30.475000,16.975,1,BFW,0.8764705882352941,0.21944035346097202,1.0,86.0,left-puff,,,,,,,1.0,,,,,puff,9
600,600,2011-10-27 12:48:22,2011-10-27 12:48:38.975000,16.975,1,BFW,1.0,0.2503681885125184,1.0,86.0,left-puff,,,,,,,1.0,,,,,puff,9
601,601,2011-10-27 12:48:30.500000,2011-10-27 12:48:47.475000,16.975,1,BFW,0.11764705882352941,0.02945508100147275,1.0,86.0,left-puff,,,,,,,1.0,,,,,others,0
602,602,2011-10-27 12:48:39,2011-10-27 12:48:55.975000,16.975,1,BFW,,,,,,,,,,,,1.0,,,,,others,0
603,603,2011-10-27 12:48:47.500000,2011-10-27 12:49:04.475000,16.975,1,BFW,,,,,,,,,,,,1.0,,,,,others,0
604,604,2011-10-27 12:48:56,2011-10-27 12:49:12.975000,16.975,1,BFW,,,,,,,,,,,,1.0,,,,,others,0
605,605,2011-10-27 12:49:04.500000,2011-10-27 12:49:21.475000,16.975,1,BFW,,,,,,,,,,,,1.0,,,,,others,0
606,606,2011-10-27 12:49:13,2011-10-27 12:49:29.975000,16.975,1,BFW,,,,,,,,,,,,0.706921944035346,,,,,others,0
607,607,2011-10-27 12:49:21.500000,2011-10-27 12:49:38.475000,16.975,1,BFW,,,,,,,,,,,,0.20618556701030927,,,0.14580265095729011,,others,0
608,608,2011-10-27 12:49:30,2011-10-27 12:49:46.975000,16.975,1,BFW,,,,,,,,,,,,,,,0.6465390279823269,,walking,1
609,609,2011-10-27 12:49:38.500000,2011-10-27 12:49:55.475000,16.975,1,BFW,,,,,,,,,,,,,,,1.0,,walking,1
610,610,2011-10-27 12:49:47,2011-10-27 12:50:03.975000,16.975,1,BFW,,,,,,,,,,,,,,,1.0,,walking,1
611,611,2011-10-27 12:49:55.500000,2011-10-27 12:50:12.475000,16.975,1,BFW,,,,,,,0.08689248895434462,,,,,,,,0.5596465390279822,,walking,1
612,612,2011-10-27 12:50:04,2011-10-27 12:50:20.975000,16.975,1,BFW,,,,,,,0.117820324005891,,,,,,,,0.29307805596465386,,others,0
613,613,2011-10-27 12:50:12.500000,2011-10-27 12:50:29.475000,16.975,1,BFW,,,,,,,0.02945508100147275,,,,,,,,0.7349042709867452,,walking,1
614,614,2011-10-27 12:50:21,2011-10-27 12:50:37.975000,16.975,1,BFW,,,,,,,,,,,,,,,1.0,,walking,1
615,615,2011-10-27 12:50:29.500000,2011-10-27 12:50:46.475000,16.975,1,BFW,,,,,,,,,,,,,,,1.0,,walking,1
616,616,2011-10-27 12:50:38,2011-10-27 12:50:54.975000,16.975,1,BFW,,,,,,,,,,,,,,,1.0,,walking,1
617,617,2011-10-27 12:50:46.500000,2011-10-27 12:51:03.475000,16.975,1,BFW,,,,,,,,,,,,,,,0.6185567010309277,,walking,1
618,618,2011-10-27 12:50:55,2011-10-27 12:51:11.975000,16.975,1,BFW,,,,,,,,,,,,,,,0.117820324005891,,others,0
619,619,2011-10-27 12:51:03.500000,2011-10-27 12:51:20.475000,16.975,1,BFW,,,,,,,,,,,,0.49926362297496313,,,,,others,0
620,620,2011-10-27 12:51:12,2011-10-27 12:51:28.975000,16.975,1,BFW,0.3807692307692308,0.14580265095729011,0.0,87.0,right-puff,,,,,,,1.0,,,,,puff,9
621,621,2011-10-27 12:51:20.500000,2011-10-27 12:51:37.475000,16.975,1,BFW,1.0,0.3829160530191458,0.0,87.0,right-puff,,,,,,,1.0,,,,,puff,9
622,622,2011-10-27 12:51:29,2011-10-27 12:51:45.975000,16.975,1,BFW,0.6153846153846154,0.235640648011782,0.0,87.0,right-puff,,,,,,,1.0,,,,,puff,9
623,623,2011-10-27 12:51:37.500000,2011-10-27 12:51:54.475000,16.975,1,BFW,1.0,0.14727540500736375,0.0,88.0,right-puff,0.3225331369661266,,,,,,1.0,,,,0.3225331369661266,puff,9
624,624,2011-10-27 12:51:46,2011-10-27 12:52:02.975000,16.975,1,BFW,1.9899999999999998,0.29307805596465386,0.0,88.0,right-puff,0.8232695139911634,,,,,,1.0,,,,0.8232695139911634,puff,9
625,625,2011-10-27 12:51:54.500000,2011-10-27 12:52:11.475000,16.975,1,BFW,1.0,0.14727540500736375,0.0,89.0,right-puff,1.0,,,,,,1.0,,,,1.0,puff,9
626,626,2011-10-27 12:52:03,2011-10-27 12:52:19.975000,16.975,1,BFW,0.3277777777777778,0.08689248895434462,1.0,90.0,left-puff,1.0,,,,,,1.0,,,,1.0,puff,9
627,627,2011-10-27 12:52:11.500000,2011-10-27 12:52:28.475000,16.975,1,BFW,1.0,0.2650957290132548,1.0,90.0,left-puff,1.0,,,,,,1.0,,,,1.0,puff,9
628,628,2011-10-27 12:52:20,2011-10-27 12:52:36.975000,16.975,1,BFW,0.6666666666666666,0.1767304860088365,1.0,90.0,left-puff,1.0,,,,,,1.0,,,,1.0,puff,9
629,629,2011-10-27 12:52:28.500000,2011-10-27 12:52:45.475000,16.975,1,BFW,,,,,,1.0,,,,,,1.0,,,,1.0,in car,7
630,630,2011-10-27 12:52:37,2011-10-27 12:52:53.975000,16.975,1,BFW,1.0,0.235640648011782,0.0,91.0,left-puff,1.0,,,,,,1.0,,,,1.0,puff,9
631,631,2011-10-27 12:52:45.500000,2011-10-27 12:53:02.475000,16.975,1,BFW,1.0,0.235640648011782,0.0,91.0,left-puff,1.0,,,,,,1.0,,,,1.0,puff,9
632,632,2011-10-27 12:52:54,2011-10-27 12:53:10.975000,16.975,1,BFW,0.4714285714285714,0.14580265095729011,0.0,92.0,left-puff,1.0,,,,,,1.0,,,,1.0,puff,9
633,633,2011-10-27 12:53:02.500000,2011-10-27 12:53:19.475000,16.975,1,BFW,1.0,0.3092783505154639,0.0,92.0,left-puff,1.0,,,,,,1.0,,,,1.0,puff,9
634,634,2011-10-27 12:53:11,2011-10-27 12:53:27.975000,16.975,1,BFW,0.5238095238095238,0.16200294550810013,0.0,92.0,left-puff,1.0,,,,,,1.0,,,,1.0,puff,9
635,635,2011-10-27 12:53:19.500000,2011-10-27 12:53:36.475000,16.975,1,BFW,,,,,,1.0,,,,,,1.0,,,,1.0,rest,-1
636,636,2011-10-27 12:53:28,2011-10-27 12:53:44.975000,16.975,1,BFW,1.0,0.2503681885125184,0.0,93.0,left-puff,1.0,,,,,,1.0,,,,1.0,puff,9
637,637,2011-10-27 12:53:36.500000,2011-10-27 12:53:53.475000,16.975,1,BFW,1.0,0.2503681885125184,0.0,93.0,left-puff,1.0,,,,,,1.0,,,,1.0,puff,9
638,638,2011-10-27 12:53:45,2011-10-27 12:54:01.975000,16.975,1,BFW,,,,,,0.6480117820324005,,,,,,1.0,,,,0.6480117820324005,in car,7
639,639,2011-10-27 12:53:53.500000,2011-10-27 12:54:10.475000,16.975,1,BFW,1.0,0.235640648011782,1.0,94.0,left-puff,0.14727540500736375,,,,,,1.0,,,,0.14727540500736375,puff,9
640,640,2011-10-27 12:54:02,2011-10-27 12:54:18.975000,16.975,1,BFW,1.0,0.235640648011782,1.0,94.0,left-puff,,,,,,,1.0,,,,,puff,9
641,641,2011-10-27 12:54:10.500000,2011-10-27 12:54:27.475000,16.975,1,BFW,0.5307692307692308,0.101620029455081,1.0,95.0,left-puff,,,,,,,1.0,,,,,puff,9
642,642,2011-10-27 12:54:19,2011-10-27 12:54:35.975000,16.975,1,BFW,1.0,0.1914580265095729,1.0,95.0,left-puff,,,,,,,1.0,,,,,puff,9
643,643,2011-10-27 12:54:27.500000,2011-10-27 12:54:44.475000,16.975,1,BFW,0.46153846153846156,0.08836524300441825,1.0,95.0,left-puff,,,,,,,1.0,,,,,puff,9
644,644,2011-10-27 12:54:36,2011-10-27 12:54:52.975000,16.975,1,BFW,,,,,,,,,,,,1.0,,,,,others,0
645,645,2011-10-27 12:54:44.500000,2011-10-27 12:55:01.475000,16.975,1,BFW,0.61875,0.14580265095729011,1.0,96.0,left-puff,,,,,,,1.0,,,,,puff,9
646,646,2011-10-27 12:54:53,2011-10-27 12:55:09.975000,16.975,1,BFW,1.0,0.235640648011782,1.0,96.0,left-puff,,,,,,,1.0,,,,,puff,9
647,647,2011-10-27 12:55:01.500000,2011-10-27 12:55:18.475000,16.975,1,BFW,0.375,0.08836524300441825,1.0,96.0,left-puff,,,,,,,1.0,,,,,puff,9
648,648,2011-10-27 12:55:10,2011-10-27 12:55:26.975000,16.975,1,BFW,0.61875,0.14580265095729011,1.0,97.0,left-puff,,,,,,,1.0,,,,,puff,9
649,649,2011-10-27 12:55:18.500000,2011-10-27 12:55:35.475000,16.975,1,BFW,1.0,0.235640648011782,1.0,97.0,left-puff,,,,,,,1.0,,,,,puff,9
650,650,2011-10-27 12:55:27,2011-10-27 12:55:43.975000,16.975,1,BFW,0.375,0.08836524300441825,1.0,97.0,left-puff,,,,,,,1.0,,,,,puff,9
651,651,2011-10-27 12:55:35.500000,2011-10-27 12:55:52.475000,16.975,1,BFW,,,,,,,,,,,,1.0,,,,,others,0
652,652,2011-10-27 12:55:44,2011-10-27 12:56:00.975000,16.975,1,BFW,1.0,0.1914580265095729,1.0,98.0,left-puff,,,,,,,1.0,,,,,puff,9
653,653,2011-10-27 12:55:52.500000,2011-10-27 12:56:09.475000,16.975,1,BFW,1.0,0.1914580265095729,1.0,98.0,left-puff,,,,,,,1.0,,,,,puff,9
654,654,2011-10-27 12:56:01,2011-10-27 12:56:17.975000,16.975,1,BFW,,,,,,,,,,,,1.0,,,,,others,0
655,655,2011-10-27 12:56:09.500000,2011-10-27 12:56:26.475000,16.975,1,BFW,,,,,,,,,,,,1.0,,,,,others,0
656,656,2011-10-27 12:56:18,2011-10-27 12:56:34.975000,16.975,1,BFW,,,,,,,,,,,,1.0,,,,,others,0
657,657,2011-10-27 12:56:26.500000,2011-10-27 12:56:43.475000,16.975,1,BFW,,,,,,,,,,,,1.0,,,,,others,0
658,658,2011-10-27 12:56:35,2011-10-27 12:56:51.975000,16.975,1,BFW,,,,,,,,,,,,1.0,,,,,others,0
659,659,2011-10-27 12:56:43.500000,2011-10-27 12:57:00.475000,16.975,1,BFW,,,,,,,,,,,,1.0,,,,,others,0
660,660,2011-10-27 12:56:52,2011-10-27 12:57:08.975000,16.975,1,BFW,,,,,,,,,,,,1.0,,,,,others,0
661,661,2011-10-27 12:57:00.500000,2011-10-27 12:57:17.475000,16.975,1,BFW,,,,,,,,,,,,1.0,,,,,others,0
662,662,2011-10-27 12:57:09,2011-10-27 12:57:25.975000,16.975,1,BFW,,,,,,,,,,,,1.0,,,,,others,0
663,663,2011-10-27 12:57:17.500000,2011-10-27 12:57:34.475000,16.975,1,BFW,,,,,,,,,,,,0.7363770250368188,,,0.2636229749631811,,others,0
664,664,2011-10-27 12:57:26,2011-10-27 12:57:42.975000,16.975,1,BFW,,,,,,,,,,,,0.235640648011782,,,0.7643593519882179,,walking,1
665,665,2011-10-27 12:57:34.500000,2011-10-27 12:57:51.475000,16.975,1,BFW,,,,,,,,,,,,,,,1.0,,walking,1
666,666,2011-10-27 12:57:43,2011-10-27 12:57:59.975000,16.975,1,BFW,,,,,,,,,,,,,,,1.0,,walking,1
667,667,2011-10-27 12:57:51.500000,2011-10-27 12:58:08.475000,16.975,1,BFW,,,,,,,,,,,,,,,1.0,,walking,1
668,668,2011-10-27 12:58:00,2011-10-27 12:58:16.975000,16.975,1,BFW,,,,,,,,,,,,,,,1.0,,walking,1
669,669,2011-10-27 12:58:08.500000,2011-10-27 12:58:25.475000,16.975,1,BFW,,,,,,,,0.2636229749631811,,,,,,,0.5596465390279822,,walking,1
670,670,2011-10-27 12:58:17,2011-10-27 12:58:33.975000,16.975,1,BFW,,,,,,,,0.7643593519882179,,,,,,,0.0589101620029455,,others,0
671,671,2011-10-27 12:58:25.500000,2011-10-27 12:58:42.475000,16.975,1,BFW,,,,,,,,1.0,,,,,,,,,others,0
672,672,2011-10-27 12:58:34,2011-10-27 12:58:50.975000,16.975,1,BFW,,,,,,,,1.0,,,,,,,,,others,0
673,673,2011-10-27 12:58:42.500000,2011-10-27 12:58:59.475000,16.975,1,BFW,,,,,,,,1.0,,,,,,,,,others,0
674,674,2011-10-27 12:58:51,2011-10-27 12:59:07.975000,16.975,1,BFW,,,,,,,,1.0,,,,,,,,,rest,-1
675,675,2011-10-27 12:58:59.500000,2011-10-27 12:59:16.475000,16.975,1,BFW,,,,,,,,1.0,,,,,,,,,rest,-1
676,676,2011-10-27 12:59:08,2011-10-27 12:59:24.975000,16.975,1,BFW,,,,,,,,1.0,,,,,,,,,rest,-1
677,677,2011-10-27 12:59:16.500000,2011-10-27 12:59:33.475000,16.975,1,BFW,,,,,,,,1.0,,,,,,,,,rest,-1
678,678,2011-10-27 12:59:25,2011-10-27 12:59:41.975000,16.975,1,BFW,,,,,,,,1.0,,,,,,,,,others,0
679,679,2011-10-27 12:59:33.500000,2011-10-27 12:59:50.475000,16.975,1,BFW,,,,,,,,1.0,,,,,,,,,others,0
680,680,2011-10-27 12:59:42,2011-10-27 12:59:58.975000,16.975,1,BFW,,,,,,,,1.0,,,,,,,,,others,0
681,681,2011-10-27 12:59:50.500000,2011-10-27 13:00:04,13.5,1,BFW,,,,,,,,1.0,,,,,,,,,others,0
682,682,2011-10-27 12:59:59,2011-10-27 13:00:04,5.0,1,BFW,,,,,,,,1.0,,,,,,,,,others,0
