segment,STARTTIME,ENDTIME,seg duration,session,sensor,inside puff/puff duration,inside puff/segment duration,prototypical?,puff index,puff side,car percentage,talk percentage,unknown percentage,drinking percentage,reading percentage,eating percentage,smoking percentage,computer percentage,phone percentage,walking percentage,superposition percentage,name,target
0,2011-12-14 11:27:09,2011-12-14 11:27:33.975000,24.975,3,DW,,,,,,,,,,,,,,,,,others,0
1,2011-12-14 11:27:21.500000,2011-12-14 11:27:46.475000,24.975,3,DW,,,,,,,,,,,,,,,,,others,0
2,2011-12-14 11:27:34,2011-12-14 11:27:58.975000,24.975,3,DW,,,,,,,,,,,,,,,,,others,0
3,2011-12-14 11:27:46.500000,2011-12-14 11:28:11.475000,24.975,3,DW,,,,,,,,,,,,,,,,,rest,-1
4,2011-12-14 11:27:59,2011-12-14 11:28:23.975000,24.975,3,DW,,,,,,,,,,,,,,,,,rest,-1
5,2011-12-14 11:28:11.500000,2011-12-14 11:28:36.475000,24.975,3,DW,,,,,,,,,,,,,,,0.20020020020020018,,others,0
6,2011-12-14 11:28:24,2011-12-14 11:28:48.975000,24.975,3,DW,,,,,,,,,,,,,,,0.20020020020020018,,others,0
7,2011-12-14 11:28:36.500000,2011-12-14 11:29:01.475000,24.975,3,DW,,,,,,,,0.019019019019019017,,,,,,,,,others,0
8,2011-12-14 11:28:49,2011-12-14 11:29:13.975000,24.975,3,DW,,,,,,,,0.5195195195195195,,,,,,,,,others,0
9,2011-12-14 11:29:01.500000,2011-12-14 11:29:26.475000,24.975,3,DW,,,,,,,,0.8208208208208208,,,,,,,0.0990990990990991,,others,0
10,2011-12-14 11:29:14,2011-12-14 11:29:38.975000,24.975,3,DW,,,,,,,,0.3203203203203203,,,,,,,0.5995995995995995,,walking,1
11,2011-12-14 11:29:26.500000,2011-12-14 11:29:51.475000,24.975,3,DW,,,,,,,,,,,,,,,1.0,,walking,1
12,2011-12-14 11:29:39,2011-12-14 11:30:03.975000,24.975,3,DW,,,,,,,,0.19919919919919918,,,,,,,0.6006006006006006,,walking,1
13,2011-12-14 11:29:51.500000,2011-12-14 11:30:16.475000,24.975,3,DW,,,,,,,,0.36036036036036034,,,,,,,0.39939939939939934,,walking,1
14,2011-12-14 11:30:04,2011-12-14 11:30:28.975000,24.975,3,DW,,,,,,,,0.16016016016016016,,,,,,,0.7997997997997998,,walking,1
15,2011-12-14 11:30:16.500000,2011-12-14 11:30:41.475000,24.975,3,DW,,,,,,,,,,,,,,,0.6606606606606606,,walking,1
16,2011-12-14 11:30:29,2011-12-14 11:30:53.975000,24.975,3,DW,,,,,,,0.47947947947947944,,,,,,,,0.16016016016016016,,talking,5
17,2011-12-14 11:30:41.500000,2011-12-14 11:31:06.475000,24.975,3,DW,,,,,,,0.97997997997998,,,,,,,,,,talking,5
18,2011-12-14 11:30:54,2011-12-14 11:31:18.975000,24.975,3,DW,,,,,,,1.0,,,,,,,,,,talking,5
19,2011-12-14 11:31:06.500000,2011-12-14 11:31:31.475000,24.975,3,DW,,,,,,,0.5405405405405405,,,,,,,,,,talking,5
20,2011-12-14 11:31:19,2011-12-14 11:31:43.975000,24.975,3,DW,,,,,,,0.04004004004004004,,,,,,,,0.4394394394394394,,walking,1
21,2011-12-14 11:31:31.500000,2011-12-14 11:31:56.475000,24.975,3,DW,,,,,,,,,,,,,,,0.93993993993994,,walking,1
22,2011-12-14 11:31:44,2011-12-14 11:32:08.975000,24.975,3,DW,,,,,,,,,,,,,,,1.0,,walking,1
23,2011-12-14 11:31:56.500000,2011-12-14 11:32:21.475000,24.975,3,DW,,,,,,,,,,,,,,,1.0,,walking,1
24,2011-12-14 11:32:09,2011-12-14 11:32:33.975000,24.975,3,DW,,,,,,,,,,,,,,,1.0,,walking,1
25,2011-12-14 11:32:21.500000,2011-12-14 11:32:46.475000,24.975,3,DW,,,,,,,,,,,,,,,1.0,,walking,1
26,2011-12-14 11:32:34,2011-12-14 11:32:58.975000,24.975,3,DW,,,,,,,,,,,,,,,1.0,,walking,1
27,2011-12-14 11:32:46.500000,2011-12-14 11:33:11.475000,24.975,3,DW,,,,,,,,0.2192192192192192,,,,,,,0.9009009009009008,,walking,1
28,2011-12-14 11:32:59,2011-12-14 11:33:23.975000,24.975,3,DW,,,,,,,,0.7197197197197197,,,,,,,0.40040040040040037,,walking,1
29,2011-12-14 11:33:11.500000,2011-12-14 11:33:36.475000,24.975,3,DW,,,,,,,,1.0,,,,,,,,,others,0
30,2011-12-14 11:33:24,2011-12-14 11:33:48.975000,24.975,3,DW,,,,,,,,1.0,,,,,,,,,others,0
31,2011-12-14 11:33:36.500000,2011-12-14 11:34:01.475000,24.975,3,DW,,,,,,,,1.0,,,,,,,,,others,0
32,2011-12-14 11:33:49,2011-12-14 11:34:13.975000,24.975,3,DW,,,,,,,,1.0,,,,,,,,,others,0
33,2011-12-14 11:34:01.500000,2011-12-14 11:34:26.475000,24.975,3,DW,,,,,,,,1.0,,,,,,,,,others,0
34,2011-12-14 11:34:14,2011-12-14 11:34:38.975000,24.975,3,DW,,,,,,,,1.0,,,,,,,,,others,0
35,2011-12-14 11:34:26.500000,2011-12-14 11:34:51.475000,24.975,3,DW,,,,,,,,1.0,,,,,,,,,others,0
36,2011-12-14 11:34:39,2011-12-14 11:35:03.975000,24.975,3,DW,,,,,,,,1.0,,,,,,,,,others,0
37,2011-12-14 11:34:51.500000,2011-12-14 11:35:16.475000,24.975,3,DW,,,,,,,,0.9009009009009008,,,,,,,0.13913913913913914,,others,0
38,2011-12-14 11:35:04,2011-12-14 11:35:28.975000,24.975,3,DW,,,,,,,,0.40040040040040037,,,,,,,0.6396396396396395,,walking,1
39,2011-12-14 11:35:16.500000,2011-12-14 11:35:41.475000,24.975,3,DW,,,,,,,,,,,,,,,0.5805805805805806,,walking,1
40,2011-12-14 11:35:29,2011-12-14 11:35:53.975000,24.975,3,DW,,,,,,,,,,,,,,,0.08008008008008008,,others,0
41,2011-12-14 11:35:41.500000,2011-12-14 11:36:06.475000,24.975,3,DW,,,,,,,,,,,,,,,,,others,0
42,2011-12-14 11:35:54,2011-12-14 11:36:18.975000,24.975,3,DW,,,,,,,,,,,0.2392392392392392,,,,,,others,0
43,2011-12-14 11:36:06.500000,2011-12-14 11:36:31.475000,24.975,3,DW,,,,,,,,,,,0.7397397397397397,,,,,,eating,2
44,2011-12-14 11:36:19,2011-12-14 11:36:43.975000,24.975,3,DW,,,,,,,,,,,1.0,,,,,,eating,2
45,2011-12-14 11:36:31.500000,2011-12-14 11:36:56.475000,24.975,3,DW,,,,,,,,,,,1.0,,,,,,eating,2
46,2011-12-14 11:36:44,2011-12-14 11:37:08.975000,24.975,3,DW,,,,,,,,,,,1.0,,,,,,eating,2
47,2011-12-14 11:36:56.500000,2011-12-14 11:37:21.475000,24.975,3,DW,,,,,,,,,,,1.0,,,,,,eating,2
48,2011-12-14 11:37:09,2011-12-14 11:37:33.975000,24.975,3,DW,,,,,,,,,,,1.0,,,,,,eating,2
49,2011-12-14 11:37:21.500000,2011-12-14 11:37:46.475000,24.975,3,DW,,,,,,,,,,,1.0,,,,,,eating,2
50,2011-12-14 11:37:34,2011-12-14 11:37:58.975000,24.975,3,DW,,,,,,,,,,,1.0,,,,,,eating,2
51,2011-12-14 11:37:46.500000,2011-12-14 11:38:11.475000,24.975,3,DW,,,,,,,,,,,1.0,,,,,,eating,2
52,2011-12-14 11:37:59,2011-12-14 11:38:23.975000,24.975,3,DW,,,,,,,,,,,1.0,,,,,,eating,2
53,2011-12-14 11:38:11.500000,2011-12-14 11:38:36.475000,24.975,3,DW,,,,,,,,,,,1.0,,,,,,eating,2
54,2011-12-14 11:38:24,2011-12-14 11:38:48.975000,24.975,3,DW,,,,,,,,,,,1.0,,,,,,eating,2
55,2011-12-14 11:38:36.500000,2011-12-14 11:39:01.475000,24.975,3,DW,,,,,,,,,,,1.0,,,,,,eating,2
56,2011-12-14 11:38:49,2011-12-14 11:39:13.975000,24.975,3,DW,,,,,,,,,,,1.0,,,,,,eating,2
57,2011-12-14 11:39:01.500000,2011-12-14 11:39:26.475000,24.975,3,DW,,,,,,,,,,,1.0,,,,,,eating,2
58,2011-12-14 11:39:14,2011-12-14 11:39:38.975000,24.975,3,DW,,,,,,,,,,,1.0,,,,,,eating,2
59,2011-12-14 11:39:26.500000,2011-12-14 11:39:51.475000,24.975,3,DW,,,,,,,,,,,1.0,,,,,,eating,2
60,2011-12-14 11:39:39,2011-12-14 11:40:03.975000,24.975,3,DW,,,,,,,,,,,1.0,,,,,,eating,2
61,2011-12-14 11:39:51.500000,2011-12-14 11:40:16.475000,24.975,3,DW,,,,,,,0.49949949949949946,,,,0.5005005005005004,,,,,,talking,5
62,2011-12-14 11:40:04,2011-12-14 11:40:28.975000,24.975,3,DW,,,,,,,1.0,,,,,,,,,,talking,5
63,2011-12-14 11:40:16.500000,2011-12-14 11:40:41.475000,24.975,3,DW,,,,,,,1.0,,,,,,,,,,talking,5
64,2011-12-14 11:40:29,2011-12-14 11:40:53.975000,24.975,3,DW,,,,,,,1.0,,,,,,,,,,talking,5
65,2011-12-14 11:40:41.500000,2011-12-14 11:41:06.475000,24.975,3,DW,,,,,,,1.0,,,,,,,,,,rest,-1
66,2011-12-14 11:40:54,2011-12-14 11:41:18.975000,24.975,3,DW,,,,,,,1.0,,,,,,,,,,talking,5
67,2011-12-14 11:41:06.500000,2011-12-14 11:41:31.475000,24.975,3,DW,,,,,,,0.6606606606606606,,,,0.3393393393393393,,,,,,talking,5
68,2011-12-14 11:41:19,2011-12-14 11:41:43.975000,24.975,3,DW,,,,,,,0.16016016016016016,,,,0.8398398398398399,,,,,,eating,2
69,2011-12-14 11:41:31.500000,2011-12-14 11:41:56.475000,24.975,3,DW,,,,,,,,,,,1.0,,,,,,eating,2
70,2011-12-14 11:41:44,2011-12-14 11:42:08.975000,24.975,3,DW,,,,,,,0.3193193193193193,,,,0.6806806806806807,,,,,,talking,5
71,2011-12-14 11:41:56.500000,2011-12-14 11:42:21.475000,24.975,3,DW,,,,,,,0.5205205205205204,,,,0.47947947947947944,,,,,,talking,5
72,2011-12-14 11:42:09,2011-12-14 11:42:33.975000,24.975,3,DW,,,,,,,0.20020020020020018,,,,0.7997997997997998,,,,,,eating,2
73,2011-12-14 11:42:21.500000,2011-12-14 11:42:46.475000,24.975,3,DW,,,,,,,,,,,1.0,,,,,,eating,2
74,2011-12-14 11:42:34,2011-12-14 11:42:58.975000,24.975,3,DW,,,,,,,0.16016016016016016,,,,0.8398398398398399,,,,,,eating,2
75,2011-12-14 11:42:46.500000,2011-12-14 11:43:11.475000,24.975,3,DW,,,,,,,0.16016016016016016,,,,0.8398398398398399,,,,,,eating,2
76,2011-12-14 11:42:59,2011-12-14 11:43:23.975000,24.975,3,DW,,,,,,,,,0.16016016016016016,,0.8398398398398399,,,,,,eating,2
77,2011-12-14 11:43:11.500000,2011-12-14 11:43:36.475000,24.975,3,DW,,,,,,,,,0.16016016016016016,,0.8398398398398399,,,,,,eating,2
78,2011-12-14 11:43:24,2011-12-14 11:43:48.975000,24.975,3,DW,,,,,,,,,,,1.0,,,,,,eating,2
79,2011-12-14 11:43:36.500000,2011-12-14 11:44:01.475000,24.975,3,DW,,,,,,,0.13913913913913914,,,,0.8608608608608608,,,,,,eating,2
80,2011-12-14 11:43:49,2011-12-14 11:44:13.975000,24.975,3,DW,,,,,,,0.3203203203203203,,,,0.6796796796796797,,,,,,talking,5
81,2011-12-14 11:44:01.500000,2011-12-14 11:44:26.475000,24.975,3,DW,,,,,,,0.18018018018018017,,,,0.8198198198198199,,,,,,eating,2
82,2011-12-14 11:44:14,2011-12-14 11:44:38.975000,24.975,3,DW,,,,,,,,,,,1.0,,,,,,eating,2
83,2011-12-14 11:44:26.500000,2011-12-14 11:44:51.475000,24.975,3,DW,,,,,,,,,,,1.0,,,,,,eating,2
84,2011-12-14 11:44:39,2011-12-14 11:45:03.975000,24.975,3,DW,,,,,,,,,,,1.0,,,,,,eating,2
85,2011-12-14 11:44:51.500000,2011-12-14 11:45:16.475000,24.975,3,DW,,,,,,,,,,,1.0,,,,,,eating,2
86,2011-12-14 11:45:04,2011-12-14 11:45:28.975000,24.975,3,DW,,,,,,,,,,,1.0,,,,,,eating,2
87,2011-12-14 11:45:16.500000,2011-12-14 11:45:41.475000,24.975,3,DW,,,,,,,,,,,1.0,,,,,,eating,2
88,2011-12-14 11:45:29,2011-12-14 11:45:53.975000,24.975,3,DW,,,,,,,,,,,1.0,,,,,,eating,2
89,2011-12-14 11:45:41.500000,2011-12-14 11:46:06.475000,24.975,3,DW,,,,,,,,,,,1.0,,,,,,eating,2
90,2011-12-14 11:45:54,2011-12-14 11:46:18.975000,24.975,3,DW,,,,,,,,,,,1.0,,,,,,eating,2
91,2011-12-14 11:46:06.500000,2011-12-14 11:46:31.475000,24.975,3,DW,,,,,,,,,,,1.0,,,,,,eating,2
92,2011-12-14 11:46:19,2011-12-14 11:46:43.975000,24.975,3,DW,,,,,,,,,,,1.0,,,,,,eating,2
93,2011-12-14 11:46:31.500000,2011-12-14 11:46:56.475000,24.975,3,DW,,,,,,,,,,,1.0,,,,,,eating,2
94,2011-12-14 11:46:44,2011-12-14 11:47:08.975000,24.975,3,DW,,,,,,,,,,,1.0,,,,,,eating,2
95,2011-12-14 11:46:56.500000,2011-12-14 11:47:21.475000,24.975,3,DW,,,,,,,,,,,1.0,,,,,,eating,2
96,2011-12-14 11:47:09,2011-12-14 11:47:33.975000,24.975,3,DW,,,,,,,,,,,1.0,,,,,,eating,2
97,2011-12-14 11:47:21.500000,2011-12-14 11:47:46.475000,24.975,3,DW,,,,,,,,,,,0.6796796796796797,,,,,,eating,2
98,2011-12-14 11:47:34,2011-12-14 11:47:58.975000,24.975,3,DW,,,,,,,,,,,0.6796796796796797,,,,,,eating,2
99,2011-12-14 11:47:46.500000,2011-12-14 11:48:11.475000,24.975,3,DW,,,,,,,,,,,1.0,,,,,,eating,2
100,2011-12-14 11:47:59,2011-12-14 11:48:23.975000,24.975,3,DW,,,,,,,,,,,1.0,,,,,,eating,2
101,2011-12-14 11:48:11.500000,2011-12-14 11:48:36.475000,24.975,3,DW,,,,,,,,,,,1.0,,,,,,eating,2
102,2011-12-14 11:48:24,2011-12-14 11:48:48.975000,24.975,3,DW,,,,,,,,,,,1.0,,,,,,eating,2
103,2011-12-14 11:48:36.500000,2011-12-14 11:49:01.475000,24.975,3,DW,,,,,,,,,,,1.0,,,,,,eating,2
104,2011-12-14 11:48:49,2011-12-14 11:49:13.975000,24.975,3,DW,,,,,,,,,,,1.0,,,,,,eating,2
105,2011-12-14 11:49:01.500000,2011-12-14 11:49:26.475000,24.975,3,DW,,,,,,,,,,,1.0,,,,,,eating,2
106,2011-12-14 11:49:14,2011-12-14 11:49:38.975000,24.975,3,DW,,,,,,,,,,,1.0,,,,,,eating,2
107,2011-12-14 11:49:26.500000,2011-12-14 11:49:51.475000,24.975,3,DW,,,,,,,,,,,1.0,,,,,,eating,2
108,2011-12-14 11:49:39,2011-12-14 11:50:03.975000,24.975,3,DW,,,,,,,,,,,1.0,,,,,,eating,2
109,2011-12-14 11:49:51.500000,2011-12-14 11:50:16.475000,24.975,3,DW,,,,,,,,,,,1.0,,,,,,eating,2
110,2011-12-14 11:50:04,2011-12-14 11:50:28.975000,24.975,3,DW,,,,,,,,,,,1.0,,,,,,eating,2
111,2011-12-14 11:50:16.500000,2011-12-14 11:50:41.475000,24.975,3,DW,,,,,,,,,,,1.0,,,,,,eating,2
112,2011-12-14 11:50:29,2011-12-14 11:50:53.975000,24.975,3,DW,,,,,,,,,,,1.0,,,,,,eating,2
113,2011-12-14 11:50:41.500000,2011-12-14 11:51:06.475000,24.975,3,DW,,,,,,,,,,,1.0,,,,,,eating,2
114,2011-12-14 11:50:54,2011-12-14 11:51:18.975000,24.975,3,DW,,,,,,,,,,,1.0,,,,,,eating,2
115,2011-12-14 11:51:06.500000,2011-12-14 11:51:31.475000,24.975,3,DW,,,,,,,,,,,1.0,,,,,,eating,2
116,2011-12-14 11:51:19,2011-12-14 11:51:43.975000,24.975,3,DW,,,,,,,,,,,1.0,,,,,,eating,2
117,2011-12-14 11:51:31.500000,2011-12-14 11:51:56.475000,24.975,3,DW,,,,,,,,,,,1.0,,,,,,eating,2
118,2011-12-14 11:51:44,2011-12-14 11:52:08.975000,24.975,3,DW,,,,,,,0.039039039039039033,0.36036036036036034,,,0.6006006006006006,,,,,,eating,2
119,2011-12-14 11:51:56.500000,2011-12-14 11:52:21.475000,24.975,3,DW,,,,,,,0.3793793793793793,0.36036036036036034,0.16016016016016016,,0.10010010010010009,,,,,,talking,5
120,2011-12-14 11:52:09,2011-12-14 11:52:33.975000,24.975,3,DW,,,,,,,0.8398398398398399,,0.16016016016016016,,,,,,,,talking,5
121,2011-12-14 11:52:21.500000,2011-12-14 11:52:46.475000,24.975,3,DW,,,,,,,1.0,,,,,,,,,,talking,5
122,2011-12-14 11:52:34,2011-12-14 11:52:58.975000,24.975,3,DW,,,,,,,1.0,,,,,,,,,,talking,5
123,2011-12-14 11:52:46.500000,2011-12-14 11:53:11.475000,24.975,3,DW,,,,,,,1.0,,,,,,,,,,talking,5
124,2011-12-14 11:52:59,2011-12-14 11:53:23.975000,24.975,3,DW,,,,,,,1.0,,,,,,,,,,talking,5
125,2011-12-14 11:53:11.500000,2011-12-14 11:53:36.475000,24.975,3,DW,,,,,,,1.0,,,,,,,,,,talking,5
126,2011-12-14 11:53:24,2011-12-14 11:53:48.975000,24.975,3,DW,,,,,,,1.0,,,,,,,,,,talking,5
127,2011-12-14 11:53:36.500000,2011-12-14 11:54:01.475000,24.975,3,DW,,,,,,,0.5405405405405405,,,,0.45945945945945943,,,,,,talking,5
128,2011-12-14 11:53:49,2011-12-14 11:54:13.975000,24.975,3,DW,,,,,,,0.3193193193193193,,0.16016016016016016,,0.5205205205205204,,,,,,talking,5
129,2011-12-14 11:54:01.500000,2011-12-14 11:54:26.475000,24.975,3,DW,,,,,,,0.7797797797797797,,0.16016016016016016,,0.06006006006006006,,,,,,talking,5
130,2011-12-14 11:54:14,2011-12-14 11:54:38.975000,24.975,3,DW,,,,,,,1.0,,,,,,,,,,talking,5
131,2011-12-14 11:54:26.500000,2011-12-14 11:54:51.475000,24.975,3,DW,,,,,,,1.0,,,,,,,,,,talking,5
132,2011-12-14 11:54:39,2011-12-14 11:55:03.975000,24.975,3,DW,,,,,,,1.0,,,,,,,,,,talking,5
133,2011-12-14 11:54:51.500000,2011-12-14 11:55:16.475000,24.975,3,DW,,,,,,,1.0,,,,,,,,,,talking,5
134,2011-12-14 11:55:04,2011-12-14 11:55:28.975000,24.975,3,DW,,,,,,,1.0,,,,,,,,,,talking,5
135,2011-12-14 11:55:16.500000,2011-12-14 11:55:41.475000,24.975,3,DW,,,,,,,1.0,,,,,,,,,,talking,5
136,2011-12-14 11:55:29,2011-12-14 11:55:53.975000,24.975,3,DW,,,,,,,1.0,,,,,,,,,,talking,5
137,2011-12-14 11:55:41.500000,2011-12-14 11:56:06.475000,24.975,3,DW,,,,,,,1.0,,,,,,,,,,talking,5
138,2011-12-14 11:55:54,2011-12-14 11:56:18.975000,24.975,3,DW,,,,,,,1.0,,,,,,,,,,talking,5
139,2011-12-14 11:56:06.500000,2011-12-14 11:56:31.475000,24.975,3,DW,,,,,,,1.0,,,,,,,,,,talking,5
140,2011-12-14 11:56:19,2011-12-14 11:56:43.975000,24.975,3,DW,,,,,,,1.0,,,,,,,,,,talking,5
141,2011-12-14 11:56:31.500000,2011-12-14 11:56:56.475000,24.975,3,DW,,,,,,,1.0,,,,,,,,,,talking,5
142,2011-12-14 11:56:44,2011-12-14 11:57:08.975000,24.975,3,DW,,,,,,,1.0,,,,,,,,,,talking,5
143,2011-12-14 11:56:56.500000,2011-12-14 11:57:21.475000,24.975,3,DW,,,,,,,1.0,,,,,,,,,,talking,5
144,2011-12-14 11:57:09,2011-12-14 11:57:33.975000,24.975,3,DW,,,,,,,1.0,,,,,,,,,,talking,5
145,2011-12-14 11:57:21.500000,2011-12-14 11:57:46.475000,24.975,3,DW,,,,,,,1.0,,,,,,,,,,talking,5
146,2011-12-14 11:57:34,2011-12-14 11:57:58.975000,24.975,3,DW,,,,,,,1.0,,,,,,,,,,talking,5
147,2011-12-14 11:57:46.500000,2011-12-14 11:58:11.475000,24.975,3,DW,,,,,,,1.0,,,,,,,,,,talking,5
148,2011-12-14 11:57:59,2011-12-14 11:58:23.975000,24.975,3,DW,,,,,,,1.0,,,,,,,,,,talking,5
149,2011-12-14 11:58:11.500000,2011-12-14 11:58:36.475000,24.975,3,DW,,,,,,,1.0,,,,,,,,,,talking,5
150,2011-12-14 11:58:24,2011-12-14 11:58:48.975000,24.975,3,DW,,,,,,,1.0,,,,,,,,,,talking,5
151,2011-12-14 11:58:36.500000,2011-12-14 11:59:01.475000,24.975,3,DW,,,,,,,1.0,,,,,,,,,,rest,-1
152,2011-12-14 11:58:49,2011-12-14 11:59:13.975000,24.975,3,DW,,,,,,,1.0,,,,,,,,,,talking,5
153,2011-12-14 11:59:01.500000,2011-12-14 11:59:26.475000,24.975,3,DW,,,,,,,1.0,,,,,,,,,,talking,5
154,2011-12-14 11:59:14,2011-12-14 11:59:38.975000,24.975,3,DW,,,,,,,1.0,,,,,,,,,,talking,5
155,2011-12-14 11:59:26.500000,2011-12-14 11:59:51.475000,24.975,3,DW,,,,,,,1.0,,,,,,,,,,talking,5
156,2011-12-14 11:59:39,2011-12-14 12:00:03.975000,24.975,3,DW,,,,,,,1.0,,,,,,,,,,talking,5
157,2011-12-14 11:59:51.500000,2011-12-14 12:00:16.475000,24.975,3,DW,,,,,,,1.0,,,,,,,,,,talking,5
158,2011-12-14 12:00:04,2011-12-14 12:00:28.975000,24.975,3,DW,,,,,,,0.8408408408408408,,0.15915915915915915,,,,,,,,talking,5
159,2011-12-14 12:00:16.500000,2011-12-14 12:00:41.475000,24.975,3,DW,,,,,,,0.8398398398398399,,0.16016016016016016,,,,,,,,talking,5
160,2011-12-14 12:00:29,2011-12-14 12:00:53.975000,24.975,3,DW,,,,,,,1.0,,,,,,,,,,talking,5
161,2011-12-14 12:00:41.500000,2011-12-14 12:01:06.475000,24.975,3,DW,,,,,,,1.0,,,,,,,,,,talking,5
162,2011-12-14 12:00:54,2011-12-14 12:01:18.975000,24.975,3,DW,,,,,,,1.0,,,,,,,,,,talking,5
163,2011-12-14 12:01:06.500000,2011-12-14 12:01:31.475000,24.975,3,DW,,,,,,,1.0,,,,,,,,,,talking,5
164,2011-12-14 12:01:19,2011-12-14 12:01:43.975000,24.975,3,DW,,,,,,,1.0,,,,,,,,,,talking,5
165,2011-12-14 12:01:31.500000,2011-12-14 12:01:56.475000,24.975,3,DW,,,,,,,1.0,,,,,,,,,,talking,5
166,2011-12-14 12:01:44,2011-12-14 12:02:08.975000,24.975,3,DW,,,,,,,1.0,,,,,,,,,,talking,5
167,2011-12-14 12:01:56.500000,2011-12-14 12:02:21.475000,24.975,3,DW,,,,,,,1.0,,,,,,,,,,talking,5
168,2011-12-14 12:02:09,2011-12-14 12:02:33.975000,24.975,3,DW,,,,,,,1.0,,,,,,,,,,talking,5
169,2011-12-14 12:02:21.500000,2011-12-14 12:02:46.475000,24.975,3,DW,,,,,,,1.0,,,,,,,,,,talking,5
170,2011-12-14 12:02:34,2011-12-14 12:02:58.975000,24.975,3,DW,,,,,,,1.0,,,,,,,,,,talking,5
171,2011-12-14 12:02:46.500000,2011-12-14 12:03:11.475000,24.975,3,DW,,,,,,,1.0,,,,,,,,,,talking,5
172,2011-12-14 12:02:59,2011-12-14 12:03:23.975000,24.975,3,DW,,,,,,,1.0,,,,,0.27927927927927926,,,,0.27927927927927926,talking,5
173,2011-12-14 12:03:11.500000,2011-12-14 12:03:36.475000,24.975,3,DW,,,,,,,1.0,,,,,0.7797797797797797,,,,0.7797797797797797,talking,5
174,2011-12-14 12:03:24,2011-12-14 12:03:48.975000,24.975,3,DW,,,,,,,1.0,,,,,1.0,,,,1.0,talking,5
175,2011-12-14 12:03:36.500000,2011-12-14 12:04:01.475000,24.975,3,DW,,,,,,,1.0,,,,,1.0,,,,1.0,talking,5
176,2011-12-14 12:03:49,2011-12-14 12:04:13.975000,24.975,3,DW,,,,,,,1.0,,,,,1.0,,,,1.0,talking,5
177,2011-12-14 12:04:01.500000,2011-12-14 12:04:26.475000,24.975,3,DW,,,,,,,1.0,,,,,1.0,,,,1.0,talking,5
178,2011-12-14 12:04:14,2011-12-14 12:04:38.975000,24.975,3,DW,,,,,,,1.0,,,,,1.0,,,,1.0,talking,5
179,2011-12-14 12:04:26.500000,2011-12-14 12:04:51.475000,24.975,3,DW,,,,,,,1.0,,,,,1.0,,,,1.0,talking,5
180,2011-12-14 12:04:39,2011-12-14 12:05:03.975000,24.975,3,DW,,,,,,,1.0,,,,,1.0,,,,1.0,talking,5
181,2011-12-14 12:04:51.500000,2011-12-14 12:05:16.475000,24.975,3,DW,,,,,,,1.0,,,,,1.0,,,,1.0,talking,5
182,2011-12-14 12:05:04,2011-12-14 12:05:28.975000,24.975,3,DW,,,,,,,1.0,,,,,1.0,,,,1.0,talking,5
183,2011-12-14 12:05:16.500000,2011-12-14 12:05:41.475000,24.975,3,DW,,,,,,,1.0,,,,,1.0,,,,1.0,talking,5
184,2011-12-14 12:05:29,2011-12-14 12:05:53.975000,24.975,3,DW,,,,,,,1.0,,,,,1.0,,,,1.0,talking,5
185,2011-12-14 12:05:41.500000,2011-12-14 12:06:06.475000,24.975,3,DW,,,,,,,1.0,,,,,1.0,,,,1.0,talking,5
186,2011-12-14 12:05:54,2011-12-14 12:06:18.975000,24.975,3,DW,,,,,,,1.0,,,,,1.0,,,,1.0,talking,5
187,2011-12-14 12:06:06.500000,2011-12-14 12:06:31.475000,24.975,3,DW,,,,,,,1.0,,,,,1.0,,,,1.0,talking,5
188,2011-12-14 12:06:19,2011-12-14 12:06:43.975000,24.975,3,DW,,,,,,,1.0,,,,,1.0,,,,1.0,talking,5
189,2011-12-14 12:06:31.500000,2011-12-14 12:06:56.475000,24.975,3,DW,,,,,,,1.0,,,,,1.0,,,,1.0,talking,5
190,2011-12-14 12:06:44,2011-12-14 12:07:08.975000,24.975,3,DW,,,,,,,1.0,,,,,1.0,,,,1.0,talking,5
191,2011-12-14 12:06:56.500000,2011-12-14 12:07:21.475000,24.975,3,DW,,,,,,,1.0,,,,,1.0,,,,1.0,talking,5
192,2011-12-14 12:07:09,2011-12-14 12:07:33.975000,24.975,3,DW,,,,,,,1.0,,,,,1.0,,,,1.0,talking,5
193,2011-12-14 12:07:21.500000,2011-12-14 12:07:46.475000,24.975,3,DW,,,,,,,1.0,,,,,1.0,,,,1.0,talking,5
194,2011-12-14 12:07:34,2011-12-14 12:07:58.975000,24.975,3,DW,,,,,,,1.0,,,,,1.0,,,,1.0,talking,5
195,2011-12-14 12:07:46.500000,2011-12-14 12:08:11.475000,24.975,3,DW,,,,,,,1.0,,,,,1.0,,,,1.0,talking,5
196,2011-12-14 12:07:59,2011-12-14 12:08:23.975000,24.975,3,DW,,,,,,,1.0,,,,,1.0,,,,1.0,talking,5
197,2011-12-14 12:08:11.500000,2011-12-14 12:08:36.475000,24.975,3,DW,,,,,,,1.0,,,,,1.0,,,,1.0,talking,5
198,2011-12-14 12:08:24,2011-12-14 12:08:48.975000,24.975,3,DW,,,,,,,1.0,,,,,1.0,,,,1.0,talking,5
199,2011-12-14 12:08:36.500000,2011-12-14 12:09:01.475000,24.975,3,DW,,,,,,,1.0,,,,,1.0,,,,1.0,talking,5
200,2011-12-14 12:08:49,2011-12-14 12:09:13.975000,24.975,3,DW,,,,,,,1.0,,,,,1.0,,,,1.0,talking,5
201,2011-12-14 12:09:01.500000,2011-12-14 12:09:26.475000,24.975,3,DW,,,,,,,1.0,,,,,1.0,,,,1.0,talking,5
202,2011-12-14 12:09:14,2011-12-14 12:09:38.975000,24.975,3,DW,,,,,,,1.0,,,,,1.0,,,,1.0,talking,5
203,2011-12-14 12:09:26.500000,2011-12-14 12:09:51.475000,24.975,3,DW,,,,,,,1.0,,,,,1.0,,,,1.0,talking,5
204,2011-12-14 12:09:39,2011-12-14 12:10:03.975000,24.975,3,DW,,,,,,,1.0,,,,,1.0,,,,1.0,talking,5
205,2011-12-14 12:09:51.500000,2011-12-14 12:10:16.475000,24.975,3,DW,,,,,,,1.0,,,,,1.0,,,,1.0,talking,5
206,2011-12-14 12:10:04,2011-12-14 12:10:28.975000,24.975,3,DW,,,,,,,1.0,,,,,1.0,,,,1.0,talking,5
207,2011-12-14 12:10:16.500000,2011-12-14 12:10:41.475000,24.975,3,DW,,,,,,,1.0,,,,,1.0,,,,1.0,talking,5
208,2011-12-14 12:10:29,2011-12-14 12:10:53.975000,24.975,3,DW,,,,,,,1.0,,,,,1.0,,,,1.0,talking,5
209,2011-12-14 12:10:41.500000,2011-12-14 12:11:06.475000,24.975,3,DW,,,,,,,1.0,,,,,1.0,,,,1.0,talking,5
210,2011-12-14 12:10:54,2011-12-14 12:11:18.975000,24.975,3,DW,,,,,,,1.0,,,,,1.0,,,,1.0,talking,5
211,2011-12-14 12:11:06.500000,2011-12-14 12:11:31.475000,24.975,3,DW,,,,,,,1.0,,,,,1.0,,,,1.0,talking,5
212,2011-12-14 12:11:19,2011-12-14 12:11:43.975000,24.975,3,DW,,,,,,,1.0,,,,,1.0,,,,1.0,talking,5
213,2011-12-14 12:11:31.500000,2011-12-14 12:11:56.475000,24.975,3,DW,,,,,,,1.0,,,,,1.0,,,,1.0,talking,5
214,2011-12-14 12:11:44,2011-12-14 12:12:08.975000,24.975,3,DW,,,,,,,1.0,,,,,1.0,,,,1.0,talking,5
215,2011-12-14 12:11:56.500000,2011-12-14 12:12:21.475000,24.975,3,DW,,,,,,,1.0,,,,,1.0,,,,1.0,talking,5
216,2011-12-14 12:12:09,2011-12-14 12:12:33.975000,24.975,3,DW,,,,,,,1.0,,,,,1.0,,,,1.0,talking,5
217,2011-12-14 12:12:21.500000,2011-12-14 12:12:46.475000,24.975,3,DW,,,,,,,1.0,,,,,1.0,,,,1.0,talking,5
218,2011-12-14 12:12:34,2011-12-14 12:12:58.975000,24.975,3,DW,,,,,,,1.0,,,,,1.0,,,,1.0,talking,5
219,2011-12-14 12:12:46.500000,2011-12-14 12:13:11.475000,24.975,3,DW,,,,,,,1.0,,,,,1.0,,,,1.0,talking,5
220,2011-12-14 12:12:59,2011-12-14 12:13:23.975000,24.975,3,DW,,,,,,,1.0,,,,,1.0,,,,1.0,talking,5
221,2011-12-14 12:13:11.500000,2011-12-14 12:13:36.475000,24.975,3,DW,,,,,,,1.0,,,,,1.0,,,,1.0,talking,5
222,2011-12-14 12:13:24,2011-12-14 12:13:48.975000,24.975,3,DW,,,,,,,1.0,,,,,1.0,,,,1.0,talking,5
223,2011-12-14 12:13:36.500000,2011-12-14 12:14:01.475000,24.975,3,DW,,,,,,,0.7007007007007007,,0.2802802802802803,,,0.6206206206206206,,,,0.6206206206206206,drinking,8
224,2011-12-14 12:13:49,2011-12-14 12:14:13.975000,24.975,3,DW,,,,,,,0.5995995995995995,,0.2802802802802803,,,0.12012012012012012,,,,0.12012012012012012,drinking,8
225,2011-12-14 12:14:01.500000,2011-12-14 12:14:26.475000,24.975,3,DW,,,,,,,0.8998998998998999,,,,,,,,,,talking,5
226,2011-12-14 12:14:14,2011-12-14 12:14:38.975000,24.975,3,DW,,,,,,,1.0,,,,,,,,,,talking,5
227,2011-12-14 12:14:26.500000,2011-12-14 12:14:51.475000,24.975,3,DW,,,,,,,1.0,,,,,,,,,,talking,5
228,2011-12-14 12:14:39,2011-12-14 12:15:03.975000,24.975,3,DW,,,,,,,1.0,,,,,,,,,,talking,5
229,2011-12-14 12:14:51.500000,2011-12-14 12:15:16.475000,24.975,3,DW,,,,,,,1.0,,,,,,,,,,talking,5
230,2011-12-14 12:15:04,2011-12-14 12:15:28.975000,24.975,3,DW,,,,,,,1.0,,,,,,,,,,talking,5
231,2011-12-14 12:15:16.500000,2011-12-14 12:15:41.475000,24.975,3,DW,,,,,,,1.0,,,,,,,,,,talking,5
232,2011-12-14 12:15:29,2011-12-14 12:15:53.975000,24.975,3,DW,,,,,,,1.0,,,,,,,,,,talking,5
233,2011-12-14 12:15:41.500000,2011-12-14 12:16:06.475000,24.975,3,DW,,,,,,,1.0,,,,,,,,,,talking,5
234,2011-12-14 12:15:54,2011-12-14 12:16:18.975000,24.975,3,DW,,,,,,,1.0,,,,,,,,,,talking,5
235,2011-12-14 12:16:06.500000,2011-12-14 12:16:31.475000,24.975,3,DW,,,,,,,1.0,,,,,,,,,,talking,5
236,2011-12-14 12:16:19,2011-12-14 12:16:43.975000,24.975,3,DW,,,,,,,1.0,,,,,,,,,,talking,5
237,2011-12-14 12:16:31.500000,2011-12-14 12:16:56.475000,24.975,3,DW,,,,,,,1.0,,,,,,,,,,talking,5
238,2011-12-14 12:16:44,2011-12-14 12:17:08.975000,24.975,3,DW,,,,,,,1.0,,,,,,,,,,talking,5
239,2011-12-14 12:16:56.500000,2011-12-14 12:17:21.475000,24.975,3,DW,,,,,,,1.0,,,,,,,,,,talking,5
240,2011-12-14 12:17:09,2011-12-14 12:17:33.975000,24.975,3,DW,,,,,,,1.0,,,,,,,,,,talking,5
241,2011-12-14 12:17:21.500000,2011-12-14 12:17:46.475000,24.975,3,DW,,,,,,,1.0,,,,,,,,,,talking,5
242,2011-12-14 12:17:34,2011-12-14 12:17:58.975000,24.975,3,DW,,,,,,,1.0,,,,,,,,,,talking,5
243,2011-12-14 12:17:46.500000,2011-12-14 12:18:11.475000,24.975,3,DW,,,,,,,0.91991991991992,,0.08008008008008008,,,,,,,,talking,5
244,2011-12-14 12:17:59,2011-12-14 12:18:23.975000,24.975,3,DW,,,,,,,0.91991991991992,,0.08008008008008008,,,,,,,,talking,5
245,2011-12-14 12:18:11.500000,2011-12-14 12:18:36.475000,24.975,3,DW,,,,,,,1.0,,,,,,,,,,talking,5
246,2011-12-14 12:18:24,2011-12-14 12:18:48.975000,24.975,3,DW,,,,,,,1.0,,,,,,,,,,talking,5
247,2011-12-14 12:18:36.500000,2011-12-14 12:19:01.475000,24.975,3,DW,,,,,,,1.0,,,,,,,,,,talking,5
248,2011-12-14 12:18:49,2011-12-14 12:19:13.975000,24.975,3,DW,,,,,,,1.0,,,,,,,,,,talking,5
249,2011-12-14 12:19:01.500000,2011-12-14 12:19:26.475000,24.975,3,DW,,,,,,,1.0,,,,,,,,,,talking,5
250,2011-12-14 12:19:14,2011-12-14 12:19:38.975000,24.975,3,DW,,,,,,,1.0,,,,,,,,,,talking,5
251,2011-12-14 12:19:26.500000,2011-12-14 12:19:51.475000,24.975,3,DW,,,,,,,1.0,,,,,,,,,,talking,5
252,2011-12-14 12:19:39,2011-12-14 12:20:03.975000,24.975,3,DW,,,,,,,1.0,,,,,,,,,,talking,5
253,2011-12-14 12:19:51.500000,2011-12-14 12:20:16.475000,24.975,3,DW,,,,,,,1.0,,,,,,,,,,rest,-1
254,2011-12-14 12:20:04,2011-12-14 12:20:28.975000,24.975,3,DW,,,,,,,1.0,,,,,,,,,,rest,-1
255,2011-12-14 12:20:16.500000,2011-12-14 12:20:41.475000,24.975,3,DW,,,,,,,1.0,,,,,,,,,,talking,5
256,2011-12-14 12:20:29,2011-12-14 12:20:53.975000,24.975,3,DW,,,,,,,1.0,,,,,,,,,,talking,5
257,2011-12-14 12:20:41.500000,2011-12-14 12:21:06.475000,24.975,3,DW,,,,,,,1.0,,,,,,,,,,talking,5
258,2011-12-14 12:20:54,2011-12-14 12:21:18.975000,24.975,3,DW,,,,,,,1.0,,,,,,,,,,talking,5
259,2011-12-14 12:21:06.500000,2011-12-14 12:21:31.475000,24.975,3,DW,,,,,,,1.0,,,,,0.0990990990990991,,,,0.0990990990990991,talking,5
260,2011-12-14 12:21:19,2011-12-14 12:21:43.975000,24.975,3,DW,,,,,,,1.0,,,,,0.5995995995995995,,,,0.5995995995995995,talking,5
261,2011-12-14 12:21:31.500000,2011-12-14 12:21:56.475000,24.975,3,DW,,,,,,,0.7007007007007007,,0.29929929929929927,,,1.0,,,,1.0,drinking,8
262,2011-12-14 12:21:44,2011-12-14 12:22:08.975000,24.975,3,DW,,,,,,,0.20020020020020018,,0.4404404404404404,,,1.0,,,,0.6406406406406406,drinking,8
263,2011-12-14 12:21:56.500000,2011-12-14 12:22:21.475000,24.975,3,DW,,,,,,,,,0.14014014014014015,,,1.0,,,,0.14014014014014015,rest,-1
264,2011-12-14 12:22:09,2011-12-14 12:22:33.975000,24.975,3,DW,,,,,,,,,,,,1.0,,,,,others,0
265,2011-12-14 12:22:21.500000,2011-12-14 12:22:46.475000,24.975,3,DW,,,,,,,,,,,,1.0,,,,,others,0
266,2011-12-14 12:22:34,2011-12-14 12:22:58.975000,24.975,3,DW,,,,,,,,,,,,1.0,,,,,others,0
267,2011-12-14 12:22:46.500000,2011-12-14 12:23:11.475000,24.975,3,DW,,,,,,,,0.3393393393393393,,,,1.0,,,,0.3393393393393393,others,0
268,2011-12-14 12:22:59,2011-12-14 12:23:23.975000,24.975,3,DW,,,,,,,,0.36036036036036034,,,,1.0,,0.3593593593593593,,0.7197197197197197,phone,3
269,2011-12-14 12:23:11.500000,2011-12-14 12:23:36.475000,24.975,3,DW,,,,,,,,0.02002002002002002,,,,1.0,,0.8598598598598599,,0.8798798798798799,phone,3
270,2011-12-14 12:23:24,2011-12-14 12:23:48.975000,24.975,3,DW,,,,,,,,,,,,1.0,,1.0,,1.0,phone,3
271,2011-12-14 12:23:36.500000,2011-12-14 12:24:01.475000,24.975,3,DW,,,,,,,,,,,,1.0,,1.0,,1.0,phone,3
272,2011-12-14 12:23:49,2011-12-14 12:24:13.975000,24.975,3,DW,,,,,,,,,,,,1.0,,1.0,,1.0,phone,3
273,2011-12-14 12:24:01.500000,2011-12-14 12:24:26.475000,24.975,3,DW,,,,,,,,,,,,1.0,,1.0,,1.0,phone,3
274,2011-12-14 12:24:14,2011-12-14 12:24:38.975000,24.975,3,DW,,,,,,,,,,,,1.0,,1.0,,1.0,phone,3
275,2011-12-14 12:24:26.500000,2011-12-14 12:24:51.475000,24.975,3,DW,,,,,,,,,,,,1.0,,1.0,,1.0,phone,3
276,2011-12-14 12:24:39,2011-12-14 12:25:03.975000,24.975,3,DW,,,,,,,,,,,,1.0,,1.0,,1.0,phone,3
277,2011-12-14 12:24:51.500000,2011-12-14 12:25:16.475000,24.975,3,DW,,,,,,,,,,,,1.0,,1.0,,1.0,phone,3
278,2011-12-14 12:25:04,2011-12-14 12:25:28.975000,24.975,3,DW,,,,,,,,,,,,1.0,,1.0,,1.0,phone,3
279,2011-12-14 12:25:16.500000,2011-12-14 12:25:41.475000,24.975,3,DW,,,,,,,,,,,,1.0,,1.0,,1.0,phone,3
280,2011-12-14 12:25:29,2011-12-14 12:25:53.975000,24.975,3,DW,,,,,,,,,,,,1.0,,1.0,,1.0,rest,-1
281,2011-12-14 12:25:41.500000,2011-12-14 12:26:06.475000,24.975,3,DW,,,,,,,,,,,,1.0,,1.0,,1.0,rest,-1
282,2011-12-14 12:25:54,2011-12-14 12:26:18.975000,24.975,3,DW,,,,,,,,,,,,1.0,,1.0,,1.0,phone,3
283,2011-12-14 12:26:06.500000,2011-12-14 12:26:31.475000,24.975,3,DW,,,,,,,,,,,,1.0,,1.0,,1.0,phone,3
284,2011-12-14 12:26:19,2011-12-14 12:26:43.975000,24.975,3,DW,,,,,,,,,,,,1.0,,1.0,,1.0,phone,3
285,2011-12-14 12:26:31.500000,2011-12-14 12:26:56.475000,24.975,3,DW,,,,,,,,,,,,1.0,,1.0,,1.0,phone,3
286,2011-12-14 12:26:44,2011-12-14 12:27:08.975000,24.975,3,DW,,,,,,,,,,,,1.0,,1.0,,1.0,phone,3
287,2011-12-14 12:26:56.500000,2011-12-14 12:27:21.475000,24.975,3,DW,,,,,,,,,,,,1.0,,0.6606606606606606,,0.6606606606606606,phone,3
288,2011-12-14 12:27:09,2011-12-14 12:27:33.975000,24.975,3,DW,,,,,,,,,,,,1.0,,0.16016016016016016,,0.16016016016016016,others,0
289,2011-12-14 12:27:21.500000,2011-12-14 12:27:46.475000,24.975,3,DW,,,,,,,,,,,,1.0,,,,,others,0
290,2011-12-14 12:27:34,2011-12-14 12:27:58.975000,24.975,3,DW,,,,,,,0.39939939939939934,,,,,1.0,,,,0.39939939939939934,talking,5
291,2011-12-14 12:27:46.500000,2011-12-14 12:28:11.475000,24.975,3,DW,,,,,,,0.8998998998998999,,,,,1.0,,,,0.8998998998998999,talking,5
292,2011-12-14 12:27:59,2011-12-14 12:28:23.975000,24.975,3,DW,,,,,,,1.0,,,,,1.0,,,,1.0,rest,-1
293,2011-12-14 12:28:11.500000,2011-12-14 12:28:36.475000,24.975,3,DW,,,,,,,1.0,,,,,1.0,,,,1.0,talking,5
294,2011-12-14 12:28:24,2011-12-14 12:28:48.975000,24.975,3,DW,,,,,,,1.0,,,,,1.0,,,,1.0,talking,5
295,2011-12-14 12:28:36.500000,2011-12-14 12:29:01.475000,24.975,3,DW,,,,,,,1.0,,,,,1.0,,,,1.0,talking,5
296,2011-12-14 12:28:49,2011-12-14 12:29:13.975000,24.975,3,DW,,,,,,,1.0,,,,,1.0,,,,1.0,rest,-1
297,2011-12-14 12:29:01.500000,2011-12-14 12:29:26.475000,24.975,3,DW,,,,,,,1.0,,,,,0.9009009009009008,,,,0.9009009009009008,rest,-1
298,2011-12-14 12:29:14,2011-12-14 12:29:38.975000,24.975,3,DW,,,,,,,1.0,,,,,0.40040040040040037,,,,0.40040040040040037,talking,5
299,2011-12-14 12:29:26.500000,2011-12-14 12:29:51.475000,24.975,3,DW,,,,,,,1.0,,,,,,,,,,talking,5
300,2011-12-14 12:29:39,2011-12-14 12:30:03.975000,24.975,3,DW,,,,,,,0.7607607607607607,0.2392392392392392,,,,,,,,,talking,5
301,2011-12-14 12:29:51.500000,2011-12-14 12:30:16.475000,24.975,3,DW,,,,,,,0.2602602602602602,0.7397397397397397,,,,,,,,,others,0
302,2011-12-14 12:30:04,2011-12-14 12:30:28.975000,24.975,3,DW,,,,,,,,1.0,,,,,,,,,others,0
303,2011-12-14 12:30:16.500000,2011-12-14 12:30:41.475000,24.975,3,DW,,,,,,,,1.0,,,,,,,,,others,0
304,2011-12-14 12:30:29,2011-12-14 12:30:53.975000,24.975,3,DW,,,,,,,,1.0,,,,,,,,,others,0
305,2011-12-14 12:30:41.500000,2011-12-14 12:31:06.475000,24.975,3,DW,,,,,,,,1.0,,,,,,,,,others,0
306,2011-12-14 12:30:54,2011-12-14 12:31:18.975000,24.975,3,DW,,,,,,,,1.0,,,,,,,,,others,0
307,2011-12-14 12:31:06.500000,2011-12-14 12:31:31.475000,24.975,3,DW,,,,,,,,1.0,,,,,,,,,others,0
308,2011-12-14 12:31:19,2011-12-14 12:31:43.975000,24.975,3,DW,,,,,,,,1.0,,,,,,,,,others,0
309,2011-12-14 12:31:31.500000,2011-12-14 12:31:56.475000,24.975,3,DW,,,,,,,,1.0,,,,,,,,,others,0
310,2011-12-14 12:31:44,2011-12-14 12:32:08.975000,24.975,3,DW,,,,,,,,1.0,,,,,,,,,others,0
311,2011-12-14 12:31:56.500000,2011-12-14 12:32:21.475000,24.975,3,DW,,,,,,,,1.0,,,,,,,,,others,0
312,2011-12-14 12:32:09,2011-12-14 12:32:33.975000,24.975,3,DW,,,,,,,,1.0,,,,,,,,,others,0
313,2011-12-14 12:32:21.500000,2011-12-14 12:32:46.475000,24.975,3,DW,,,,,,,,1.0,,,,0.4194194194194194,,,,0.4194194194194194,others,0
314,2011-12-14 12:32:34,2011-12-14 12:32:58.975000,24.975,3,DW,,,,,,,,1.0,,,,0.91991991991992,,,,0.91991991991992,others,0
315,2011-12-14 12:32:46.500000,2011-12-14 12:33:11.475000,24.975,3,DW,,,,,,,,1.0,,,,1.0,,,,1.0,others,0
316,2011-12-14 12:32:59,2011-12-14 12:33:23.975000,24.975,3,DW,,,,,,,,1.0,,,,1.0,,,,1.0,others,0
317,2011-12-14 12:33:11.500000,2011-12-14 12:33:36.475000,24.975,3,DW,,,,,,,,1.0,,,,1.0,,,,1.0,others,0
318,2011-12-14 12:33:24,2011-12-14 12:33:48.975000,24.975,3,DW,,,,,,,,0.6006006006006006,,,0.39939939939939934,1.0,,,,1.0,eating,2
319,2011-12-14 12:33:36.500000,2011-12-14 12:34:01.475000,24.975,3,DW,,,,,,,,0.10010010010010009,,,0.8998998998998999,1.0,,,,1.0,eating,2
320,2011-12-14 12:33:49,2011-12-14 12:34:13.975000,24.975,3,DW,,,,,,,,,,,1.0,1.0,,,,1.0,eating,2
321,2011-12-14 12:34:01.500000,2011-12-14 12:34:26.475000,24.975,3,DW,,,,,,,,,,,1.0,1.0,,,,1.0,eating,2
322,2011-12-14 12:34:14,2011-12-14 12:34:38.975000,24.975,3,DW,,,,,,,,,,,0.7207207207207207,1.0,0.27927927927927926,,,1.0,eating,2
323,2011-12-14 12:34:26.500000,2011-12-14 12:34:51.475000,24.975,3,DW,,,,,,,,,,,0.2202202202202202,1.0,0.7797797797797797,,,1.0,computer,4
324,2011-12-14 12:34:39,2011-12-14 12:35:03.975000,24.975,3,DW,,,,,,,,,,,,1.0,1.0,,,1.0,computer,4
325,2011-12-14 12:34:51.500000,2011-12-14 12:35:16.475000,24.975,3,DW,,,,,,,,,,,,1.0,1.0,,,1.0,computer,4
326,2011-12-14 12:35:04,2011-12-14 12:35:28.975000,24.975,3,DW,,,,,,,,,,,,1.0,1.0,,,1.0,computer,4
327,2011-12-14 12:35:16.500000,2011-12-14 12:35:41.475000,24.975,3,DW,,,,,,,,,,,,1.0,1.0,,,1.0,rest,-1
328,2011-12-14 12:35:29,2011-12-14 12:35:53.975000,24.975,3,DW,,,,,,,,,,,,1.0,1.0,,,1.0,rest,-1
329,2011-12-14 12:35:41.500000,2011-12-14 12:36:06.475000,24.975,3,DW,,,,,,,,,,,,1.0,1.0,,,1.0,rest,-1
330,2011-12-14 12:35:54,2011-12-14 12:36:18.975000,24.975,3,DW,,,,,,,,,0.039039039039039033,,,1.0,0.960960960960961,,,1.0,rest,-1
331,2011-12-14 12:36:06.500000,2011-12-14 12:36:31.475000,24.975,3,DW,,,,,,,,,0.16016016016016016,,,1.0,0.8398398398398399,,,1.0,computer,4
332,2011-12-14 12:36:19,2011-12-14 12:36:43.975000,24.975,3,DW,,,,,,,,,0.12012012012012012,,,1.0,0.8798798798798799,,,1.0,computer,4
333,2011-12-14 12:36:31.500000,2011-12-14 12:36:56.475000,24.975,3,DW,,,,,,,,,,,,1.0,1.0,,,1.0,computer,4
334,2011-12-14 12:36:44,2011-12-14 12:37:08.975000,24.975,3,DW,,,,,,,,,,,,1.0,1.0,,,1.0,computer,4
335,2011-12-14 12:36:56.500000,2011-12-14 12:37:21.475000,24.975,3,DW,,,,,,,,,,,,1.0,1.0,,,1.0,computer,4
336,2011-12-14 12:37:09,2011-12-14 12:37:33.975000,24.975,3,DW,,,,,,,,,,,,1.0,0.6806806806806807,,,0.6806806806806807,computer,4
337,2011-12-14 12:37:21.500000,2011-12-14 12:37:46.475000,24.975,3,DW,,,,,,,,,,,,1.0,0.18018018018018017,,,0.18018018018018017,others,0
338,2011-12-14 12:37:34,2011-12-14 12:37:58.975000,24.975,3,DW,,,,,,,,,,,,1.0,,,,,others,0
339,2011-12-14 12:37:46.500000,2011-12-14 12:38:11.475000,24.975,3,DW,,,,,,,,,,,,1.0,,,,,others,0
340,2011-12-14 12:37:59,2011-12-14 12:38:23.975000,24.975,3,DW,,,,,,,,,,0.15915915915915915,,1.0,,,,0.15915915915915915,others,0
341,2011-12-14 12:38:11.500000,2011-12-14 12:38:36.475000,24.975,3,DW,,,,,,,,,,0.40040040040040037,,1.0,,,,0.40040040040040037,reading,6
342,2011-12-14 12:38:24,2011-12-14 12:38:48.975000,24.975,3,DW,,,,,,,,,,0.24024024024024024,,1.0,,,,0.24024024024024024,others,0
343,2011-12-14 12:38:36.500000,2011-12-14 12:39:01.475000,24.975,3,DW,,,,,,,,,,,,1.0,,,0.4194194194194194,0.4194194194194194,walking,1
344,2011-12-14 12:38:49,2011-12-14 12:39:13.975000,24.975,3,DW,,,,,,,,,,,,1.0,,,0.91991991991992,0.91991991991992,walking,1
345,2011-12-14 12:39:01.500000,2011-12-14 12:39:26.475000,24.975,3,DW,,,,,,,,,,,,1.0,,,0.7407407407407407,0.7407407407407407,walking,1
346,2011-12-14 12:39:14,2011-12-14 12:39:38.975000,24.975,3,DW,,,,,,,,,,,,1.0,,,0.24024024024024024,0.24024024024024024,others,0
347,2011-12-14 12:39:26.500000,2011-12-14 12:39:51.475000,24.975,3,DW,,,,,,,,,,,,1.0,,,,,others,0
348,2011-12-14 12:39:39,2011-12-14 12:40:03.975000,24.975,3,DW,,,,,,,,,,,,1.0,,,,,others,0
349,2011-12-14 12:39:51.500000,2011-12-14 12:40:16.475000,24.975,3,DW,,,,,,,,,,,,1.0,,,,,others,0
350,2011-12-14 12:40:04,2011-12-14 12:40:28.975000,24.975,3,DW,,,,,,,,,,,,1.0,,,,,rest,-1
351,2011-12-14 12:40:16.500000,2011-12-14 12:40:41.475000,24.975,3,DW,,,,,,,,,,,,1.0,,,,,rest,-1
352,2011-12-14 12:40:29,2011-12-14 12:40:53.975000,24.975,3,DW,,,,,,,,,,,,1.0,,,,,others,0
353,2011-12-14 12:40:41.500000,2011-12-14 12:41:06.475000,24.975,3,DW,,,,,,,,,,,,1.0,,,,,others,0
354,2011-12-14 12:40:54,2011-12-14 12:41:18.975000,24.975,3,DW,,,,,,,,,,,,1.0,,,,,others,0
355,2011-12-14 12:41:06.500000,2011-12-14 12:41:31.475000,24.975,3,DW,,,,,,,,,,,,1.0,,,,,others,0
356,2011-12-14 12:41:19,2011-12-14 12:41:43.975000,24.975,3,DW,,,,,,,,,,,,1.0,,,,,rest,-1
357,2011-12-14 12:41:31.500000,2011-12-14 12:41:56.475000,24.975,3,DW,,,,,,,,,,,,1.0,,,0.0990990990990991,0.0990990990990991,others,0
358,2011-12-14 12:41:44,2011-12-14 12:42:08.975000,24.975,3,DW,,,,,,,,,,,,1.0,,,0.5205205205205204,0.5205205205205204,walking,1
359,2011-12-14 12:41:56.500000,2011-12-14 12:42:21.475000,24.975,3,DW,,,,,,,,,,,,1.0,,,0.4204204204204204,0.4204204204204204,walking,1
360,2011-12-14 12:42:09,2011-12-14 12:42:33.975000,24.975,3,DW,,,,,,,,,,,,1.0,,,0.3193193193193193,0.3193193193193193,walking,1
361,2011-12-14 12:42:21.500000,2011-12-14 12:42:46.475000,24.975,3,DW,,,,,,,,,,,,1.0,,,0.8198198198198199,0.8198198198198199,walking,1
362,2011-12-14 12:42:34,2011-12-14 12:42:58.975000,24.975,3,DW,,,,,,,,0.19919919919919918,,,,1.0,,,0.8008008008008007,1.0,walking,1
363,2011-12-14 12:42:46.500000,2011-12-14 12:43:11.475000,24.975,3,DW,,,,,,,,0.6996996996996997,,,,1.0,,,0.3003003003003003,1.0,walking,1
364,2011-12-14 12:42:59,2011-12-14 12:43:23.975000,24.975,3,DW,,,,,,,,1.0,,,,1.0,,,,1.0,others,0
365,2011-12-14 12:43:11.500000,2011-12-14 12:43:36.475000,24.975,3,DW,,,,,,0.05905905905905906,,0.7407407407407407,,,,1.0,,,,0.7997997997997998,others,0
366,2011-12-14 12:43:24,2011-12-14 12:43:48.975000,24.975,3,DW,,,,,,0.5595595595595595,,0.24024024024024024,,,,1.0,,,,0.7997997997997998,in car,7
367,2011-12-14 12:43:36.500000,2011-12-14 12:44:01.475000,24.975,3,DW,,,,,,1.0,,,,,,1.0,,,,1.0,in car,7
368,2011-12-14 12:43:49,2011-12-14 12:44:13.975000,24.975,3,DW,,,,,,1.0,,,,,,1.0,,,,1.0,in car,7
369,2011-12-14 12:44:01.500000,2011-12-14 12:44:26.475000,24.975,3,DW,,,,,,0.91991991991992,,,0.08008008008008008,,,1.0,,,,1.0,in car,7
370,2011-12-14 12:44:14,2011-12-14 12:44:38.975000,24.975,3,DW,,,,,,0.91991991991992,,,0.08008008008008008,,,1.0,,,,1.0,in car,7
371,2011-12-14 12:44:26.500000,2011-12-14 12:44:51.475000,24.975,3,DW,,,,,,1.0,,,,,,1.0,,,,1.0,in car,7
372,2011-12-14 12:44:39,2011-12-14 12:45:03.975000,24.975,3,DW,,,,,,1.0,,,,,,1.0,,,,1.0,in car,7
373,2011-12-14 12:44:51.500000,2011-12-14 12:45:16.475000,24.975,3,DW,,,,,,1.0,,,,,,1.0,,,,1.0,in car,7
374,2011-12-14 12:45:04,2011-12-14 12:45:28.975000,24.975,3,DW,,,,,,1.0,,,,,,1.0,,,,1.0,rest,-1
375,2011-12-14 12:45:16.500000,2011-12-14 12:45:41.475000,24.975,3,DW,,,,,,1.0,,,,,,1.0,,,,1.0,rest,-1
376,2011-12-14 12:45:29,2011-12-14 12:45:53.975000,24.975,3,DW,,,,,,1.0,,,,,,1.0,,,,1.0,rest,-1
377,2011-12-14 12:45:41.500000,2011-12-14 12:46:06.475000,24.975,3,DW,,,,,,1.0,,,,,,1.0,,,,1.0,in car,7
378,2011-12-14 12:45:54,2011-12-14 12:46:18.975000,24.975,3,DW,,,,,,0.9209209209209208,,,,,,1.0,,,,0.9209209209209208,in car,7
379,2011-12-14 12:46:06.500000,2011-12-14 12:46:31.475000,24.975,3,DW,,,,,,0.4204204204204204,,,,,,0.6206206206206206,,,0.17917917917917917,0.4204204204204204,in car,7
380,2011-12-14 12:46:19,2011-12-14 12:46:43.975000,24.975,3,DW,,,,,,,,,,,,0.12012012012012012,,,0.6796796796796797,,walking,1
381,2011-12-14 12:46:31.500000,2011-12-14 12:46:56.475000,24.975,3,DW,,,,,,,,,,,,,,,1.0,,walking,1
382,2011-12-14 12:46:44,2011-12-14 12:47:08.975000,24.975,3,DW,,,,,,,,,,,,,,,1.0,,walking,1
383,2011-12-14 12:46:56.500000,2011-12-14 12:47:21.475000,24.975,3,DW,,,,,,,,,,,,,,,1.0,,walking,1
384,2011-12-14 12:47:09,2011-12-14 12:47:31,22.0,3,DW,,,,,,,,,,,,,,,1.0,,rest,-1
385,2011-12-14 12:47:21.500000,2011-12-14 12:47:31,9.5,3,DW,,,,,,,,,,,,,,,1.0,,rest,-1
