,segment,STARTTIME,ENDTIME,seg duration,session,sensor,inside puff/puff duration,inside puff/segment duration,prototypical?,puff index,puff side,car percentage,talk percentage,unknown percentage,drinking percentage,reading percentage,eating percentage,smoking percentage,computer percentage,phone percentage,walking percentage,superposition percentage,name,target
0,0,2012-11-06 11:27:25,2012-11-06 11:27:59.975000,34.975,7,BFW,,,,,,,,,,,,,,,,,others,0
1,1,2012-11-06 11:27:42.500000,2012-11-06 11:28:17.475000,34.975,7,BFW,,,,,,,,,,,,,,,,,others,0
2,2,2012-11-06 11:28:00,2012-11-06 11:28:34.975000,34.975,7,BFW,,,,,,,,,,,,,,,,,others,0
3,3,2012-11-06 11:28:17.500000,2012-11-06 11:28:52.475000,34.975,7,BFW,,,,,,,,,,,,,,,,,others,0
4,4,2012-11-06 11:28:35,2012-11-06 11:29:09.975000,34.975,7,BFW,,,,,,,,,,,,,,,,,others,0
5,5,2012-11-06 11:28:52.500000,2012-11-06 11:29:27.475000,34.975,7,BFW,,,,,,,,,,,,,,,,,others,0
6,6,2012-11-06 11:29:10,2012-11-06 11:29:44.975000,34.975,7,BFW,,,,,,,,,,,,,,,,,others,0
7,7,2012-11-06 11:29:27.500000,2012-11-06 11:30:02.475000,34.975,7,BFW,,,,,,,,0.07076483202287348,,,,,,,,,others,0
8,8,2012-11-06 11:29:45,2012-11-06 11:30:19.975000,34.975,7,BFW,,,,,,,,0.08577555396711936,,,,,,,,,others,0
9,9,2012-11-06 11:30:02.500000,2012-11-06 11:30:37.475000,34.975,7,BFW,,,,,,,,0.014295925661186561,,,,,,,,,others,0
10,10,2012-11-06 11:30:20,2012-11-06 11:30:54.975000,34.975,7,BFW,,,,,,,,,,,,,,,,,others,0
11,11,2012-11-06 11:30:37.500000,2012-11-06 11:31:12.475000,34.975,7,BFW,,,,,,,0.0993566833452466,,,,,,,,,,others,0
12,12,2012-11-06 11:30:55,2012-11-06 11:31:29.975000,34.975,7,BFW,,,,,,,0.5997140814867763,,,,,,,,,,talking,5
13,13,2012-11-06 11:31:12.500000,2012-11-06 11:31:47.475000,34.975,7,BFW,,,,,,,1.0,,,,,,,,,,talking,5
14,14,2012-11-06 11:31:30,2012-11-06 11:32:04.975000,34.975,7,BFW,,,,,,,1.0,,,,,,,,,,talking,5
15,15,2012-11-06 11:31:47.500000,2012-11-06 11:32:22.475000,34.975,7,BFW,,,,,,,1.0,,,,,,,,,,talking,5
16,16,2012-11-06 11:32:05,2012-11-06 11:32:39.975000,34.975,7,BFW,,,,,,,1.0,,,,,,,,,,talking,5
17,17,2012-11-06 11:32:22.500000,2012-11-06 11:32:57.475000,34.975,7,BFW,,,,,,,1.0,,,,,,,,,,talking,5
18,18,2012-11-06 11:32:40,2012-11-06 11:33:14.975000,34.975,7,BFW,,,,,,,1.0,,,,,0.11365260900643316,,,,0.11365260900643316,talking,5
19,19,2012-11-06 11:32:57.500000,2012-11-06 11:33:32.475000,34.975,7,BFW,,,,,,,0.7290922087205146,,,,,0.6140100071479628,,,,0.34310221586847744,talking,5
20,20,2012-11-06 11:33:15,2012-11-06 11:33:49.975000,34.975,7,BFW,1.0,0.15725518227305219,1.0,0.0,left-puff,,0.22873481057898498,,,,,1.0,,,,0.22873481057898498,puff,9
21,21,2012-11-06 11:33:32.500000,2012-11-06 11:34:07.475000,34.975,7,BFW,1.0,0.15725518227305219,1.0,0.0,left-puff,,,,,,,1.0,,,,,puff,9
22,22,2012-11-06 11:33:50,2012-11-06 11:34:24.975000,34.975,7,BFW,1.8833333333333333,0.2423159399571122,0.0,1.0,right-puff,,,,,,,1.0,,,,,puff,9
23,23,2012-11-06 11:34:07.500000,2012-11-06 11:34:42.475000,34.975,7,BFW,1.6666666666666667,0.21443888491779842,0.0,1.0,right-puff,,,,,,,1.0,,,,,puff,9
24,24,2012-11-06 11:34:25,2012-11-06 11:34:59.975000,34.975,7,BFW,1.0,0.17155110793423872,0.0,3.0,right-puff,,,,,,,1.0,,,,,puff,9
25,25,2012-11-06 11:34:42.500000,2012-11-06 11:35:17.475000,34.975,7,BFW,1.0,0.17155110793423872,0.0,3.0,right-puff,,,0.14295925661186562,,,,1.0,,,,0.14295925661186562,puff,9
26,26,2012-11-06 11:35:00,2012-11-06 11:35:34.975000,34.975,7,BFW,,,,,,,,0.14295925661186562,,,,1.0,,,,0.14295925661186562,others,0
27,27,2012-11-06 11:35:17.500000,2012-11-06 11:35:52.475000,34.975,7,BFW,1.0,0.14295925661186562,1.0,4.0,right-puff,,,,,,,1.0,,,,,puff,9
28,28,2012-11-06 11:35:35,2012-11-06 11:36:09.975000,34.975,7,BFW,2.7,0.38598999285203717,1.0,4.0,right-puff,,,,,,,1.0,,,,,puff,9
29,29,2012-11-06 11:35:52.500000,2012-11-06 11:36:27.475000,34.975,7,BFW,1.4705882352941178,0.35739814152966404,0.0,5.0,right-puff,,,,,,,1.0,,,,,puff,9
30,30,2012-11-06 11:36:10,2012-11-06 11:36:44.975000,34.975,7,BFW,1.6875,0.19299499642601858,1.0,6.0,right-puff,,0.11436740528949249,,,,,1.0,,,,0.11436740528949249,puff,9
31,31,2012-11-06 11:36:27.500000,2012-11-06 11:37:02.475000,34.975,7,BFW,3.536363636363636,0.2780557541100786,0.0,7.0,right-puff,,0.11436740528949249,,,,,1.0,,,,0.11436740528949249,puff,9
32,32,2012-11-06 11:36:45,2012-11-06 11:37:19.975000,34.975,7,BFW,2.375,0.27162258756254465,0.0,8.0,right-puff,,,,,,,1.0,,,,,puff,9
33,33,2012-11-06 11:37:02.500000,2012-11-06 11:37:37.475000,34.975,7,BFW,1.1818181818181819,0.1858470335954253,1.0,9.0,right-puff,,,,,,,1.0,,,,,puff,9
34,34,2012-11-06 11:37:20,2012-11-06 11:37:54.975000,34.975,7,BFW,1.0,0.11436740528949249,0.0,10.0,right-puff,,,,,,,1.0,,,,,puff,9
35,35,2012-11-06 11:37:37.500000,2012-11-06 11:38:12.475000,34.975,7,BFW,,,,,,,,,,,,1.0,,,,,others,0
36,36,2012-11-06 11:37:55,2012-11-06 11:38:29.975000,34.975,7,BFW,,,,,,,,0.1708363116511794,,,,1.0,,,,0.1708363116511794,others,0
37,37,2012-11-06 11:38:12.500000,2012-11-06 11:38:47.475000,34.975,7,BFW,1.0,0.14295925661186562,0.0,11.0,left-puff,,,0.17155110793423872,,,,1.0,,,,0.17155110793423872,puff,9
38,38,2012-11-06 11:38:30,2012-11-06 11:39:04.975000,34.975,7,BFW,1.0,0.14295925661186562,0.0,11.0,left-puff,,,,,,,1.0,,,,,puff,9
39,39,2012-11-06 11:38:47.500000,2012-11-06 11:39:22.475000,34.975,7,BFW,1.0,0.10007147962830593,0.0,12.0,right-puff,,,,,,,1.0,,,,,puff,9
40,40,2012-11-06 11:39:05,2012-11-06 11:39:39.975000,34.975,7,BFW,,,,,,,,,,,,1.0,,,,,others,0
41,41,2012-11-06 11:39:22.500000,2012-11-06 11:39:57.475000,34.975,7,BFW,1.0,0.25017869907076484,0.0,13.0,right-puff,,,,,,,1.0,,,,,puff,9
42,42,2012-11-06 11:39:40,2012-11-06 11:40:14.975000,34.975,7,BFW,1.0,0.25017869907076484,0.0,13.0,right-puff,,,,,,,1.0,,,,,puff,9
43,43,2012-11-06 11:39:57.500000,2012-11-06 11:40:32.475000,34.975,7,BFW,0.9964285714285713,0.1994281629735525,0.0,14.0,right-puff,,,,,,,1.0,,,,,puff,9
44,44,2012-11-06 11:40:15,2012-11-06 11:40:49.975000,34.975,7,BFW,1.0,0.20014295925661185,0.0,14.0,right-puff,,,,,,,1.0,,,,,puff,9
45,45,2012-11-06 11:40:32.500000,2012-11-06 11:41:07.475000,34.975,7,BFW,,,,,,,,,,,,1.0,,,,,others,0
46,46,2012-11-06 11:40:50,2012-11-06 11:41:24.975000,34.975,7,BFW,,,,,,,,,,,,1.0,,,,,others,0
47,47,2012-11-06 11:41:07.500000,2012-11-06 11:41:42.475000,34.975,7,BFW,0.9045454545454544,0.14224446032880628,0.0,15.0,right-puff,,,,,,,1.0,,,,,puff,9
48,48,2012-11-06 11:41:25,2012-11-06 11:41:59.975000,34.975,7,BFW,1.0,0.15725518227305219,0.0,15.0,right-puff,,,,,,,1.0,,,,,puff,9
49,49,2012-11-06 11:41:42.500000,2012-11-06 11:42:17.475000,34.975,7,BFW,0.09090909090909091,0.014295925661186561,0.0,15.0,right-puff,,,,,,,1.0,,,,,others,0
50,50,2012-11-06 11:42:00,2012-11-06 11:42:34.975000,34.975,7,BFW,1.0,0.2573266619013581,0.0,16.0,right-puff,,0.11365260900643316,,,,,1.0,,,,0.11365260900643316,puff,9
51,51,2012-11-06 11:42:17.500000,2012-11-06 11:42:52.475000,34.975,7,BFW,1.2777777777777777,0.3288062902072909,0.0,16.0,right-puff,,0.6140100071479628,,,,,1.0,,,,0.6140100071479628,puff,9
52,52,2012-11-06 11:42:35,2012-11-06 11:43:09.975000,34.975,7,BFW,3.2,0.22873481057898498,0.0,17.0,right-puff,,1.0,,,,,1.0,,,,1.0,puff,9
53,53,2012-11-06 11:42:52.500000,2012-11-06 11:43:27.475000,34.975,7,BFW,1.0,0.15725518227305219,0.0,18.0,right-puff,,1.0,,,,,1.0,,,,1.0,puff,9
54,54,2012-11-06 11:43:10,2012-11-06 11:43:44.975000,34.975,7,BFW,1.0,0.12866333095067906,0.0,19.0,right-puff,,1.0,,,,,1.0,,,,1.0,puff,9
55,55,2012-11-06 11:43:27.500000,2012-11-06 11:44:02.475000,34.975,7,BFW,2.0,0.2573266619013581,0.0,19.0,right-puff,,1.0,,,,,1.0,,,,1.0,puff,9
56,56,2012-11-06 11:43:45,2012-11-06 11:44:19.975000,34.975,7,BFW,1.0,0.12866333095067906,0.0,20.0,right-puff,,1.0,,,,,1.0,,,,1.0,puff,9
57,57,2012-11-06 11:44:02.500000,2012-11-06 11:44:37.475000,34.975,7,BFW,1.0,0.12866333095067906,1.0,21.0,left-puff,,1.0,,,,,1.0,,,,1.0,puff,9
58,58,2012-11-06 11:44:20,2012-11-06 11:44:54.975000,34.975,7,BFW,1.7222222222222223,0.2215868477483917,1.0,21.0,left-puff,,1.0,,,,,1.0,,,,1.0,puff,9
59,59,2012-11-06 11:44:37.500000,2012-11-06 11:45:12.475000,34.975,7,BFW,1.0,0.09292351679771264,0.0,22.0,left-puff,,1.0,,,,,1.0,,,,1.0,puff,9
60,60,2012-11-06 11:44:55,2012-11-06 11:45:29.975000,34.975,7,BFW,1.0,0.13581129378127232,1.0,23.0,right-puff,,0.6862044317369549,,,,,1.0,,,,0.6862044317369549,puff,9
61,61,2012-11-06 11:45:12.500000,2012-11-06 11:45:47.475000,34.975,7,BFW,1.0,0.13581129378127232,1.0,23.0,right-puff,,0.1858470335954253,,,,,1.0,,,,0.1858470335954253,puff,9
62,62,2012-11-06 11:45:30,2012-11-06 11:46:04.975000,34.975,7,BFW,2.1333333333333333,0.22873481057898498,0.0,24.0,right-puff,,,,,,,1.0,,,,,puff,9
63,63,2012-11-06 11:45:47.500000,2012-11-06 11:46:22.475000,34.975,7,BFW,2.1333333333333333,0.22873481057898498,0.0,24.0,right-puff,,,,,,,1.0,,,,,puff,9
64,64,2012-11-06 11:46:05,2012-11-06 11:46:39.975000,34.975,7,BFW,1.0,0.11436740528949249,1.0,26.0,right-puff,,,,,,,1.0,,,,,puff,9
65,65,2012-11-06 11:46:22.500000,2012-11-06 11:46:57.475000,34.975,7,BFW,1.0,0.11436740528949249,1.0,26.0,right-puff,,,,,,,1.0,,,,,puff,9
66,66,2012-11-06 11:46:40,2012-11-06 11:47:14.975000,34.975,7,BFW,1.0,0.11436740528949249,1.0,27.0,right-puff,,,,,,,1.0,,,,,puff,9
67,67,2012-11-06 11:46:57.500000,2012-11-06 11:47:32.475000,34.975,7,BFW,1.0,0.11436740528949249,1.0,27.0,right-puff,,,,,,,1.0,,,,,puff,9
68,68,2012-11-06 11:47:15,2012-11-06 11:47:49.975000,34.975,7,BFW,,,,,,,,,,,,0.7147962830593281,,,,,others,0
69,69,2012-11-06 11:47:32.500000,2012-11-06 11:48:07.475000,34.975,7,BFW,,,,,,,,,,,,0.21443888491779842,,,,,others,0
70,70,2012-11-06 11:47:50,2012-11-06 11:48:24.975000,34.975,7,BFW,,,,,,,,,,,,,,,,,others,0
71,71,2012-11-06 11:48:07.500000,2012-11-06 11:48:42.475000,34.975,7,BFW,,,,,,,,,,,,,,,,,others,0
72,72,2012-11-06 11:48:25,2012-11-06 11:48:59.975000,34.975,7,BFW,,,,,,,,0.22802001429592564,,,,,,,,,others,0
73,73,2012-11-06 11:48:42.500000,2012-11-06 11:49:17.475000,34.975,7,BFW,,,,,,,,0.7283774124374554,,,,,,,,,others,0
74,74,2012-11-06 11:49:00,2012-11-06 11:49:34.975000,34.975,7,BFW,,,,,,,,1.0,,,,,,,,,others,0
75,75,2012-11-06 11:49:17.500000,2012-11-06 11:49:52.475000,34.975,7,BFW,,,,,,,,1.0,,,,,,,,,others,0
76,76,2012-11-06 11:49:35,2012-11-06 11:50:09.975000,34.975,7,BFW,,,,,,,0.08506075768406005,0.9149392423159399,,,,,,,,,others,0
77,77,2012-11-06 11:49:52.500000,2012-11-06 11:50:27.475000,34.975,7,BFW,,,,,,,0.5854181558255898,0.4145818441744103,,,,,,,,,talking,5
78,78,2012-11-06 11:50:10,2012-11-06 11:50:44.975000,34.975,7,BFW,,,,,,,1.0,,,,,,,,,,talking,5
79,79,2012-11-06 11:50:27.500000,2012-11-06 11:51:02.475000,34.975,7,BFW,,,,,,,1.0,,,,,,,,,,talking,5
80,80,2012-11-06 11:50:45,2012-11-06 11:51:19.975000,34.975,7,BFW,,,,,,,1.0,,,,,,,,,,talking,5
81,81,2012-11-06 11:51:02.500000,2012-11-06 11:51:37.475000,34.975,7,BFW,,,,,,,1.0,,,,,,,,,,talking,5
82,82,2012-11-06 11:51:20,2012-11-06 11:51:54.975000,34.975,7,BFW,,,,,,,1.0,,,,,,,,,,talking,5
83,83,2012-11-06 11:51:37.500000,2012-11-06 11:52:12.475000,34.975,7,BFW,,,,,,,1.0,,,,,,,,,,talking,5
84,84,2012-11-06 11:51:55,2012-11-06 11:52:29.975000,34.975,7,BFW,,,,,,,1.0,,,,,,,,,,talking,5
85,85,2012-11-06 11:52:12.500000,2012-11-06 11:52:47.475000,34.975,7,BFW,,,,,,,1.0,,,,,,,,,,talking,5
86,86,2012-11-06 11:52:30,2012-11-06 11:53:04.975000,34.975,7,BFW,,,,,,,1.0,,,,,,,,,,talking,5
87,87,2012-11-06 11:52:47.500000,2012-11-06 11:53:22.475000,34.975,7,BFW,,,,,,,1.0,,,,,,,,,,talking,5
88,88,2012-11-06 11:53:05,2012-11-06 11:53:39.975000,34.975,7,BFW,,,,,,,1.0,,,,,,,,,,talking,5
89,89,2012-11-06 11:53:22.500000,2012-11-06 11:53:57.475000,34.975,7,BFW,,,,,,,1.0,,,,,,,,,,talking,5
90,90,2012-11-06 11:53:40,2012-11-06 11:54:14.975000,34.975,7,BFW,,,,,,,1.0,,,,,,,,,,talking,5
91,91,2012-11-06 11:53:57.500000,2012-11-06 11:54:32.475000,34.975,7,BFW,,,,,,,1.0,,,,,,,,,,talking,5
92,92,2012-11-06 11:54:15,2012-11-06 11:54:49.975000,34.975,7,BFW,,,,,,,1.0,,,,,,,,,,talking,5
93,93,2012-11-06 11:54:32.500000,2012-11-06 11:55:07.475000,34.975,7,BFW,,,,,,,1.0,,,,,,,,,,talking,5
94,94,2012-11-06 11:54:50,2012-11-06 11:55:24.975000,34.975,7,BFW,,,,,,,0.8863473909935669,,,,,,,0.11365260900643316,,,talking,5
95,95,2012-11-06 11:55:07.500000,2012-11-06 11:55:42.475000,34.975,7,BFW,,,,,,,0.38598999285203717,,,,,,,0.6140100071479628,,,talking,5
96,96,2012-11-06 11:55:25,2012-11-06 11:55:59.975000,34.975,7,BFW,,,,,,,,,,,,,,1.0,,,phone,3
97,97,2012-11-06 11:55:42.500000,2012-11-06 11:56:17.475000,34.975,7,BFW,,,,,,,0.0993566833452466,,,,,,,0.9006433166547534,,,phone,3
98,98,2012-11-06 11:56:00,2012-11-06 11:56:34.975000,34.975,7,BFW,,,,,,,0.5997140814867763,,,,,,,0.4002859185132237,,,talking,5
99,99,2012-11-06 11:56:17.500000,2012-11-06 11:56:52.475000,34.975,7,BFW,,,,,,,1.0,,,,,,,,,,talking,5
100,100,2012-11-06 11:56:35,2012-11-06 11:57:09.975000,34.975,7,BFW,,,,,,,0.5718370264474625,,,,,,,0.4281629735525375,,,talking,5
101,101,2012-11-06 11:56:52.500000,2012-11-06 11:57:27.475000,34.975,7,BFW,,,,,,,0.4853466761972838,,,,,,,0.5146533238027162,,,talking,5
102,102,2012-11-06 11:57:10,2012-11-06 11:57:44.975000,34.975,7,BFW,,,,,,,0.9142244460328807,,,,,,,0.08577555396711936,,,talking,5
103,103,2012-11-06 11:57:27.500000,2012-11-06 11:58:02.475000,34.975,7,BFW,,,,,,,1.0,,,,,,,,,,talking,5
104,104,2012-11-06 11:57:45,2012-11-06 11:58:19.975000,34.975,7,BFW,,,,,,,1.0,,,,,,,,,,talking,5
105,105,2012-11-06 11:58:02.500000,2012-11-06 11:58:37.475000,34.975,7,BFW,,,,,,,1.0,,,,,,,,,,talking,5
106,106,2012-11-06 11:58:20,2012-11-06 11:58:54.975000,34.975,7,BFW,,,,,,,1.0,,,,,,,,,,talking,5
107,107,2012-11-06 11:58:37.500000,2012-11-06 11:59:12.475000,34.975,7,BFW,,,,,,,1.0,,,,,,,,,,talking,5
108,108,2012-11-06 11:58:55,2012-11-06 11:59:29.975000,34.975,7,BFW,,,,,,,1.0,,,,,,,,,,talking,5
109,109,2012-11-06 11:59:12.500000,2012-11-06 11:59:47.475000,34.975,7,BFW,,,,,,,1.0,,,,,,,,,,talking,5
110,110,2012-11-06 11:59:30,2012-11-06 12:00:04.975000,34.975,7,BFW,,,,,,,1.0,,,,,,,,,,talking,5
111,111,2012-11-06 11:59:47.500000,2012-11-06 12:00:22.475000,34.975,7,BFW,,,,,,,1.0,,,,,,,,,,talking,5
112,112,2012-11-06 12:00:05,2012-11-06 12:00:39.975000,34.975,7,BFW,,,,,,,1.0,,,,,,,,,,talking,5
113,113,2012-11-06 12:00:22.500000,2012-11-06 12:00:57.475000,34.975,7,BFW,,,,,,,0.9864188706218727,,,,,,,,0.04217298070050036,,talking,5
114,114,2012-11-06 12:00:40,2012-11-06 12:01:14.975000,34.975,7,BFW,,,,,,,0.4860614724803431,,,,,,,,0.54253037884203,,talking,5
115,115,2012-11-06 12:00:57.500000,2012-11-06 12:01:32.475000,34.975,7,BFW,,,,,,,,,,,,,,,1.0,,walking,1
116,116,2012-11-06 12:01:15,2012-11-06 12:01:49.975000,34.975,7,BFW,,,,,,,,,,,,,,,0.6290207290922087,,walking,1
117,117,2012-11-06 12:01:32.500000,2012-11-06 12:02:07.475000,34.975,7,BFW,,,,,,,,,,,,,,,0.12866333095067906,,others,0
118,118,2012-11-06 12:01:50,2012-11-06 12:02:24.975000,34.975,7,BFW,,,,,,,,,,,,,,,,,others,0
119,119,2012-11-06 12:02:07.500000,2012-11-06 12:02:42.475000,34.975,7,BFW,,,,,,,,,,,,,,,,,others,0
120,120,2012-11-06 12:02:25,2012-11-06 12:02:59.975000,34.975,7,BFW,,,,,,,,,,,,,,,,,others,0
121,121,2012-11-06 12:02:42.500000,2012-11-06 12:03:17.475000,34.975,7,BFW,,,,,,,,,,,,,,,,,others,0
122,122,2012-11-06 12:03:00,2012-11-06 12:03:34.975000,34.975,7,BFW,,,,,,,,,,,,,,,,,others,0
123,123,2012-11-06 12:03:17.500000,2012-11-06 12:03:52.475000,34.975,7,BFW,,,,,,,,,,,,,,,,,rest,-1
124,124,2012-11-06 12:03:35,2012-11-06 12:04:09.975000,34.975,7,BFW,,,,,,,,,,,,,,,,,rest,-1
125,125,2012-11-06 12:03:52.500000,2012-11-06 12:04:27.475000,34.975,7,BFW,,,,,,,,,,,,,,,,,others,0
126,126,2012-11-06 12:04:10,2012-11-06 12:04:44.975000,34.975,7,BFW,,,,,,,,,,,,,,,,,others,0
127,127,2012-11-06 12:04:27.500000,2012-11-06 12:05:02.475000,34.975,7,BFW,,,,,,,,,,,,,,,,,others,0
128,128,2012-11-06 12:04:45,2012-11-06 12:05:19.975000,34.975,7,BFW,,,,,,,,,,,,,,,,,others,0
129,129,2012-11-06 12:05:02.500000,2012-11-06 12:05:37.475000,34.975,7,BFW,,,,,,,,,,,,,,,,,rest,-1
130,130,2012-11-06 12:05:20,2012-11-06 12:05:54.975000,34.975,7,BFW,,,,,,,,,,,,,,,,,others,0
131,131,2012-11-06 12:05:37.500000,2012-11-06 12:06:12.475000,34.975,7,BFW,,,,,,,,,,,,,,,,,others,0
132,132,2012-11-06 12:05:55,2012-11-06 12:06:29.975000,34.975,7,BFW,,,,,,,,,,,,,,,,,others,0
133,133,2012-11-06 12:06:12.500000,2012-11-06 12:06:47.475000,34.975,7,BFW,,,,,,,,,,,,,,,0.15654038598999284,,others,0
134,134,2012-11-06 12:06:30,2012-11-06 12:07:04.975000,34.975,7,BFW,,,,,,,,,,,,,,,0.28591851322373124,,others,0
135,135,2012-11-06 12:06:47.500000,2012-11-06 12:07:22.475000,34.975,7,BFW,,,,,,,,,,,,,,,0.12866333095067906,,others,0
136,136,2012-11-06 12:07:05,2012-11-06 12:07:39.975000,34.975,7,BFW,,,,,,,,,,,,,,,,,others,0
137,137,2012-11-06 12:07:22.500000,2012-11-06 12:07:57.475000,34.975,7,BFW,,,,,,,,,,,,,,,0.47105075053609724,,walking,1
138,138,2012-11-06 12:07:40,2012-11-06 12:08:14.975000,34.975,7,BFW,,,,,,,,,,,,,,,0.7433881343817011,,walking,1
139,139,2012-11-06 12:07:57.500000,2012-11-06 12:08:32.475000,34.975,7,BFW,,,,,,,,,,,,,,,0.27162258756254465,,others,0
140,140,2012-11-06 12:08:15,2012-11-06 12:08:49.975000,34.975,7,BFW,,,,,,,,,,,,,,,,,others,0
141,141,2012-11-06 12:08:32.500000,2012-11-06 12:09:07.475000,34.975,7,BFW,,,,,,,,,,,,,,,,,others,0
142,142,2012-11-06 12:08:50,2012-11-06 12:09:24.975000,34.975,7,BFW,,,,,,,,,,,,0.027877055039313793,,,,,others,0
143,143,2012-11-06 12:09:07.500000,2012-11-06 12:09:42.475000,34.975,7,BFW,0.08478260869565217,0.027877055039313793,0.0,28.0,left-puff,,,,,,,0.5282344531808435,,,,,others,0
144,144,2012-11-06 12:09:25,2012-11-06 12:09:59.975000,34.975,7,BFW,1.0,0.3288062902072909,0.0,28.0,left-puff,,,,,,,1.0,,,,,puff,9
145,145,2012-11-06 12:09:42.500000,2012-11-06 12:10:17.475000,34.975,7,BFW,1.6500000000000001,0.54253037884203,0.0,28.0,left-puff,,,,,,,1.0,,,,,puff,9
146,146,2012-11-06 12:10:00,2012-11-06 12:10:34.975000,34.975,7,BFW,1.0,0.24303073624017155,0.0,29.0,left-puff,,,,0.37097927090779126,,,1.0,,,,0.37097927090779126,puff,9
147,147,2012-11-06 12:10:17.500000,2012-11-06 12:10:52.475000,34.975,7,BFW,,,,,,,,,0.8713366690493209,,,1.0,,,,0.8713366690493209,drinking,8
148,148,2012-11-06 12:10:35,2012-11-06 12:11:09.975000,34.975,7,BFW,1.0,0.2644746247319514,0.0,30.0,right-puff,,,,1.0,,,1.0,,,,1.0,puff,9
149,149,2012-11-06 12:10:52.500000,2012-11-06 12:11:27.475000,34.975,7,BFW,1.3513513513513513,0.35739814152966404,0.0,30.0,right-puff,,,,0.7998570407433881,,,1.0,,,,0.7998570407433881,puff,9
150,150,2012-11-06 12:11:10,2012-11-06 12:11:44.975000,34.975,7,BFW,1.0,0.07862759113652609,0.0,32.0,left-puff,,,,0.4002859185132237,,,1.0,,,,0.4002859185132237,puff,9
151,151,2012-11-06 12:11:27.500000,2012-11-06 12:12:02.475000,34.975,7,BFW,1.0,0.07862759113652609,0.0,32.0,left-puff,,,,0.10007147962830593,,,1.0,,,,0.10007147962830593,puff,9
152,152,2012-11-06 12:11:45,2012-11-06 12:12:19.975000,34.975,7,BFW,,,,,,,,,,,,1.0,,,,,others,0
153,153,2012-11-06 12:12:02.500000,2012-11-06 12:12:37.475000,34.975,7,BFW,1.0,0.14295925661186562,0.0,33.0,right-puff,,,,0.028591851322373123,,,1.0,,,,0.028591851322373123,puff,9
154,154,2012-11-06 12:12:20,2012-11-06 12:12:54.975000,34.975,7,BFW,1.75,0.25017869907076484,0.0,33.0,right-puff,,,,0.028591851322373123,,,1.0,,,,0.028591851322373123,puff,9
155,155,2012-11-06 12:12:37.500000,2012-11-06 12:13:12.475000,34.975,7,BFW,1.0,0.10721944245889921,0.0,34.0,right-puff,,,,,,,0.7576840600428878,,,0.07076483202287348,,puff,9
156,156,2012-11-06 12:12:55,2012-11-06 12:13:29.975000,34.975,7,BFW,,,,,,,,,,,,0.2573266619013581,,,0.5711222301644031,,walking,1
157,157,2012-11-06 12:13:12.500000,2012-11-06 12:13:47.475000,34.975,7,BFW,,,,,,,,,,,,,,,1.0,,walking,1
158,158,2012-11-06 12:13:30,2012-11-06 12:14:04.975000,34.975,7,BFW,,,,,,,,,,,,,,,1.0,,walking,1
159,159,2012-11-06 12:13:47.500000,2012-11-06 12:14:22.475000,34.975,7,BFW,,,,,,,,,,,,,,,1.0,,walking,1
160,160,2012-11-06 12:14:05,2012-11-06 12:14:39.975000,34.975,7,BFW,,,,,,,,,,,,,,,1.0,,walking,1
161,161,2012-11-06 12:14:22.500000,2012-11-06 12:14:57.475000,34.975,7,BFW,,,,,,,,,,,,,,,1.0,,walking,1
162,162,2012-11-06 12:14:40,2012-11-06 12:15:14.975000,34.975,7,BFW,,,,,,,,,,,,,,,1.0,,walking,1
163,163,2012-11-06 12:14:57.500000,2012-11-06 12:15:32.475000,34.975,7,BFW,,,,,,,,,,,,,,,1.0,,walking,1
164,164,2012-11-06 12:15:15,2012-11-06 12:15:49.975000,34.975,7,BFW,,,,,,,,,,,,,,,1.0,,walking,1
165,165,2012-11-06 12:15:32.500000,2012-11-06 12:16:07.475000,34.975,7,BFW,,,,,,,,,,,,,,,1.0,,walking,1
166,166,2012-11-06 12:15:50,2012-11-06 12:16:24.975000,34.975,7,BFW,,,,,,,,,,,,,,,0.7433881343817011,,walking,1
167,167,2012-11-06 12:16:07.500000,2012-11-06 12:16:42.475000,34.975,7,BFW,,,,,,,,,,,0.49964260185847037,,,,0.24303073624017155,,eating,2
168,168,2012-11-06 12:16:25,2012-11-06 12:16:59.975000,34.975,7,BFW,,,,,,,,,,,1.0,,,,,,eating,2
169,169,2012-11-06 12:16:42.500000,2012-11-06 12:17:17.475000,34.975,7,BFW,,,,,,,,,,,1.0,,,,,,eating,2
170,170,2012-11-06 12:17:00,2012-11-06 12:17:34.975000,34.975,7,BFW,,,,,,,,,,,1.0,,,,,,eating,2
171,171,2012-11-06 12:17:17.500000,2012-11-06 12:17:52.475000,34.975,7,BFW,,,,,,,,,,,1.0,,,,,,eating,2
172,172,2012-11-06 12:17:35,2012-11-06 12:18:09.975000,34.975,7,BFW,,,,,,,,,,,1.0,,,,,,eating,2
173,173,2012-11-06 12:17:52.500000,2012-11-06 12:18:27.475000,34.975,7,BFW,,,,,,,,,,,1.0,,,,,,eating,2
174,174,2012-11-06 12:18:10,2012-11-06 12:18:44.975000,34.975,7,BFW,,,,,,,,,,,1.0,,,,,,eating,2
175,175,2012-11-06 12:18:27.500000,2012-11-06 12:19:02.475000,34.975,7,BFW,,,,,,,,,,,1.0,,,,,,eating,2
176,176,2012-11-06 12:18:45,2012-11-06 12:19:19.975000,34.975,7,BFW,,,,,,,,,,,1.0,,,,,,eating,2
177,177,2012-11-06 12:19:02.500000,2012-11-06 12:19:37.475000,34.975,7,BFW,,,,,,,,,,,1.0,,,,,,eating,2
178,178,2012-11-06 12:19:20,2012-11-06 12:19:54.975000,34.975,7,BFW,,,,,,,,,,,1.0,,,,,,eating,2
179,179,2012-11-06 12:19:37.500000,2012-11-06 12:20:12.475000,34.975,7,BFW,,,,,,,,,,,1.0,,,,,,eating,2
180,180,2012-11-06 12:19:55,2012-11-06 12:20:29.975000,34.975,7,BFW,,,,,,,,,,,1.0,,,,,,eating,2
181,181,2012-11-06 12:20:12.500000,2012-11-06 12:20:47.475000,34.975,7,BFW,,,,,,,,,,,1.0,,,,,,eating,2
182,182,2012-11-06 12:20:30,2012-11-06 12:21:04.975000,34.975,7,BFW,,,,,,,,,,,1.0,,,,,,eating,2
183,183,2012-11-06 12:20:47.500000,2012-11-06 12:21:22.475000,34.975,7,BFW,,,,,,,,,,,1.0,,,,,,eating,2
184,184,2012-11-06 12:21:05,2012-11-06 12:21:39.975000,34.975,7,BFW,,,,,,,,,,,1.0,,,,,,eating,2
185,185,2012-11-06 12:21:22.500000,2012-11-06 12:21:57.475000,34.975,7,BFW,,,,,,,,,,,1.0,,,,,,eating,2
186,186,2012-11-06 12:21:40,2012-11-06 12:22:14.975000,34.975,7,BFW,,,,,,,,,,,1.0,,,,,,eating,2
187,187,2012-11-06 12:21:57.500000,2012-11-06 12:22:32.475000,34.975,7,BFW,,,,,,,,,,,1.0,,,,,,eating,2
188,188,2012-11-06 12:22:15,2012-11-06 12:22:49.975000,34.975,7,BFW,,,,,,,,,,,1.0,,,,,,eating,2
189,189,2012-11-06 12:22:32.500000,2012-11-06 12:23:07.475000,34.975,7,BFW,,,,,,,,,,,1.0,,,,,,eating,2
190,190,2012-11-06 12:22:50,2012-11-06 12:23:24.975000,34.975,7,BFW,,,,,,,,,,,1.0,,,,,,eating,2
191,191,2012-11-06 12:23:07.500000,2012-11-06 12:23:42.475000,34.975,7,BFW,,,,,,,,,,,1.0,,,,,,eating,2
192,192,2012-11-06 12:23:25,2012-11-06 12:23:59.975000,34.975,7,BFW,,,,,,,,,,,1.0,,,,,,eating,2
193,193,2012-11-06 12:23:42.500000,2012-11-06 12:24:17.475000,34.975,7,BFW,,,,,,,,,,,1.0,,,,,,eating,2
194,194,2012-11-06 12:24:00,2012-11-06 12:24:34.975000,34.975,7,BFW,,,,,,,,,,,1.0,,,,,,eating,2
195,195,2012-11-06 12:24:17.500000,2012-11-06 12:24:52.475000,34.975,7,BFW,,,,,,,,,,,1.0,,,,,,eating,2
196,196,2012-11-06 12:24:35,2012-11-06 12:25:09.975000,34.975,7,BFW,,,,,,,,,,,1.0,,,,,,eating,2
197,197,2012-11-06 12:24:52.500000,2012-11-06 12:25:27.475000,34.975,7,BFW,,,,,,,,,,,1.0,,,,,,eating,2
198,198,2012-11-06 12:25:10,2012-11-06 12:25:44.975000,34.975,7,BFW,,,,,,,,,,,1.0,,,,,,eating,2
199,199,2012-11-06 12:25:27.500000,2012-11-06 12:26:02.475000,34.975,7,BFW,,,,,,,,,,,1.0,,,,,,eating,2
200,200,2012-11-06 12:25:45,2012-11-06 12:26:19.975000,34.975,7,BFW,,,,,,,,,,,1.0,,,,,,eating,2
201,201,2012-11-06 12:26:02.500000,2012-11-06 12:26:37.475000,34.975,7,BFW,,,,,,,,,,,1.0,,,,,,eating,2
202,202,2012-11-06 12:26:20,2012-11-06 12:26:54.975000,34.975,7,BFW,,,,,,,,,,,1.0,,,,,,eating,2
203,203,2012-11-06 12:26:37.500000,2012-11-06 12:27:12.475000,34.975,7,BFW,,,,,,,,,,,1.0,,,,,,eating,2
204,204,2012-11-06 12:26:55,2012-11-06 12:27:29.975000,34.975,7,BFW,,,,,,,,,,,1.0,,,,,,eating,2
205,205,2012-11-06 12:27:12.500000,2012-11-06 12:27:47.475000,34.975,7,BFW,,,,,,,,,,,1.0,,,,,,eating,2
206,206,2012-11-06 12:27:30,2012-11-06 12:28:04.975000,34.975,7,BFW,,,,,,,,,,,1.0,,,,,,eating,2
207,207,2012-11-06 12:27:47.500000,2012-11-06 12:28:22.475000,34.975,7,BFW,,,,,,,,,0.17155110793423872,,0.8284488920657612,,,,,,eating,2
208,208,2012-11-06 12:28:05,2012-11-06 12:28:39.975000,34.975,7,BFW,,,,,,,,,0.17155110793423872,,0.8284488920657612,,,,,,eating,2
209,209,2012-11-06 12:28:22.500000,2012-11-06 12:28:57.475000,34.975,7,BFW,,,,,,,,,,,1.0,,,,,,eating,2
210,210,2012-11-06 12:28:40,2012-11-06 12:29:14.975000,34.975,7,BFW,,,,,,,,,,,1.0,,,,,,eating,2
211,211,2012-11-06 12:28:57.500000,2012-11-06 12:29:32.475000,34.975,7,BFW,,,,,,,,,,,1.0,,,,,,eating,2
212,212,2012-11-06 12:29:15,2012-11-06 12:29:49.975000,34.975,7,BFW,,,,,,,,,,,1.0,,,,,,eating,2
213,213,2012-11-06 12:29:32.500000,2012-11-06 12:30:07.475000,34.975,7,BFW,,,,,,,,,,,1.0,,,,,,eating,2
214,214,2012-11-06 12:29:50,2012-11-06 12:30:24.975000,34.975,7,BFW,,,,,,,,,,,1.0,,,,,,eating,2
215,215,2012-11-06 12:30:07.500000,2012-11-06 12:30:42.475000,34.975,7,BFW,,,,,,,,,,,1.0,,,,,,eating,2
216,216,2012-11-06 12:30:25,2012-11-06 12:30:59.975000,34.975,7,BFW,,,,,,,,,,,1.0,,,,,,eating,2
217,217,2012-11-06 12:30:42.500000,2012-11-06 12:31:17.475000,34.975,7,BFW,,,,,,,,,,,1.0,,,,,,eating,2
218,218,2012-11-06 12:31:00,2012-11-06 12:31:34.975000,34.975,7,BFW,,,,,,,,,,,1.0,,,,,,eating,2
219,219,2012-11-06 12:31:17.500000,2012-11-06 12:31:52.475000,34.975,7,BFW,,,,,,,,,,,1.0,,,,,,eating,2
220,220,2012-11-06 12:31:35,2012-11-06 12:32:09.975000,34.975,7,BFW,,,,,,,,,,,1.0,,,,,,eating,2
221,221,2012-11-06 12:31:52.500000,2012-11-06 12:32:27.475000,34.975,7,BFW,,,,,,,,,,,1.0,,,,,,eating,2
222,222,2012-11-06 12:32:10,2012-11-06 12:32:44.975000,34.975,7,BFW,,,,,,,,,,,1.0,,,,,,eating,2
223,223,2012-11-06 12:32:27.500000,2012-11-06 12:33:02.475000,34.975,7,BFW,,,,,,,,,,,1.0,,,,,,eating,2
224,224,2012-11-06 12:32:45,2012-11-06 12:33:19.975000,34.975,7,BFW,,,,,,,,,,,1.0,,,,,,eating,2
225,225,2012-11-06 12:33:02.500000,2012-11-06 12:33:37.475000,34.975,7,BFW,,,,,,,,,,,1.0,,,,,,eating,2
226,226,2012-11-06 12:33:20,2012-11-06 12:33:54.975000,34.975,7,BFW,,,,,,,,,,,1.0,,,,,,eating,2
227,227,2012-11-06 12:33:37.500000,2012-11-06 12:34:12.475000,34.975,7,BFW,,,,,,,,,,,1.0,,,,,,eating,2
228,228,2012-11-06 12:33:55,2012-11-06 12:34:29.975000,34.975,7,BFW,,,,,,,,,,,1.0,,,,,,eating,2
229,229,2012-11-06 12:34:12.500000,2012-11-06 12:34:47.475000,34.975,7,BFW,,,,,,,,,,,1.0,,,,,,eating,2
230,230,2012-11-06 12:34:30,2012-11-06 12:35:04.975000,34.975,7,BFW,,,,,,,,,,,1.0,,,,,,eating,2
231,231,2012-11-06 12:34:47.500000,2012-11-06 12:35:22.475000,34.975,7,BFW,,,,,,,,,,,1.0,,,,,,eating,2
232,232,2012-11-06 12:35:05,2012-11-06 12:35:39.975000,34.975,7,BFW,,,,,,,,,,,1.0,,,,,,eating,2
233,233,2012-11-06 12:35:22.500000,2012-11-06 12:35:57.475000,34.975,7,BFW,,,,,,,,,,,1.0,,,,,,eating,2
234,234,2012-11-06 12:35:40,2012-11-06 12:36:14.975000,34.975,7,BFW,,,,,,,,,,,1.0,,,,,,eating,2
235,235,2012-11-06 12:35:57.500000,2012-11-06 12:36:32.475000,34.975,7,BFW,,,,,,,,,,,1.0,,,,,,eating,2
236,236,2012-11-06 12:36:15,2012-11-06 12:36:49.975000,34.975,7,BFW,,,,,,,,,,,1.0,,,,,,eating,2
237,237,2012-11-06 12:36:32.500000,2012-11-06 12:37:07.475000,34.975,7,BFW,,,,,,,,,,,1.0,,,,,,eating,2
238,238,2012-11-06 12:36:50,2012-11-06 12:37:24.975000,34.975,7,BFW,,,,,,,,,,,0.9721229449606862,,,,,,eating,2
239,239,2012-11-06 12:37:07.500000,2012-11-06 12:37:42.475000,34.975,7,BFW,,,,,,,,,,,0.9142244460328807,,,,,,eating,2
240,240,2012-11-06 12:37:25,2012-11-06 12:37:59.975000,34.975,7,BFW,,,,,,,,,,,0.9428162973552537,,,,,,eating,2
241,241,2012-11-06 12:37:42.500000,2012-11-06 12:38:17.475000,34.975,7,BFW,,,,,,,,,,,1.0,,,,,,eating,2
242,242,2012-11-06 12:38:00,2012-11-06 12:38:34.975000,34.975,7,BFW,,,,,,,,,,,1.0,,,,,,eating,2
243,243,2012-11-06 12:38:17.500000,2012-11-06 12:38:52.475000,34.975,7,BFW,,,,,,,,,,,1.0,,,,,,eating,2
244,244,2012-11-06 12:38:35,2012-11-06 12:39:09.975000,34.975,7,BFW,,,,,,,,,,,1.0,,,,,,eating,2
245,245,2012-11-06 12:38:52.500000,2012-11-06 12:39:27.475000,34.975,7,BFW,,,,,,,,,,,1.0,,,,,,eating,2
246,246,2012-11-06 12:39:10,2012-11-06 12:39:44.975000,34.975,7,BFW,,,,,,,,,,,1.0,,,,,,eating,2
247,247,2012-11-06 12:39:27.500000,2012-11-06 12:40:02.475000,34.975,7,BFW,,,,,,,,,,,1.0,,,,,,eating,2
248,248,2012-11-06 12:39:45,2012-11-06 12:40:19.975000,34.975,7,BFW,,,,,,,,,,,1.0,,,,,,eating,2
249,249,2012-11-06 12:40:02.500000,2012-11-06 12:40:37.475000,34.975,7,BFW,,,,,,,,,,,1.0,,,,,,eating,2
250,250,2012-11-06 12:40:20,2012-11-06 12:40:54.975000,34.975,7,BFW,,,,,,,,,,,1.0,,,,,,eating,2
251,251,2012-11-06 12:40:37.500000,2012-11-06 12:41:12.475000,34.975,7,BFW,,,,,,,,,,,1.0,,,,,,eating,2
252,252,2012-11-06 12:40:55,2012-11-06 12:41:29.975000,34.975,7,BFW,,,,,,,0.34238741958541813,,,,0.6576125804145818,,,,,,talking,5
253,253,2012-11-06 12:41:12.500000,2012-11-06 12:41:47.475000,34.975,7,BFW,,,,,,,0.8427448177269479,,,,0.15725518227305219,,,,,,talking,5
254,254,2012-11-06 12:41:30,2012-11-06 12:42:04.975000,34.975,7,BFW,,,,,,,1.0,,,,,,,,,,talking,5
255,255,2012-11-06 12:41:47.500000,2012-11-06 12:42:22.475000,34.975,7,BFW,,,,,,,0.9578270192994996,,,,0.04217298070050036,,,,,,talking,5
256,256,2012-11-06 12:42:05,2012-11-06 12:42:39.975000,34.975,7,BFW,,,,,,,0.45746962115796996,,,,0.54253037884203,,,,,,talking,5
257,257,2012-11-06 12:42:22.500000,2012-11-06 12:42:57.475000,34.975,7,BFW,,,,,,,,,,,1.0,,,,,,eating,2
258,258,2012-11-06 12:42:40,2012-11-06 12:43:14.975000,34.975,7,BFW,,,,,,,,,,,1.0,,,,,,eating,2
259,259,2012-11-06 12:42:57.500000,2012-11-06 12:43:32.475000,34.975,7,BFW,,,,,,,,,,,1.0,,,,,,eating,2
260,260,2012-11-06 12:43:15,2012-11-06 12:43:49.975000,34.975,7,BFW,,,,,,,,,,,1.0,,,,,,eating,2
261,261,2012-11-06 12:43:32.500000,2012-11-06 12:44:07.475000,34.975,7,BFW,,,,,,,,,,,1.0,,,,,,eating,2
262,262,2012-11-06 12:43:50,2012-11-06 12:44:24.975000,34.975,7,BFW,,,,,,,,,,,1.0,,,,,,eating,2
263,263,2012-11-06 12:44:07.500000,2012-11-06 12:44:42.475000,34.975,7,BFW,,,,,,,,,,,1.0,,,,,,eating,2
264,264,2012-11-06 12:44:25,2012-11-06 12:44:59.975000,34.975,7,BFW,,,,,,,,,,,1.0,,,,,,eating,2
265,265,2012-11-06 12:44:42.500000,2012-11-06 12:45:17.475000,34.975,7,BFW,,,,,,,,,,,1.0,,,,,,eating,2
266,266,2012-11-06 12:45:00,2012-11-06 12:45:34.975000,34.975,7,BFW,,,,,,,,,,,1.0,,,,,,eating,2
267,267,2012-11-06 12:45:17.500000,2012-11-06 12:45:52.475000,34.975,7,BFW,,,,,,,,,,,1.0,,,,,,eating,2
268,268,2012-11-06 12:45:35,2012-11-06 12:46:09.975000,34.975,7,BFW,,,,,,,,,,,1.0,,,,,,eating,2
269,269,2012-11-06 12:45:52.500000,2012-11-06 12:46:27.475000,34.975,7,BFW,,,,,,,,,,,1.0,,,,,,eating,2
270,270,2012-11-06 12:46:10,2012-11-06 12:46:44.975000,34.975,7,BFW,,,,,,,,,,,1.0,,,,,,eating,2
271,271,2012-11-06 12:46:27.500000,2012-11-06 12:47:02.475000,34.975,7,BFW,,,,,,,,,,,0.6719085060757684,,,,,,eating,2
272,272,2012-11-06 12:46:45,2012-11-06 12:47:19.975000,34.975,7,BFW,,,,,,,,,,,0.17155110793423872,,,,,,others,0
273,273,2012-11-06 12:47:02.500000,2012-11-06 12:47:37.475000,34.975,7,BFW,,,,,,,,,,,,,,,,,others,0
274,274,2012-11-06 12:47:20,2012-11-06 12:47:54.975000,34.975,7,BFW,,,,,,,,,,,,,,,,,others,0
275,275,2012-11-06 12:47:37.500000,2012-11-06 12:48:12.475000,34.975,7,BFW,,,,,,,,,,,,,,,0.013581129378127232,,others,0
276,276,2012-11-06 12:47:55,2012-11-06 12:48:29.975000,34.975,7,BFW,,,,,,,,,,,,,,,0.513938527519657,,walking,1
277,277,2012-11-06 12:48:12.500000,2012-11-06 12:48:47.475000,34.975,7,BFW,,,,,,,,,,,,0.04217298070050036,,,1.0,0.04217298070050036,walking,1
278,278,2012-11-06 12:48:30,2012-11-06 12:49:04.975000,34.975,7,BFW,1.0,0.24303073624017155,0.0,35.0,left-puff,,,,,,,0.54253037884203,,,0.5146533238027162,0.057183702644746245,puff,9
279,279,2012-11-06 12:48:47.500000,2012-11-06 12:49:22.475000,34.975,7,BFW,1.0,0.24303073624017155,0.0,35.0,left-puff,,,,,,,1.0,,,0.014295925661186561,0.014295925661186561,puff,9
280,280,2012-11-06 12:49:05,2012-11-06 12:49:39.975000,34.975,7,BFW,1.0,0.07147962830593281,0.0,36.0,right-puff,,,,,,,1.0,,,,,puff,9
281,281,2012-11-06 12:49:22.500000,2012-11-06 12:49:57.475000,34.975,7,BFW,,,,,,,,,,,,1.0,,,,,others,0
282,282,2012-11-06 12:49:40,2012-11-06 12:50:14.975000,34.975,7,BFW,,,,,,,,,,,,1.0,,,,,others,0
283,283,2012-11-06 12:49:57.500000,2012-11-06 12:50:32.475000,34.975,7,BFW,1.0,0.07147962830593281,0.0,37.0,left-puff,,,,,,,1.0,,,,,puff,9
284,284,2012-11-06 12:50:15,2012-11-06 12:50:49.975000,34.975,7,BFW,1.0,0.07147962830593281,0.0,37.0,left-puff,,,,,,,1.0,,,,,puff,9
285,285,2012-11-06 12:50:32.500000,2012-11-06 12:51:07.475000,34.975,7,BFW,2.272727272727273,0.17869907076483202,0.0,38.0,right-puff,,,,,,,1.0,,0.0993566833452466,,0.0993566833452466,puff,9
286,286,2012-11-06 12:50:50,2012-11-06 12:51:24.975000,34.975,7,BFW,1.0,0.10007147962830593,0.0,39.0,right-puff,,,,,,,1.0,,0.5997140814867763,,0.5997140814867763,puff,9
287,287,2012-11-06 12:51:07.500000,2012-11-06 12:51:42.475000,34.975,7,BFW,,,,,,,,,,,,1.0,,1.0,,1.0,phone,3
288,288,2012-11-06 12:51:25,2012-11-06 12:51:59.975000,34.975,7,BFW,,,,,,,,,,,,1.0,,1.0,,1.0,phone,3
289,289,2012-11-06 12:51:42.500000,2012-11-06 12:52:17.475000,34.975,7,BFW,,,,,,,,,,,,1.0,,1.0,,1.0,rest,-1
290,290,2012-11-06 12:52:00,2012-11-06 12:52:34.975000,34.975,7,BFW,,,,,,,,,,,,1.0,,1.0,,1.0,rest,-1
291,291,2012-11-06 12:52:17.500000,2012-11-06 12:52:52.475000,34.975,7,BFW,1.0,0.06433166547533953,0.0,40.0,right-puff,,,,,,,1.0,,1.0,,1.0,puff,9
292,292,2012-11-06 12:52:35,2012-11-06 12:53:09.975000,34.975,7,BFW,1.0,0.06433166547533953,0.0,40.0,right-puff,,,,,,,1.0,,1.0,,1.0,puff,9
293,293,2012-11-06 12:52:52.500000,2012-11-06 12:53:27.475000,34.975,7,BFW,,,,,,,,,,,,1.0,,1.0,,1.0,phone,3
294,294,2012-11-06 12:53:10,2012-11-06 12:53:44.975000,34.975,7,BFW,,,,,,,,,,,,1.0,,0.7433881343817011,,0.7433881343817011,phone,3
295,295,2012-11-06 12:53:27.500000,2012-11-06 12:54:02.475000,34.975,7,BFW,,,,,,,,,,,,1.0,,0.24303073624017155,,0.24303073624017155,others,0
296,296,2012-11-06 12:53:45,2012-11-06 12:54:19.975000,34.975,7,BFW,,,,,,,,,,,,1.0,,,,,others,0
297,297,2012-11-06 12:54:02.500000,2012-11-06 12:54:37.475000,34.975,7,BFW,,,,,,,,,,,,1.0,,,,,others,0
298,298,2012-11-06 12:54:20,2012-11-06 12:54:54.975000,34.975,7,BFW,,,,,,,,,,,,1.0,,,,,others,0
299,299,2012-11-06 12:54:37.500000,2012-11-06 12:55:12.475000,34.975,7,BFW,1.0,0.2787705503931379,0.0,41.0,left-puff,,,,,,,1.0,,,,,puff,9
300,300,2012-11-06 12:54:55,2012-11-06 12:55:29.975000,34.975,7,BFW,1.0,0.2787705503931379,0.0,41.0,left-puff,,,,,,,1.0,,,,,puff,9
301,301,2012-11-06 12:55:12.500000,2012-11-06 12:55:47.475000,34.975,7,BFW,2.0714285714285716,0.20729092208720515,1.0,42.0,right-puff,,,,,,,1.0,,,,,puff,9
302,302,2012-11-06 12:55:30,2012-11-06 12:56:04.975000,34.975,7,BFW,1.0,0.10721944245889921,0.0,43.0,right-puff,,,,,,,1.0,,,,,puff,9
303,303,2012-11-06 12:55:47.500000,2012-11-06 12:56:22.475000,34.975,7,BFW,,,,,,,,,,,,1.0,,,,,others,0
304,304,2012-11-06 12:56:05,2012-11-06 12:56:39.975000,34.975,7,BFW,,,,,,,,,,,,0.9149392423159399,,,,,others,0
305,305,2012-11-06 12:56:22.500000,2012-11-06 12:56:57.475000,34.975,7,BFW,,,,,,,,,,,,0.4145818441744103,,,,,others,0
306,306,2012-11-06 12:56:40,2012-11-06 12:57:14.975000,34.975,7,BFW,,,,,,,,,,,,,,,,,others,0
307,307,2012-11-06 12:56:57.500000,2012-11-06 12:57:32.475000,34.975,7,BFW,,,,,,,,,,,,,,,,,others,0
308,308,2012-11-06 12:57:15,2012-11-06 12:57:49.975000,34.975,7,BFW,,,,,,,,,,,,,,,,,others,0
309,309,2012-11-06 12:57:32.500000,2012-11-06 12:58:07.475000,34.975,7,BFW,,,,,,,,,,,,,,,,,others,0
310,310,2012-11-06 12:57:50,2012-11-06 12:58:24.975000,34.975,7,BFW,,,,,,,,,,,,,,,,,others,0
311,311,2012-11-06 12:58:07.500000,2012-11-06 12:58:42.475000,34.975,7,BFW,,,,,,,,,,,,,,,,,others,0
312,312,2012-11-06 12:58:25,2012-11-06 12:58:59.975000,34.975,7,BFW,,,,,,,,,,,,,,,,,others,0
313,313,2012-11-06 12:58:42.500000,2012-11-06 12:59:17.475000,34.975,7,BFW,,,,,,,,,,,,,,,,,others,0
314,314,2012-11-06 12:59:00,2012-11-06 12:59:34.975000,34.975,7,BFW,,,,,,,,,,,,,,,,,others,0
315,315,2012-11-06 12:59:17.500000,2012-11-06 12:59:52.475000,34.975,7,BFW,,,,,,,,,,,,,,,,,others,0
316,316,2012-11-06 12:59:35,2012-11-06 13:00:09.975000,34.975,7,BFW,,,,,,,,,,,,,,,,,others,0
317,317,2012-11-06 12:59:52.500000,2012-11-06 13:00:27.475000,34.975,7,BFW,,,,,,,,,,,,,,,,,others,0
318,318,2012-11-06 13:00:10,2012-11-06 13:00:44.975000,34.975,7,BFW,,,,,,,,,,,,,,,,,others,0
319,319,2012-11-06 13:00:27.500000,2012-11-06 13:01:02.475000,34.975,7,BFW,,,,,,,,,,,,,,,,,others,0
320,320,2012-11-06 13:00:45,2012-11-06 13:01:19.975000,34.975,7,BFW,,,,,,,,,,,,,,,,,others,0
321,321,2012-11-06 13:01:02.500000,2012-11-06 13:01:37.475000,34.975,7,BFW,,,,,,,,,,,,,,,,,others,0
322,322,2012-11-06 13:01:20,2012-11-06 13:01:54.975000,34.975,7,BFW,,,,,,,,,,,,,,,,,others,0
323,323,2012-11-06 13:01:37.500000,2012-11-06 13:02:12.475000,34.975,7,BFW,,,,,,,,,,,,,,,,,others,0
324,324,2012-11-06 13:01:55,2012-11-06 13:02:29.975000,34.975,7,BFW,,,,,,,,,,,,,,,,,others,0
325,325,2012-11-06 13:02:12.500000,2012-11-06 13:02:47.475000,34.975,7,BFW,,,,,,,,,,,,,,,,,others,0
326,326,2012-11-06 13:02:30,2012-11-06 13:03:04.975000,34.975,7,BFW,,,,,,,,,,,,,,,0.3995711222301644,,walking,1
327,327,2012-11-06 13:02:47.500000,2012-11-06 13:03:22.475000,34.975,7,BFW,,,,,,,,,,,,,,,0.899928520371694,,walking,1
328,328,2012-11-06 13:03:05,2012-11-06 13:03:39.975000,34.975,7,BFW,0.2323529411764706,0.05646890636168692,0.0,44.0,left-puff,0.4853466761972838,,,,,,0.08506075768406005,,,0.5146533238027162,0.08506075768406005,in car,7
329,329,2012-11-06 13:03:22.500000,2012-11-06 13:03:57.475000,34.975,7,BFW,1.4088235294117646,0.34238741958541813,0.0,44.0,left-puff,0.9857040743388135,,,,,,0.5854181558255898,,,0.014295925661186561,0.5854181558255898,puff,9
330,330,2012-11-06 13:03:40,2012-11-06 13:04:14.975000,34.975,7,BFW,1.2352941176470589,0.3002144388849178,0.0,44.0,left-puff,1.0,,,,,,1.0,,,,1.0,puff,9
331,331,2012-11-06 13:03:57.500000,2012-11-06 13:04:32.475000,34.975,7,BFW,1.05625,0.12080057183702643,1.0,45.0,left-puff,1.0,,,,,,1.0,,,,1.0,puff,9
332,332,2012-11-06 13:04:15,2012-11-06 13:04:49.975000,34.975,7,BFW,1.0,0.12151536812008577,1.0,46.0,left-puff,1.0,,,,,,1.0,,,,1.0,puff,9
333,333,2012-11-06 13:04:32.500000,2012-11-06 13:05:07.475000,34.975,7,BFW,1.2941176470588236,0.15725518227305219,1.0,46.0,left-puff,1.0,,,,,,1.0,,,,1.0,puff,9
334,334,2012-11-06 13:04:50,2012-11-06 13:05:24.975000,34.975,7,BFW,2.1,0.3002144388849178,1.0,47.0,left-puff,1.0,,,,,,1.0,,,,1.0,puff,9
335,335,2012-11-06 13:05:07.500000,2012-11-06 13:05:42.475000,34.975,7,BFW,1.0,0.15725518227305219,1.0,48.0,left-puff,0.6719085060757684,,,,,,1.0,,,0.35668334524660467,1.0,puff,9
336,336,2012-11-06 13:05:25,2012-11-06 13:05:59.975000,34.975,7,BFW,,,,,,0.17155110793423872,,,,,,1.0,,,0.8570407433881344,1.0,walking,1
337,337,2012-11-06 13:05:42.500000,2012-11-06 13:06:17.475000,34.975,7,BFW,,,,,,,,,0.057183702644746245,,,1.0,,,0.7290922087205146,0.7862759113652609,walking,1
338,338,2012-11-06 13:06:00,2012-11-06 13:06:34.975000,34.975,7,BFW,0.39333333333333337,0.04217298070050036,0.0,49.0,right-puff,,,,0.057183702644746245,,,1.0,,,0.22873481057898498,0.28591851322373124,puff,9
339,339,2012-11-06 13:06:17.500000,2012-11-06 13:06:52.475000,34.975,7,BFW,0.6441176470588235,0.15654038598999284,0.0,50.0,left-puff,,0.35668334524660467,,,,,1.0,,,,0.35668334524660467,puff,9
340,340,2012-11-06 13:06:35,2012-11-06 13:07:09.975000,34.975,7,BFW,1.411764705882353,0.34310221586847744,0.0,50.0,left-puff,,0.8570407433881344,,,,,1.0,,,,0.8570407433881344,puff,9
341,341,2012-11-06 13:06:52.500000,2012-11-06 13:07:27.475000,34.975,7,BFW,0.7647058823529411,0.1858470335954253,0.0,50.0,left-puff,,0.7290922087205146,,,,,1.0,,,,0.7290922087205146,puff,9
342,342,2012-11-06 13:07:10,2012-11-06 13:07:44.975000,34.975,7,BFW,,,,,,,0.22873481057898498,,,,,1.0,,,,0.22873481057898498,others,0
343,343,2012-11-06 13:07:27.500000,2012-11-06 13:08:02.475000,34.975,7,BFW,,,,,,,,,,,,1.0,,,,,others,0
344,344,2012-11-06 13:07:45,2012-11-06 13:08:19.975000,34.975,7,BFW,,,,,,,,,,,,1.0,,,,,others,0
345,345,2012-11-06 13:08:02.500000,2012-11-06 13:08:37.475000,34.975,7,BFW,1.0,0.07147962830593281,0.0,52.0,left-puff,,,,,,,1.0,,,,,puff,9
346,346,2012-11-06 13:08:20,2012-11-06 13:08:54.975000,34.975,7,BFW,1.0,0.07147962830593281,0.0,52.0,left-puff,,,,,,,1.0,,,,,puff,9
347,347,2012-11-06 13:08:37.500000,2012-11-06 13:09:12.475000,34.975,7,BFW,,,,,,,,,,,,1.0,,0.44245889921372406,,0.44245889921372406,phone,3
348,348,2012-11-06 13:08:55,2012-11-06 13:09:29.975000,34.975,7,BFW,,,,,,,,,,,,1.0,,0.9428162973552537,,0.9428162973552537,phone,3
349,349,2012-11-06 13:09:12.500000,2012-11-06 13:09:47.475000,34.975,7,BFW,,,,,,,,,,,,1.0,,1.0,,1.0,phone,3
350,350,2012-11-06 13:09:30,2012-11-06 13:10:04.975000,34.975,7,BFW,,,,,,,,,,,,1.0,,1.0,,1.0,phone,3
351,351,2012-11-06 13:09:47.500000,2012-11-06 13:10:22.475000,34.975,7,BFW,,,,,,,,,,,,1.0,,1.0,,1.0,phone,3
352,352,2012-11-06 13:10:05,2012-11-06 13:10:39.975000,34.975,7,BFW,,,,,,,,,,,,1.0,,1.0,,1.0,phone,3
353,353,2012-11-06 13:10:22.500000,2012-11-06 13:10:57.475000,34.975,7,BFW,,,,,,,,,,,,1.0,,1.0,,1.0,phone,3
354,354,2012-11-06 13:10:40,2012-11-06 13:11:14.975000,34.975,7,BFW,0.5424242424242424,0.1279485346676197,1.0,53.0,right-puff,,0.37097927090779126,,,,,1.0,,0.6290207290922087,,1.0,puff,9
355,355,2012-11-06 13:10:57.500000,2012-11-06 13:11:32.475000,34.975,7,BFW,1.0,0.23588277340957825,1.0,53.0,right-puff,,0.8713366690493209,,,,,1.0,,0.12866333095067906,,1.0,puff,9
356,356,2012-11-06 13:11:15,2012-11-06 13:11:49.975000,34.975,7,BFW,0.45454545454545453,0.10721944245889921,1.0,53.0,right-puff,,1.0,,,,,1.0,,,,1.0,puff,9
357,357,2012-11-06 13:11:32.500000,2012-11-06 13:12:07.475000,34.975,7,BFW,1.0,0.12866333095067906,0.0,54.0,right-puff,,1.0,,,,,1.0,,,,1.0,puff,9
358,358,2012-11-06 13:11:50,2012-11-06 13:12:24.975000,34.975,7,BFW,1.3277777777777777,0.1708363116511794,0.0,54.0,right-puff,,1.0,,,,,1.0,,,,1.0,puff,9
359,359,2012-11-06 13:12:07.500000,2012-11-06 13:12:42.475000,34.975,7,BFW,1.0,0.12866333095067906,0.0,55.0,right-puff,,1.0,,,,,1.0,,,,1.0,puff,9
360,360,2012-11-06 13:12:25,2012-11-06 13:12:59.975000,34.975,7,BFW,0.6666666666666666,0.08577555396711936,0.0,55.0,right-puff,,1.0,,,,,1.0,,,,1.0,puff,9
361,361,2012-11-06 13:12:42.500000,2012-11-06 13:13:12,29.5,7,BFW,,,,,,,1.0,,,,,0.6271186440677966,,,,0.6271186440677966,talking,5
362,362,2012-11-06 13:13:00,2012-11-06 13:13:12,12.0,7,BFW,,,,,,,1.0,,,,,0.08333333333333333,,,,0.08333333333333333,talking,5
