,segment,STARTTIME,ENDTIME,seg duration,session,sensor,inside puff/puff duration,inside puff/segment duration,prototypical?,puff index,puff side,car percentage,talk percentage,unknown percentage,drinking percentage,reading percentage,eating percentage,smoking percentage,computer percentage,phone percentage,walking percentage,superposition percentage,name,target
0,0,2012-08-16 11:15:23,2012-08-16 11:15:35.975000,12.975,6,BFW,,,,,,,,,0.8477842003853565,,,,,,,,drinking,8
1,1,2012-08-16 11:15:29.500000,2012-08-16 11:15:42.475000,12.975,6,BFW,,,,,,,,,0.3468208092485549,,,,,,,,drinking,8
2,2,2012-08-16 11:15:36,2012-08-16 11:15:48.975000,12.975,6,BFW,,,,,,,,,,,,,,,0.4605009633911368,,walking,1
3,3,2012-08-16 11:15:42.500000,2012-08-16 11:15:55.475000,12.975,6,BFW,,,,,,,,,,,,,,,0.9614643545279383,,walking,1
4,4,2012-08-16 11:15:49,2012-08-16 11:16:01.975000,12.975,6,BFW,,,,,,,,,,,,,,,1.0,,walking,1
5,5,2012-08-16 11:15:55.500000,2012-08-16 11:16:08.475000,12.975,6,BFW,,,,,,,,,,,,,,,1.0,,walking,1
6,6,2012-08-16 11:16:02,2012-08-16 11:16:14.975000,12.975,6,BFW,,,,,,,,,,,,,,,1.0,,walking,1
7,7,2012-08-16 11:16:08.500000,2012-08-16 11:16:21.475000,12.975,6,BFW,,,,,,,,,,,,,,,1.0,,walking,1
8,8,2012-08-16 11:16:15,2012-08-16 11:16:27.975000,12.975,6,BFW,,,,,,,,,,,,,,,1.0,,walking,1
9,9,2012-08-16 11:16:21.500000,2012-08-16 11:16:34.475000,12.975,6,BFW,,,,,,,,,,,,,,,0.6551059730250481,,walking,1
10,10,2012-08-16 11:16:28,2012-08-16 11:16:40.975000,12.975,6,BFW,,,,,,,,,,,,,,,0.15414258188824664,,others,0
11,11,2012-08-16 11:16:34.500000,2012-08-16 11:16:47.475000,12.975,6,BFW,,,,,,,,,,,0.3448940269749518,,,,,,eating,2
12,12,2012-08-16 11:16:41,2012-08-16 11:16:53.975000,12.975,6,BFW,,,,,,,,,,,0.8458574181117534,,,,,,eating,2
13,13,2012-08-16 11:16:47.500000,2012-08-16 11:17:00.475000,12.975,6,BFW,,,,,,,,,,,1.0,,,,,,eating,2
14,14,2012-08-16 11:16:54,2012-08-16 11:17:06.975000,12.975,6,BFW,,,,,,,,,,,1.0,,,,,,eating,2
15,15,2012-08-16 11:17:00.500000,2012-08-16 11:17:13.475000,12.975,6,BFW,,,,,,,,,,,1.0,,,,,,eating,2
16,16,2012-08-16 11:17:07,2012-08-16 11:17:19.975000,12.975,6,BFW,,,,,,,,,,,1.0,,,,,,eating,2
17,17,2012-08-16 11:17:13.500000,2012-08-16 11:17:26.475000,12.975,6,BFW,,,,,,,,,,,1.0,,,,,,eating,2
18,18,2012-08-16 11:17:20,2012-08-16 11:17:32.975000,12.975,6,BFW,,,,,,,,,,,1.0,,,,,,eating,2
19,19,2012-08-16 11:17:26.500000,2012-08-16 11:17:39.475000,12.975,6,BFW,,,,,,,,,,,1.0,,,,,,eating,2
20,20,2012-08-16 11:17:33,2012-08-16 11:17:45.975000,12.975,6,BFW,,,,,,,,,,,1.0,,,,,,eating,2
21,21,2012-08-16 11:17:39.500000,2012-08-16 11:17:52.475000,12.975,6,BFW,,,,,,,,,,,1.0,,,,,,eating,2
22,22,2012-08-16 11:17:46,2012-08-16 11:17:58.975000,12.975,6,BFW,,,,,,,,,,,1.0,,,,,,eating,2
23,23,2012-08-16 11:17:52.500000,2012-08-16 11:18:05.475000,12.975,6,BFW,,,,,,,,,,,1.0,,,,,,eating,2
24,24,2012-08-16 11:17:59,2012-08-16 11:18:11.975000,12.975,6,BFW,,,,,,,,,,,1.0,,,,,,eating,2
25,25,2012-08-16 11:18:05.500000,2012-08-16 11:18:18.475000,12.975,6,BFW,,,,,,,,,,,1.0,,,,,,eating,2
26,26,2012-08-16 11:18:12,2012-08-16 11:18:24.975000,12.975,6,BFW,,,,,,,,,,,1.0,,,,,,eating,2
27,27,2012-08-16 11:18:18.500000,2012-08-16 11:18:31.475000,12.975,6,BFW,,,,,,,,,,,1.0,,,,,,eating,2
28,28,2012-08-16 11:18:25,2012-08-16 11:18:37.975000,12.975,6,BFW,,,,,,,,,,,1.0,,,,,,eating,2
29,29,2012-08-16 11:18:31.500000,2012-08-16 11:18:44.475000,12.975,6,BFW,,,,,,,,,,,1.0,,,,,,eating,2
30,30,2012-08-16 11:18:38,2012-08-16 11:18:50.975000,12.975,6,BFW,,,,,,,,,,,1.0,,,,,,eating,2
31,31,2012-08-16 11:18:44.500000,2012-08-16 11:18:57.475000,12.975,6,BFW,,,,,,,,,,,1.0,,,,,,eating,2
32,32,2012-08-16 11:18:51,2012-08-16 11:19:03.975000,12.975,6,BFW,,,,,,,,,,,1.0,,,,,,eating,2
33,33,2012-08-16 11:18:57.500000,2012-08-16 11:19:10.475000,12.975,6,BFW,,,,,,,,,,,1.0,,,,,,eating,2
34,34,2012-08-16 11:19:04,2012-08-16 11:19:16.975000,12.975,6,BFW,,,,,,,,,,,1.0,,,,,,eating,2
35,35,2012-08-16 11:19:10.500000,2012-08-16 11:19:23.475000,12.975,6,BFW,,,,,,,,,,,1.0,,,,,,eating,2
36,36,2012-08-16 11:19:17,2012-08-16 11:19:29.975000,12.975,6,BFW,,,,,,,,,,,1.0,,,,,,eating,2
37,37,2012-08-16 11:19:23.500000,2012-08-16 11:19:36.475000,12.975,6,BFW,,,,,,,,,,,1.0,,,,,,eating,2
38,38,2012-08-16 11:19:30,2012-08-16 11:19:42.975000,12.975,6,BFW,,,,,,,,,,,1.0,,,,,,eating,2
39,39,2012-08-16 11:19:36.500000,2012-08-16 11:19:49.475000,12.975,6,BFW,,,,,,,,,,,1.0,,,,,,eating,2
40,40,2012-08-16 11:19:43,2012-08-16 11:19:55.975000,12.975,6,BFW,,,,,,,,,,,1.0,,,,,,eating,2
41,41,2012-08-16 11:19:49.500000,2012-08-16 11:20:02.475000,12.975,6,BFW,,,,,,,,,,,1.0,,,,,,eating,2
42,42,2012-08-16 11:19:56,2012-08-16 11:20:08.975000,12.975,6,BFW,,,,,,,,,,,1.0,,,,,,eating,2
43,43,2012-08-16 11:20:02.500000,2012-08-16 11:20:15.475000,12.975,6,BFW,,,,,,,,,,,1.0,,,,,,eating,2
44,44,2012-08-16 11:20:09,2012-08-16 11:20:21.975000,12.975,6,BFW,,,,,,,,,,,1.0,,,,,,eating,2
45,45,2012-08-16 11:20:15.500000,2012-08-16 11:20:28.475000,12.975,6,BFW,,,,,,,,,,,1.0,,,,,,eating,2
46,46,2012-08-16 11:20:22,2012-08-16 11:20:34.975000,12.975,6,BFW,,,,,,,,,,,1.0,,,,,,eating,2
47,47,2012-08-16 11:20:28.500000,2012-08-16 11:20:41.475000,12.975,6,BFW,,,,,,,,,,,1.0,,,,,,eating,2
48,48,2012-08-16 11:20:35,2012-08-16 11:20:47.975000,12.975,6,BFW,,,,,,,,,,,1.0,,,,,,eating,2
49,49,2012-08-16 11:20:41.500000,2012-08-16 11:20:54.475000,12.975,6,BFW,,,,,,,,,,,1.0,,,,,,eating,2
50,50,2012-08-16 11:20:48,2012-08-16 11:21:00.975000,12.975,6,BFW,,,,,,,,,,,1.0,,,,,,eating,2
51,51,2012-08-16 11:20:54.500000,2012-08-16 11:21:07.475000,12.975,6,BFW,,,,,,,,,,,1.0,,,,,,eating,2
52,52,2012-08-16 11:21:01,2012-08-16 11:21:13.975000,12.975,6,BFW,,,,,,,,,,,1.0,,,,,,eating,2
53,53,2012-08-16 11:21:07.500000,2012-08-16 11:21:20.475000,12.975,6,BFW,,,,,,,,,,,1.0,,,,,,eating,2
54,54,2012-08-16 11:21:14,2012-08-16 11:21:26.975000,12.975,6,BFW,,,,,,,,,,,1.0,,,,,,eating,2
55,55,2012-08-16 11:21:20.500000,2012-08-16 11:21:33.475000,12.975,6,BFW,,,,,,,,,,,1.0,,,,,,eating,2
56,56,2012-08-16 11:21:27,2012-08-16 11:21:39.975000,12.975,6,BFW,,,,,,,,,,,1.0,,,,,,eating,2
57,57,2012-08-16 11:21:33.500000,2012-08-16 11:21:46.475000,12.975,6,BFW,,,,,,,,,,,1.0,,,,,,eating,2
58,58,2012-08-16 11:21:40,2012-08-16 11:21:52.975000,12.975,6,BFW,,,,,,,,,,,1.0,,,,,,eating,2
59,59,2012-08-16 11:21:46.500000,2012-08-16 11:21:59.475000,12.975,6,BFW,,,,,,,,,,,1.0,,,,,,eating,2
60,60,2012-08-16 11:21:53,2012-08-16 11:22:05.975000,12.975,6,BFW,,,,,,,,,,,1.0,,,,,,eating,2
61,61,2012-08-16 11:21:59.500000,2012-08-16 11:22:12.475000,12.975,6,BFW,,,,,,,,,,,1.0,,,,,,rest,-1
62,62,2012-08-16 11:22:06,2012-08-16 11:22:18.975000,12.975,6,BFW,,,,,,,,,,,1.0,,,,,,eating,2
63,63,2012-08-16 11:22:12.500000,2012-08-16 11:22:25.475000,12.975,6,BFW,,,,,,,,,,,1.0,,,,,,eating,2
64,64,2012-08-16 11:22:19,2012-08-16 11:22:31.975000,12.975,6,BFW,,,,,,,,,,,1.0,,,,,,eating,2
65,65,2012-08-16 11:22:25.500000,2012-08-16 11:22:38.475000,12.975,6,BFW,,,,,,,,,,,1.0,,,,,,eating,2
66,66,2012-08-16 11:22:32,2012-08-16 11:22:44.975000,12.975,6,BFW,,,,,,,,,,,1.0,,,,,,eating,2
67,67,2012-08-16 11:22:38.500000,2012-08-16 11:22:51.475000,12.975,6,BFW,,,,,,,,,,,1.0,,,,,,eating,2
68,68,2012-08-16 11:22:45,2012-08-16 11:22:57.975000,12.975,6,BFW,,,,,,,,,,,1.0,,,,,,eating,2
69,69,2012-08-16 11:22:51.500000,2012-08-16 11:23:04.475000,12.975,6,BFW,,,,,,,,,,,1.0,,,,,,eating,2
70,70,2012-08-16 11:22:58,2012-08-16 11:23:10.975000,12.975,6,BFW,,,,,,,,,,,1.0,,,,,,eating,2
71,71,2012-08-16 11:23:04.500000,2012-08-16 11:23:17.475000,12.975,6,BFW,,,,,,,,,,,1.0,,,,,,eating,2
72,72,2012-08-16 11:23:11,2012-08-16 11:23:23.975000,12.975,6,BFW,,,,,,,,,,,1.0,,,,,,eating,2
73,73,2012-08-16 11:23:17.500000,2012-08-16 11:23:30.475000,12.975,6,BFW,,,,,,,,,,,1.0,,,,,,eating,2
74,74,2012-08-16 11:23:24,2012-08-16 11:23:36.975000,12.975,6,BFW,,,,,,,,,,,1.0,,,,,,eating,2
75,75,2012-08-16 11:23:30.500000,2012-08-16 11:23:43.475000,12.975,6,BFW,,,,,,,,,,,1.0,,,,,,eating,2
76,76,2012-08-16 11:23:37,2012-08-16 11:23:49.975000,12.975,6,BFW,,,,,,,,,,,1.0,,,,,,eating,2
77,77,2012-08-16 11:23:43.500000,2012-08-16 11:23:56.475000,12.975,6,BFW,,,,,,,,,,,1.0,,,,,,eating,2
78,78,2012-08-16 11:23:50,2012-08-16 11:24:02.975000,12.975,6,BFW,,,,,,,,,,,1.0,,,,,,eating,2
79,79,2012-08-16 11:23:56.500000,2012-08-16 11:24:09.475000,12.975,6,BFW,,,,,,,,,,,1.0,,,,,,eating,2
80,80,2012-08-16 11:24:03,2012-08-16 11:24:15.975000,12.975,6,BFW,,,,,,,,,,,1.0,,,,,,eating,2
81,81,2012-08-16 11:24:09.500000,2012-08-16 11:24:22.475000,12.975,6,BFW,,,,,,,,,,,1.0,,,,,,eating,2
82,82,2012-08-16 11:24:16,2012-08-16 11:24:28.975000,12.975,6,BFW,,,,,,,,,,,1.0,,,,,,eating,2
83,83,2012-08-16 11:24:22.500000,2012-08-16 11:24:35.475000,12.975,6,BFW,,,,,,,,,,,1.0,,,,,,eating,2
84,84,2012-08-16 11:24:29,2012-08-16 11:24:41.975000,12.975,6,BFW,,,,,,,,,,,1.0,,,,,,eating,2
85,85,2012-08-16 11:24:35.500000,2012-08-16 11:24:48.475000,12.975,6,BFW,,,,,,,,,,,1.0,,,,,,eating,2
86,86,2012-08-16 11:24:42,2012-08-16 11:24:54.975000,12.975,6,BFW,,,,,,,,,,,1.0,,,,,,eating,2
87,87,2012-08-16 11:24:48.500000,2012-08-16 11:25:01.475000,12.975,6,BFW,,,,,,,,,,,1.0,,,,,,eating,2
88,88,2012-08-16 11:24:55,2012-08-16 11:25:07.975000,12.975,6,BFW,,,,,,,,,,,1.0,,,,,,eating,2
89,89,2012-08-16 11:25:01.500000,2012-08-16 11:25:14.475000,12.975,6,BFW,,,,,,,,,,,1.0,,,,,,eating,2
90,90,2012-08-16 11:25:08,2012-08-16 11:25:20.975000,12.975,6,BFW,,,,,,,,,,,1.0,,,,,,eating,2
91,91,2012-08-16 11:25:14.500000,2012-08-16 11:25:27.475000,12.975,6,BFW,,,,,,,,,,,1.0,,,,,,eating,2
92,92,2012-08-16 11:25:21,2012-08-16 11:25:33.975000,12.975,6,BFW,,,,,,,,,,,1.0,,,,,,eating,2
93,93,2012-08-16 11:25:27.500000,2012-08-16 11:25:40.475000,12.975,6,BFW,,,,,,,,,,,1.0,,,,,,eating,2
94,94,2012-08-16 11:25:34,2012-08-16 11:25:46.975000,12.975,6,BFW,,,,,,,,,,,1.0,,,,,,eating,2
95,95,2012-08-16 11:25:40.500000,2012-08-16 11:25:53.475000,12.975,6,BFW,,,,,,,,,,,1.0,,,,,,eating,2
96,96,2012-08-16 11:25:47,2012-08-16 11:25:59.975000,12.975,6,BFW,,,,,,,,,,,1.0,,,,,,eating,2
97,97,2012-08-16 11:25:53.500000,2012-08-16 11:26:06.475000,12.975,6,BFW,,,,,,,,,,,1.0,,,,,,eating,2
98,98,2012-08-16 11:26:00,2012-08-16 11:26:12.975000,12.975,6,BFW,,,,,,,,,,,1.0,,,,,,eating,2
99,99,2012-08-16 11:26:06.500000,2012-08-16 11:26:19.475000,12.975,6,BFW,,,,,,,,,,,1.0,,,,,,eating,2
100,100,2012-08-16 11:26:13,2012-08-16 11:26:25.975000,12.975,6,BFW,,,,,,,,,,,1.0,,,,,,eating,2
101,101,2012-08-16 11:26:19.500000,2012-08-16 11:26:32.475000,12.975,6,BFW,,,,,,,,,,,1.0,,,,,,eating,2
102,102,2012-08-16 11:26:26,2012-08-16 11:26:38.975000,12.975,6,BFW,,,,,,,,,,,1.0,,,,,,eating,2
103,103,2012-08-16 11:26:32.500000,2012-08-16 11:26:45.475000,12.975,6,BFW,,,,,,,,,,,1.0,,,,,,eating,2
104,104,2012-08-16 11:26:39,2012-08-16 11:26:51.975000,12.975,6,BFW,,,,,,,,,,,1.0,,,,,,eating,2
105,105,2012-08-16 11:26:45.500000,2012-08-16 11:26:58.475000,12.975,6,BFW,,,,,,,,,,,1.0,,,,,,eating,2
106,106,2012-08-16 11:26:52,2012-08-16 11:27:04.975000,12.975,6,BFW,,,,,,,,,,,1.0,,,,,,eating,2
107,107,2012-08-16 11:26:58.500000,2012-08-16 11:27:11.475000,12.975,6,BFW,,,,,,,,,,,1.0,,,,,,eating,2
108,108,2012-08-16 11:27:05,2012-08-16 11:27:17.975000,12.975,6,BFW,,,,,,,,,,,0.8477842003853565,0.3063583815028902,,,,0.15414258188824664,eating,2
109,109,2012-08-16 11:27:11.500000,2012-08-16 11:27:24.475000,12.975,6,BFW,,,,,,,,,,,0.3468208092485549,0.8073217726396917,,,,0.15414258188824664,eating,2
110,110,2012-08-16 11:27:18,2012-08-16 11:27:30.975000,12.975,6,BFW,,,,,,,,,,,,1.0,,,,,others,0
111,111,2012-08-16 11:27:24.500000,2012-08-16 11:27:37.475000,12.975,6,BFW,,,,,,,,,,,,1.0,,,,,others,0
112,112,2012-08-16 11:27:31,2012-08-16 11:27:43.975000,12.975,6,BFW,,,,,,,,,,,,1.0,,,,,others,0
113,113,2012-08-16 11:27:37.500000,2012-08-16 11:27:50.475000,12.975,6,BFW,,,,,,,,,,,,1.0,,,,,others,0
114,114,2012-08-16 11:27:44,2012-08-16 11:27:56.975000,12.975,6,BFW,,,,,,,,,,,,1.0,,,,,others,0
115,115,2012-08-16 11:27:50.500000,2012-08-16 11:28:03.475000,12.975,6,BFW,,,,,,,,,,,,1.0,,,,,others,0
116,116,2012-08-16 11:27:57,2012-08-16 11:28:09.975000,12.975,6,BFW,,,,,,,,,,,,1.0,,,,,others,0
117,117,2012-08-16 11:28:03.500000,2012-08-16 11:28:16.475000,12.975,6,BFW,0.33148148148148143,0.3448940269749518,0.0,0.0,right-puff,,,,,,,1.0,,,,,puff,9
118,118,2012-08-16 11:28:10,2012-08-16 11:28:22.975000,12.975,6,BFW,0.8129629629629629,0.8458574181117534,0.0,0.0,right-puff,,,,,,,1.0,,,,,puff,9
119,119,2012-08-16 11:28:16.500000,2012-08-16 11:28:29.475000,12.975,6,BFW,0.6666666666666666,0.6936416184971098,0.0,0.0,right-puff,,,,,,,1.0,,,,,puff,9
120,120,2012-08-16 11:28:23,2012-08-16 11:28:35.975000,12.975,6,BFW,0.18518518518518517,0.1926782273603083,0.0,0.0,right-puff,,,,,,,1.0,,,,,rest,-1
121,121,2012-08-16 11:28:29.500000,2012-08-16 11:28:42.475000,12.975,6,BFW,0.15,0.07514450867052024,1.0,1.0,right-puff,,,,,,,1.0,,,,,rest,-1
122,122,2012-08-16 11:28:36,2012-08-16 11:28:48.975000,12.975,6,BFW,1.0,0.5009633911368016,1.0,1.0,right-puff,,,,,,,1.0,,,,,puff,9
123,123,2012-08-16 11:28:42.500000,2012-08-16 11:28:55.475000,12.975,6,BFW,0.8461538461538461,0.42389210019267826,1.0,1.0,right-puff,,,,,,,1.0,,,,,puff,9
124,124,2012-08-16 11:28:49,2012-08-16 11:29:01.975000,12.975,6,BFW,,,,,,,,,,,,1.0,,,,,others,0
125,125,2012-08-16 11:28:55.500000,2012-08-16 11:29:08.475000,12.975,6,BFW,,,,,,,,,,,,1.0,,,,,rest,-1
126,126,2012-08-16 11:29:02,2012-08-16 11:29:14.975000,12.975,6,BFW,,,,,,,,,,,,1.0,,,,,others,0
127,127,2012-08-16 11:29:08.500000,2012-08-16 11:29:21.475000,12.975,6,BFW,,,,,,,,,,,,1.0,,,,,others,0
128,128,2012-08-16 11:29:15,2012-08-16 11:29:27.975000,12.975,6,BFW,0.49642857142857144,0.2678227360308285,1.0,2.0,right-puff,,,,,,,1.0,,,,,puff,9
129,129,2012-08-16 11:29:21.500000,2012-08-16 11:29:34.475000,12.975,6,BFW,1.0,0.5394990366088632,1.0,2.0,right-puff,,,,,,,1.0,,,,,puff,9
130,130,2012-08-16 11:29:28,2012-08-16 11:29:40.975000,12.975,6,BFW,0.5,0.2697495183044316,1.0,2.0,right-puff,,,,,,,1.0,,,,,puff,9
131,131,2012-08-16 11:29:34.500000,2012-08-16 11:29:47.475000,12.975,6,BFW,,,,,,,,,,,,1.0,,,,,others,0
132,132,2012-08-16 11:29:41,2012-08-16 11:29:53.975000,12.975,6,BFW,,,,,,,,,,,,1.0,,,,,others,0
133,133,2012-08-16 11:29:47.500000,2012-08-16 11:30:00.475000,12.975,6,BFW,0.3590909090909091,0.15221579961464354,0.0,3.0,right-puff,,,,,,,1.0,,,,,puff,9
134,134,2012-08-16 11:29:54,2012-08-16 11:30:06.975000,12.975,6,BFW,1.0,0.42389210019267826,0.0,3.0,right-puff,,,,,,,1.0,,,,,puff,9
135,135,2012-08-16 11:30:00.500000,2012-08-16 11:30:13.475000,12.975,6,BFW,0.6363636363636364,0.2697495183044316,0.0,3.0,right-puff,,,,,,,1.0,,,,,puff,9
136,136,2012-08-16 11:30:07,2012-08-16 11:30:19.975000,12.975,6,BFW,,,,,,,,,,,,1.0,,,,,others,0
137,137,2012-08-16 11:30:13.500000,2012-08-16 11:30:26.475000,12.975,6,BFW,0.6950000000000001,0.2678227360308285,0.0,4.0,right-puff,,,,,,,1.0,,,,,puff,9
138,138,2012-08-16 11:30:20,2012-08-16 11:30:32.975000,12.975,6,BFW,1.0,0.3853564547206166,0.0,4.0,right-puff,,,,,,,1.0,,,,,puff,9
139,139,2012-08-16 11:30:26.500000,2012-08-16 11:30:39.475000,12.975,6,BFW,0.3,0.11560693641618497,0.0,4.0,right-puff,,,,,,,1.0,,,,,puff,9
140,140,2012-08-16 11:30:33,2012-08-16 11:30:45.975000,12.975,6,BFW,,,,,,,,,,,,1.0,,,,,others,0
141,141,2012-08-16 11:30:39.500000,2012-08-16 11:30:52.475000,12.975,6,BFW,,,,,,,,,,,,1.0,,,,,others,0
142,142,2012-08-16 11:30:46,2012-08-16 11:30:58.975000,12.975,6,BFW,,,,,,,,,,,,1.0,,,,,others,0
143,143,2012-08-16 11:30:52.500000,2012-08-16 11:31:05.475000,12.975,6,BFW,,,,,,,,,,,,1.0,,,,,others,0
144,144,2012-08-16 11:30:59,2012-08-16 11:31:11.975000,12.975,6,BFW,,,,,,,0.22928709055876687,,,,,1.0,,,,0.22928709055876687,others,0
145,145,2012-08-16 11:31:05.500000,2012-08-16 11:31:18.475000,12.975,6,BFW,,,,,,,0.7302504816955684,,,,,1.0,,,,0.7302504816955684,talking,5
146,146,2012-08-16 11:31:12,2012-08-16 11:31:24.975000,12.975,6,BFW,0.5678571428571428,0.3063583815028902,0.0,5.0,right-puff,,1.0,,,,,1.0,,,,1.0,puff,9
147,147,2012-08-16 11:31:18.500000,2012-08-16 11:31:31.475000,12.975,6,BFW,1.0,0.5394990366088632,0.0,5.0,right-puff,,0.8863198458574182,,,,,1.0,,,,0.8863198458574182,puff,9
148,148,2012-08-16 11:31:25,2012-08-16 11:31:37.975000,12.975,6,BFW,0.42857142857142855,0.23121387283236994,0.0,5.0,right-puff,,0.3853564547206166,,,,,1.0,,,,0.3853564547206166,puff,9
149,149,2012-08-16 11:31:31.500000,2012-08-16 11:31:44.475000,12.975,6,BFW,,,,,,,,,,,,1.0,,,,,others,0
150,150,2012-08-16 11:31:38,2012-08-16 11:31:50.975000,12.975,6,BFW,0.5791666666666667,0.2678227360308285,1.0,6.0,right-puff,,,,,,,1.0,,,,,puff,9
151,151,2012-08-16 11:31:44.500000,2012-08-16 11:31:57.475000,12.975,6,BFW,1.0,0.4624277456647399,1.0,6.0,right-puff,,,,0.3448940269749518,,,1.0,,,,0.3448940269749518,puff,9
152,152,2012-08-16 11:31:51,2012-08-16 11:32:03.975000,12.975,6,BFW,0.4166666666666667,0.1926782273603083,1.0,6.0,right-puff,,,,0.8458574181117534,,,1.0,,,,0.8458574181117534,puff,9
153,153,2012-08-16 11:31:57.500000,2012-08-16 11:32:10.475000,12.975,6,BFW,,,,,,,,,1.0,,,1.0,,,,1.0,drinking,8
154,154,2012-08-16 11:32:04,2012-08-16 11:32:16.975000,12.975,6,BFW,,,,,,,,,1.0,,,1.0,,,,1.0,drinking,8
155,155,2012-08-16 11:32:10.500000,2012-08-16 11:32:23.475000,12.975,6,BFW,0.1735294117647059,0.1136801541425819,1.0,7.0,right-puff,,,,1.0,,,1.0,,,,1.0,drinking,8
156,156,2012-08-16 11:32:17,2012-08-16 11:32:29.975000,12.975,6,BFW,0.9382352941176471,0.6146435452793835,1.0,7.0,right-puff,,,,1.0,,,1.0,,,,1.0,puff,9
157,157,2012-08-16 11:32:23.500000,2012-08-16 11:32:36.475000,12.975,6,BFW,0.8235294117647058,0.5394990366088632,1.0,7.0,right-puff,,,,1.0,,,1.0,,,,1.0,puff,9
158,158,2012-08-16 11:32:30,2012-08-16 11:32:42.975000,12.975,6,BFW,0.058823529411764705,0.03853564547206166,1.0,7.0,right-puff,,,,1.0,,,1.0,,,,1.0,drinking,8
159,159,2012-08-16 11:32:36.500000,2012-08-16 11:32:49.475000,12.975,6,BFW,,,,,,,,,1.0,,,1.0,,,,1.0,rest,-1
160,160,2012-08-16 11:32:43,2012-08-16 11:32:55.975000,12.975,6,BFW,0.04523809523809524,0.036608863198458574,0.0,8.0,right-puff,,,,1.0,,,1.0,,,,1.0,rest,-1
161,161,2012-08-16 11:32:49.500000,2012-08-16 11:33:02.475000,12.975,6,BFW,0.6642857142857143,0.5375722543352601,0.0,8.0,right-puff,,,,1.0,,,1.0,,,,1.0,puff,9
162,162,2012-08-16 11:32:56,2012-08-16 11:33:08.975000,12.975,6,BFW,0.9523809523809523,0.7707129094412332,0.0,8.0,right-puff,,,,1.0,,,1.0,,,,1.0,puff,9
163,163,2012-08-16 11:33:02.500000,2012-08-16 11:33:15.475000,12.975,6,BFW,0.3333333333333333,0.2697495183044316,0.0,8.0,right-puff,,,,0.9633911368015414,,,1.0,,,,0.9633911368015414,puff,9
164,164,2012-08-16 11:33:09,2012-08-16 11:33:21.975000,12.975,6,BFW,,,,,,,,,0.4624277456647399,,,1.0,,,,0.4624277456647399,rest,-1
165,165,2012-08-16 11:33:15.500000,2012-08-16 11:33:28.475000,12.975,6,BFW,,,,,,,,,,,,1.0,,,,,rest,-1
166,166,2012-08-16 11:33:22,2012-08-16 11:33:34.975000,12.975,6,BFW,,,,,,,,,,,,1.0,,,,,others,0
167,167,2012-08-16 11:33:28.500000,2012-08-16 11:33:41.475000,12.975,6,BFW,,,,,,,,,,,,1.0,,,,,others,0
168,168,2012-08-16 11:33:35,2012-08-16 11:33:47.975000,12.975,6,BFW,0.61875,0.19075144508670522,0.0,9.0,right-puff,,,,,,,1.0,,,,,puff,9
169,169,2012-08-16 11:33:41.500000,2012-08-16 11:33:54.475000,12.975,6,BFW,1.0,0.3082851637764933,0.0,9.0,right-puff,,,,,,,1.0,,,,,puff,9
170,170,2012-08-16 11:33:48,2012-08-16 11:34:00.975000,12.975,6,BFW,0.375,0.11560693641618497,0.0,9.0,right-puff,,,,,,,0.6936416184971098,,,,,puff,9
171,171,2012-08-16 11:33:54.500000,2012-08-16 11:34:07.475000,12.975,6,BFW,,,,,,,,,,,,0.1926782273603083,,,,,others,0
172,172,2012-08-16 11:34:01,2012-08-16 11:34:13.975000,12.975,6,BFW,,,,,,,,,0.22928709055876687,,,,,,,,others,0
173,173,2012-08-16 11:34:07.500000,2012-08-16 11:34:20.475000,12.975,6,BFW,,,,,,,,,0.7302504816955684,,,,,,,,drinking,8
174,174,2012-08-16 11:34:14,2012-08-16 11:34:26.975000,12.975,6,BFW,,,,,,,,,1.0,,,,,,,,drinking,8
175,175,2012-08-16 11:34:20.500000,2012-08-16 11:34:33.475000,12.975,6,BFW,,,,,,,,,1.0,,,,,,,,drinking,8
176,176,2012-08-16 11:34:27,2012-08-16 11:34:39.975000,12.975,6,BFW,,,,,,,,,1.0,,,,,,,,drinking,8
177,177,2012-08-16 11:34:33.500000,2012-08-16 11:34:46.475000,12.975,6,BFW,,,,,,,,,1.0,,,,,,,,drinking,8
178,178,2012-08-16 11:34:40,2012-08-16 11:34:52.975000,12.975,6,BFW,,,,,,,,,0.7707129094412332,,,,,,,,drinking,8
179,179,2012-08-16 11:34:46.500000,2012-08-16 11:34:59.475000,12.975,6,BFW,,,,,,,,,0.2697495183044316,,,,,,,,drinking,8
180,180,2012-08-16 11:34:53,2012-08-16 11:35:05.975000,12.975,6,BFW,,,,,,,,,,,,,,,,,others,0
181,181,2012-08-16 11:34:59.500000,2012-08-16 11:35:12.475000,12.975,6,BFW,,,,,,,,,0.19075144508670522,,,,,,,,others,0
182,182,2012-08-16 11:35:06,2012-08-16 11:35:18.975000,12.975,6,BFW,,,,,,,,,0.6917148362235067,,,,,,,,drinking,8
183,183,2012-08-16 11:35:12.500000,2012-08-16 11:35:25.475000,12.975,6,BFW,,,,,,,,,1.0,,,,,,,,drinking,8
184,184,2012-08-16 11:35:19,2012-08-16 11:35:31.975000,12.975,6,BFW,,,,,,,,,1.0,,,,,,,,rest,-1
185,185,2012-08-16 11:35:25.500000,2012-08-16 11:35:38.475000,12.975,6,BFW,,,,,,,,,1.0,,,,,,,,drinking,8
186,186,2012-08-16 11:35:32,2012-08-16 11:35:44.975000,12.975,6,BFW,,,,,,,,,0.5394990366088632,,,,,,,,drinking,8
187,187,2012-08-16 11:35:38.500000,2012-08-16 11:35:51.475000,12.975,6,BFW,,,,,,,,,0.03853564547206166,,,,,,,,rest,-1
188,188,2012-08-16 11:35:45,2012-08-16 11:35:57.975000,12.975,6,BFW,,,,,,,,,,,,,,,,,rest,-1
189,189,2012-08-16 11:35:51.500000,2012-08-16 11:36:04.475000,12.975,6,BFW,,,,,,,,,,,,,,,,,rest,-1
190,190,2012-08-16 11:35:58,2012-08-16 11:36:10.975000,12.975,6,BFW,,,,,,,,,,,,,,,,,rest,-1
191,191,2012-08-16 11:36:04.500000,2012-08-16 11:36:17.475000,12.975,6,BFW,,,,,,,,,,,,,,,,,rest,-1
192,192,2012-08-16 11:36:11,2012-08-16 11:36:23.975000,12.975,6,BFW,,,,,,,,,,,,,,,,,rest,-1
193,193,2012-08-16 11:36:17.500000,2012-08-16 11:36:30.475000,12.975,6,BFW,,,,,,,,,0.19075144508670522,,,,,,,,others,0
194,194,2012-08-16 11:36:24,2012-08-16 11:36:36.975000,12.975,6,BFW,,,,,,,,,0.6917148362235067,,,,,,,,drinking,8
195,195,2012-08-16 11:36:30.500000,2012-08-16 11:36:43.475000,12.975,6,BFW,,,,,,,,,0.7321772639691715,,,,,,,,drinking,8
196,196,2012-08-16 11:36:37,2012-08-16 11:36:49.975000,12.975,6,BFW,,,,,,,,,0.23121387283236994,,,,,,,,others,0
197,197,2012-08-16 11:36:43.500000,2012-08-16 11:36:56.475000,12.975,6,BFW,,,,,,,,,,,,,,,,,others,0
198,198,2012-08-16 11:36:50,2012-08-16 11:37:02.975000,12.975,6,BFW,,,,,,,,,,,,,,,,,others,0
199,199,2012-08-16 11:36:56.500000,2012-08-16 11:37:09.475000,12.975,6,BFW,,,,,,,,,0.1136801541425819,,,,,,,,others,0
200,200,2012-08-16 11:37:03,2012-08-16 11:37:15.975000,12.975,6,BFW,,,,,,,,,0.23121387283236994,,,,,,,,others,0
201,201,2012-08-16 11:37:09.500000,2012-08-16 11:37:22.475000,12.975,6,BFW,,,,,,,,,0.11560693641618497,,,,,,,,others,0
202,202,2012-08-16 11:37:16,2012-08-16 11:37:28.975000,12.975,6,BFW,,,,,,,,,,,,,,,,,others,0
203,203,2012-08-16 11:37:22.500000,2012-08-16 11:37:35.475000,12.975,6,BFW,,,,,,,,,,,,,,,,,rest,-1
204,204,2012-08-16 11:37:29,2012-08-16 11:37:41.975000,12.975,6,BFW,,,,,,,,,,,,,,,,,others,0
205,205,2012-08-16 11:37:35.500000,2012-08-16 11:37:48.475000,12.975,6,BFW,,,,,,,,,,,,,,,,,others,0
206,206,2012-08-16 11:37:42,2012-08-16 11:37:54.975000,12.975,6,BFW,,,,,,,,,,,,,,,,,others,0
207,207,2012-08-16 11:37:48.500000,2012-08-16 11:38:01.475000,12.975,6,BFW,,,,,,,,,,,,,,,,,rest,-1
208,208,2012-08-16 11:37:55,2012-08-16 11:38:07.975000,12.975,6,BFW,,,,,,,,,,,,,,,,,others,0
209,209,2012-08-16 11:38:01.500000,2012-08-16 11:38:14.475000,12.975,6,BFW,,,,,,,,,,,,,,,,,others,0
210,210,2012-08-16 11:38:08,2012-08-16 11:38:20.975000,12.975,6,BFW,,,,,,,,,,,,,,,,,others,0
211,211,2012-08-16 11:38:14.500000,2012-08-16 11:38:27.475000,12.975,6,BFW,,,,,,,,,,,,,,,,,others,0
212,212,2012-08-16 11:38:21,2012-08-16 11:38:33.975000,12.975,6,BFW,,,,,,,,,,,,,,,,,others,0
213,213,2012-08-16 11:38:27.500000,2012-08-16 11:38:40.475000,12.975,6,BFW,,,,,,,,,,,,,,,,,others,0
214,214,2012-08-16 11:38:34,2012-08-16 11:38:46.975000,12.975,6,BFW,,,,,,,,,,,,,,,0.22928709055876687,,others,0
215,215,2012-08-16 11:38:40.500000,2012-08-16 11:38:53.475000,12.975,6,BFW,,,,,,,,,,,,,,,0.7302504816955684,,walking,1
216,216,2012-08-16 11:38:47,2012-08-16 11:38:59.975000,12.975,6,BFW,,,,,,,,,,,,,,,1.0,,walking,1
217,217,2012-08-16 11:38:53.500000,2012-08-16 11:39:06.475000,12.975,6,BFW,,,,,,,,,,,,,,,1.0,,walking,1
218,218,2012-08-16 11:39:00,2012-08-16 11:39:12.975000,12.975,6,BFW,,,,,,,,,,,,,,,1.0,,walking,1
219,219,2012-08-16 11:39:06.500000,2012-08-16 11:39:19.475000,12.975,6,BFW,,,,,,,,,,,,,,,1.0,,walking,1
220,220,2012-08-16 11:39:13,2012-08-16 11:39:25.975000,12.975,6,BFW,,,,,,,,,,,,,,,1.0,,walking,1
221,221,2012-08-16 11:39:19.500000,2012-08-16 11:39:32.475000,12.975,6,BFW,,,,,,,,,,,,,,,1.0,,walking,1
222,222,2012-08-16 11:39:26,2012-08-16 11:39:38.975000,12.975,6,BFW,,,,,,,,,,,,,,,1.0,,walking,1
223,223,2012-08-16 11:39:32.500000,2012-08-16 11:39:45.475000,12.975,6,BFW,,,,,,,,,,,,,,,1.0,,walking,1
224,224,2012-08-16 11:39:39,2012-08-16 11:39:51.975000,12.975,6,BFW,,,,,,,,,,,,,,,1.0,,walking,1
225,225,2012-08-16 11:39:45.500000,2012-08-16 11:39:58.475000,12.975,6,BFW,,,,,,,,,,,,,,,1.0,,walking,1
226,226,2012-08-16 11:39:52,2012-08-16 11:40:04.975000,12.975,6,BFW,,,,,,,,,,,,,,,1.0,,walking,1
227,227,2012-08-16 11:39:58.500000,2012-08-16 11:40:11.475000,12.975,6,BFW,,,,,,,,,,,,,,,1.0,,walking,1
228,228,2012-08-16 11:40:05,2012-08-16 11:40:17.975000,12.975,6,BFW,,,,,,,,,,,,,,,1.0,,walking,1
229,229,2012-08-16 11:40:11.500000,2012-08-16 11:40:24.475000,12.975,6,BFW,,,,,,,,,,,,,,,1.0,,walking,1
230,230,2012-08-16 11:40:18,2012-08-16 11:40:30.975000,12.975,6,BFW,,,,,,,,,,,,,,,1.0,,walking,1
231,231,2012-08-16 11:40:24.500000,2012-08-16 11:40:37.475000,12.975,6,BFW,,,,,,,,,,,,,,,1.0,,walking,1
232,232,2012-08-16 11:40:31,2012-08-16 11:40:43.975000,12.975,6,BFW,,,,,,,,,,,,,,,1.0,,walking,1
233,233,2012-08-16 11:40:37.500000,2012-08-16 11:40:50.475000,12.975,6,BFW,,,,,,,,,,,,,,,1.0,,walking,1
234,234,2012-08-16 11:40:44,2012-08-16 11:40:56.975000,12.975,6,BFW,,,,,,,,,,,,,,,1.0,,walking,1
235,235,2012-08-16 11:40:50.500000,2012-08-16 11:41:03.475000,12.975,6,BFW,,,,,,,,,,,,,,,1.0,,walking,1
236,236,2012-08-16 11:40:57,2012-08-16 11:41:09.975000,12.975,6,BFW,,,,,,,,,,,,,,,1.0,,walking,1
237,237,2012-08-16 11:41:03.500000,2012-08-16 11:41:16.475000,12.975,6,BFW,,,,,,,,,,,,,,,1.0,,walking,1
238,238,2012-08-16 11:41:10,2012-08-16 11:41:22.975000,12.975,6,BFW,,,,,,,,,,,,,,,1.0,,walking,1
239,239,2012-08-16 11:41:16.500000,2012-08-16 11:41:29.475000,12.975,6,BFW,,,,,,,,,,,,,,,0.5780346820809249,,walking,1
240,240,2012-08-16 11:41:23,2012-08-16 11:41:35.975000,12.975,6,BFW,,,,,,,,,,,,,,,0.07707129094412332,,others,0
241,241,2012-08-16 11:41:29.500000,2012-08-16 11:41:42.475000,12.975,6,BFW,,,,,,,,,,,,,,,,,others,0
242,242,2012-08-16 11:41:36,2012-08-16 11:41:48.975000,12.975,6,BFW,,,,,,,,,,,,,,,,,others,0
243,243,2012-08-16 11:41:42.500000,2012-08-16 11:41:55.475000,12.975,6,BFW,,,,,,,,,,,,,,,,,others,0
244,244,2012-08-16 11:41:49,2012-08-16 11:42:01.975000,12.975,6,BFW,,,,,,,,,,,,,,,,,others,0
245,245,2012-08-16 11:41:55.500000,2012-08-16 11:42:08.475000,12.975,6,BFW,,,,,,,,,,,,,,,,,others,0
246,246,2012-08-16 11:42:02,2012-08-16 11:42:14.975000,12.975,6,BFW,,,,,,,,,,,,,,,,,others,0
247,247,2012-08-16 11:42:08.500000,2012-08-16 11:42:21.475000,12.975,6,BFW,,,,,,,,,,,,,,,,,others,0
248,248,2012-08-16 11:42:15,2012-08-16 11:42:27.975000,12.975,6,BFW,,,,,,,,,0.4605009633911368,,,,,,,,drinking,8
249,249,2012-08-16 11:42:21.500000,2012-08-16 11:42:34.475000,12.975,6,BFW,,,,,,,,,0.6936416184971098,,,,,,,,drinking,8
250,250,2012-08-16 11:42:28,2012-08-16 11:42:40.975000,12.975,6,BFW,,,,,,,,,0.23121387283236994,,,,,,,,others,0
251,251,2012-08-16 11:42:34.500000,2012-08-16 11:42:47.475000,12.975,6,BFW,,,,,,,,,,,,,,,,,others,0
252,252,2012-08-16 11:42:41,2012-08-16 11:42:53.975000,12.975,6,BFW,,,,,,,,,,,,,,,,,others,0
253,253,2012-08-16 11:42:47.500000,2012-08-16 11:43:00.475000,12.975,6,BFW,,,,,,,,,,,,,,,,,others,0
254,254,2012-08-16 11:42:54,2012-08-16 11:43:06.975000,12.975,6,BFW,,,,,,,,,,,,,,,,,others,0
255,255,2012-08-16 11:43:00.500000,2012-08-16 11:43:13.475000,12.975,6,BFW,,,,,,,,,,,,,,,,,others,0
256,256,2012-08-16 11:43:07,2012-08-16 11:43:19.975000,12.975,6,BFW,,,,,,,,,,,,,,,,,others,0
257,257,2012-08-16 11:43:13.500000,2012-08-16 11:43:26.475000,12.975,6,BFW,,,,,,,,,,,,,,,,,others,0
258,258,2012-08-16 11:43:20,2012-08-16 11:43:32.975000,12.975,6,BFW,,,,,,,,,0.3063583815028902,,,,,,,,drinking,8
259,259,2012-08-16 11:43:26.500000,2012-08-16 11:43:39.475000,12.975,6,BFW,,,,,,,,,0.8073217726396917,,,,,,,,drinking,8
260,260,2012-08-16 11:43:33,2012-08-16 11:43:45.975000,12.975,6,BFW,,,,,,,,,1.0,,,,,,,,drinking,8
261,261,2012-08-16 11:43:39.500000,2012-08-16 11:43:52.475000,12.975,6,BFW,,,,,,,,,1.0,,,,,,,,drinking,8
262,262,2012-08-16 11:43:46,2012-08-16 11:43:58.975000,12.975,6,BFW,,,,,,,,,1.0,,,,,,,,drinking,8
263,263,2012-08-16 11:43:52.500000,2012-08-16 11:44:05.475000,12.975,6,BFW,,,,,,,,,1.0,,,,,,,,drinking,8
264,264,2012-08-16 11:43:59,2012-08-16 11:44:11.975000,12.975,6,BFW,,,,,,,,,1.0,,,,,,,,drinking,8
265,265,2012-08-16 11:44:05.500000,2012-08-16 11:44:18.475000,12.975,6,BFW,,,,,,,,,0.6551059730250481,,,,,,,,drinking,8
266,266,2012-08-16 11:44:12,2012-08-16 11:44:24.975000,12.975,6,BFW,,,,,,,,,0.15414258188824664,,,,,,,,others,0
267,267,2012-08-16 11:44:18.500000,2012-08-16 11:44:31.475000,12.975,6,BFW,,,,,,,,,,,,,,,,,others,0
268,268,2012-08-16 11:44:25,2012-08-16 11:44:37.975000,12.975,6,BFW,,,,,,,,,,,,,,,,,others,0
269,269,2012-08-16 11:44:31.500000,2012-08-16 11:44:44.475000,12.975,6,BFW,,,,,,,,,,,,,,,,,others,0
270,270,2012-08-16 11:44:38,2012-08-16 11:44:50.975000,12.975,6,BFW,,,,,,,,,,,,,,,,,others,0
271,271,2012-08-16 11:44:44.500000,2012-08-16 11:44:57.475000,12.975,6,BFW,,,,,,,,,,,,,,,,,others,0
272,272,2012-08-16 11:44:51,2012-08-16 11:45:03.975000,12.975,6,BFW,,,,,,,,,,,,,,,,,others,0
273,273,2012-08-16 11:44:57.500000,2012-08-16 11:45:10.475000,12.975,6,BFW,,,,,,,,,,,,,,,,,others,0
274,274,2012-08-16 11:45:04,2012-08-16 11:45:16.975000,12.975,6,BFW,,,,,,,,,,,,,,,,,others,0
275,275,2012-08-16 11:45:10.500000,2012-08-16 11:45:23.475000,12.975,6,BFW,,,,,,,,,,,,,,,,,others,0
276,276,2012-08-16 11:45:17,2012-08-16 11:45:29.975000,12.975,6,BFW,,,,,,,,,,,,,,,,,others,0
277,277,2012-08-16 11:45:23.500000,2012-08-16 11:45:36.475000,12.975,6,BFW,,,,,,,,,,,,,,,,,others,0
278,278,2012-08-16 11:45:30,2012-08-16 11:45:42.975000,12.975,6,BFW,,,,,,,,,,,,,,,,,others,0
279,279,2012-08-16 11:45:36.500000,2012-08-16 11:45:49.475000,12.975,6,BFW,,,,,,,,,,,,,,,,,others,0
280,280,2012-08-16 11:45:43,2012-08-16 11:45:55.975000,12.975,6,BFW,,,,,,,,,,,,,,,,,others,0
281,281,2012-08-16 11:45:49.500000,2012-08-16 11:46:02.475000,12.975,6,BFW,,,,,,,,,,,,,,,,,others,0
282,282,2012-08-16 11:45:56,2012-08-16 11:46:08.975000,12.975,6,BFW,,,,,,,,,,,,,,,,,others,0
283,283,2012-08-16 11:46:02.500000,2012-08-16 11:46:15.475000,12.975,6,BFW,,,,,,,,,,,,,,,,,others,0
284,284,2012-08-16 11:46:09,2012-08-16 11:46:21.975000,12.975,6,BFW,,,,,,,,,,,,,,,,,others,0
285,285,2012-08-16 11:46:15.500000,2012-08-16 11:46:28.475000,12.975,6,BFW,,,,,,,,,,,,,,,,,others,0
286,286,2012-08-16 11:46:22,2012-08-16 11:46:34.975000,12.975,6,BFW,,,,,,,,,,,,,,,,,others,0
287,287,2012-08-16 11:46:28.500000,2012-08-16 11:46:41.475000,12.975,6,BFW,,,,,,,,,,,,,,,,,others,0
288,288,2012-08-16 11:46:35,2012-08-16 11:46:47.975000,12.975,6,BFW,,,,,,,,,,,,,,,,,others,0
289,289,2012-08-16 11:46:41.500000,2012-08-16 11:46:54.475000,12.975,6,BFW,,,,,,,,,,,,,,,,,others,0
290,290,2012-08-16 11:46:48,2012-08-16 11:47:00.975000,12.975,6,BFW,,,,,,,,,,,,,,,,,others,0
291,291,2012-08-16 11:46:54.500000,2012-08-16 11:47:07.475000,12.975,6,BFW,,,,,,,,,,,,,,,,,others,0
292,292,2012-08-16 11:47:01,2012-08-16 11:47:13.975000,12.975,6,BFW,,,,,,,,,,,,,,,,,others,0
293,293,2012-08-16 11:47:07.500000,2012-08-16 11:47:20.475000,12.975,6,BFW,,,,,,,,,,,,,,,,,others,0
294,294,2012-08-16 11:47:14,2012-08-16 11:47:26.975000,12.975,6,BFW,,,,,,,,,,,,,,,,,others,0
295,295,2012-08-16 11:47:20.500000,2012-08-16 11:47:33.475000,12.975,6,BFW,,,,,,,,,,,,,,,,,others,0
296,296,2012-08-16 11:47:27,2012-08-16 11:47:39.975000,12.975,6,BFW,0.8423076923076922,0.42196531791907516,1.0,10.0,right-puff,,,,,,,0.4605009633911368,,,,,puff,9
297,297,2012-08-16 11:47:33.500000,2012-08-16 11:47:46.475000,12.975,6,BFW,1.0,0.5009633911368016,1.0,10.0,right-puff,,,,0.036608863198458574,,,0.9614643545279383,,,,0.036608863198458574,puff,9
298,298,2012-08-16 11:47:40,2012-08-16 11:47:52.975000,12.975,6,BFW,0.3038461538461539,0.15221579961464354,1.0,10.0,right-puff,,,,0.3853564547206166,,,1.0,,,,0.3853564547206166,puff,9
299,299,2012-08-16 11:47:46.500000,2012-08-16 11:47:59.475000,12.975,6,BFW,0.8794117647058823,0.5761078998073218,0.0,11.0,right-puff,,,,0.3468208092485549,,,1.0,,,,0.3468208092485549,puff,9
300,300,2012-08-16 11:47:53,2012-08-16 11:48:05.975000,12.975,6,BFW,0.8823529411764706,0.5780346820809249,0.0,11.0,right-puff,,,,,,,1.0,,,,,puff,9
301,301,2012-08-16 11:47:59.500000,2012-08-16 11:48:12.475000,12.975,6,BFW,0.11764705882352941,0.07707129094412332,0.0,11.0,right-puff,,,,,,,1.0,,,,,rest,-1
302,302,2012-08-16 11:48:06,2012-08-16 11:48:18.975000,12.975,6,BFW,0.8291666666666666,0.3834296724470135,0.0,12.0,right-puff,,,,,,,1.0,,,,,puff,9
303,303,2012-08-16 11:48:12.500000,2012-08-16 11:48:25.475000,12.975,6,BFW,1.0,0.4624277456647399,0.0,12.0,right-puff,,,,,,,1.0,,,,,puff,9
304,304,2012-08-16 11:48:19,2012-08-16 11:48:31.975000,12.975,6,BFW,0.16666666666666666,0.07707129094412332,0.0,12.0,right-puff,,,,,,,1.0,,,,,others,0
305,305,2012-08-16 11:48:25.500000,2012-08-16 11:48:38.475000,12.975,6,BFW,,,,,,,,,,,,1.0,,,,,others,0
306,306,2012-08-16 11:48:32,2012-08-16 11:48:44.975000,12.975,6,BFW,,,,,,,,,0.3834296724470135,,,1.0,,,,0.3834296724470135,drinking,8
307,307,2012-08-16 11:48:38.500000,2012-08-16 11:48:51.475000,12.975,6,BFW,,,,,,,,,0.884393063583815,,,1.0,,,,0.884393063583815,drinking,8
308,308,2012-08-16 11:48:45,2012-08-16 11:48:57.975000,12.975,6,BFW,,,,,,,,,1.0,,,1.0,,,,1.0,drinking,8
309,309,2012-08-16 11:48:51.500000,2012-08-16 11:49:04.475000,12.975,6,BFW,,,,,,,,,0.6551059730250481,,,1.0,,,,0.6551059730250481,drinking,8
310,310,2012-08-16 11:48:58,2012-08-16 11:49:10.975000,12.975,6,BFW,,,,,,,,,0.15414258188824664,,,1.0,,,,0.15414258188824664,others,0
311,311,2012-08-16 11:49:04.500000,2012-08-16 11:49:17.475000,12.975,6,BFW,,,,,,,,,,,,1.0,,,,,others,0
312,312,2012-08-16 11:49:11,2012-08-16 11:49:23.975000,12.975,6,BFW,,,,,,,,,,,,1.0,,,,,others,0
313,313,2012-08-16 11:49:17.500000,2012-08-16 11:49:30.475000,12.975,6,BFW,,,,,,,,,,,,1.0,,,,,others,0
314,314,2012-08-16 11:49:24,2012-08-16 11:49:36.975000,12.975,6,BFW,,,,,,,,,,,,1.0,,,,,others,0
315,315,2012-08-16 11:49:30.500000,2012-08-16 11:49:43.475000,12.975,6,BFW,,,,,,,,,,,,1.0,,,,,others,0
316,316,2012-08-16 11:49:37,2012-08-16 11:49:49.975000,12.975,6,BFW,,,,,,,0.3834296724470135,,,,,1.0,,,,0.3834296724470135,talking,5
317,317,2012-08-16 11:49:43.500000,2012-08-16 11:49:56.475000,12.975,6,BFW,0.17727272727272728,0.07514450867052024,1.0,13.0,right-puff,,0.8477842003853565,,,,,1.0,,,,0.8477842003853565,talking,5
318,318,2012-08-16 11:49:50,2012-08-16 11:50:02.975000,12.975,6,BFW,1.0,0.42389210019267826,1.0,13.0,right-puff,,0.4624277456647399,,,,,1.0,,,,0.4624277456647399,puff,9
319,319,2012-08-16 11:49:56.500000,2012-08-16 11:50:09.475000,12.975,6,BFW,0.8181818181818182,0.3468208092485549,1.0,13.0,right-puff,,,,,,,1.0,,,,,puff,9
320,320,2012-08-16 11:50:03,2012-08-16 11:50:15.975000,12.975,6,BFW,,,,,,,,,,,,1.0,,,,,others,0
321,321,2012-08-16 11:50:09.500000,2012-08-16 11:50:22.475000,12.975,6,BFW,,,,,,,,,,,,1.0,,,,,others,0
322,322,2012-08-16 11:50:16,2012-08-16 11:50:28.975000,12.975,6,BFW,,,,,,,,,,,,1.0,,,,,rest,-1
323,323,2012-08-16 11:50:22.500000,2012-08-16 11:50:35.475000,12.975,6,BFW,,,,,,,,,,,,1.0,,,,,rest,-1
324,324,2012-08-16 11:50:29,2012-08-16 11:50:41.975000,12.975,6,BFW,,,,,,,,,,,,1.0,,,,,others,0
325,325,2012-08-16 11:50:35.500000,2012-08-16 11:50:48.475000,12.975,6,BFW,,,,,,,,,0.1136801541425819,,,1.0,,,,0.1136801541425819,others,0
326,326,2012-08-16 11:50:42,2012-08-16 11:50:54.975000,12.975,6,BFW,,,,,,,,,0.6146435452793835,,,1.0,,,,0.6146435452793835,drinking,8
327,327,2012-08-16 11:50:48.500000,2012-08-16 11:51:01.475000,12.975,6,BFW,0.795,0.3063583815028902,1.0,14.0,right-puff,,,,0.7321772639691715,,,1.0,,,,0.7321772639691715,puff,9
328,328,2012-08-16 11:50:55,2012-08-16 11:51:07.975000,12.975,6,BFW,1.0,0.3853564547206166,1.0,14.0,right-puff,,,,0.23121387283236994,,,1.0,,,,0.23121387283236994,puff,9
329,329,2012-08-16 11:51:01.500000,2012-08-16 11:51:14.475000,12.975,6,BFW,0.2,0.07707129094412332,1.0,14.0,right-puff,,,,,,,1.0,,,,,others,0
330,330,2012-08-16 11:51:08,2012-08-16 11:51:20.975000,12.975,6,BFW,,,,,,,,,,,,1.0,,,,,rest,-1
331,331,2012-08-16 11:51:14.500000,2012-08-16 11:51:27.475000,12.975,6,BFW,0.495,0.19075144508670522,1.0,15.0,right-puff,,,,,,,1.0,,,,,rest,-1
332,332,2012-08-16 11:51:21,2012-08-16 11:51:33.975000,12.975,6,BFW,1.0,0.3853564547206166,1.0,15.0,right-puff,,,,,,,1.0,,,,,rest,-1
333,333,2012-08-16 11:51:27.500000,2012-08-16 11:51:40.475000,12.975,6,BFW,0.5,0.1926782273603083,1.0,15.0,right-puff,,,,,,,1.0,,,,,rest,-1
334,334,2012-08-16 11:51:34,2012-08-16 11:51:46.975000,12.975,6,BFW,,,,,,,,,,,,1.0,,,,,rest,-1
335,335,2012-08-16 11:51:40.500000,2012-08-16 11:51:53.475000,12.975,6,BFW,,,,,,,,,,,,1.0,,,,,others,0
336,336,2012-08-16 11:51:47,2012-08-16 11:51:59.975000,12.975,6,BFW,,,,,,,,,,,,1.0,,,,,others,0
337,337,2012-08-16 11:51:53.500000,2012-08-16 11:52:06.475000,12.975,6,BFW,,,,,,,,,,,,1.0,,,,,others,0
338,338,2012-08-16 11:52:00,2012-08-16 11:52:12.975000,12.975,6,BFW,,,,,,,,,,,,1.0,,,,,others,0
339,339,2012-08-16 11:52:06.500000,2012-08-16 11:52:19.475000,12.975,6,BFW,,,,,,,,,,,,1.0,,,,,others,0
340,340,2012-08-16 11:52:13,2012-08-16 11:52:25.975000,12.975,6,BFW,,,,,,,,,0.3063583815028902,,,1.0,,,,0.3063583815028902,drinking,8
341,341,2012-08-16 11:52:19.500000,2012-08-16 11:52:32.475000,12.975,6,BFW,,,,,,,,,0.3853564547206166,,,1.0,,,,0.3853564547206166,drinking,8
342,342,2012-08-16 11:52:26,2012-08-16 11:52:38.975000,12.975,6,BFW,0.496875,0.3063583815028902,1.0,16.0,right-puff,,,,0.07707129094412332,,,1.0,,,,0.07707129094412332,puff,9
343,343,2012-08-16 11:52:32.500000,2012-08-16 11:52:45.475000,12.975,6,BFW,1.0,0.6165703275529866,1.0,16.0,right-puff,,,,,,,1.0,,,,,puff,9
344,344,2012-08-16 11:52:39,2012-08-16 11:52:51.975000,12.975,6,BFW,0.5,0.3082851637764933,1.0,16.0,right-puff,,,,,,,1.0,,,,,puff,9
345,345,2012-08-16 11:52:45.500000,2012-08-16 11:52:58.475000,12.975,6,BFW,,,,,,,,,,,,1.0,,,,,rest,-1
346,346,2012-08-16 11:52:52,2012-08-16 11:53:04.975000,12.975,6,BFW,,,,,,,,,,,,1.0,,,,,rest,-1
347,347,2012-08-16 11:52:58.500000,2012-08-16 11:53:11.475000,12.975,6,BFW,,,,,,,,,,,,1.0,,,,,others,0
348,348,2012-08-16 11:53:05,2012-08-16 11:53:17.975000,12.975,6,BFW,1.0,0.42389210019267826,1.0,17.0,right-puff,,,,,,,1.0,,,,,puff,9
349,349,2012-08-16 11:53:11.500000,2012-08-16 11:53:24.475000,12.975,6,BFW,1.0,0.42389210019267826,1.0,17.0,right-puff,,,,,,,1.0,,,,,puff,9
350,350,2012-08-16 11:53:18,2012-08-16 11:53:30.975000,12.975,6,BFW,,,,,,,,,,,,1.0,,,,,others,0
351,351,2012-08-16 11:53:24.500000,2012-08-16 11:53:37.475000,12.975,6,BFW,,,,,,,,,,,,0.8092485549132948,,,,,others,0
352,352,2012-08-16 11:53:31,2012-08-16 11:53:43.975000,12.975,6,BFW,,,,,,,,,,,,0.3082851637764933,,,,,others,0
353,353,2012-08-16 11:53:37.500000,2012-08-16 11:53:50.475000,12.975,6,BFW,,,,,,,,,,,,,,,,,others,0
354,354,2012-08-16 11:53:44,2012-08-16 11:53:56.975000,12.975,6,BFW,,,,,,,,,,,,,,,,,others,0
355,355,2012-08-16 11:53:50.500000,2012-08-16 11:54:03.475000,12.975,6,BFW,,,,,,,,,,,,,,,,,others,0
356,356,2012-08-16 11:53:57,2012-08-16 11:54:09.975000,12.975,6,BFW,,,,,,,,,,,,,,,,,others,0
357,357,2012-08-16 11:54:03.500000,2012-08-16 11:54:16.475000,12.975,6,BFW,,,,,,,,,,,,,,,,,others,0
358,358,2012-08-16 11:54:10,2012-08-16 11:54:22.975000,12.975,6,BFW,,,,,,,,,,,,,,,,,others,0
359,359,2012-08-16 11:54:16.500000,2012-08-16 11:54:29.475000,12.975,6,BFW,,,,,,,,,,,,,,,,,others,0
360,360,2012-08-16 11:54:23,2012-08-16 11:54:35.975000,12.975,6,BFW,,,,,,,,,0.3063583815028902,,,,,,,,drinking,8
361,361,2012-08-16 11:54:29.500000,2012-08-16 11:54:42.475000,12.975,6,BFW,,,,,,,,,0.8073217726396917,,,,,,,,drinking,8
362,362,2012-08-16 11:54:36,2012-08-16 11:54:48.975000,12.975,6,BFW,,,,,,,,,1.0,,,,,,,,rest,-1
363,363,2012-08-16 11:54:42.500000,2012-08-16 11:54:55.475000,12.975,6,BFW,,,,,,,,,1.0,,,,,,,,drinking,8
364,364,2012-08-16 11:54:49,2012-08-16 11:55:01.975000,12.975,6,BFW,,,,,,,,,1.0,,,,,,,,drinking,8
365,365,2012-08-16 11:54:55.500000,2012-08-16 11:55:08.475000,12.975,6,BFW,,,,,,,,,1.0,,,,,,,,drinking,8
366,366,2012-08-16 11:55:02,2012-08-16 11:55:14.975000,12.975,6,BFW,,,,,,,,,1.0,,,,,,,,drinking,8
367,367,2012-08-16 11:55:08.500000,2012-08-16 11:55:21.475000,12.975,6,BFW,,,,,,,,,1.0,,,,,,,,drinking,8
368,368,2012-08-16 11:55:15,2012-08-16 11:55:27.975000,12.975,6,BFW,,,,,,,,,1.0,,,,,,,,drinking,8
369,369,2012-08-16 11:55:21.500000,2012-08-16 11:55:34.475000,12.975,6,BFW,,,,,,,,,1.0,,,,,,,,drinking,8
370,370,2012-08-16 11:55:28,2012-08-16 11:55:40.975000,12.975,6,BFW,,,,,,,,,1.0,,,,,,,,rest,-1
371,371,2012-08-16 11:55:34.500000,2012-08-16 11:55:47.475000,12.975,6,BFW,,,,,,,,,1.0,,,,,,,,drinking,8
372,372,2012-08-16 11:55:41,2012-08-16 11:55:53.975000,12.975,6,BFW,,,,,,,,,1.0,,,,,,,,drinking,8
373,373,2012-08-16 11:55:47.500000,2012-08-16 11:56:00.475000,12.975,6,BFW,,,,,,,,,1.0,,,,,,,,drinking,8
374,374,2012-08-16 11:55:54,2012-08-16 11:56:06.975000,12.975,6,BFW,,,,,,,,,1.0,,,,,,,,drinking,8
375,375,2012-08-16 11:56:00.500000,2012-08-16 11:56:13.475000,12.975,6,BFW,,,,,,,,,1.0,,,,,,,,drinking,8
376,376,2012-08-16 11:56:07,2012-08-16 11:56:19.975000,12.975,6,BFW,,,,,,,,,0.7707129094412332,,,,,,,,drinking,8
377,377,2012-08-16 11:56:13.500000,2012-08-16 11:56:26.475000,12.975,6,BFW,,,,,,,,,0.2697495183044316,,,,,,,,drinking,8
378,378,2012-08-16 11:56:20,2012-08-16 11:56:32.975000,12.975,6,BFW,,,,,,,,,,,,,,,,,others,0
379,379,2012-08-16 11:56:26.500000,2012-08-16 11:56:39.475000,12.975,6,BFW,,,,,,,,,,,,,,,,,others,0
380,380,2012-08-16 11:56:33,2012-08-16 11:56:45.975000,12.975,6,BFW,,,,,,,,,,,,,,,,,rest,-1
381,381,2012-08-16 11:56:39.500000,2012-08-16 11:56:52.475000,12.975,6,BFW,,,,,,,,,,,,,,,,,rest,-1
382,382,2012-08-16 11:56:46,2012-08-16 11:56:58.975000,12.975,6,BFW,,,,,,,,,,,,,,,,,rest,-1
383,383,2012-08-16 11:56:52.500000,2012-08-16 11:57:05.475000,12.975,6,BFW,,,,,,,,,,,,,,,,,others,0
384,384,2012-08-16 11:56:59,2012-08-16 11:57:11.975000,12.975,6,BFW,,,,,,,,,,,,,,,,,others,0
385,385,2012-08-16 11:57:05.500000,2012-08-16 11:57:18.475000,12.975,6,BFW,,,,,,,,,,,,,,,,,others,0
386,386,2012-08-16 11:57:12,2012-08-16 11:57:24.975000,12.975,6,BFW,,,,,,,,,,,,,,,,,rest,-1
387,387,2012-08-16 11:57:18.500000,2012-08-16 11:57:31.475000,12.975,6,BFW,,,,,,,,,,,,,,,,,rest,-1
388,388,2012-08-16 11:57:25,2012-08-16 11:57:37.975000,12.975,6,BFW,,,,,,,,,,,,,,,,,rest,-1
389,389,2012-08-16 11:57:31.500000,2012-08-16 11:57:44.475000,12.975,6,BFW,,,,,,,,,,,,,,,,,rest,-1
390,390,2012-08-16 11:57:38,2012-08-16 11:57:50.975000,12.975,6,BFW,,,,,,,,,,,,,,,,,rest,-1
391,391,2012-08-16 11:57:44.500000,2012-08-16 11:57:57.475000,12.975,6,BFW,,,,,,,,,,,,,,,,,rest,-1
392,392,2012-08-16 11:57:51,2012-08-16 11:58:03.975000,12.975,6,BFW,,,,,,,,,,,,,,,,,others,0
393,393,2012-08-16 11:57:57.500000,2012-08-16 11:58:10.475000,12.975,6,BFW,,,,,,,,,0.42196531791907516,,,,,,,,drinking,8
394,394,2012-08-16 11:58:04,2012-08-16 11:58:16.975000,12.975,6,BFW,,,,,,,,,0.4624277456647399,,,,,,,,drinking,8
395,395,2012-08-16 11:58:10.500000,2012-08-16 11:58:23.475000,12.975,6,BFW,,,,,,,,,0.03853564547206166,,,,,,,,rest,-1
396,396,2012-08-16 11:58:17,2012-08-16 11:58:29.975000,12.975,6,BFW,,,,,,,,,,,,,,,,,rest,-1
397,397,2012-08-16 11:58:23.500000,2012-08-16 11:58:36.475000,12.975,6,BFW,,,,,,,,,,,,,,,,,others,0
398,398,2012-08-16 11:58:30,2012-08-16 11:58:42.975000,12.975,6,BFW,,,,,,,,,,,,,,,,,rest,-1
399,399,2012-08-16 11:58:36.500000,2012-08-16 11:58:49.475000,12.975,6,BFW,,,,,,,,,,,,,,,,,rest,-1
400,400,2012-08-16 11:58:43,2012-08-16 11:58:55.975000,12.975,6,BFW,,,,,,,,,,,,,,,,,others,0
401,401,2012-08-16 11:58:49.500000,2012-08-16 11:59:02.475000,12.975,6,BFW,,,,,,,,,,,,,,,,,rest,-1
402,402,2012-08-16 11:58:56,2012-08-16 11:59:08.975000,12.975,6,BFW,,,,,,,,,,,,,,,,,others,0
403,403,2012-08-16 11:59:02.500000,2012-08-16 11:59:15.475000,12.975,6,BFW,,,,,,,,,,,,,,,,,others,0
404,404,2012-08-16 11:59:09,2012-08-16 11:59:21.975000,12.975,6,BFW,,,,,,,,,,,,,,,,,others,0
405,405,2012-08-16 11:59:15.500000,2012-08-16 11:59:28.475000,12.975,6,BFW,,,,,,,,,,,,,,,,,others,0
406,406,2012-08-16 11:59:22,2012-08-16 11:59:34.975000,12.975,6,BFW,,,,,,,,,,,,,,,,,rest,-1
407,407,2012-08-16 11:59:28.500000,2012-08-16 11:59:41.475000,12.975,6,BFW,,,,,,,,,,,,,,,,,others,0
408,408,2012-08-16 11:59:35,2012-08-16 11:59:47.975000,12.975,6,BFW,,,,,,,,,,,,,,,,,others,0
409,409,2012-08-16 11:59:41.500000,2012-08-16 11:59:54.475000,12.975,6,BFW,,,,,,,,,,,,,,,,,rest,-1
410,410,2012-08-16 11:59:48,2012-08-16 12:00:00.975000,12.975,6,BFW,,,,,,,,,,,,,,,,,rest,-1
411,411,2012-08-16 11:59:54.500000,2012-08-16 12:00:07.475000,12.975,6,BFW,,,,,,,,,,,,,,,,,rest,-1
412,412,2012-08-16 12:00:01,2012-08-16 12:00:13.975000,12.975,6,BFW,,,,,,,,,,,,,,,,,rest,-1
413,413,2012-08-16 12:00:07.500000,2012-08-16 12:00:20.475000,12.975,6,BFW,,,,,,,,,,,,,,,,,rest,-1
414,414,2012-08-16 12:00:14,2012-08-16 12:00:26.975000,12.975,6,BFW,,,,,,,,,,,,,,,,,rest,-1
415,415,2012-08-16 12:00:20.500000,2012-08-16 12:00:33.475000,12.975,6,BFW,,,,,,,,,,,,,,,,,others,0
416,416,2012-08-16 12:00:27,2012-08-16 12:00:39.975000,12.975,6,BFW,,,,,,,,,,,,,,,,,others,0
417,417,2012-08-16 12:00:33.500000,2012-08-16 12:00:46.475000,12.975,6,BFW,,,,,,,,,,,,,,,,,others,0
418,418,2012-08-16 12:00:40,2012-08-16 12:00:52.975000,12.975,6,BFW,,,,,,,,,,,,,,,,,rest,-1
419,419,2012-08-16 12:00:46.500000,2012-08-16 12:00:59.475000,12.975,6,BFW,,,,,,,,,,,,,,,,,rest,-1
420,420,2012-08-16 12:00:53,2012-08-16 12:01:05.975000,12.975,6,BFW,,,,,,,,,,,,,,,,,rest,-1
421,421,2012-08-16 12:00:59.500000,2012-08-16 12:01:12.475000,12.975,6,BFW,,,,,,,,,,,,,,,,,rest,-1
422,422,2012-08-16 12:01:06,2012-08-16 12:01:18.975000,12.975,6,BFW,,,,,,,,,,,,,,,,,rest,-1
423,423,2012-08-16 12:01:12.500000,2012-08-16 12:01:25.475000,12.975,6,BFW,,,,,,,,,,,,,,,,,others,0
424,424,2012-08-16 12:01:19,2012-08-16 12:01:31.975000,12.975,6,BFW,,,,,,,,,,,,,,,,,rest,-1
425,425,2012-08-16 12:01:25.500000,2012-08-16 12:01:38.475000,12.975,6,BFW,,,,,,,,,,,,,,,,,others,0
426,426,2012-08-16 12:01:32,2012-08-16 12:01:44.975000,12.975,6,BFW,,,,,,,,,,,,,,,,,others,0
427,427,2012-08-16 12:01:38.500000,2012-08-16 12:01:51.475000,12.975,6,BFW,,,,,,,,,,,,,,,,,others,0
428,428,2012-08-16 12:01:45,2012-08-16 12:01:57.975000,12.975,6,BFW,,,,,,,,,,,,,,,,,rest,-1
429,429,2012-08-16 12:01:51.500000,2012-08-16 12:02:04.475000,12.975,6,BFW,,,,,,,,,,,,,,,,,rest,-1
430,430,2012-08-16 12:01:58,2012-08-16 12:02:10.975000,12.975,6,BFW,,,,,,,,,,,,,,,,,rest,-1
431,431,2012-08-16 12:02:04.500000,2012-08-16 12:02:17.475000,12.975,6,BFW,,,,,,,,,,,,,,,,,others,0
432,432,2012-08-16 12:02:11,2012-08-16 12:02:23.975000,12.975,6,BFW,,,,,,,,,,,,,,,,,others,0
433,433,2012-08-16 12:02:17.500000,2012-08-16 12:02:30.475000,12.975,6,BFW,,,,,,,,,,,,,,,,,others,0
434,434,2012-08-16 12:02:24,2012-08-16 12:02:36.975000,12.975,6,BFW,,,,,,,,,,,,,,,,,others,0
435,435,2012-08-16 12:02:30.500000,2012-08-16 12:02:43.475000,12.975,6,BFW,,,,,,,,,,,,,,,,,others,0
436,436,2012-08-16 12:02:37,2012-08-16 12:02:49.975000,12.975,6,BFW,,,,,,,,,0.07514450867052024,,,,,,,,others,0
437,437,2012-08-16 12:02:43.500000,2012-08-16 12:02:56.475000,12.975,6,BFW,,,,,,,,,0.5761078998073218,,,,,,,,drinking,8
438,438,2012-08-16 12:02:50,2012-08-16 12:03:02.975000,12.975,6,BFW,,,,,,,,,1.0,,,,,,,,drinking,8
439,439,2012-08-16 12:02:56.500000,2012-08-16 12:03:09.475000,12.975,6,BFW,,,,,,,,,0.5780346820809249,,,,,,,,drinking,8
440,440,2012-08-16 12:03:03,2012-08-16 12:03:15.975000,12.975,6,BFW,,,,,,,,,0.07707129094412332,,,,,,,,others,0
441,441,2012-08-16 12:03:09.500000,2012-08-16 12:03:22.475000,12.975,6,BFW,,,,,,,,,,,,,,,,,others,0
442,442,2012-08-16 12:03:16,2012-08-16 12:03:28.975000,12.975,6,BFW,,,,,,,,,,,,,,,,,others,0
443,443,2012-08-16 12:03:22.500000,2012-08-16 12:03:35.475000,12.975,6,BFW,,,,,,,,,,,,,,,,,others,0
444,444,2012-08-16 12:03:29,2012-08-16 12:03:41.975000,12.975,6,BFW,,,,,,,,,,,,,,,,,others,0
445,445,2012-08-16 12:03:35.500000,2012-08-16 12:03:48.475000,12.975,6,BFW,,,,,,,,,,,,,,,,,others,0
446,446,2012-08-16 12:03:42,2012-08-16 12:03:54.975000,12.975,6,BFW,,,,,,,,,,,,,,,,,rest,-1
447,447,2012-08-16 12:03:48.500000,2012-08-16 12:04:01.475000,12.975,6,BFW,,,,,,,,,,,,,,,,,others,0
448,448,2012-08-16 12:03:55,2012-08-16 12:04:07.975000,12.975,6,BFW,,,,,,,,,,,,,,,,,others,0
449,449,2012-08-16 12:04:01.500000,2012-08-16 12:04:14.475000,12.975,6,BFW,,,,,,,,,,,,,,,,,rest,-1
450,450,2012-08-16 12:04:08,2012-08-16 12:04:20.975000,12.975,6,BFW,,,,,,,,,,,,,,,,,rest,-1
451,451,2012-08-16 12:04:14.500000,2012-08-16 12:04:27.475000,12.975,6,BFW,,,,,,,,,,,,,,,,,rest,-1
452,452,2012-08-16 12:04:21,2012-08-16 12:04:33.975000,12.975,6,BFW,,,,,,,,,,,,,,,,,others,0
453,453,2012-08-16 12:04:27.500000,2012-08-16 12:04:40.475000,12.975,6,BFW,,,,,,,,,,,,,,,,,others,0
454,454,2012-08-16 12:04:34,2012-08-16 12:04:46.975000,12.975,6,BFW,,,,,,,,,,,,,,,,,others,0
455,455,2012-08-16 12:04:40.500000,2012-08-16 12:04:53.475000,12.975,6,BFW,,,,,,,,,,,,,,,,,others,0
456,456,2012-08-16 12:04:47,2012-08-16 12:04:59.975000,12.975,6,BFW,,,,,,,,,,,,,,,,,others,0
457,457,2012-08-16 12:04:53.500000,2012-08-16 12:05:06.475000,12.975,6,BFW,,,,,,,,,,,,,,,,,others,0
458,458,2012-08-16 12:05:00,2012-08-16 12:05:12.975000,12.975,6,BFW,,,,,,,,,,,,,,,,,others,0
459,459,2012-08-16 12:05:06.500000,2012-08-16 12:05:19.475000,12.975,6,BFW,,,,,,,,,,,,,,,,,others,0
460,460,2012-08-16 12:05:13,2012-08-16 12:05:25.975000,12.975,6,BFW,,,,,,,,,,,,,,,,,rest,-1
461,461,2012-08-16 12:05:19.500000,2012-08-16 12:05:32.475000,12.975,6,BFW,,,,,,,,,,,,,,,,,others,0
462,462,2012-08-16 12:05:26,2012-08-16 12:05:38.975000,12.975,6,BFW,,,,,,,,,,,,,,,,,others,0
463,463,2012-08-16 12:05:32.500000,2012-08-16 12:05:45.475000,12.975,6,BFW,,,,,,,,,,,,,,,,,others,0
464,464,2012-08-16 12:05:39,2012-08-16 12:05:51.975000,12.975,6,BFW,,,,,,,,,,,,,,,,,others,0
465,465,2012-08-16 12:05:45.500000,2012-08-16 12:05:58.475000,12.975,6,BFW,,,,,,,,,0.1136801541425819,,,,,,,,others,0
466,466,2012-08-16 12:05:52,2012-08-16 12:06:04.975000,12.975,6,BFW,,,,,,,,,0.3082851637764933,,,,,,,,drinking,8
467,467,2012-08-16 12:05:58.500000,2012-08-16 12:06:11.475000,12.975,6,BFW,,,,,,,,,0.1926782273603083,,,,,,,,others,0
468,468,2012-08-16 12:06:05,2012-08-16 12:06:17.975000,12.975,6,BFW,,,,,,,,,,,,,,,,,others,0
469,469,2012-08-16 12:06:11.500000,2012-08-16 12:06:24.475000,12.975,6,BFW,,,,,,,,,,,,,,,,,others,0
470,470,2012-08-16 12:06:18,2012-08-16 12:06:30.975000,12.975,6,BFW,,,,,,,,,,,,,,,,,others,0
471,471,2012-08-16 12:06:24.500000,2012-08-16 12:06:37.475000,12.975,6,BFW,,,,,,,,,,,,,,,,,others,0
472,472,2012-08-16 12:06:31,2012-08-16 12:06:43.975000,12.975,6,BFW,,,,,,,,,,,,,,,,,others,0
473,473,2012-08-16 12:06:37.500000,2012-08-16 12:06:50.475000,12.975,6,BFW,,,,,,,,,,,,,,,,,others,0
474,474,2012-08-16 12:06:44,2012-08-16 12:06:56.975000,12.975,6,BFW,,,,,,,,,,,,,,,,,rest,-1
475,475,2012-08-16 12:06:50.500000,2012-08-16 12:07:03.475000,12.975,6,BFW,,,,,,,,,,,,,,,,,others,0
476,476,2012-08-16 12:06:57,2012-08-16 12:07:09.975000,12.975,6,BFW,,,,,,,,,,,,,,,,,others,0
477,477,2012-08-16 12:07:03.500000,2012-08-16 12:07:16.475000,12.975,6,BFW,,,,,,,,,,,,,,,,,others,0
478,478,2012-08-16 12:07:10,2012-08-16 12:07:22.975000,12.975,6,BFW,,,,,,,,,,,,,,,,,others,0
479,479,2012-08-16 12:07:16.500000,2012-08-16 12:07:29.475000,12.975,6,BFW,,,,,,,,,,,,,,,,,others,0
480,480,2012-08-16 12:07:23,2012-08-16 12:07:35.975000,12.975,6,BFW,,,,,,,,,,,,,,,,,others,0
481,481,2012-08-16 12:07:29.500000,2012-08-16 12:07:42.475000,12.975,6,BFW,,,,,,,,,,,,,,,,,others,0
482,482,2012-08-16 12:07:36,2012-08-16 12:07:48.975000,12.975,6,BFW,,,,,,,,,,,,,,,,,others,0
483,483,2012-08-16 12:07:42.500000,2012-08-16 12:07:55.475000,12.975,6,BFW,,,,,,,,,,,,,,,,,others,0
484,484,2012-08-16 12:07:49,2012-08-16 12:08:01.975000,12.975,6,BFW,,,,,,,,,,,,,0.4605009633911368,,,,computer,4
485,485,2012-08-16 12:07:55.500000,2012-08-16 12:08:08.475000,12.975,6,BFW,,,,,,,,,,,,,0.9614643545279383,,,,computer,4
486,486,2012-08-16 12:08:02,2012-08-16 12:08:14.975000,12.975,6,BFW,,,,,,,,,,,,,1.0,,,,computer,4
487,487,2012-08-16 12:08:08.500000,2012-08-16 12:08:21.475000,12.975,6,BFW,,,,,,,,,,,,,1.0,,,,computer,4
488,488,2012-08-16 12:08:15,2012-08-16 12:08:27.975000,12.975,6,BFW,,,,,,,,,,,,,1.0,,,,rest,-1
489,489,2012-08-16 12:08:21.500000,2012-08-16 12:08:34.475000,12.975,6,BFW,,,,,,,,,,,,,1.0,,,,computer,4
490,490,2012-08-16 12:08:28,2012-08-16 12:08:40.975000,12.975,6,BFW,,,,,,,,,,,,,1.0,,,,computer,4
491,491,2012-08-16 12:08:34.500000,2012-08-16 12:08:47.475000,12.975,6,BFW,,,,,,,,,,,,,1.0,,,,computer,4
492,492,2012-08-16 12:08:41,2012-08-16 12:08:53.975000,12.975,6,BFW,,,,,,,,,,,,,1.0,,,,computer,4
493,493,2012-08-16 12:08:47.500000,2012-08-16 12:09:00.475000,12.975,6,BFW,,,,,,,,,,,,,1.0,,,,computer,4
494,494,2012-08-16 12:08:54,2012-08-16 12:09:06.975000,12.975,6,BFW,,,,,,,,,,,,,1.0,,,,computer,4
495,495,2012-08-16 12:09:00.500000,2012-08-16 12:09:13.475000,12.975,6,BFW,,,,,,,,,,,,,1.0,,,,computer,4
496,496,2012-08-16 12:09:07,2012-08-16 12:09:19.975000,12.975,6,BFW,,,,,,,,,,,,,1.0,,,,rest,-1
497,497,2012-08-16 12:09:13.500000,2012-08-16 12:09:26.475000,12.975,6,BFW,,,,,,,,,,,,,1.0,,,,rest,-1
498,498,2012-08-16 12:09:20,2012-08-16 12:09:32.975000,12.975,6,BFW,,,,,,,,,,,,,1.0,,,,computer,4
499,499,2012-08-16 12:09:26.500000,2012-08-16 12:09:39.475000,12.975,6,BFW,,,,,,,,,,,,,1.0,,,,computer,4
500,500,2012-08-16 12:09:33,2012-08-16 12:09:45.975000,12.975,6,BFW,,,,,,,,,,,,,1.0,,,,computer,4
501,501,2012-08-16 12:09:39.500000,2012-08-16 12:09:52.475000,12.975,6,BFW,,,,,,,,,,,,,0.5780346820809249,,,,computer,4
502,502,2012-08-16 12:09:46,2012-08-16 12:09:58.975000,12.975,6,BFW,,,,,,,,,,,,,0.5375722543352601,,,,computer,4
503,503,2012-08-16 12:09:52.500000,2012-08-16 12:10:05.475000,12.975,6,BFW,,,,,,,,,,,,,0.9614643545279383,,,,rest,-1
504,504,2012-08-16 12:09:59,2012-08-16 12:10:11.975000,12.975,6,BFW,,,,,,,,,,,,,1.0,,,,computer,4
505,505,2012-08-16 12:10:05.500000,2012-08-16 12:10:18.475000,12.975,6,BFW,,,,,,,,,,,,,1.0,,,,computer,4
506,506,2012-08-16 12:10:12,2012-08-16 12:10:24.975000,12.975,6,BFW,,,,,,,,,,,,,1.0,,,,rest,-1
507,507,2012-08-16 12:10:18.500000,2012-08-16 12:10:31.475000,12.975,6,BFW,,,,,,,,,,,,,1.0,,,,rest,-1
508,508,2012-08-16 12:10:25,2012-08-16 12:10:37.975000,12.975,6,BFW,,,,,,,,,,,,,1.0,,,,computer,4
509,509,2012-08-16 12:10:31.500000,2012-08-16 12:10:44.475000,12.975,6,BFW,,,,,,,,,,,,,1.0,,,,computer,4
510,510,2012-08-16 12:10:38,2012-08-16 12:10:50.975000,12.975,6,BFW,,,,,,,,,,,,,0.7707129094412332,,,,computer,4
511,511,2012-08-16 12:10:44.500000,2012-08-16 12:10:57.475000,12.975,6,BFW,,,,,,,,,,,,,0.2697495183044316,,,,others,0
512,512,2012-08-16 12:10:51,2012-08-16 12:11:03.975000,12.975,6,BFW,,,,,,,,,,,,,,,,,others,0
513,513,2012-08-16 12:10:57.500000,2012-08-16 12:11:10.475000,12.975,6,BFW,,,,,,,,,,,,,,,,,others,0
514,514,2012-08-16 12:11:04,2012-08-16 12:11:16.975000,12.975,6,BFW,,,,,,,,,,,,,,,,,rest,-1
515,515,2012-08-16 12:11:10.500000,2012-08-16 12:11:23.475000,12.975,6,BFW,,,,,,,,,,,,,,,,,rest,-1
516,516,2012-08-16 12:11:17,2012-08-16 12:11:29.975000,12.975,6,BFW,,,,,,,,,,,,,,,,,rest,-1
517,517,2012-08-16 12:11:23.500000,2012-08-16 12:11:36.475000,12.975,6,BFW,,,,,,,,,,,,,,,,,rest,-1
518,518,2012-08-16 12:11:30,2012-08-16 12:11:42.975000,12.975,6,BFW,,,,,,,,,,,,,,,,,rest,-1
519,519,2012-08-16 12:11:36.500000,2012-08-16 12:11:49.475000,12.975,6,BFW,,,,,,,,,,,,,0.42196531791907516,,,,rest,-1
520,520,2012-08-16 12:11:43,2012-08-16 12:11:55.975000,12.975,6,BFW,,,,,,,,,,,,,0.9229287090558767,,,,rest,-1
521,521,2012-08-16 12:11:49.500000,2012-08-16 12:12:02.475000,12.975,6,BFW,,,,,,,,,,,,,1.0,,,,rest,-1
522,522,2012-08-16 12:11:56,2012-08-16 12:12:08.975000,12.975,6,BFW,,,,,,,,,,,,,1.0,,,,computer,4
523,523,2012-08-16 12:12:02.500000,2012-08-16 12:12:15.475000,12.975,6,BFW,,,,,,,,,,,,0.42196531791907516,1.0,,,0.42196531791907516,computer,4
524,524,2012-08-16 12:12:09,2012-08-16 12:12:21.975000,12.975,6,BFW,,,,,,,,,,,,0.9229287090558767,1.0,,,0.9229287090558767,computer,4
525,525,2012-08-16 12:12:15.500000,2012-08-16 12:12:28.475000,12.975,6,BFW,,,,,,,,,,,,1.0,1.0,,,1.0,computer,4
526,526,2012-08-16 12:12:22,2012-08-16 12:12:34.975000,12.975,6,BFW,0.04042553191489361,0.036608863198458574,0.0,18.0,left-puff,,,,,,,1.0,1.0,,,1.0,computer,4
527,527,2012-08-16 12:12:28.500000,2012-08-16 12:12:41.475000,12.975,6,BFW,0.5936170212765958,0.5375722543352601,0.0,18.0,left-puff,,,,,,,1.0,1.0,,,1.0,puff,9
528,528,2012-08-16 12:12:35,2012-08-16 12:12:47.975000,12.975,6,BFW,0.9574468085106383,0.8670520231213873,0.0,18.0,left-puff,,,,,,,1.0,1.0,,,1.0,puff,9
529,529,2012-08-16 12:12:41.500000,2012-08-16 12:12:54.475000,12.975,6,BFW,0.40425531914893614,0.36608863198458574,0.0,18.0,left-puff,,,,,,,1.0,1.0,,,1.0,puff,9
530,530,2012-08-16 12:12:48,2012-08-16 12:13:00.975000,12.975,6,BFW,,,,,,,,,,,,1.0,1.0,,,1.0,computer,4
531,531,2012-08-16 12:12:54.500000,2012-08-16 12:13:07.475000,12.975,6,BFW,,,,,,,,,,,,1.0,1.0,,,1.0,computer,4
532,532,2012-08-16 12:13:01,2012-08-16 12:13:13.975000,12.975,6,BFW,,,,,,,,,,,,1.0,1.0,,,1.0,computer,4
533,533,2012-08-16 12:13:07.500000,2012-08-16 12:13:20.475000,12.975,6,BFW,0.121875,0.07514450867052024,1.0,19.0,left-puff,,,,,,,1.0,1.0,,,1.0,computer,4
534,534,2012-08-16 12:13:14,2012-08-16 12:13:26.975000,12.975,6,BFW,0.934375,0.5761078998073218,1.0,19.0,left-puff,,,,,,,1.0,1.0,,,1.0,puff,9
535,535,2012-08-16 12:13:20.500000,2012-08-16 12:13:33.475000,12.975,6,BFW,0.875,0.5394990366088632,1.0,19.0,left-puff,,,,,,,1.0,1.0,,,1.0,puff,9
536,536,2012-08-16 12:13:27,2012-08-16 12:13:39.975000,12.975,6,BFW,0.0625,0.03853564547206166,1.0,19.0,left-puff,,,,,,,1.0,1.0,,,1.0,computer,4
537,537,2012-08-16 12:13:33.500000,2012-08-16 12:13:46.475000,12.975,6,BFW,,,,,,,,,,,,1.0,1.0,,,1.0,computer,4
538,538,2012-08-16 12:13:40,2012-08-16 12:13:52.975000,12.975,6,BFW,,,,,,,,,,,,1.0,1.0,,,1.0,rest,-1
539,539,2012-08-16 12:13:46.500000,2012-08-16 12:13:59.475000,12.975,6,BFW,,,,,,,,,,,,1.0,1.0,,,1.0,computer,4
540,540,2012-08-16 12:13:53,2012-08-16 12:14:05.975000,12.975,6,BFW,0.4633333333333333,0.2678227360308285,1.0,20.0,left-puff,,,,,,,1.0,1.0,,,1.0,puff,9
541,541,2012-08-16 12:13:59.500000,2012-08-16 12:14:12.475000,12.975,6,BFW,1.0,0.5780346820809249,1.0,20.0,left-puff,,,,,,,1.0,1.0,,,1.0,puff,9
542,542,2012-08-16 12:14:06,2012-08-16 12:14:18.975000,12.975,6,BFW,0.5333333333333333,0.3082851637764933,1.0,20.0,left-puff,,,,,,,1.0,1.0,,,1.0,puff,9
543,543,2012-08-16 12:14:12.500000,2012-08-16 12:14:25.475000,12.975,6,BFW,,,,,,,,,,,,1.0,1.0,,,1.0,computer,4
544,544,2012-08-16 12:14:19,2012-08-16 12:14:31.975000,12.975,6,BFW,,,,,,,,,0.3834296724470135,,,1.0,0.6165703275529866,,,1.0,drinking,8
545,545,2012-08-16 12:14:25.500000,2012-08-16 12:14:38.475000,12.975,6,BFW,0.5431818181818181,0.4605009633911368,0.0,21.0,left-puff,,,,0.5394990366088632,,,1.0,0.4605009633911368,,,1.0,puff,9
546,546,2012-08-16 12:14:32,2012-08-16 12:14:44.975000,12.975,6,BFW,1.0,0.8477842003853565,0.0,21.0,left-puff,,,,0.15414258188824664,,,1.0,0.8458574181117534,,,1.0,puff,9
547,547,2012-08-16 12:14:38.500000,2012-08-16 12:14:51.475000,12.975,6,BFW,0.45454545454545453,0.3853564547206166,0.0,21.0,left-puff,,,,,,,1.0,0.6551059730250481,,,0.6551059730250481,puff,9
548,548,2012-08-16 12:14:45,2012-08-16 12:14:57.975000,12.975,6,BFW,,,,,,,,,,,,1.0,0.15414258188824664,,,0.15414258188824664,others,0
549,549,2012-08-16 12:14:51.500000,2012-08-16 12:15:04.475000,12.975,6,BFW,,,,,,,,,,,,1.0,,,,,others,0
550,550,2012-08-16 12:14:58,2012-08-16 12:15:10.975000,12.975,6,BFW,0.621875,0.3834296724470135,1.0,22.0,right-puff,,,,,,,1.0,,,,,puff,9
551,551,2012-08-16 12:15:04.500000,2012-08-16 12:15:17.475000,12.975,6,BFW,1.0,0.6165703275529866,1.0,22.0,right-puff,,,,,,,1.0,,,,,puff,9
552,552,2012-08-16 12:15:11,2012-08-16 12:15:23.975000,12.975,6,BFW,0.375,0.23121387283236994,1.0,22.0,right-puff,,,,,,,1.0,,,,,puff,9
553,553,2012-08-16 12:15:17.500000,2012-08-16 12:15:30.475000,12.975,6,BFW,,,,,,,,,,,,1.0,,,,,others,0
554,554,2012-08-16 12:15:24,2012-08-16 12:15:36.975000,12.975,6,BFW,0.11800000000000001,0.1136801541425819,0.0,23.0,left-puff,,,,,,,1.0,,0.15221579961464354,,0.15221579961464354,others,0
555,555,2012-08-16 12:15:30.500000,2012-08-16 12:15:43.475000,12.975,6,BFW,0.638,0.6146435452793835,0.0,23.0,left-puff,,,,,,,1.0,,0.653179190751445,,0.653179190751445,puff,9
556,556,2012-08-16 12:15:37,2012-08-16 12:15:49.975000,12.975,6,BFW,0.88,0.8477842003853565,0.0,23.0,left-puff,,,,,,,1.0,,1.0,,1.0,puff,9
557,557,2012-08-16 12:15:43.500000,2012-08-16 12:15:56.475000,12.975,6,BFW,0.36,0.3468208092485549,0.0,23.0,left-puff,,,,,,,1.0,,1.0,,1.0,puff,9
558,558,2012-08-16 12:15:50,2012-08-16 12:16:02.975000,12.975,6,BFW,,,,,,,,,,,,1.0,,1.0,,1.0,rest,-1
559,559,2012-08-16 12:15:56.500000,2012-08-16 12:16:09.475000,12.975,6,BFW,,,,,,,,,,,,1.0,,1.0,,1.0,rest,-1
560,560,2012-08-16 12:16:03,2012-08-16 12:16:15.975000,12.975,6,BFW,,,,,,,,,,,,1.0,,1.0,,1.0,phone,3
561,561,2012-08-16 12:16:09.500000,2012-08-16 12:16:22.475000,12.975,6,BFW,,,,,,,,,,,,1.0,,1.0,,1.0,phone,3
562,562,2012-08-16 12:16:16,2012-08-16 12:16:28.975000,12.975,6,BFW,,,,,,,,,,,,1.0,,1.0,,1.0,phone,3
563,563,2012-08-16 12:16:22.500000,2012-08-16 12:16:35.475000,12.975,6,BFW,,,,,,,,,,,,1.0,,1.0,,1.0,rest,-1
564,564,2012-08-16 12:16:29,2012-08-16 12:16:41.975000,12.975,6,BFW,,,,,,,,,,,,1.0,,1.0,,1.0,rest,-1
565,565,2012-08-16 12:16:35.500000,2012-08-16 12:16:48.475000,12.975,6,BFW,,,,,,,,,,,,1.0,,1.0,,1.0,rest,-1
566,566,2012-08-16 12:16:42,2012-08-16 12:16:54.975000,12.975,6,BFW,,,,,,,,,,,,1.0,,1.0,,1.0,phone,3
567,567,2012-08-16 12:16:48.500000,2012-08-16 12:17:01.475000,12.975,6,BFW,,,,,,,,,,,,1.0,,1.0,,1.0,phone,3
568,568,2012-08-16 12:16:55,2012-08-16 12:17:07.975000,12.975,6,BFW,,,,,,,,,,,,1.0,,1.0,,1.0,phone,3
569,569,2012-08-16 12:17:01.500000,2012-08-16 12:17:14.475000,12.975,6,BFW,,,,,,,,,,,,1.0,,1.0,,1.0,rest,-1
570,570,2012-08-16 12:17:08,2012-08-16 12:17:20.975000,12.975,6,BFW,0.055882352941176466,0.036608863198458574,0.0,24.0,left-puff,,,,,,,1.0,,1.0,,1.0,phone,3
571,571,2012-08-16 12:17:14.500000,2012-08-16 12:17:27.475000,12.975,6,BFW,0.8205882352941176,0.5375722543352601,0.0,24.0,left-puff,,,,,,,1.0,,1.0,,1.0,puff,9
572,572,2012-08-16 12:17:21,2012-08-16 12:17:33.975000,12.975,6,BFW,0.9411764705882353,0.6165703275529866,0.0,24.0,left-puff,,,,,,,1.0,,1.0,,1.0,puff,9
573,573,2012-08-16 12:17:27.500000,2012-08-16 12:17:40.475000,12.975,6,BFW,0.17647058823529413,0.11560693641618497,0.0,24.0,left-puff,,,,,,,1.0,,1.0,,1.0,phone,3
574,574,2012-08-16 12:17:34,2012-08-16 12:17:46.975000,12.975,6,BFW,,,,,,,,,,,,1.0,,1.0,,1.0,phone,3
575,575,2012-08-16 12:17:40.500000,2012-08-16 12:17:53.475000,12.975,6,BFW,,,,,,,,,,,,1.0,,1.0,,1.0,rest,-1
576,576,2012-08-16 12:17:47,2012-08-16 12:17:59.975000,12.975,6,BFW,,,,,,,,,,,,1.0,,1.0,,1.0,rest,-1
577,577,2012-08-16 12:17:53.500000,2012-08-16 12:18:06.475000,12.975,6,BFW,,,,,,,,,,,,1.0,,1.0,,1.0,rest,-1
578,578,2012-08-16 12:18:00,2012-08-16 12:18:12.975000,12.975,6,BFW,,,,,,,,,,,,1.0,,1.0,,1.0,rest,-1
579,579,2012-08-16 12:18:06.500000,2012-08-16 12:18:19.475000,12.975,6,BFW,,,,,,,,,,,,1.0,,1.0,,1.0,rest,-1
580,580,2012-08-16 12:18:13,2012-08-16 12:18:25.975000,12.975,6,BFW,,,,,,,,,,,,1.0,,1.0,,1.0,rest,-1
581,581,2012-08-16 12:18:19.500000,2012-08-16 12:18:32.475000,12.975,6,BFW,,,,,,,,,,,,1.0,,1.0,,1.0,phone,3
582,582,2012-08-16 12:18:26,2012-08-16 12:18:38.975000,12.975,6,BFW,0.7617647058823529,0.49903660886319845,0.0,25.0,left-puff,,,,,,,1.0,,1.0,,1.0,puff,9
583,583,2012-08-16 12:18:32.500000,2012-08-16 12:18:45.475000,12.975,6,BFW,1.0,0.6551059730250481,0.0,25.0,left-puff,,,,,,,1.0,,1.0,,1.0,puff,9
584,584,2012-08-16 12:18:39,2012-08-16 12:18:51.975000,12.975,6,BFW,0.23529411764705882,0.15414258188824664,0.0,25.0,left-puff,,,,,,,1.0,,1.0,,1.0,phone,3
585,585,2012-08-16 12:18:45.500000,2012-08-16 12:18:58.475000,12.975,6,BFW,,,,,,,,,,,,1.0,,1.0,,1.0,rest,-1
586,586,2012-08-16 12:18:52,2012-08-16 12:19:04.975000,12.975,6,BFW,,,,,,,,,,,,1.0,,1.0,,1.0,phone,3
587,587,2012-08-16 12:18:58.500000,2012-08-16 12:19:11.475000,12.975,6,BFW,,,,,,,,,,,,1.0,,1.0,,1.0,rest,-1
588,588,2012-08-16 12:19:05,2012-08-16 12:19:17.975000,12.975,6,BFW,0.99375,0.3063583815028902,0.0,26.0,left-puff,,,,,,,1.0,,1.0,,1.0,puff,9
589,589,2012-08-16 12:19:11.500000,2012-08-16 12:19:24.475000,12.975,6,BFW,1.0,0.3082851637764933,0.0,26.0,left-puff,,,,,,,1.0,,1.0,,1.0,puff,9
590,590,2012-08-16 12:19:18,2012-08-16 12:19:30.975000,12.975,6,BFW,,,,,,,,,,,,1.0,,1.0,,1.0,rest,-1
591,591,2012-08-16 12:19:24.500000,2012-08-16 12:19:37.475000,12.975,6,BFW,,,,,,,,,,,,1.0,,1.0,,1.0,rest,-1
592,592,2012-08-16 12:19:31,2012-08-16 12:19:43.975000,12.975,6,BFW,,,,,,,,,,,,1.0,,1.0,,1.0,rest,-1
593,593,2012-08-16 12:19:37.500000,2012-08-16 12:19:50.475000,12.975,6,BFW,,,,,,,,,,,,1.0,,1.0,,1.0,phone,3
594,594,2012-08-16 12:19:44,2012-08-16 12:19:56.975000,12.975,6,BFW,0.5346153846153846,0.2678227360308285,0.0,27.0,left-puff,,,,,,,1.0,,0.6165703275529866,,0.6165703275529866,puff,9
595,595,2012-08-16 12:19:50.500000,2012-08-16 12:20:03.475000,12.975,6,BFW,1.0,0.5009633911368016,0.0,27.0,left-puff,,,,,,,1.0,,0.11560693641618497,,0.11560693641618497,puff,9
596,596,2012-08-16 12:19:57,2012-08-16 12:20:09.975000,12.975,6,BFW,0.9192307692307692,0.4605009633911368,0.0,27.0,left-puff,,,,,,,1.0,,,,,puff,9
597,597,2012-08-16 12:20:03.500000,2012-08-16 12:20:16.475000,12.975,6,BFW,1.0,0.3853564547206166,0.0,28.0,left-puff,,,,,,,1.0,,,,,puff,9
598,598,2012-08-16 12:20:10,2012-08-16 12:20:22.975000,12.975,6,BFW,0.4,0.15414258188824664,0.0,28.0,left-puff,,,,,,,0.6165703275529866,,,,,puff,9
599,599,2012-08-16 12:20:16.500000,2012-08-16 12:20:29.475000,12.975,6,BFW,,,,,,,,,,,,0.11560693641618497,,,,,others,0
600,600,2012-08-16 12:20:23,2012-08-16 12:20:35.975000,12.975,6,BFW,,,,,,,,,,,,,,,,,others,0
601,601,2012-08-16 12:20:29.500000,2012-08-16 12:20:42.475000,12.975,6,BFW,,,,,,,,,,,,,,,,,others,0
602,602,2012-08-16 12:20:36,2012-08-16 12:20:48.975000,12.975,6,BFW,,,,,,,,,,,,,,,,,others,0
603,603,2012-08-16 12:20:42.500000,2012-08-16 12:20:55.475000,12.975,6,BFW,,,,,,,,,0.23121387283236994,,,,,,,,others,0
604,604,2012-08-16 12:20:49,2012-08-16 12:21:01.975000,12.975,6,BFW,,,,,,,,,0.23121387283236994,,,,,,,,others,0
605,605,2012-08-16 12:20:55.500000,2012-08-16 12:21:08.475000,12.975,6,BFW,,,,,,,,,,,,,,,,,others,0
606,606,2012-08-16 12:21:02,2012-08-16 12:21:14.975000,12.975,6,BFW,,,,,,,,,,,,,,,,,others,0
607,607,2012-08-16 12:21:08.500000,2012-08-16 12:21:21.475000,12.975,6,BFW,,,,,,,,,,,,,,,,,others,0
608,608,2012-08-16 12:21:15,2012-08-16 12:21:27.975000,12.975,6,BFW,,,,,,,,,,,,,,,,,others,0
609,609,2012-08-16 12:21:21.500000,2012-08-16 12:21:34.475000,12.975,6,BFW,,,,,,,,,,,,,,,,,rest,-1
610,610,2012-08-16 12:21:28,2012-08-16 12:21:40.975000,12.975,6,BFW,,,,,,,,,,,,,,,,,rest,-1
611,611,2012-08-16 12:21:34.500000,2012-08-16 12:21:47.475000,12.975,6,BFW,,,,,,,,,,,,,,,,,others,0
612,612,2012-08-16 12:21:41,2012-08-16 12:21:53.975000,12.975,6,BFW,,,,,,,,,,,,,,,,,others,0
613,613,2012-08-16 12:21:47.500000,2012-08-16 12:22:00.475000,12.975,6,BFW,,,,,,,,,,,,,,,,,others,0
614,614,2012-08-16 12:21:54,2012-08-16 12:22:06.975000,12.975,6,BFW,,,,,,,,,,,,,,,,,others,0
615,615,2012-08-16 12:22:00.500000,2012-08-16 12:22:13.475000,12.975,6,BFW,,,,,,,,,,,,,,,,,others,0
616,616,2012-08-16 12:22:07,2012-08-16 12:22:19.975000,12.975,6,BFW,,,,,,,,,,,,,,,,,others,0
617,617,2012-08-16 12:22:13.500000,2012-08-16 12:22:26.475000,12.975,6,BFW,,,,,,,,,,,,,,,,,others,0
618,618,2012-08-16 12:22:20,2012-08-16 12:22:32.975000,12.975,6,BFW,,,,,,,,,,,,,,,,,others,0
619,619,2012-08-16 12:22:26.500000,2012-08-16 12:22:39.475000,12.975,6,BFW,,,,,,,,,,,,,,,,,others,0
620,620,2012-08-16 12:22:33,2012-08-16 12:22:45.975000,12.975,6,BFW,,,,,,,,,,,,,,,,,others,0
621,621,2012-08-16 12:22:39.500000,2012-08-16 12:22:52.475000,12.975,6,BFW,,,,,,,,,,,,,,,,,others,0
622,622,2012-08-16 12:22:46,2012-08-16 12:22:58.975000,12.975,6,BFW,,,,,,,,,,,,,,,,,others,0
623,623,2012-08-16 12:22:52.500000,2012-08-16 12:23:05.475000,12.975,6,BFW,,,,,,,,,,,,,,,,,others,0
624,624,2012-08-16 12:22:59,2012-08-16 12:23:11.975000,12.975,6,BFW,,,,,,,,,,,,,,,,,others,0
625,625,2012-08-16 12:23:05.500000,2012-08-16 12:23:18.475000,12.975,6,BFW,,,,,,,,,,,,,,,,,others,0
626,626,2012-08-16 12:23:12,2012-08-16 12:23:24.975000,12.975,6,BFW,,,,,,,,,,,,,,,,,others,0
627,627,2012-08-16 12:23:18.500000,2012-08-16 12:23:31.475000,12.975,6,BFW,,,,,,,,,,,,,,,,,others,0
628,628,2012-08-16 12:23:25,2012-08-16 12:23:37.975000,12.975,6,BFW,,,,,,,,,,,,,,,,,others,0
629,629,2012-08-16 12:23:31.500000,2012-08-16 12:23:44.475000,12.975,6,BFW,,,,,,,,,,,,,,,,,rest,-1
630,630,2012-08-16 12:23:38,2012-08-16 12:23:50.975000,12.975,6,BFW,,,,,,,,,,,,,,,,,rest,-1
631,631,2012-08-16 12:23:44.500000,2012-08-16 12:23:57.475000,12.975,6,BFW,,,,,,,,,,,,,,,,,others,0
632,632,2012-08-16 12:23:51,2012-08-16 12:24:03.975000,12.975,6,BFW,,,,,,,,,,,,,,,,,others,0
633,633,2012-08-16 12:23:57.500000,2012-08-16 12:24:10.475000,12.975,6,BFW,,,,,,,0.42196531791907516,,,,,,,,,,talking,5
634,634,2012-08-16 12:24:04,2012-08-16 12:24:16.975000,12.975,6,BFW,,,,,,,0.9229287090558767,,,,,,,,,,talking,5
635,635,2012-08-16 12:24:10.500000,2012-08-16 12:24:23.475000,12.975,6,BFW,,,,,,,1.0,,,,,,,,,,talking,5
636,636,2012-08-16 12:24:17,2012-08-16 12:24:29.975000,12.975,6,BFW,,,,,,,0.8477842003853565,,,,,,,,,,talking,5
637,637,2012-08-16 12:24:23.500000,2012-08-16 12:24:36.475000,12.975,6,BFW,,,,,,,0.3468208092485549,,,,,,,,,,talking,5
638,638,2012-08-16 12:24:30,2012-08-16 12:24:42.975000,12.975,6,BFW,,,,,,,,,,,,,,,,,others,0
639,639,2012-08-16 12:24:36.500000,2012-08-16 12:24:49.475000,12.975,6,BFW,,,,,,,,,0.036608863198458574,,,,,,,,others,0
640,640,2012-08-16 12:24:43,2012-08-16 12:24:55.975000,12.975,6,BFW,,,,,,,,,0.5375722543352601,,,,,,,,drinking,8
641,641,2012-08-16 12:24:49.500000,2012-08-16 12:25:02.475000,12.975,6,BFW,,,,,,,,,1.0,,,,,,,,rest,-1
642,642,2012-08-16 12:24:56,2012-08-16 12:25:08.975000,12.975,6,BFW,,,,,,,,,1.0,,,,,,,,rest,-1
643,643,2012-08-16 12:25:02.500000,2012-08-16 12:25:15.475000,12.975,6,BFW,,,,,,,,,0.8863198458574182,,,,,,,,drinking,8
644,644,2012-08-16 12:25:09,2012-08-16 12:25:21.975000,12.975,6,BFW,,,,,,,,,0.3853564547206166,,,,,,,,drinking,8
645,645,2012-08-16 12:25:15.500000,2012-08-16 12:25:28.475000,12.975,6,BFW,,,,,,,,,0.3082851637764933,,,,,,,,drinking,8
646,646,2012-08-16 12:25:22,2012-08-16 12:25:34.975000,12.975,6,BFW,,,,,,,,,0.3082851637764933,,,,,,,,drinking,8
647,647,2012-08-16 12:25:28.500000,2012-08-16 12:25:41.475000,12.975,6,BFW,,,,,,,,,,,,,,,,,others,0
648,648,2012-08-16 12:25:35,2012-08-16 12:25:47.975000,12.975,6,BFW,,,,,,,,,,,,,,,,,others,0
649,649,2012-08-16 12:25:41.500000,2012-08-16 12:25:54.475000,12.975,6,BFW,,,,,,,,,,,,,,,,,others,0
650,650,2012-08-16 12:25:48,2012-08-16 12:26:00.975000,12.975,6,BFW,,,,,,,,,,,,,,,,,rest,-1
651,651,2012-08-16 12:25:54.500000,2012-08-16 12:26:07.475000,12.975,6,BFW,,,,,,,,,,,,,,,,,rest,-1
652,652,2012-08-16 12:26:01,2012-08-16 12:26:13.975000,12.975,6,BFW,,,,,,,,,,,,,,,,,others,0
653,653,2012-08-16 12:26:07.500000,2012-08-16 12:26:20.475000,12.975,6,BFW,,,,,,,,,,,,,,,,,others,0
654,654,2012-08-16 12:26:14,2012-08-16 12:26:26.975000,12.975,6,BFW,,,,,,,,,,,,,,,,,rest,-1
655,655,2012-08-16 12:26:20.500000,2012-08-16 12:26:33.475000,12.975,6,BFW,,,,,,,,,,,,,,,,,others,0
656,656,2012-08-16 12:26:27,2012-08-16 12:26:39.975000,12.975,6,BFW,,,,,,,,,0.07707129094412332,,,,,,,,others,0
657,657,2012-08-16 12:26:33.500000,2012-08-16 12:26:46.475000,12.975,6,BFW,,,,,,,,,0.07707129094412332,,,,,,,,others,0
658,658,2012-08-16 12:26:40,2012-08-16 12:26:52.975000,12.975,6,BFW,,,,,,,,,,,,,,,,,others,0
659,659,2012-08-16 12:26:46.500000,2012-08-16 12:26:59.475000,12.975,6,BFW,,,,,,,,,,,,,,,,,others,0
660,660,2012-08-16 12:26:53,2012-08-16 12:27:05.975000,12.975,6,BFW,,,,,,,,,,,,,,,,,rest,-1
661,661,2012-08-16 12:26:59.500000,2012-08-16 12:27:12.475000,12.975,6,BFW,,,,,,,,,,,,,,,,,rest,-1
662,662,2012-08-16 12:27:06,2012-08-16 12:27:18.975000,12.975,6,BFW,,,,,,,,,,,,,,,,,rest,-1
663,663,2012-08-16 12:27:12.500000,2012-08-16 12:27:25.475000,12.975,6,BFW,,,,,,,,,,,,,,,,,rest,-1
664,664,2012-08-16 12:27:19,2012-08-16 12:27:31.975000,12.975,6,BFW,,,,,,,,,,,,,,,,,others,0
665,665,2012-08-16 12:27:25.500000,2012-08-16 12:27:38.475000,12.975,6,BFW,,,,,,,,,,,,,,,,,others,0
666,666,2012-08-16 12:27:32,2012-08-16 12:27:44.975000,12.975,6,BFW,,,,,,,,,,,,,,,,,others,0
667,667,2012-08-16 12:27:38.500000,2012-08-16 12:27:51.475000,12.975,6,BFW,,,,,,,,,,,,,,,,,others,0
668,668,2012-08-16 12:27:45,2012-08-16 12:27:57.975000,12.975,6,BFW,,,,,,,,,,,,,,,,,others,0
669,669,2012-08-16 12:27:51.500000,2012-08-16 12:28:04.475000,12.975,6,BFW,,,,,,,,,,,,,,,,,others,0
670,670,2012-08-16 12:27:58,2012-08-16 12:28:10.975000,12.975,6,BFW,,,,,,,,,,,,,,,,,others,0
671,671,2012-08-16 12:28:04.500000,2012-08-16 12:28:17.475000,12.975,6,BFW,,,,,,,,,,,,,,,,,others,0
672,672,2012-08-16 12:28:11,2012-08-16 12:28:23.975000,12.975,6,BFW,,,,,,,,,,,,,,,,,others,0
673,673,2012-08-16 12:28:17.500000,2012-08-16 12:28:30.475000,12.975,6,BFW,,,,,,,,,,,,,,,,,others,0
674,674,2012-08-16 12:28:24,2012-08-16 12:28:36.975000,12.975,6,BFW,,,,,,,,,,,,,,,,,others,0
675,675,2012-08-16 12:28:30.500000,2012-08-16 12:28:43.475000,12.975,6,BFW,,,,,,,,,,,,,,,,,others,0
676,676,2012-08-16 12:28:37,2012-08-16 12:28:49.975000,12.975,6,BFW,,,,,,,,,,,,,,,,,others,0
677,677,2012-08-16 12:28:43.500000,2012-08-16 12:28:56.475000,12.975,6,BFW,,,,,,,,,0.1136801541425819,,,,,,,,others,0
678,678,2012-08-16 12:28:50,2012-08-16 12:29:02.975000,12.975,6,BFW,,,,,,,,,0.3853564547206166,,,,,,,,drinking,8
679,679,2012-08-16 12:28:56.500000,2012-08-16 12:29:09.475000,12.975,6,BFW,,,,,,,,,0.2697495183044316,,,,,,,,drinking,8
680,680,2012-08-16 12:29:03,2012-08-16 12:29:15.975000,12.975,6,BFW,,,,,,,,,,,,,,,,,others,0
681,681,2012-08-16 12:29:09.500000,2012-08-16 12:29:22.475000,12.975,6,BFW,,,,,,,,,,,,,,,,,others,0
682,682,2012-08-16 12:29:16,2012-08-16 12:29:28.975000,12.975,6,BFW,,,,,,,,,,,,,,,,,rest,-1
683,683,2012-08-16 12:29:22.500000,2012-08-16 12:29:35.475000,12.975,6,BFW,,,,,,,,,,,,,,,,,rest,-1
684,684,2012-08-16 12:29:29,2012-08-16 12:29:41.975000,12.975,6,BFW,,,,,,,,,,,,,,,,,rest,-1
685,685,2012-08-16 12:29:35.500000,2012-08-16 12:29:48.475000,12.975,6,BFW,,,,,,,,,,,,,,,,,others,0
686,686,2012-08-16 12:29:42,2012-08-16 12:29:54.975000,12.975,6,BFW,,,,,,,,,,,,,,,,,others,0
687,687,2012-08-16 12:29:48.500000,2012-08-16 12:30:01.475000,12.975,6,BFW,,,,,,,,,,,,,,,,,others,0
688,688,2012-08-16 12:29:55,2012-08-16 12:30:07.975000,12.975,6,BFW,,,,,,,,,,,,,,,,,others,0
689,689,2012-08-16 12:30:01.500000,2012-08-16 12:30:14.475000,12.975,6,BFW,,,,,,,,,,,,,,,,,others,0
690,690,2012-08-16 12:30:08,2012-08-16 12:30:20.975000,12.975,6,BFW,,,,,,,,,0.07514450867052024,,,,,,,,others,0
691,691,2012-08-16 12:30:14.500000,2012-08-16 12:30:27.475000,12.975,6,BFW,,,,,,,,,0.07707129094412332,,,,,,,,others,0
692,692,2012-08-16 12:30:21,2012-08-16 12:30:33.975000,12.975,6,BFW,,,,,,,,,,,,,,,,,others,0
693,693,2012-08-16 12:30:27.500000,2012-08-16 12:30:40.475000,12.975,6,BFW,,,,,,,,,,,,,,,,,others,0
694,694,2012-08-16 12:30:34,2012-08-16 12:30:46.975000,12.975,6,BFW,,,,,,,,,,,,,,,,,others,0
695,695,2012-08-16 12:30:40.500000,2012-08-16 12:30:53.475000,12.975,6,BFW,,,,,,,,,,,,,,,,,others,0
696,696,2012-08-16 12:30:47,2012-08-16 12:30:59.975000,12.975,6,BFW,,,,,,,,,,,,,,,,,others,0
697,697,2012-08-16 12:30:53.500000,2012-08-16 12:31:06.475000,12.975,6,BFW,,,,,,,,,,,,,,,,,others,0
698,698,2012-08-16 12:31:00,2012-08-16 12:31:12.975000,12.975,6,BFW,,,,,,,,,,,,,,,,,others,0
699,699,2012-08-16 12:31:06.500000,2012-08-16 12:31:19.475000,12.975,6,BFW,,,,,,,,,,,,,,,,,others,0
700,700,2012-08-16 12:31:13,2012-08-16 12:31:25.975000,12.975,6,BFW,,,,,,,,,0.22928709055876687,,,,,,,,others,0
701,701,2012-08-16 12:31:19.500000,2012-08-16 12:31:32.475000,12.975,6,BFW,,,,,,,,,0.7302504816955684,,,,,,,,drinking,8
702,702,2012-08-16 12:31:26,2012-08-16 12:31:38.975000,12.975,6,BFW,,,,,,,,,1.0,,,,,,,,drinking,8
703,703,2012-08-16 12:31:32.500000,2012-08-16 12:31:45.475000,12.975,6,BFW,,,,,,,,,1.0,,,,,,,,rest,-1
704,704,2012-08-16 12:31:39,2012-08-16 12:31:51.975000,12.975,6,BFW,,,,,,,,,1.0,,,,,,,,rest,-1
705,705,2012-08-16 12:31:45.500000,2012-08-16 12:31:58.475000,12.975,6,BFW,,,,,,,,,0.8863198458574182,,,,,,,,drinking,8
706,706,2012-08-16 12:31:52,2012-08-16 12:32:04.975000,12.975,6,BFW,,,,,,,,,0.3853564547206166,,,,,,,,drinking,8
707,707,2012-08-16 12:31:58.500000,2012-08-16 12:32:11.475000,12.975,6,BFW,,,,,,,,,,,,,,,,,others,0
708,708,2012-08-16 12:32:05,2012-08-16 12:32:17.975000,12.975,6,BFW,,,,,,,,,,,,,,,,,others,0
709,709,2012-08-16 12:32:11.500000,2012-08-16 12:32:24.475000,12.975,6,BFW,,,,,,,,,,,,,,,,,others,0
710,710,2012-08-16 12:32:18,2012-08-16 12:32:30.975000,12.975,6,BFW,,,,,,,,,,,,,,,,,others,0
711,711,2012-08-16 12:32:24.500000,2012-08-16 12:32:37.475000,12.975,6,BFW,,,,,,,,,,,,,,,,,others,0
712,712,2012-08-16 12:32:31,2012-08-16 12:32:43.975000,12.975,6,BFW,,,,,,,,,0.07707129094412332,,,,,,,,others,0
713,713,2012-08-16 12:32:37.500000,2012-08-16 12:32:50.475000,12.975,6,BFW,,,,,,,,,0.07707129094412332,,,,,,,,others,0
714,714,2012-08-16 12:32:44,2012-08-16 12:32:56.975000,12.975,6,BFW,,,,,,,,,,,,,,,0.15221579961464354,,others,0
715,715,2012-08-16 12:32:50.500000,2012-08-16 12:33:03.475000,12.975,6,BFW,,,,,,,,,,,,,,,0.653179190751445,,walking,1
716,716,2012-08-16 12:32:57,2012-08-16 12:33:09.975000,12.975,6,BFW,,,,,,,,,,,,,,,1.0,,walking,1
717,717,2012-08-16 12:33:03.500000,2012-08-16 12:33:16.475000,12.975,6,BFW,,,,,,,,,,,,,,,1.0,,walking,1
718,718,2012-08-16 12:33:10,2012-08-16 12:33:22.975000,12.975,6,BFW,,,,,,,,,,,,,,,1.0,,walking,1
719,719,2012-08-16 12:33:16.500000,2012-08-16 12:33:29.475000,12.975,6,BFW,,,,,,,,,,,,,,,1.0,,walking,1
720,720,2012-08-16 12:33:23,2012-08-16 12:33:35.975000,12.975,6,BFW,,,,,,,,,,,,,,,1.0,,walking,1
721,721,2012-08-16 12:33:29.500000,2012-08-16 12:33:42.475000,12.975,6,BFW,,,,,,,,,,,,,,,1.0,,walking,1
722,722,2012-08-16 12:33:36,2012-08-16 12:33:48.975000,12.975,6,BFW,,,,,,,,,,,,,,,1.0,,walking,1
723,723,2012-08-16 12:33:42.500000,2012-08-16 12:33:55.475000,12.975,6,BFW,,,,,,,,,,,,,,,1.0,,walking,1
724,724,2012-08-16 12:33:49,2012-08-16 12:34:01.975000,12.975,6,BFW,,,,,,,,,,,,,,,1.0,,walking,1
725,725,2012-08-16 12:33:55.500000,2012-08-16 12:34:08.475000,12.975,6,BFW,,,,,,,,,,,,,,,1.0,,walking,1
726,726,2012-08-16 12:34:02,2012-08-16 12:34:14.975000,12.975,6,BFW,,,,,,,,,,,,,,,1.0,,walking,1
727,727,2012-08-16 12:34:08.500000,2012-08-16 12:34:21.475000,12.975,6,BFW,,,,,,,,,,,,,,,1.0,,walking,1
728,728,2012-08-16 12:34:15,2012-08-16 12:34:27.975000,12.975,6,BFW,,,,,,,,,,,,,,,1.0,,walking,1
729,729,2012-08-16 12:34:21.500000,2012-08-16 12:34:34.475000,12.975,6,BFW,,,,,,,,,,,,,,,1.0,,walking,1
730,730,2012-08-16 12:34:28,2012-08-16 12:34:40.975000,12.975,6,BFW,,,,,,,,,,,,,,,1.0,,walking,1
731,731,2012-08-16 12:34:34.500000,2012-08-16 12:34:47.475000,12.975,6,BFW,,,,,,,,,,,,,,,1.0,,walking,1
732,732,2012-08-16 12:34:41,2012-08-16 12:34:53.975000,12.975,6,BFW,,,,,,,,,,,,,,,1.0,,walking,1
733,733,2012-08-16 12:34:47.500000,2012-08-16 12:35:00.475000,12.975,6,BFW,,,,,,,,,,,,,,,1.0,,walking,1
734,734,2012-08-16 12:34:54,2012-08-16 12:35:06.975000,12.975,6,BFW,,,,,,,,,,,,,,,1.0,,walking,1
735,735,2012-08-16 12:35:00.500000,2012-08-16 12:35:13.475000,12.975,6,BFW,,,,,,,,,,,,,,,1.0,,walking,1
736,736,2012-08-16 12:35:07,2012-08-16 12:35:19.975000,12.975,6,BFW,,,,,,,,,,,,,,,1.0,,walking,1
737,737,2012-08-16 12:35:13.500000,2012-08-16 12:35:26.475000,12.975,6,BFW,,,,,,,,,,,,,,,0.9633911368015414,,walking,1
738,738,2012-08-16 12:35:20,2012-08-16 12:35:32.975000,12.975,6,BFW,,,,,,,,,,,,,,,0.4624277456647399,,walking,1
739,739,2012-08-16 12:35:26.500000,2012-08-16 12:35:39.475000,12.975,6,BFW,,,,,,,,,,,,,,,,,others,0
740,740,2012-08-16 12:35:33,2012-08-16 12:35:45.975000,12.975,6,BFW,,,,,,,,,,,,,,,,,others,0
741,741,2012-08-16 12:35:39.500000,2012-08-16 12:35:52.475000,12.975,6,BFW,,,,,,,,,,,,,,,,,others,0
742,742,2012-08-16 12:35:46,2012-08-16 12:35:58.975000,12.975,6,BFW,,,,,,,,,,,,,,,,,others,0
743,743,2012-08-16 12:35:52.500000,2012-08-16 12:36:05.475000,12.975,6,BFW,,,,,,,,,,,,,,,,,others,0
744,744,2012-08-16 12:35:59,2012-08-16 12:36:11.975000,12.975,6,BFW,,,,,,,,,,,,,,,,,others,0
745,745,2012-08-16 12:36:05.500000,2012-08-16 12:36:18.475000,12.975,6,BFW,,,,,,,,,,,,,,,,,others,0
746,746,2012-08-16 12:36:12,2012-08-16 12:36:24.975000,12.975,6,BFW,,,,,,,,,,,,,,,,,rest,-1
747,747,2012-08-16 12:36:18.500000,2012-08-16 12:36:31.475000,12.975,6,BFW,,,,,,,,,,,,,,,,,rest,-1
748,748,2012-08-16 12:36:25,2012-08-16 12:36:37.975000,12.975,6,BFW,,,,,,,,,0.4605009633911368,,,,,,,,drinking,8
749,749,2012-08-16 12:36:31.500000,2012-08-16 12:36:44.475000,12.975,6,BFW,,,,,,,,,0.9614643545279383,,,,,,,,drinking,8
750,750,2012-08-16 12:36:38,2012-08-16 12:36:50.975000,12.975,6,BFW,,,,,,,,,1.0,,,,,,,,rest,-1
751,751,2012-08-16 12:36:44.500000,2012-08-16 12:36:57.475000,12.975,6,BFW,,,,,,,,,1.0,,,,,,,,drinking,8
752,752,2012-08-16 12:36:51,2012-08-16 12:37:03.975000,12.975,6,BFW,,,,,,,,,1.0,,,,,,,,drinking,8
753,753,2012-08-16 12:36:57.500000,2012-08-16 12:37:10.475000,12.975,6,BFW,,,,,,,,,1.0,,,,,,,,rest,-1
754,754,2012-08-16 12:37:04,2012-08-16 12:37:16.975000,12.975,6,BFW,,,,,,,,,1.0,,,,,,,,drinking,8
755,755,2012-08-16 12:37:10.500000,2012-08-16 12:37:23.475000,12.975,6,BFW,,,,,,,,,1.0,,,,,,,,drinking,8
756,756,2012-08-16 12:37:17,2012-08-16 12:37:29.975000,12.975,6,BFW,,,,,,,,,1.0,,,,,,,,drinking,8
757,757,2012-08-16 12:37:23.500000,2012-08-16 12:37:36.475000,12.975,6,BFW,,,,,,,,,1.0,,,,,,,,rest,-1
758,758,2012-08-16 12:37:30,2012-08-16 12:37:42.975000,12.975,6,BFW,,,,,,,,,1.0,,,,,,,,rest,-1
759,759,2012-08-16 12:37:36.500000,2012-08-16 12:37:49.475000,12.975,6,BFW,,,,,,,,,0.8863198458574182,,,,,,,,drinking,8
760,760,2012-08-16 12:37:43,2012-08-16 12:37:55.975000,12.975,6,BFW,,,,,,,,,0.3853564547206166,,,,,,,,drinking,8
761,761,2012-08-16 12:37:49.500000,2012-08-16 12:38:02.475000,12.975,6,BFW,,,,,,,,,,,,,,,,,others,0
762,762,2012-08-16 12:37:56,2012-08-16 12:38:08.975000,12.975,6,BFW,,,,,,,,,,,,,,,,,others,0
763,763,2012-08-16 12:38:02.500000,2012-08-16 12:38:15.475000,12.975,6,BFW,,,,,,,,,,,,,,,,,others,0
764,764,2012-08-16 12:38:09,2012-08-16 12:38:21.975000,12.975,6,BFW,,,,,,,,,,,,,,,,,others,0
765,765,2012-08-16 12:38:15.500000,2012-08-16 12:38:28.475000,12.975,6,BFW,,,,,,,,,,,,,,,,,others,0
766,766,2012-08-16 12:38:22,2012-08-16 12:38:34.975000,12.975,6,BFW,,,,,,,,,,,,,,,,,others,0
767,767,2012-08-16 12:38:28.500000,2012-08-16 12:38:41.475000,12.975,6,BFW,,,,,,,,,,,,,,,,,others,0
768,768,2012-08-16 12:38:35,2012-08-16 12:38:47.975000,12.975,6,BFW,,,,,,,,,,,,,,,,,others,0
769,769,2012-08-16 12:38:41.500000,2012-08-16 12:38:54.475000,12.975,6,BFW,,,,,,,,,,,,,,,,,others,0
770,770,2012-08-16 12:38:48,2012-08-16 12:39:00.975000,12.975,6,BFW,,,,,,,,,,,,,,,,,others,0
771,771,2012-08-16 12:38:54.500000,2012-08-16 12:39:07.475000,12.975,6,BFW,,,,,,,,,,,,,,,,,rest,-1
772,772,2012-08-16 12:39:01,2012-08-16 12:39:13.975000,12.975,6,BFW,,,,,,,,,,,,,,,,,others,0
773,773,2012-08-16 12:39:07.500000,2012-08-16 12:39:20.475000,12.975,6,BFW,,,,,,,,,,,,,,,,,others,0
774,774,2012-08-16 12:39:14,2012-08-16 12:39:26.975000,12.975,6,BFW,,,,,,,,,,,,,,,,,others,0
775,775,2012-08-16 12:39:20.500000,2012-08-16 12:39:33.475000,12.975,6,BFW,,,,,,,,,,,,,,,,,rest,-1
776,776,2012-08-16 12:39:27,2012-08-16 12:39:39.975000,12.975,6,BFW,,,,,,,,,,,,,,,,,rest,-1
777,777,2012-08-16 12:39:33.500000,2012-08-16 12:39:46.475000,12.975,6,BFW,,,,,,,,,,,,,,,,,rest,-1
778,778,2012-08-16 12:39:40,2012-08-16 12:39:52.975000,12.975,6,BFW,,,,,,,,,,,,,,,,,others,0
779,779,2012-08-16 12:39:46.500000,2012-08-16 12:39:59.475000,12.975,6,BFW,,,,,,,,,,,,,,,,,others,0
780,780,2012-08-16 12:39:53,2012-08-16 12:40:05.975000,12.975,6,BFW,,,,,,,,,,,,,,,,,others,0
781,781,2012-08-16 12:39:59.500000,2012-08-16 12:40:12.475000,12.975,6,BFW,,,,,,,,,,,,,,,,,others,0
782,782,2012-08-16 12:40:06,2012-08-16 12:40:18.975000,12.975,6,BFW,,,,,,,,,,,,,,,,,rest,-1
783,783,2012-08-16 12:40:12.500000,2012-08-16 12:40:25.475000,12.975,6,BFW,,,,,,,,,,,,,,,,,rest,-1
784,784,2012-08-16 12:40:19,2012-08-16 12:40:31.975000,12.975,6,BFW,,,,,,,,,,,,,,,,,others,0
785,785,2012-08-16 12:40:25.500000,2012-08-16 12:40:38.475000,12.975,6,BFW,,,,,,,,,,,,,,,,,others,0
786,786,2012-08-16 12:40:32,2012-08-16 12:40:44.975000,12.975,6,BFW,,,,,,,,,,,,,,,,,rest,-1
787,787,2012-08-16 12:40:38.500000,2012-08-16 12:40:51.475000,12.975,6,BFW,,,,,,,,,,,,,,,,,rest,-1
788,788,2012-08-16 12:40:45,2012-08-16 12:40:57.975000,12.975,6,BFW,,,,,,,,,,,,,,,,,others,0
789,789,2012-08-16 12:40:51.500000,2012-08-16 12:41:04.475000,12.975,6,BFW,,,,,,,,,,,,,,,,,others,0
790,790,2012-08-16 12:40:58,2012-08-16 12:41:10.975000,12.975,6,BFW,,,,,,,,,,,,,,,,,rest,-1
791,791,2012-08-16 12:41:04.500000,2012-08-16 12:41:17.475000,12.975,6,BFW,,,,,,,,,,,,,,,,,rest,-1
792,792,2012-08-16 12:41:11,2012-08-16 12:41:23.975000,12.975,6,BFW,,,,,,,,,,,,,,,,,rest,-1
793,793,2012-08-16 12:41:17.500000,2012-08-16 12:41:30.475000,12.975,6,BFW,,,,,,,,,,,,,,,,,others,0
794,794,2012-08-16 12:41:24,2012-08-16 12:41:36.975000,12.975,6,BFW,,,,,,,,,,,,,,,,,others,0
795,795,2012-08-16 12:41:30.500000,2012-08-16 12:41:43.475000,12.975,6,BFW,,,,,,,,,,,,,,,,,rest,-1
796,796,2012-08-16 12:41:37,2012-08-16 12:41:49.975000,12.975,6,BFW,,,,,,,,,,,,,,,,,rest,-1
797,797,2012-08-16 12:41:43.500000,2012-08-16 12:41:56.475000,12.975,6,BFW,,,,,,,,,,,,,,,,,others,0
798,798,2012-08-16 12:41:50,2012-08-16 12:42:02.975000,12.975,6,BFW,,,,,,,,,,,,,,,,,others,0
799,799,2012-08-16 12:41:56.500000,2012-08-16 12:42:09.475000,12.975,6,BFW,,,,,,,,,,,,,,,,,others,0
800,800,2012-08-16 12:42:03,2012-08-16 12:42:15.975000,12.975,6,BFW,,,,,,,,,,,,,,,,,others,0
801,801,2012-08-16 12:42:09.500000,2012-08-16 12:42:22.475000,12.975,6,BFW,,,,,,,,,,,,,,,,,others,0
802,802,2012-08-16 12:42:16,2012-08-16 12:42:28.975000,12.975,6,BFW,,,,,,,,,,,,,,,,,rest,-1
803,803,2012-08-16 12:42:22.500000,2012-08-16 12:42:35.475000,12.975,6,BFW,,,,,,,,,,,,,,,,,others,0
804,804,2012-08-16 12:42:29,2012-08-16 12:42:41.975000,12.975,6,BFW,,,,,,,,,,,,,,,,,others,0
805,805,2012-08-16 12:42:35.500000,2012-08-16 12:42:48.475000,12.975,6,BFW,,,,,,,,,,,,,,,,,rest,-1
806,806,2012-08-16 12:42:42,2012-08-16 12:42:54.975000,12.975,6,BFW,,,,,,,,,,,,,,,,,others,0
807,807,2012-08-16 12:42:48.500000,2012-08-16 12:43:01.475000,12.975,6,BFW,,,,,,,,,,,,,,,,,others,0
808,808,2012-08-16 12:42:55,2012-08-16 12:43:07.975000,12.975,6,BFW,,,,,,,,,,,,,,,,,others,0
809,809,2012-08-16 12:43:01.500000,2012-08-16 12:43:14.475000,12.975,6,BFW,,,,,,,,,,,,,,,,,others,0
810,810,2012-08-16 12:43:08,2012-08-16 12:43:20.975000,12.975,6,BFW,,,,,,,,,,,,,,,,,others,0
811,811,2012-08-16 12:43:14.500000,2012-08-16 12:43:27.475000,12.975,6,BFW,,,,,,,,,,,,,,,,,others,0
812,812,2012-08-16 12:43:21,2012-08-16 12:43:33.975000,12.975,6,BFW,,,,,,,,,,,,,,,,,others,0
813,813,2012-08-16 12:43:27.500000,2012-08-16 12:43:40.475000,12.975,6,BFW,,,,,,,,,,,,,,,,,others,0
814,814,2012-08-16 12:43:34,2012-08-16 12:43:46.975000,12.975,6,BFW,,,,,,,,,,,,,,,,,others,0
815,815,2012-08-16 12:43:40.500000,2012-08-16 12:43:53.475000,12.975,6,BFW,,,,,,,,,,,,,,,,,others,0
816,816,2012-08-16 12:43:47,2012-08-16 12:43:59.975000,12.975,6,BFW,,,,,,,,,,,,,,,,,others,0
817,817,2012-08-16 12:43:53.500000,2012-08-16 12:44:06.475000,12.975,6,BFW,,,,,,,,,,,,,,,,,others,0
818,818,2012-08-16 12:44:00,2012-08-16 12:44:12.975000,12.975,6,BFW,,,,,,,,,,,,,,,,,others,0
819,819,2012-08-16 12:44:06.500000,2012-08-16 12:44:19.475000,12.975,6,BFW,,,,,,,,,0.2678227360308285,,,,,,,,drinking,8
820,820,2012-08-16 12:44:13,2012-08-16 12:44:25.975000,12.975,6,BFW,,,,,,,,,0.3082851637764933,,,,,,,,drinking,8
821,821,2012-08-16 12:44:19.500000,2012-08-16 12:44:32.475000,12.975,6,BFW,,,,,,,,,0.03853564547206166,,,,,,,,others,0
822,822,2012-08-16 12:44:26,2012-08-16 12:44:38.975000,12.975,6,BFW,,,,,,,,,,,,,,,,,others,0
823,823,2012-08-16 12:44:32.500000,2012-08-16 12:44:45.475000,12.975,6,BFW,,,,,,,,,,,,,,,,,others,0
824,824,2012-08-16 12:44:39,2012-08-16 12:44:51.975000,12.975,6,BFW,,,,,,,,,,,,,,,,,others,0
825,825,2012-08-16 12:44:45.500000,2012-08-16 12:44:58.475000,12.975,6,BFW,,,,,,,,,,,,,,,,,others,0
826,826,2012-08-16 12:44:52,2012-08-16 12:45:04.975000,12.975,6,BFW,,,,,,,,,,,,,,,,,others,0
827,827,2012-08-16 12:44:58.500000,2012-08-16 12:45:11.475000,12.975,6,BFW,,,,,,,,,,,,,,,,,others,0
828,828,2012-08-16 12:45:05,2012-08-16 12:45:17.975000,12.975,6,BFW,,,,,,,,,,,,,,,,,others,0
829,829,2012-08-16 12:45:11.500000,2012-08-16 12:45:24.475000,12.975,6,BFW,,,,,,,,,,,,,,,,,others,0
830,830,2012-08-16 12:45:18,2012-08-16 12:45:30.975000,12.975,6,BFW,,,,,,,,,,,,,,,,,others,0
831,831,2012-08-16 12:45:24.500000,2012-08-16 12:45:37.475000,12.975,6,BFW,,,,,,,,,,,,,,,,,others,0
832,832,2012-08-16 12:45:31,2012-08-16 12:45:43.975000,12.975,6,BFW,,,,,,,,,,,,,,,,,others,0
833,833,2012-08-16 12:45:37.500000,2012-08-16 12:45:50.475000,12.975,6,BFW,,,,,,,,,,,,,,,,,others,0
834,834,2012-08-16 12:45:44,2012-08-16 12:45:56.975000,12.975,6,BFW,,,,,,,,,,,,,,,,,others,0
835,835,2012-08-16 12:45:50.500000,2012-08-16 12:46:03.475000,12.975,6,BFW,,,,,,,,,,,,,,,,,others,0
836,836,2012-08-16 12:45:57,2012-08-16 12:46:09.975000,12.975,6,BFW,,,,,,,,,,,,,,,,,others,0
837,837,2012-08-16 12:46:03.500000,2012-08-16 12:46:16.475000,12.975,6,BFW,,,,,,,,,,,,,,,,,others,0
838,838,2012-08-16 12:46:10,2012-08-16 12:46:22.975000,12.975,6,BFW,,,,,,,,,,,,,,,,,others,0
839,839,2012-08-16 12:46:16.500000,2012-08-16 12:46:29.475000,12.975,6,BFW,,,,,,,,,,,,,,,,,others,0
840,840,2012-08-16 12:46:23,2012-08-16 12:46:35.975000,12.975,6,BFW,,,,,,,,,,,,,,,,,others,0
841,841,2012-08-16 12:46:29.500000,2012-08-16 12:46:42.475000,12.975,6,BFW,,,,,,,,,,,,,,,,,others,0
842,842,2012-08-16 12:46:36,2012-08-16 12:46:48.975000,12.975,6,BFW,,,,,,,,,,,,,,,,,others,0
843,843,2012-08-16 12:46:42.500000,2012-08-16 12:46:55.475000,12.975,6,BFW,,,,,,,,,,,,,,,,,others,0
844,844,2012-08-16 12:46:49,2012-08-16 12:47:01.975000,12.975,6,BFW,,,,,,,,,,,,,,,,,others,0
845,845,2012-08-16 12:46:55.500000,2012-08-16 12:47:08.475000,12.975,6,BFW,,,,,,,,,,,,,,,,,others,0
846,846,2012-08-16 12:47:02,2012-08-16 12:47:14.975000,12.975,6,BFW,,,,,,,,,,,,,,,,,others,0
847,847,2012-08-16 12:47:08.500000,2012-08-16 12:47:21.475000,12.975,6,BFW,,,,,,,,,,,,,,,,,others,0
848,848,2012-08-16 12:47:15,2012-08-16 12:47:27.975000,12.975,6,BFW,,,,,,,,,,,,,,,,,others,0
849,849,2012-08-16 12:47:21.500000,2012-08-16 12:47:34.475000,12.975,6,BFW,,,,,,,,,,,,,,,,,rest,-1
850,850,2012-08-16 12:47:28,2012-08-16 12:47:40.975000,12.975,6,BFW,,,,,,,,,,,,,,,,,others,0
851,851,2012-08-16 12:47:34.500000,2012-08-16 12:47:47.475000,12.975,6,BFW,,,,,,,,,,,,,,,,,others,0
852,852,2012-08-16 12:47:41,2012-08-16 12:47:53.975000,12.975,6,BFW,,,,,,,,,,,,,,,,,others,0
853,853,2012-08-16 12:47:47.500000,2012-08-16 12:48:00.475000,12.975,6,BFW,,,,,,,,,,,,,,,,,others,0
854,854,2012-08-16 12:47:54,2012-08-16 12:48:06.975000,12.975,6,BFW,,,,,,,,,,,,,,,,,others,0
855,855,2012-08-16 12:48:00.500000,2012-08-16 12:48:13.475000,12.975,6,BFW,,,,,,,,,,,,,,,,,others,0
856,856,2012-08-16 12:48:07,2012-08-16 12:48:19.975000,12.975,6,BFW,,,,,,,,,,,,,,,,,others,0
857,857,2012-08-16 12:48:13.500000,2012-08-16 12:48:26.475000,12.975,6,BFW,,,,,,,,,,,,,,,,,rest,-1
858,858,2012-08-16 12:48:20,2012-08-16 12:48:32.975000,12.975,6,BFW,,,,,,,,,,,,,,,,,others,0
859,859,2012-08-16 12:48:26.500000,2012-08-16 12:48:39.475000,12.975,6,BFW,,,,,,,,,,,,,,,,,others,0
860,860,2012-08-16 12:48:33,2012-08-16 12:48:45.975000,12.975,6,BFW,,,,,,,,,,,,,,,,,others,0
861,861,2012-08-16 12:48:39.500000,2012-08-16 12:48:52.475000,12.975,6,BFW,,,,,,,,,,,,,,,,,others,0
862,862,2012-08-16 12:48:46,2012-08-16 12:48:58.975000,12.975,6,BFW,,,,,,,,,,,,,,,,,others,0
863,863,2012-08-16 12:48:52.500000,2012-08-16 12:49:05.475000,12.975,6,BFW,,,,,,,,,,,,,,,,,others,0
864,864,2012-08-16 12:48:59,2012-08-16 12:49:11.975000,12.975,6,BFW,,,,,,,,,,,,,,,,,others,0
865,865,2012-08-16 12:49:05.500000,2012-08-16 12:49:18.475000,12.975,6,BFW,,,,,,,,,,,,,,,,,others,0
866,866,2012-08-16 12:49:12,2012-08-16 12:49:24.975000,12.975,6,BFW,,,,,,,,,,,,0.3834296724470135,,,,,others,0
867,867,2012-08-16 12:49:18.500000,2012-08-16 12:49:31.475000,12.975,6,BFW,,,,,,,,,,,,0.884393063583815,,,,,others,0
868,868,2012-08-16 12:49:25,2012-08-16 12:49:37.975000,12.975,6,BFW,1.0,0.42389210019267826,1.0,29.0,left-puff,,,,,,,1.0,,,,,puff,9
869,869,2012-08-16 12:49:31.500000,2012-08-16 12:49:44.475000,12.975,6,BFW,1.0,0.42389210019267826,1.0,29.0,left-puff,,,,,,,1.0,,,,,puff,9
870,870,2012-08-16 12:49:38,2012-08-16 12:49:50.975000,12.975,6,BFW,,,,,,,,,,,,1.0,,,,,others,0
871,871,2012-08-16 12:49:44.500000,2012-08-16 12:49:57.475000,12.975,6,BFW,0.095,0.036608863198458574,1.0,30.0,left-puff,,,,0.15414258188824664,,,1.0,,,,0.15414258188824664,others,0
872,872,2012-08-16 12:49:51,2012-08-16 12:50:03.975000,12.975,6,BFW,1.0,0.3853564547206166,1.0,30.0,left-puff,,,,0.15414258188824664,,,1.0,,,,0.15414258188824664,puff,9
873,873,2012-08-16 12:49:57.500000,2012-08-16 12:50:10.475000,12.975,6,BFW,0.9,0.3468208092485549,1.0,30.0,left-puff,,,,,,,1.0,,,0.19075144508670522,0.19075144508670522,puff,9
874,874,2012-08-16 12:50:04,2012-08-16 12:50:16.975000,12.975,6,BFW,,,,,,,,,,,,1.0,,,0.6917148362235067,0.6917148362235067,walking,1
875,875,2012-08-16 12:50:10.500000,2012-08-16 12:50:23.475000,12.975,6,BFW,1.0,0.42389210019267826,1.0,31.0,right-puff,,,,,,,1.0,,,1.0,1.0,puff,9
876,876,2012-08-16 12:50:17,2012-08-16 12:50:29.975000,12.975,6,BFW,1.0,0.42389210019267826,1.0,31.0,right-puff,,,,,,,1.0,,,1.0,1.0,puff,9
877,877,2012-08-16 12:50:23.500000,2012-08-16 12:50:36.475000,12.975,6,BFW,,,,,,,,,,,,1.0,,,1.0,1.0,walking,1
878,878,2012-08-16 12:50:30,2012-08-16 12:50:42.975000,12.975,6,BFW,,,,,,,,,,,,1.0,,,1.0,1.0,walking,1
879,879,2012-08-16 12:50:36.500000,2012-08-16 12:50:49.475000,12.975,6,BFW,,,,,,,,,,,,1.0,,,0.5780346820809249,0.5780346820809249,walking,1
880,880,2012-08-16 12:50:43,2012-08-16 12:50:55.975000,12.975,6,BFW,,,,,,,,,,,,1.0,,,0.07707129094412332,0.07707129094412332,others,0
881,881,2012-08-16 12:50:49.500000,2012-08-16 12:51:02.475000,12.975,6,BFW,,,,,,,,,,,,1.0,,,0.1136801541425819,0.1136801541425819,others,0
882,882,2012-08-16 12:50:56,2012-08-16 12:51:08.975000,12.975,6,BFW,,,,,,,,,,,,1.0,,,0.6146435452793835,0.6146435452793835,walking,1
883,883,2012-08-16 12:51:02.500000,2012-08-16 12:51:15.475000,12.975,6,BFW,,,,,,,,,,,,1.0,,,1.0,1.0,walking,1
884,884,2012-08-16 12:51:09,2012-08-16 12:51:21.975000,12.975,6,BFW,0.8423076923076922,0.42196531791907516,1.0,32.0,right-puff,0.3834296724470135,,,,,,1.0,,,0.6165703275529866,1.0,puff,9
885,885,2012-08-16 12:51:15.500000,2012-08-16 12:51:28.475000,12.975,6,BFW,1.0,0.5009633911368016,1.0,32.0,right-puff,0.884393063583815,,,,,,1.0,,,0.11560693641618497,1.0,puff,9
886,886,2012-08-16 12:51:22,2012-08-16 12:51:34.975000,12.975,6,BFW,0.15384615384615385,0.07707129094412332,1.0,32.0,right-puff,1.0,,,,,,1.0,,,,1.0,in car,7
887,887,2012-08-16 12:51:28.500000,2012-08-16 12:51:41.475000,12.975,6,BFW,,,,,,0.7687861271676301,,,0.23121387283236994,,,1.0,,,,1.0,in car,7
888,888,2012-08-16 12:51:35,2012-08-16 12:51:47.975000,12.975,6,BFW,1.0,0.4624277456647399,1.0,33.0,right-puff,0.7687861271676301,,,0.23121387283236994,,,1.0,,,,1.0,puff,9
889,889,2012-08-16 12:51:41.500000,2012-08-16 12:51:54.475000,12.975,6,BFW,1.0,0.4624277456647399,1.0,33.0,right-puff,1.0,,,,,,1.0,,,,1.0,puff,9
890,890,2012-08-16 12:51:48,2012-08-16 12:52:00.975000,12.975,6,BFW,,,,,,1.0,,,,,,1.0,,,,1.0,in car,7
891,891,2012-08-16 12:51:54.500000,2012-08-16 12:52:07.475000,12.975,6,BFW,1.0,0.42389210019267826,1.0,34.0,right-puff,1.0,,,,,,1.0,,,,1.0,puff,9
892,892,2012-08-16 12:52:01,2012-08-16 12:52:13.975000,12.975,6,BFW,1.0,0.42389210019267826,1.0,34.0,right-puff,1.0,,,,,,1.0,,,,1.0,puff,9
893,893,2012-08-16 12:52:07.500000,2012-08-16 12:52:20.475000,12.975,6,BFW,,,,,,1.0,,,,,,1.0,,,,1.0,in car,7
894,894,2012-08-16 12:52:14,2012-08-16 12:52:26.975000,12.975,6,BFW,,,,,,0.5394990366088632,,,,,,1.0,,,0.07514450867052024,0.6146435452793835,in car,7
895,895,2012-08-16 12:52:20.500000,2012-08-16 12:52:33.475000,12.975,6,BFW,,,,,,0.03853564547206166,,,,,,1.0,,,0.5761078998073218,0.6146435452793835,walking,1
896,896,2012-08-16 12:52:27,2012-08-16 12:52:39.975000,12.975,6,BFW,,,,,,,,,,,,1.0,,,1.0,1.0,walking,1
897,897,2012-08-16 12:52:33.500000,2012-08-16 12:52:46.475000,12.975,6,BFW,,,,,,,,,,,,1.0,,,1.0,1.0,walking,1
898,898,2012-08-16 12:52:40,2012-08-16 12:52:52.975000,12.975,6,BFW,,,,,,,,,,,,1.0,,,1.0,1.0,walking,1
899,899,2012-08-16 12:52:46.500000,2012-08-16 12:52:59.475000,12.975,6,BFW,,,,,,,,,,,,1.0,,,1.0,1.0,walking,1
900,900,2012-08-16 12:52:53,2012-08-16 12:53:05.975000,12.975,6,BFW,0.9954545454545454,0.42196531791907516,0.0,35.0,left-puff,,,,,,,1.0,,,1.0,1.0,puff,9
901,901,2012-08-16 12:52:59.500000,2012-08-16 12:53:12.475000,12.975,6,BFW,1.0,0.42389210019267826,0.0,35.0,left-puff,,,,,,,1.0,,,1.0,1.0,puff,9
902,902,2012-08-16 12:53:06,2012-08-16 12:53:16,10.0,6,BFW,,,,,,,,,,,,1.0,,,1.0,1.0,rest,-1
903,903,2012-08-16 12:53:12.500000,2012-08-16 12:53:16,3.5,6,BFW,,,,,,,,,,,,1.0,,,1.0,1.0,rest,-1
