,segment,STARTTIME,ENDTIME,seg duration,session,sensor,inside puff/puff duration,inside puff/segment duration,prototypical?,puff index,puff side,car percentage,talk percentage,unknown percentage,drinking percentage,reading percentage,eating percentage,smoking percentage,computer percentage,phone percentage,walking percentage,superposition percentage,name,target
0,0,2012-08-16 11:15:23,2012-08-16 11:15:41.475000,18.475,6,BFW,,,,,,,,,0.5953991880920162,,,,,,,,drinking,8
1,1,2012-08-16 11:15:32.250000,2012-08-16 11:15:50.725000,18.475,6,BFW,,,,,,,,,0.09472259810554803,,,,,,0.4181326116373477,,walking,1
2,2,2012-08-16 11:15:41.500000,2012-08-16 11:15:59.975000,18.475,6,BFW,,,,,,,,,,,,,,,0.918809201623816,,walking,1
3,3,2012-08-16 11:15:50.750000,2012-08-16 11:16:09.225000,18.475,6,BFW,,,,,,,,,,,,,,,1.0,,walking,1
4,4,2012-08-16 11:16:00,2012-08-16 11:16:18.475000,18.475,6,BFW,,,,,,,,,,,,,,,1.0,,walking,1
5,5,2012-08-16 11:16:09.250000,2012-08-16 11:16:27.725000,18.475,6,BFW,,,,,,,,,,,,,,,1.0,,walking,1
6,6,2012-08-16 11:16:18.500000,2012-08-16 11:16:36.975000,18.475,6,BFW,,,,,,,,,,,,,,,0.6224627875507442,,walking,1
7,7,2012-08-16 11:16:27.750000,2012-08-16 11:16:46.225000,18.475,6,BFW,,,,,,,,,,,0.17456021650879566,,,,0.12178619756427604,,others,0
8,8,2012-08-16 11:16:37,2012-08-16 11:16:55.475000,18.475,6,BFW,,,,,,,,,,,0.6752368064952639,,,,,,eating,2
9,9,2012-08-16 11:16:46.250000,2012-08-16 11:17:04.725000,18.475,6,BFW,,,,,,,,,,,1.0,,,,,,eating,2
10,10,2012-08-16 11:16:55.500000,2012-08-16 11:17:13.975000,18.475,6,BFW,,,,,,,,,,,1.0,,,,,,eating,2
11,11,2012-08-16 11:17:04.750000,2012-08-16 11:17:23.225000,18.475,6,BFW,,,,,,,,,,,1.0,,,,,,eating,2
12,12,2012-08-16 11:17:14,2012-08-16 11:17:32.475000,18.475,6,BFW,,,,,,,,,,,1.0,,,,,,eating,2
13,13,2012-08-16 11:17:23.250000,2012-08-16 11:17:41.725000,18.475,6,BFW,,,,,,,,,,,1.0,,,,,,eating,2
14,14,2012-08-16 11:17:32.500000,2012-08-16 11:17:50.975000,18.475,6,BFW,,,,,,,,,,,1.0,,,,,,eating,2
15,15,2012-08-16 11:17:41.750000,2012-08-16 11:18:00.225000,18.475,6,BFW,,,,,,,,,,,1.0,,,,,,eating,2
16,16,2012-08-16 11:17:51,2012-08-16 11:18:09.475000,18.475,6,BFW,,,,,,,,,,,1.0,,,,,,eating,2
17,17,2012-08-16 11:18:00.250000,2012-08-16 11:18:18.725000,18.475,6,BFW,,,,,,,,,,,1.0,,,,,,eating,2
18,18,2012-08-16 11:18:09.500000,2012-08-16 11:18:27.975000,18.475,6,BFW,,,,,,,,,,,1.0,,,,,,eating,2
19,19,2012-08-16 11:18:18.750000,2012-08-16 11:18:37.225000,18.475,6,BFW,,,,,,,,,,,1.0,,,,,,eating,2
20,20,2012-08-16 11:18:28,2012-08-16 11:18:46.475000,18.475,6,BFW,,,,,,,,,,,1.0,,,,,,eating,2
21,21,2012-08-16 11:18:37.250000,2012-08-16 11:18:55.725000,18.475,6,BFW,,,,,,,,,,,1.0,,,,,,eating,2
22,22,2012-08-16 11:18:46.500000,2012-08-16 11:19:04.975000,18.475,6,BFW,,,,,,,,,,,1.0,,,,,,eating,2
23,23,2012-08-16 11:18:55.750000,2012-08-16 11:19:14.225000,18.475,6,BFW,,,,,,,,,,,1.0,,,,,,eating,2
24,24,2012-08-16 11:19:05,2012-08-16 11:19:23.475000,18.475,6,BFW,,,,,,,,,,,1.0,,,,,,eating,2
25,25,2012-08-16 11:19:14.250000,2012-08-16 11:19:32.725000,18.475,6,BFW,,,,,,,,,,,1.0,,,,,,eating,2
26,26,2012-08-16 11:19:23.500000,2012-08-16 11:19:41.975000,18.475,6,BFW,,,,,,,,,,,1.0,,,,,,eating,2
27,27,2012-08-16 11:19:32.750000,2012-08-16 11:19:51.225000,18.475,6,BFW,,,,,,,,,,,1.0,,,,,,eating,2
28,28,2012-08-16 11:19:42,2012-08-16 11:20:00.475000,18.475,6,BFW,,,,,,,,,,,1.0,,,,,,eating,2
29,29,2012-08-16 11:19:51.250000,2012-08-16 11:20:09.725000,18.475,6,BFW,,,,,,,,,,,1.0,,,,,,eating,2
30,30,2012-08-16 11:20:00.500000,2012-08-16 11:20:18.975000,18.475,6,BFW,,,,,,,,,,,1.0,,,,,,eating,2
31,31,2012-08-16 11:20:09.750000,2012-08-16 11:20:28.225000,18.475,6,BFW,,,,,,,,,,,1.0,,,,,,eating,2
32,32,2012-08-16 11:20:19,2012-08-16 11:20:37.475000,18.475,6,BFW,,,,,,,,,,,1.0,,,,,,eating,2
33,33,2012-08-16 11:20:28.250000,2012-08-16 11:20:46.725000,18.475,6,BFW,,,,,,,,,,,1.0,,,,,,eating,2
34,34,2012-08-16 11:20:37.500000,2012-08-16 11:20:55.975000,18.475,6,BFW,,,,,,,,,,,1.0,,,,,,eating,2
35,35,2012-08-16 11:20:46.750000,2012-08-16 11:21:05.225000,18.475,6,BFW,,,,,,,,,,,1.0,,,,,,eating,2
36,36,2012-08-16 11:20:56,2012-08-16 11:21:14.475000,18.475,6,BFW,,,,,,,,,,,1.0,,,,,,eating,2
37,37,2012-08-16 11:21:05.250000,2012-08-16 11:21:23.725000,18.475,6,BFW,,,,,,,,,,,1.0,,,,,,eating,2
38,38,2012-08-16 11:21:14.500000,2012-08-16 11:21:32.975000,18.475,6,BFW,,,,,,,,,,,1.0,,,,,,eating,2
39,39,2012-08-16 11:21:23.750000,2012-08-16 11:21:42.225000,18.475,6,BFW,,,,,,,,,,,1.0,,,,,,eating,2
40,40,2012-08-16 11:21:33,2012-08-16 11:21:51.475000,18.475,6,BFW,,,,,,,,,,,1.0,,,,,,eating,2
41,41,2012-08-16 11:21:42.250000,2012-08-16 11:22:00.725000,18.475,6,BFW,,,,,,,,,,,1.0,,,,,,eating,2
42,42,2012-08-16 11:21:51.500000,2012-08-16 11:22:09.975000,18.475,6,BFW,,,,,,,,,,,1.0,,,,,,eating,2
43,43,2012-08-16 11:22:00.750000,2012-08-16 11:22:19.225000,18.475,6,BFW,,,,,,,,,,,1.0,,,,,,eating,2
44,44,2012-08-16 11:22:10,2012-08-16 11:22:28.475000,18.475,6,BFW,,,,,,,,,,,1.0,,,,,,eating,2
45,45,2012-08-16 11:22:19.250000,2012-08-16 11:22:37.725000,18.475,6,BFW,,,,,,,,,,,1.0,,,,,,eating,2
46,46,2012-08-16 11:22:28.500000,2012-08-16 11:22:46.975000,18.475,6,BFW,,,,,,,,,,,1.0,,,,,,eating,2
47,47,2012-08-16 11:22:37.750000,2012-08-16 11:22:56.225000,18.475,6,BFW,,,,,,,,,,,1.0,,,,,,eating,2
48,48,2012-08-16 11:22:47,2012-08-16 11:23:05.475000,18.475,6,BFW,,,,,,,,,,,1.0,,,,,,eating,2
49,49,2012-08-16 11:22:56.250000,2012-08-16 11:23:14.725000,18.475,6,BFW,,,,,,,,,,,1.0,,,,,,eating,2
50,50,2012-08-16 11:23:05.500000,2012-08-16 11:23:23.975000,18.475,6,BFW,,,,,,,,,,,1.0,,,,,,eating,2
51,51,2012-08-16 11:23:14.750000,2012-08-16 11:23:33.225000,18.475,6,BFW,,,,,,,,,,,1.0,,,,,,eating,2
52,52,2012-08-16 11:23:24,2012-08-16 11:23:42.475000,18.475,6,BFW,,,,,,,,,,,1.0,,,,,,eating,2
53,53,2012-08-16 11:23:33.250000,2012-08-16 11:23:51.725000,18.475,6,BFW,,,,,,,,,,,1.0,,,,,,eating,2
54,54,2012-08-16 11:23:42.500000,2012-08-16 11:24:00.975000,18.475,6,BFW,,,,,,,,,,,1.0,,,,,,eating,2
55,55,2012-08-16 11:23:51.750000,2012-08-16 11:24:10.225000,18.475,6,BFW,,,,,,,,,,,1.0,,,,,,eating,2
56,56,2012-08-16 11:24:01,2012-08-16 11:24:19.475000,18.475,6,BFW,,,,,,,,,,,1.0,,,,,,eating,2
57,57,2012-08-16 11:24:10.250000,2012-08-16 11:24:28.725000,18.475,6,BFW,,,,,,,,,,,1.0,,,,,,eating,2
58,58,2012-08-16 11:24:19.500000,2012-08-16 11:24:37.975000,18.475,6,BFW,,,,,,,,,,,1.0,,,,,,eating,2
59,59,2012-08-16 11:24:28.750000,2012-08-16 11:24:47.225000,18.475,6,BFW,,,,,,,,,,,1.0,,,,,,eating,2
60,60,2012-08-16 11:24:38,2012-08-16 11:24:56.475000,18.475,6,BFW,,,,,,,,,,,1.0,,,,,,eating,2
61,61,2012-08-16 11:24:47.250000,2012-08-16 11:25:05.725000,18.475,6,BFW,,,,,,,,,,,1.0,,,,,,eating,2
62,62,2012-08-16 11:24:56.500000,2012-08-16 11:25:14.975000,18.475,6,BFW,,,,,,,,,,,1.0,,,,,,eating,2
63,63,2012-08-16 11:25:05.750000,2012-08-16 11:25:24.225000,18.475,6,BFW,,,,,,,,,,,1.0,,,,,,eating,2
64,64,2012-08-16 11:25:15,2012-08-16 11:25:33.475000,18.475,6,BFW,,,,,,,,,,,1.0,,,,,,eating,2
65,65,2012-08-16 11:25:24.250000,2012-08-16 11:25:42.725000,18.475,6,BFW,,,,,,,,,,,1.0,,,,,,eating,2
66,66,2012-08-16 11:25:33.500000,2012-08-16 11:25:51.975000,18.475,6,BFW,,,,,,,,,,,1.0,,,,,,eating,2
67,67,2012-08-16 11:25:42.750000,2012-08-16 11:26:01.225000,18.475,6,BFW,,,,,,,,,,,1.0,,,,,,eating,2
68,68,2012-08-16 11:25:52,2012-08-16 11:26:10.475000,18.475,6,BFW,,,,,,,,,,,1.0,,,,,,eating,2
69,69,2012-08-16 11:26:01.250000,2012-08-16 11:26:19.725000,18.475,6,BFW,,,,,,,,,,,1.0,,,,,,eating,2
70,70,2012-08-16 11:26:10.500000,2012-08-16 11:26:28.975000,18.475,6,BFW,,,,,,,,,,,1.0,,,,,,eating,2
71,71,2012-08-16 11:26:19.750000,2012-08-16 11:26:38.225000,18.475,6,BFW,,,,,,,,,,,1.0,,,,,,eating,2
72,72,2012-08-16 11:26:29,2012-08-16 11:26:47.475000,18.475,6,BFW,,,,,,,,,,,1.0,,,,,,eating,2
73,73,2012-08-16 11:26:38.250000,2012-08-16 11:26:56.725000,18.475,6,BFW,,,,,,,,,,,1.0,,,,,,eating,2
74,74,2012-08-16 11:26:47.500000,2012-08-16 11:27:05.975000,18.475,6,BFW,,,,,,,,,,,1.0,,,,,,eating,2
75,75,2012-08-16 11:26:56.750000,2012-08-16 11:27:15.225000,18.475,6,BFW,,,,,,,,,,,1.0,0.06630581867388363,,,,0.06630581867388363,eating,2
76,76,2012-08-16 11:27:06,2012-08-16 11:27:24.475000,18.475,6,BFW,,,,,,,,,,,0.5412719891745602,0.5669824086603518,,,,0.10825439783491203,eating,2
77,77,2012-08-16 11:27:15.250000,2012-08-16 11:27:33.725000,18.475,6,BFW,,,,,,,,,,,0.04059539918809201,1.0,,,,0.04059539918809201,others,0
78,78,2012-08-16 11:27:24.500000,2012-08-16 11:27:42.975000,18.475,6,BFW,,,,,,,,,,,,1.0,,,,,others,0
79,79,2012-08-16 11:27:33.750000,2012-08-16 11:27:52.225000,18.475,6,BFW,,,,,,,,,,,,1.0,,,,,others,0
80,80,2012-08-16 11:27:43,2012-08-16 11:28:01.475000,18.475,6,BFW,,,,,,,,,,,,1.0,,,,,others,0
81,81,2012-08-16 11:27:52.250000,2012-08-16 11:28:10.725000,18.475,6,BFW,,,,,,,,,,,,1.0,,,,,others,0
82,82,2012-08-16 11:28:01.500000,2012-08-16 11:28:19.975000,18.475,6,BFW,0.5907407407407407,0.43166441136671174,0.0,0.0,right-puff,,,,,,,1.0,,,,,puff,9
83,83,2012-08-16 11:28:10.750000,2012-08-16 11:28:29.225000,18.475,6,BFW,1.0,0.7307171853856562,0.0,0.0,right-puff,,,,,,,1.0,,,,,puff,9
84,84,2012-08-16 11:28:20,2012-08-16 11:28:38.475000,18.475,6,BFW,0.4074074074074074,0.2976995940460081,0.0,0.0,right-puff,,,,,,,1.0,,,,,rest,-1
85,85,2012-08-16 11:28:29.250000,2012-08-16 11:28:47.725000,18.475,6,BFW,0.9576923076923076,0.3369418132611637,1.0,1.0,right-puff,,,,,,,1.0,,,,,puff,9
86,86,2012-08-16 11:28:38.500000,2012-08-16 11:28:56.975000,18.475,6,BFW,1.0,0.35182679296346414,1.0,1.0,right-puff,,,,,,,1.0,,,,,puff,9
87,87,2012-08-16 11:28:47.750000,2012-08-16 11:29:06.225000,18.475,6,BFW,0.038461538461538464,0.013531799729364004,1.0,1.0,right-puff,,,,,,,1.0,,,,,others,0
88,88,2012-08-16 11:28:57,2012-08-16 11:29:15.475000,18.475,6,BFW,,,,,,,,,,,,1.0,,,,,rest,-1
89,89,2012-08-16 11:29:06.250000,2012-08-16 11:29:24.725000,18.475,6,BFW,0.03214285714285715,0.012178619756427604,1.0,2.0,right-puff,,,,,,,1.0,,,,,others,0
90,90,2012-08-16 11:29:15.500000,2012-08-16 11:29:33.975000,18.475,6,BFW,1.0,0.37889039242219213,1.0,2.0,right-puff,,,,,,,1.0,,,,,puff,9
91,91,2012-08-16 11:29:24.750000,2012-08-16 11:29:43.225000,18.475,6,BFW,0.9642857142857143,0.3653585926928281,1.0,2.0,right-puff,,,,,,,1.0,,,,,puff,9
92,92,2012-08-16 11:29:34,2012-08-16 11:29:52.475000,18.475,6,BFW,,,,,,,,,,,,1.0,,,,,others,0
93,93,2012-08-16 11:29:43.250000,2012-08-16 11:30:01.725000,18.475,6,BFW,0.5863636363636364,0.17456021650879566,0.0,3.0,right-puff,,,,,,,1.0,,,,,puff,9
94,94,2012-08-16 11:29:52.500000,2012-08-16 11:30:10.975000,18.475,6,BFW,1.0,0.2976995940460081,0.0,3.0,right-puff,,,,,,,1.0,,,,,puff,9
95,95,2012-08-16 11:30:01.750000,2012-08-16 11:30:20.225000,18.475,6,BFW,0.4090909090909091,0.12178619756427604,0.0,3.0,right-puff,,,,,,,1.0,,,,,puff,9
96,96,2012-08-16 11:30:11,2012-08-16 11:30:29.475000,18.475,6,BFW,1.0,0.2706359945872801,0.0,4.0,right-puff,,,,,,,1.0,,,,,puff,9
97,97,2012-08-16 11:30:20.250000,2012-08-16 11:30:38.725000,18.475,6,BFW,1.0,0.2706359945872801,0.0,4.0,right-puff,,,,,,,1.0,,,,,puff,9
98,98,2012-08-16 11:30:29.500000,2012-08-16 11:30:47.975000,18.475,6,BFW,,,,,,,,,,,,1.0,,,,,others,0
99,99,2012-08-16 11:30:38.750000,2012-08-16 11:30:57.225000,18.475,6,BFW,,,,,,,,,,,,1.0,,,,,others,0
100,100,2012-08-16 11:30:48,2012-08-16 11:31:06.475000,18.475,6,BFW,,,,,,,,,,,,1.0,,,,,others,0
101,101,2012-08-16 11:30:57.250000,2012-08-16 11:31:15.725000,18.475,6,BFW,,,,,,,0.3640054127198917,,,,,1.0,,,,0.3640054127198917,talking,5
102,102,2012-08-16 11:31:06.500000,2012-08-16 11:31:24.975000,18.475,6,BFW,0.5678571428571428,0.21515561569688768,0.0,5.0,right-puff,,0.8646820027063599,,,,,1.0,,,,0.8646820027063599,puff,9
103,103,2012-08-16 11:31:15.750000,2012-08-16 11:31:34.225000,18.475,6,BFW,1.0,0.37889039242219213,0.0,5.0,right-puff,,0.7713125845737483,,,,,1.0,,,,0.7713125845737483,puff,9
104,104,2012-08-16 11:31:25,2012-08-16 11:31:43.475000,18.475,6,BFW,0.42857142857142855,0.16238159675236805,0.0,5.0,right-puff,,0.2706359945872801,,,,,1.0,,,,0.2706359945872801,puff,9
105,105,2012-08-16 11:31:34.250000,2012-08-16 11:31:52.725000,18.475,6,BFW,0.8708333333333332,0.2828146143437077,1.0,6.0,right-puff,,,,,,,1.0,,,,,puff,9
106,106,2012-08-16 11:31:43.500000,2012-08-16 11:32:01.975000,18.475,6,BFW,1.0,0.3247631935047361,1.0,6.0,right-puff,,,,0.48579161028416773,,,1.0,,,,0.48579161028416773,puff,9
107,107,2012-08-16 11:31:52.750000,2012-08-16 11:32:11.225000,18.475,6,BFW,0.125,0.04059539918809201,1.0,6.0,right-puff,,,,0.986468200270636,,,1.0,,,,0.986468200270636,drinking,8
108,108,2012-08-16 11:32:02,2012-08-16 11:32:20.475000,18.475,6,BFW,,,,,,,,,1.0,,,1.0,,,,1.0,drinking,8
109,109,2012-08-16 11:32:11.250000,2012-08-16 11:32:29.725000,18.475,6,BFW,0.9088235294117647,0.4181326116373477,1.0,7.0,right-puff,,,,1.0,,,1.0,,,,1.0,puff,9
110,110,2012-08-16 11:32:20.500000,2012-08-16 11:32:38.975000,18.475,6,BFW,1.0,0.46008119079837617,1.0,7.0,right-puff,,,,1.0,,,1.0,,,,1.0,puff,9
111,111,2012-08-16 11:32:29.750000,2012-08-16 11:32:48.225000,18.475,6,BFW,0.08823529411764706,0.04059539918809201,1.0,7.0,right-puff,,,,1.0,,,1.0,,,,1.0,rest,-1
112,112,2012-08-16 11:32:39,2012-08-16 11:32:57.475000,18.475,6,BFW,0.1880952380952381,0.10690121786197564,0.0,8.0,right-puff,,,,1.0,,,1.0,,,,1.0,drinking,8
113,113,2012-08-16 11:32:48.250000,2012-08-16 11:33:06.725000,18.475,6,BFW,1.0,0.5683355886332881,0.0,8.0,right-puff,,,,1.0,,,1.0,,,,1.0,puff,9
114,114,2012-08-16 11:32:57.500000,2012-08-16 11:33:15.975000,18.475,6,BFW,0.8095238095238095,0.46008119079837617,0.0,8.0,right-puff,,,,0.9472259810554803,,,1.0,,,,0.9472259810554803,puff,9
115,115,2012-08-16 11:33:06.750000,2012-08-16 11:33:25.225000,18.475,6,BFW,,,,,,,,,0.44654939106901215,,,1.0,,,,0.44654939106901215,drinking,8
116,116,2012-08-16 11:33:16,2012-08-16 11:33:34.475000,18.475,6,BFW,,,,,,,,,,,,1.0,,,,,others,0
117,117,2012-08-16 11:33:25.250000,2012-08-16 11:33:43.725000,18.475,6,BFW,,,,,,,,,,,,1.0,,,,,others,0
118,118,2012-08-16 11:33:34.500000,2012-08-16 11:33:52.975000,18.475,6,BFW,1.0,0.21650879566982406,0.0,9.0,right-puff,,,,,,,1.0,,,,,puff,9
119,119,2012-08-16 11:33:43.750000,2012-08-16 11:34:02.225000,18.475,6,BFW,1.0,0.21650879566982406,0.0,9.0,right-puff,,,,,,,0.7171853856562922,,,,,puff,9
120,120,2012-08-16 11:33:53,2012-08-16 11:34:11.475000,18.475,6,BFW,,,,,,,,,0.025710419485791607,,,0.21650879566982406,,,,,others,0
121,121,2012-08-16 11:34:02.250000,2012-08-16 11:34:20.725000,18.475,6,BFW,,,,,,,,,0.5263870094722598,,,,,,,,drinking,8
122,122,2012-08-16 11:34:11.500000,2012-08-16 11:34:29.975000,18.475,6,BFW,,,,,,,,,1.0,,,,,,,,drinking,8
123,123,2012-08-16 11:34:20.750000,2012-08-16 11:34:39.225000,18.475,6,BFW,,,,,,,,,1.0,,,,,,,,drinking,8
124,124,2012-08-16 11:34:30,2012-08-16 11:34:48.475000,18.475,6,BFW,,,,,,,,,1.0,,,,,,,,drinking,8
125,125,2012-08-16 11:34:39.250000,2012-08-16 11:34:57.725000,18.475,6,BFW,,,,,,,,,0.5818673883626522,,,,,,,,drinking,8
126,126,2012-08-16 11:34:48.500000,2012-08-16 11:35:06.975000,18.475,6,BFW,,,,,,,,,0.08119079837618402,,,,,,,,others,0
127,127,2012-08-16 11:34:57.750000,2012-08-16 11:35:16.225000,18.475,6,BFW,,,,,,,,,0.3369418132611637,,,,,,,,drinking,8
128,128,2012-08-16 11:35:07,2012-08-16 11:35:25.475000,18.475,6,BFW,,,,,,,,,0.8376184032476318,,,,,,,,drinking,8
129,129,2012-08-16 11:35:16.250000,2012-08-16 11:35:34.725000,18.475,6,BFW,,,,,,,,,1.0,,,,,,,,rest,-1
130,130,2012-08-16 11:35:25.500000,2012-08-16 11:35:43.975000,18.475,6,BFW,,,,,,,,,0.7307171853856562,,,,,,,,drinking,8
131,131,2012-08-16 11:35:34.750000,2012-08-16 11:35:53.225000,18.475,6,BFW,,,,,,,,,0.23004059539918809,,,,,,,,others,0
132,132,2012-08-16 11:35:44,2012-08-16 11:36:02.475000,18.475,6,BFW,,,,,,,,,,,,,,,,,rest,-1
133,133,2012-08-16 11:35:53.250000,2012-08-16 11:36:11.725000,18.475,6,BFW,,,,,,,,,,,,,,,,,rest,-1
134,134,2012-08-16 11:36:02.500000,2012-08-16 11:36:20.975000,18.475,6,BFW,,,,,,,,,,,,,,,,,rest,-1
135,135,2012-08-16 11:36:11.750000,2012-08-16 11:36:30.225000,18.475,6,BFW,,,,,,,,,0.12043301759133965,,,,,,,,others,0
136,136,2012-08-16 11:36:21,2012-08-16 11:36:39.475000,18.475,6,BFW,,,,,,,,,0.6211096075778078,,,,,,,,drinking,8
137,137,2012-08-16 11:36:30.250000,2012-08-16 11:36:48.725000,18.475,6,BFW,,,,,,,,,0.5277401894451962,,,,,,,,drinking,8
138,138,2012-08-16 11:36:39.500000,2012-08-16 11:36:57.975000,18.475,6,BFW,,,,,,,,,0.027063599458728008,,,,,,,,others,0
139,139,2012-08-16 11:36:48.750000,2012-08-16 11:37:07.225000,18.475,6,BFW,,,,,,,,,,,,,,,,,others,0
140,140,2012-08-16 11:36:58,2012-08-16 11:37:16.475000,18.475,6,BFW,,,,,,,,,0.16238159675236805,,,,,,,,others,0
141,141,2012-08-16 11:37:07.250000,2012-08-16 11:37:25.725000,18.475,6,BFW,,,,,,,,,0.16238159675236805,,,,,,,,others,0
142,142,2012-08-16 11:37:16.500000,2012-08-16 11:37:34.975000,18.475,6,BFW,,,,,,,,,,,,,,,,,others,0
143,143,2012-08-16 11:37:25.750000,2012-08-16 11:37:44.225000,18.475,6,BFW,,,,,,,,,,,,,,,,,others,0
144,144,2012-08-16 11:37:35,2012-08-16 11:37:53.475000,18.475,6,BFW,,,,,,,,,,,,,,,,,others,0
145,145,2012-08-16 11:37:44.250000,2012-08-16 11:38:02.725000,18.475,6,BFW,,,,,,,,,,,,,,,,,rest,-1
146,146,2012-08-16 11:37:53.500000,2012-08-16 11:38:11.975000,18.475,6,BFW,,,,,,,,,,,,,,,,,others,0
147,147,2012-08-16 11:38:02.750000,2012-08-16 11:38:21.225000,18.475,6,BFW,,,,,,,,,,,,,,,,,others,0
148,148,2012-08-16 11:38:12,2012-08-16 11:38:30.475000,18.475,6,BFW,,,,,,,,,,,,,,,,,others,0
149,149,2012-08-16 11:38:21.250000,2012-08-16 11:38:39.725000,18.475,6,BFW,,,,,,,,,,,,,,,,,others,0
150,150,2012-08-16 11:38:30.500000,2012-08-16 11:38:48.975000,18.475,6,BFW,,,,,,,,,,,,,,,0.26928281461434367,,others,0
151,151,2012-08-16 11:38:39.750000,2012-08-16 11:38:58.225000,18.475,6,BFW,,,,,,,,,,,,,,,0.7699594046008118,,walking,1
152,152,2012-08-16 11:38:49,2012-08-16 11:39:07.475000,18.475,6,BFW,,,,,,,,,,,,,,,1.0,,walking,1
153,153,2012-08-16 11:38:58.250000,2012-08-16 11:39:16.725000,18.475,6,BFW,,,,,,,,,,,,,,,1.0,,walking,1
154,154,2012-08-16 11:39:07.500000,2012-08-16 11:39:25.975000,18.475,6,BFW,,,,,,,,,,,,,,,1.0,,walking,1
155,155,2012-08-16 11:39:16.750000,2012-08-16 11:39:35.225000,18.475,6,BFW,,,,,,,,,,,,,,,1.0,,walking,1
156,156,2012-08-16 11:39:26,2012-08-16 11:39:44.475000,18.475,6,BFW,,,,,,,,,,,,,,,1.0,,walking,1
157,157,2012-08-16 11:39:35.250000,2012-08-16 11:39:53.725000,18.475,6,BFW,,,,,,,,,,,,,,,1.0,,walking,1
158,158,2012-08-16 11:39:44.500000,2012-08-16 11:40:02.975000,18.475,6,BFW,,,,,,,,,,,,,,,1.0,,walking,1
159,159,2012-08-16 11:39:53.750000,2012-08-16 11:40:12.225000,18.475,6,BFW,,,,,,,,,,,,,,,1.0,,walking,1
160,160,2012-08-16 11:40:03,2012-08-16 11:40:21.475000,18.475,6,BFW,,,,,,,,,,,,,,,1.0,,walking,1
161,161,2012-08-16 11:40:12.250000,2012-08-16 11:40:30.725000,18.475,6,BFW,,,,,,,,,,,,,,,1.0,,walking,1
162,162,2012-08-16 11:40:21.500000,2012-08-16 11:40:39.975000,18.475,6,BFW,,,,,,,,,,,,,,,1.0,,walking,1
163,163,2012-08-16 11:40:30.750000,2012-08-16 11:40:49.225000,18.475,6,BFW,,,,,,,,,,,,,,,1.0,,walking,1
164,164,2012-08-16 11:40:40,2012-08-16 11:40:58.475000,18.475,6,BFW,,,,,,,,,,,,,,,1.0,,walking,1
165,165,2012-08-16 11:40:49.250000,2012-08-16 11:41:07.725000,18.475,6,BFW,,,,,,,,,,,,,,,1.0,,walking,1
166,166,2012-08-16 11:40:58.500000,2012-08-16 11:41:16.975000,18.475,6,BFW,,,,,,,,,,,,,,,1.0,,walking,1
167,167,2012-08-16 11:41:07.750000,2012-08-16 11:41:26.225000,18.475,6,BFW,,,,,,,,,,,,,,,0.8795669824086603,,walking,1
168,168,2012-08-16 11:41:17,2012-08-16 11:41:35.475000,18.475,6,BFW,,,,,,,,,,,,,,,0.37889039242219213,,walking,1
169,169,2012-08-16 11:41:26.250000,2012-08-16 11:41:44.725000,18.475,6,BFW,,,,,,,,,,,,,,,,,others,0
170,170,2012-08-16 11:41:35.500000,2012-08-16 11:41:53.975000,18.475,6,BFW,,,,,,,,,,,,,,,,,others,0
171,171,2012-08-16 11:41:44.750000,2012-08-16 11:42:03.225000,18.475,6,BFW,,,,,,,,,,,,,,,,,others,0
172,172,2012-08-16 11:41:54,2012-08-16 11:42:12.475000,18.475,6,BFW,,,,,,,,,,,,,,,,,others,0
173,173,2012-08-16 11:42:03.250000,2012-08-16 11:42:21.725000,18.475,6,BFW,,,,,,,,,,,,,,,,,others,0
174,174,2012-08-16 11:42:12.500000,2012-08-16 11:42:30.975000,18.475,6,BFW,,,,,,,,,0.48579161028416773,,,,,,,,drinking,8
175,175,2012-08-16 11:42:21.750000,2012-08-16 11:42:40.225000,18.475,6,BFW,,,,,,,,,0.48714479025710417,,,,,,,,drinking,8
176,176,2012-08-16 11:42:31,2012-08-16 11:42:49.475000,18.475,6,BFW,,,,,,,,,,,,,,,,,others,0
177,177,2012-08-16 11:42:40.250000,2012-08-16 11:42:58.725000,18.475,6,BFW,,,,,,,,,,,,,,,,,others,0
178,178,2012-08-16 11:42:49.500000,2012-08-16 11:43:07.975000,18.475,6,BFW,,,,,,,,,,,,,,,,,others,0
179,179,2012-08-16 11:42:58.750000,2012-08-16 11:43:17.225000,18.475,6,BFW,,,,,,,,,,,,,,,,,others,0
180,180,2012-08-16 11:43:08,2012-08-16 11:43:26.475000,18.475,6,BFW,,,,,,,,,,,,,,,,,others,0
181,181,2012-08-16 11:43:17.250000,2012-08-16 11:43:35.725000,18.475,6,BFW,,,,,,,,,0.3640054127198917,,,,,,,,drinking,8
182,182,2012-08-16 11:43:26.500000,2012-08-16 11:43:44.975000,18.475,6,BFW,,,,,,,,,0.8646820027063599,,,,,,,,drinking,8
183,183,2012-08-16 11:43:35.750000,2012-08-16 11:43:54.225000,18.475,6,BFW,,,,,,,,,1.0,,,,,,,,drinking,8
184,184,2012-08-16 11:43:45,2012-08-16 11:44:03.475000,18.475,6,BFW,,,,,,,,,1.0,,,,,,,,drinking,8
185,185,2012-08-16 11:43:54.250000,2012-08-16 11:44:12.725000,18.475,6,BFW,,,,,,,,,1.0,,,,,,,,drinking,8
186,186,2012-08-16 11:44:03.500000,2012-08-16 11:44:21.975000,18.475,6,BFW,,,,,,,,,0.5683355886332881,,,,,,,,drinking,8
187,187,2012-08-16 11:44:12.750000,2012-08-16 11:44:31.225000,18.475,6,BFW,,,,,,,,,0.06765899864682003,,,,,,,,others,0
188,188,2012-08-16 11:44:22,2012-08-16 11:44:40.475000,18.475,6,BFW,,,,,,,,,,,,,,,,,others,0
189,189,2012-08-16 11:44:31.250000,2012-08-16 11:44:49.725000,18.475,6,BFW,,,,,,,,,,,,,,,,,others,0
190,190,2012-08-16 11:44:40.500000,2012-08-16 11:44:58.975000,18.475,6,BFW,,,,,,,,,,,,,,,,,others,0
191,191,2012-08-16 11:44:49.750000,2012-08-16 11:45:08.225000,18.475,6,BFW,,,,,,,,,,,,,,,,,others,0
192,192,2012-08-16 11:44:59,2012-08-16 11:45:17.475000,18.475,6,BFW,,,,,,,,,,,,,,,,,others,0
193,193,2012-08-16 11:45:08.250000,2012-08-16 11:45:26.725000,18.475,6,BFW,,,,,,,,,,,,,,,,,others,0
194,194,2012-08-16 11:45:17.500000,2012-08-16 11:45:35.975000,18.475,6,BFW,,,,,,,,,,,,,,,,,others,0
195,195,2012-08-16 11:45:26.750000,2012-08-16 11:45:45.225000,18.475,6,BFW,,,,,,,,,,,,,,,,,others,0
196,196,2012-08-16 11:45:36,2012-08-16 11:45:54.475000,18.475,6,BFW,,,,,,,,,,,,,,,,,others,0
197,197,2012-08-16 11:45:45.250000,2012-08-16 11:46:03.725000,18.475,6,BFW,,,,,,,,,,,,,,,,,others,0
198,198,2012-08-16 11:45:54.500000,2012-08-16 11:46:12.975000,18.475,6,BFW,,,,,,,,,,,,,,,,,others,0
199,199,2012-08-16 11:46:03.750000,2012-08-16 11:46:22.225000,18.475,6,BFW,,,,,,,,,,,,,,,,,others,0
200,200,2012-08-16 11:46:13,2012-08-16 11:46:31.475000,18.475,6,BFW,,,,,,,,,,,,,,,,,others,0
201,201,2012-08-16 11:46:22.250000,2012-08-16 11:46:40.725000,18.475,6,BFW,,,,,,,,,,,,,,,,,others,0
202,202,2012-08-16 11:46:31.500000,2012-08-16 11:46:49.975000,18.475,6,BFW,,,,,,,,,,,,,,,,,others,0
203,203,2012-08-16 11:46:40.750000,2012-08-16 11:46:59.225000,18.475,6,BFW,,,,,,,,,,,,,,,,,others,0
204,204,2012-08-16 11:46:50,2012-08-16 11:47:08.475000,18.475,6,BFW,,,,,,,,,,,,,,,,,others,0
205,205,2012-08-16 11:46:59.250000,2012-08-16 11:47:17.725000,18.475,6,BFW,,,,,,,,,,,,,,,,,others,0
206,206,2012-08-16 11:47:08.500000,2012-08-16 11:47:26.975000,18.475,6,BFW,,,,,,,,,,,,,,,,,others,0
207,207,2012-08-16 11:47:17.750000,2012-08-16 11:47:36.225000,18.475,6,BFW,0.2653846153846154,0.09336941813261164,1.0,10.0,right-puff,,,,,,,0.12043301759133965,,,,,others,0
208,208,2012-08-16 11:47:27,2012-08-16 11:47:45.475000,18.475,6,BFW,1.0,0.35182679296346414,1.0,10.0,right-puff,,,,,,,0.6211096075778078,,,,,puff,9
209,209,2012-08-16 11:47:36.250000,2012-08-16 11:47:54.725000,18.475,6,BFW,1.15,0.4046008119079837,1.0,10.0,right-puff,,,,0.2706359945872801,,,1.0,,,,0.2706359945872801,puff,9
210,210,2012-08-16 11:47:45.500000,2012-08-16 11:48:03.975000,18.475,6,BFW,1.0,0.46008119079837617,0.0,11.0,right-puff,,,,0.2706359945872801,,,1.0,,,,0.2706359945872801,puff,9
211,211,2012-08-16 11:47:54.750000,2012-08-16 11:48:13.225000,18.475,6,BFW,0.6764705882352942,0.3112313937753721,0.0,11.0,right-puff,,,,,,,1.0,,,,,puff,9
212,212,2012-08-16 11:48:04,2012-08-16 11:48:22.475000,18.475,6,BFW,1.0,0.3247631935047361,0.0,12.0,right-puff,,,,,,,1.0,,,,,puff,9
213,213,2012-08-16 11:48:13.250000,2012-08-16 11:48:31.725000,18.475,6,BFW,1.0,0.3247631935047361,0.0,12.0,right-puff,,,,,,,1.0,,,,,puff,9
214,214,2012-08-16 11:48:22.500000,2012-08-16 11:48:40.975000,18.475,6,BFW,,,,,,,,,0.052774018944519614,,,1.0,,,,0.052774018944519614,others,0
215,215,2012-08-16 11:48:31.750000,2012-08-16 11:48:50.225000,18.475,6,BFW,,,,,,,,,0.5534506089309877,,,1.0,,,,0.5534506089309877,drinking,8
216,216,2012-08-16 11:48:41,2012-08-16 11:48:59.475000,18.475,6,BFW,,,,,,,,,1.0,,,1.0,,,,1.0,drinking,8
217,217,2012-08-16 11:48:50.250000,2012-08-16 11:49:08.725000,18.475,6,BFW,,,,,,,,,0.5277401894451962,,,1.0,,,,0.5277401894451962,drinking,8
218,218,2012-08-16 11:48:59.500000,2012-08-16 11:49:17.975000,18.475,6,BFW,,,,,,,,,0.027063599458728008,,,1.0,,,,0.027063599458728008,others,0
219,219,2012-08-16 11:49:08.750000,2012-08-16 11:49:27.225000,18.475,6,BFW,,,,,,,,,,,,1.0,,,,,others,0
220,220,2012-08-16 11:49:18,2012-08-16 11:49:36.475000,18.475,6,BFW,,,,,,,,,,,,1.0,,,,,others,0
221,221,2012-08-16 11:49:27.250000,2012-08-16 11:49:45.725000,18.475,6,BFW,,,,,,,0.03924221921515561,,,,,1.0,,,,0.03924221921515561,others,0
222,222,2012-08-16 11:49:36.500000,2012-08-16 11:49:54.975000,18.475,6,BFW,,,,,,,0.5399188092016237,,,,,1.0,,,,0.5399188092016237,talking,5
223,223,2012-08-16 11:49:45.750000,2012-08-16 11:50:04.225000,18.475,6,BFW,1.0,0.2976995940460081,1.0,13.0,right-puff,,0.5548037889039242,,,,,1.0,,,,0.5548037889039242,puff,9
224,224,2012-08-16 11:49:55,2012-08-16 11:50:13.475000,18.475,6,BFW,1.0,0.2976995940460081,1.0,13.0,right-puff,,0.054127198917456015,,,,,1.0,,,,0.054127198917456015,puff,9
225,225,2012-08-16 11:50:04.250000,2012-08-16 11:50:22.725000,18.475,6,BFW,,,,,,,,,,,,1.0,,,,,others,0
226,226,2012-08-16 11:50:13.500000,2012-08-16 11:50:31.975000,18.475,6,BFW,,,,,,,,,,,,1.0,,,,,others,0
227,227,2012-08-16 11:50:22.750000,2012-08-16 11:50:41.225000,18.475,6,BFW,,,,,,,,,,,,1.0,,,,,others,0
228,228,2012-08-16 11:50:32,2012-08-16 11:50:50.475000,18.475,6,BFW,,,,,,,,,0.18809201623815966,,,1.0,,,,0.18809201623815966,others,0
229,229,2012-08-16 11:50:41.250000,2012-08-16 11:50:59.725000,18.475,6,BFW,0.445,0.12043301759133965,1.0,14.0,right-puff,,,,0.5953991880920162,,,1.0,,,,0.5953991880920162,puff,9
230,230,2012-08-16 11:50:50.500000,2012-08-16 11:51:08.975000,18.475,6,BFW,1.0,0.2706359945872801,1.0,14.0,right-puff,,,,0.40595399188092013,,,1.0,,,,0.40595399188092013,puff,9
231,231,2012-08-16 11:50:59.750000,2012-08-16 11:51:18.225000,18.475,6,BFW,0.55,0.14884979702300405,1.0,14.0,right-puff,,,,,,,1.0,,,,,puff,9
232,232,2012-08-16 11:51:09,2012-08-16 11:51:27.475000,18.475,6,BFW,0.495,0.13396481732070364,1.0,15.0,right-puff,,,,,,,1.0,,,,,rest,-1
233,233,2012-08-16 11:51:18.250000,2012-08-16 11:51:36.725000,18.475,6,BFW,1.0,0.2706359945872801,1.0,15.0,right-puff,,,,,,,1.0,,,,,rest,-1
234,234,2012-08-16 11:51:27.500000,2012-08-16 11:51:45.975000,18.475,6,BFW,0.5,0.13531799729364005,1.0,15.0,right-puff,,,,,,,1.0,,,,,rest,-1
235,235,2012-08-16 11:51:36.750000,2012-08-16 11:51:55.225000,18.475,6,BFW,,,,,,,,,,,,1.0,,,,,others,0
236,236,2012-08-16 11:51:46,2012-08-16 11:52:04.475000,18.475,6,BFW,,,,,,,,,,,,1.0,,,,,others,0
237,237,2012-08-16 11:51:55.250000,2012-08-16 11:52:13.725000,18.475,6,BFW,,,,,,,,,,,,1.0,,,,,others,0
238,238,2012-08-16 11:52:04.500000,2012-08-16 11:52:22.975000,18.475,6,BFW,,,,,,,,,0.052774018944519614,,,1.0,,,,0.052774018944519614,others,0
239,239,2012-08-16 11:52:13.750000,2012-08-16 11:52:32.225000,18.475,6,BFW,,,,,,,,,0.2706359945872801,,,1.0,,,,0.2706359945872801,drinking,8
240,240,2012-08-16 11:52:23,2012-08-16 11:52:41.475000,18.475,6,BFW,0.809375,0.3504736129905277,1.0,16.0,right-puff,,,,0.21650879566982406,,,1.0,,,,0.21650879566982406,puff,9
241,241,2012-08-16 11:52:32.250000,2012-08-16 11:52:50.725000,18.475,6,BFW,1.0,0.4330175913396481,1.0,16.0,right-puff,,,,,,,1.0,,,,,puff,9
242,242,2012-08-16 11:52:41.500000,2012-08-16 11:52:59.975000,18.475,6,BFW,0.1875,0.08119079837618402,1.0,16.0,right-puff,,,,,,,1.0,,,,,others,0
243,243,2012-08-16 11:52:50.750000,2012-08-16 11:53:09.225000,18.475,6,BFW,,,,,,,,,,,,1.0,,,,,others,0
244,244,2012-08-16 11:53:00,2012-08-16 11:53:18.475000,18.475,6,BFW,1.0,0.2976995940460081,1.0,17.0,right-puff,,,,,,,1.0,,,,,puff,9
245,245,2012-08-16 11:53:09.250000,2012-08-16 11:53:27.725000,18.475,6,BFW,1.0,0.2976995940460081,1.0,17.0,right-puff,,,,,,,1.0,,,,,puff,9
246,246,2012-08-16 11:53:18.500000,2012-08-16 11:53:36.975000,18.475,6,BFW,,,,,,,,,,,,0.8930987821380243,,,,,others,0
247,247,2012-08-16 11:53:27.750000,2012-08-16 11:53:46.225000,18.475,6,BFW,,,,,,,,,,,,0.3924221921515561,,,,,others,0
248,248,2012-08-16 11:53:37,2012-08-16 11:53:55.475000,18.475,6,BFW,,,,,,,,,,,,,,,,,others,0
249,249,2012-08-16 11:53:46.250000,2012-08-16 11:54:04.725000,18.475,6,BFW,,,,,,,,,,,,,,,,,others,0
250,250,2012-08-16 11:53:55.500000,2012-08-16 11:54:13.975000,18.475,6,BFW,,,,,,,,,,,,,,,,,others,0
251,251,2012-08-16 11:54:04.750000,2012-08-16 11:54:23.225000,18.475,6,BFW,,,,,,,,,,,,,,,,,others,0
252,252,2012-08-16 11:54:14,2012-08-16 11:54:32.475000,18.475,6,BFW,,,,,,,,,0.025710419485791607,,,,,,,,others,0
253,253,2012-08-16 11:54:23.250000,2012-08-16 11:54:41.725000,18.475,6,BFW,,,,,,,,,0.5263870094722598,,,,,,,,drinking,8
254,254,2012-08-16 11:54:32.500000,2012-08-16 11:54:50.975000,18.475,6,BFW,,,,,,,,,1.0,,,,,,,,rest,-1
255,255,2012-08-16 11:54:41.750000,2012-08-16 11:55:00.225000,18.475,6,BFW,,,,,,,,,1.0,,,,,,,,drinking,8
256,256,2012-08-16 11:54:51,2012-08-16 11:55:09.475000,18.475,6,BFW,,,,,,,,,1.0,,,,,,,,drinking,8
257,257,2012-08-16 11:55:00.250000,2012-08-16 11:55:18.725000,18.475,6,BFW,,,,,,,,,1.0,,,,,,,,drinking,8
258,258,2012-08-16 11:55:09.500000,2012-08-16 11:55:27.975000,18.475,6,BFW,,,,,,,,,1.0,,,,,,,,drinking,8
259,259,2012-08-16 11:55:18.750000,2012-08-16 11:55:37.225000,18.475,6,BFW,,,,,,,,,1.0,,,,,,,,drinking,8
260,260,2012-08-16 11:55:28,2012-08-16 11:55:46.475000,18.475,6,BFW,,,,,,,,,1.0,,,,,,,,drinking,8
261,261,2012-08-16 11:55:37.250000,2012-08-16 11:55:55.725000,18.475,6,BFW,,,,,,,,,1.0,,,,,,,,drinking,8
262,262,2012-08-16 11:55:46.500000,2012-08-16 11:56:04.975000,18.475,6,BFW,,,,,,,,,1.0,,,,,,,,drinking,8
263,263,2012-08-16 11:55:55.750000,2012-08-16 11:56:14.225000,18.475,6,BFW,,,,,,,,,1.0,,,,,,,,drinking,8
264,264,2012-08-16 11:56:05,2012-08-16 11:56:23.475000,18.475,6,BFW,,,,,,,,,0.6495263870094722,,,,,,,,drinking,8
265,265,2012-08-16 11:56:14.250000,2012-08-16 11:56:32.725000,18.475,6,BFW,,,,,,,,,0.14884979702300405,,,,,,,,others,0
266,266,2012-08-16 11:56:23.500000,2012-08-16 11:56:41.975000,18.475,6,BFW,,,,,,,,,,,,,,,,,others,0
267,267,2012-08-16 11:56:32.750000,2012-08-16 11:56:51.225000,18.475,6,BFW,,,,,,,,,,,,,,,,,rest,-1
268,268,2012-08-16 11:56:42,2012-08-16 11:57:00.475000,18.475,6,BFW,,,,,,,,,,,,,,,,,rest,-1
269,269,2012-08-16 11:56:51.250000,2012-08-16 11:57:09.725000,18.475,6,BFW,,,,,,,,,,,,,,,,,others,0
270,270,2012-08-16 11:57:00.500000,2012-08-16 11:57:18.975000,18.475,6,BFW,,,,,,,,,,,,,,,,,others,0
271,271,2012-08-16 11:57:09.750000,2012-08-16 11:57:28.225000,18.475,6,BFW,,,,,,,,,,,,,,,,,rest,-1
272,272,2012-08-16 11:57:19,2012-08-16 11:57:37.475000,18.475,6,BFW,,,,,,,,,,,,,,,,,rest,-1
273,273,2012-08-16 11:57:28.250000,2012-08-16 11:57:46.725000,18.475,6,BFW,,,,,,,,,,,,,,,,,rest,-1
274,274,2012-08-16 11:57:37.500000,2012-08-16 11:57:55.975000,18.475,6,BFW,,,,,,,,,,,,,,,,,rest,-1
275,275,2012-08-16 11:57:46.750000,2012-08-16 11:58:05.225000,18.475,6,BFW,,,,,,,,,0.012178619756427604,,,,,,,,rest,-1
276,276,2012-08-16 11:57:56,2012-08-16 11:58:14.475000,18.475,6,BFW,,,,,,,,,0.3247631935047361,,,,,,,,drinking,8
277,277,2012-08-16 11:58:05.250000,2012-08-16 11:58:23.725000,18.475,6,BFW,,,,,,,,,0.3112313937753721,,,,,,,,rest,-1
278,278,2012-08-16 11:58:14.500000,2012-08-16 11:58:32.975000,18.475,6,BFW,,,,,,,,,,,,,,,,,rest,-1
279,279,2012-08-16 11:58:23.750000,2012-08-16 11:58:42.225000,18.475,6,BFW,,,,,,,,,,,,,,,,,rest,-1
280,280,2012-08-16 11:58:33,2012-08-16 11:58:51.475000,18.475,6,BFW,,,,,,,,,,,,,,,,,rest,-1
281,281,2012-08-16 11:58:42.250000,2012-08-16 11:59:00.725000,18.475,6,BFW,,,,,,,,,,,,,,,,,others,0
282,282,2012-08-16 11:58:51.500000,2012-08-16 11:59:09.975000,18.475,6,BFW,,,,,,,,,,,,,,,,,rest,-1
283,283,2012-08-16 11:59:00.750000,2012-08-16 11:59:19.225000,18.475,6,BFW,,,,,,,,,,,,,,,,,others,0
284,284,2012-08-16 11:59:10,2012-08-16 11:59:28.475000,18.475,6,BFW,,,,,,,,,,,,,,,,,others,0
285,285,2012-08-16 11:59:19.250000,2012-08-16 11:59:37.725000,18.475,6,BFW,,,,,,,,,,,,,,,,,rest,-1
286,286,2012-08-16 11:59:28.500000,2012-08-16 11:59:46.975000,18.475,6,BFW,,,,,,,,,,,,,,,,,others,0
287,287,2012-08-16 11:59:37.750000,2012-08-16 11:59:56.225000,18.475,6,BFW,,,,,,,,,,,,,,,,,others,0
288,288,2012-08-16 11:59:47,2012-08-16 12:00:05.475000,18.475,6,BFW,,,,,,,,,,,,,,,,,rest,-1
289,289,2012-08-16 11:59:56.250000,2012-08-16 12:00:14.725000,18.475,6,BFW,,,,,,,,,,,,,,,,,rest,-1
290,290,2012-08-16 12:00:05.500000,2012-08-16 12:00:23.975000,18.475,6,BFW,,,,,,,,,,,,,,,,,rest,-1
291,291,2012-08-16 12:00:14.750000,2012-08-16 12:00:33.225000,18.475,6,BFW,,,,,,,,,,,,,,,,,others,0
292,292,2012-08-16 12:00:24,2012-08-16 12:00:42.475000,18.475,6,BFW,,,,,,,,,,,,,,,,,others,0
293,293,2012-08-16 12:00:33.250000,2012-08-16 12:00:51.725000,18.475,6,BFW,,,,,,,,,,,,,,,,,others,0
294,294,2012-08-16 12:00:42.500000,2012-08-16 12:01:00.975000,18.475,6,BFW,,,,,,,,,,,,,,,,,rest,-1
295,295,2012-08-16 12:00:51.750000,2012-08-16 12:01:10.225000,18.475,6,BFW,,,,,,,,,,,,,,,,,rest,-1
296,296,2012-08-16 12:01:01,2012-08-16 12:01:19.475000,18.475,6,BFW,,,,,,,,,,,,,,,,,rest,-1
297,297,2012-08-16 12:01:10.250000,2012-08-16 12:01:28.725000,18.475,6,BFW,,,,,,,,,,,,,,,,,rest,-1
298,298,2012-08-16 12:01:19.500000,2012-08-16 12:01:37.975000,18.475,6,BFW,,,,,,,,,,,,,,,,,rest,-1
299,299,2012-08-16 12:01:28.750000,2012-08-16 12:01:47.225000,18.475,6,BFW,,,,,,,,,,,,,,,,,others,0
300,300,2012-08-16 12:01:38,2012-08-16 12:01:56.475000,18.475,6,BFW,,,,,,,,,,,,,,,,,others,0
301,301,2012-08-16 12:01:47.250000,2012-08-16 12:02:05.725000,18.475,6,BFW,,,,,,,,,,,,,,,,,rest,-1
302,302,2012-08-16 12:01:56.500000,2012-08-16 12:02:14.975000,18.475,6,BFW,,,,,,,,,,,,,,,,,others,0
303,303,2012-08-16 12:02:05.750000,2012-08-16 12:02:24.225000,18.475,6,BFW,,,,,,,,,,,,,,,,,others,0
304,304,2012-08-16 12:02:15,2012-08-16 12:02:33.475000,18.475,6,BFW,,,,,,,,,,,,,,,,,others,0
305,305,2012-08-16 12:02:24.250000,2012-08-16 12:02:42.725000,18.475,6,BFW,,,,,,,,,,,,,,,,,others,0
306,306,2012-08-16 12:02:33.500000,2012-08-16 12:02:51.975000,18.475,6,BFW,,,,,,,,,0.16102841677943167,,,,,,,,others,0
307,307,2012-08-16 12:02:42.750000,2012-08-16 12:03:01.225000,18.475,6,BFW,,,,,,,,,0.6617050067658998,,,,,,,,drinking,8
308,308,2012-08-16 12:02:52,2012-08-16 12:03:10.475000,18.475,6,BFW,,,,,,,,,0.6495263870094722,,,,,,,,drinking,8
309,309,2012-08-16 12:03:01.250000,2012-08-16 12:03:19.725000,18.475,6,BFW,,,,,,,,,0.14884979702300405,,,,,,,,others,0
310,310,2012-08-16 12:03:10.500000,2012-08-16 12:03:28.975000,18.475,6,BFW,,,,,,,,,,,,,,,,,others,0
311,311,2012-08-16 12:03:19.750000,2012-08-16 12:03:38.225000,18.475,6,BFW,,,,,,,,,,,,,,,,,others,0
312,312,2012-08-16 12:03:29,2012-08-16 12:03:47.475000,18.475,6,BFW,,,,,,,,,,,,,,,,,others,0
313,313,2012-08-16 12:03:38.250000,2012-08-16 12:03:56.725000,18.475,6,BFW,,,,,,,,,,,,,,,,,rest,-1
314,314,2012-08-16 12:03:47.500000,2012-08-16 12:04:05.975000,18.475,6,BFW,,,,,,,,,,,,,,,,,others,0
315,315,2012-08-16 12:03:56.750000,2012-08-16 12:04:15.225000,18.475,6,BFW,,,,,,,,,,,,,,,,,others,0
316,316,2012-08-16 12:04:06,2012-08-16 12:04:24.475000,18.475,6,BFW,,,,,,,,,,,,,,,,,rest,-1
317,317,2012-08-16 12:04:15.250000,2012-08-16 12:04:33.725000,18.475,6,BFW,,,,,,,,,,,,,,,,,others,0
318,318,2012-08-16 12:04:24.500000,2012-08-16 12:04:42.975000,18.475,6,BFW,,,,,,,,,,,,,,,,,others,0
319,319,2012-08-16 12:04:33.750000,2012-08-16 12:04:52.225000,18.475,6,BFW,,,,,,,,,,,,,,,,,others,0
320,320,2012-08-16 12:04:43,2012-08-16 12:05:01.475000,18.475,6,BFW,,,,,,,,,,,,,,,,,others,0
321,321,2012-08-16 12:04:52.250000,2012-08-16 12:05:10.725000,18.475,6,BFW,,,,,,,,,,,,,,,,,others,0
322,322,2012-08-16 12:05:01.500000,2012-08-16 12:05:19.975000,18.475,6,BFW,,,,,,,,,,,,,,,,,others,0
323,323,2012-08-16 12:05:10.750000,2012-08-16 12:05:29.225000,18.475,6,BFW,,,,,,,,,,,,,,,,,others,0
324,324,2012-08-16 12:05:20,2012-08-16 12:05:38.475000,18.475,6,BFW,,,,,,,,,,,,,,,,,others,0
325,325,2012-08-16 12:05:29.250000,2012-08-16 12:05:47.725000,18.475,6,BFW,,,,,,,,,,,,,,,,,others,0
326,326,2012-08-16 12:05:38.500000,2012-08-16 12:05:56.975000,18.475,6,BFW,,,,,,,,,,,,,,,,,others,0
327,327,2012-08-16 12:05:47.750000,2012-08-16 12:06:06.225000,18.475,6,BFW,,,,,,,,,0.21650879566982406,,,,,,,,others,0
328,328,2012-08-16 12:05:57,2012-08-16 12:06:15.475000,18.475,6,BFW,,,,,,,,,0.21650879566982406,,,,,,,,others,0
329,329,2012-08-16 12:06:06.250000,2012-08-16 12:06:24.725000,18.475,6,BFW,,,,,,,,,,,,,,,,,others,0
330,330,2012-08-16 12:06:15.500000,2012-08-16 12:06:33.975000,18.475,6,BFW,,,,,,,,,,,,,,,,,others,0
331,331,2012-08-16 12:06:24.750000,2012-08-16 12:06:43.225000,18.475,6,BFW,,,,,,,,,,,,,,,,,others,0
332,332,2012-08-16 12:06:34,2012-08-16 12:06:52.475000,18.475,6,BFW,,,,,,,,,,,,,,,,,others,0
333,333,2012-08-16 12:06:43.250000,2012-08-16 12:07:01.725000,18.475,6,BFW,,,,,,,,,,,,,,,,,rest,-1
334,334,2012-08-16 12:06:52.500000,2012-08-16 12:07:10.975000,18.475,6,BFW,,,,,,,,,,,,,,,,,others,0
335,335,2012-08-16 12:07:01.750000,2012-08-16 12:07:20.225000,18.475,6,BFW,,,,,,,,,,,,,,,,,others,0
336,336,2012-08-16 12:07:11,2012-08-16 12:07:29.475000,18.475,6,BFW,,,,,,,,,,,,,,,,,others,0
337,337,2012-08-16 12:07:20.250000,2012-08-16 12:07:38.725000,18.475,6,BFW,,,,,,,,,,,,,,,,,others,0
338,338,2012-08-16 12:07:29.500000,2012-08-16 12:07:47.975000,18.475,6,BFW,,,,,,,,,,,,,,,,,others,0
339,339,2012-08-16 12:07:38.750000,2012-08-16 12:07:57.225000,18.475,6,BFW,,,,,,,,,,,,,0.06630581867388363,,,,others,0
340,340,2012-08-16 12:07:48,2012-08-16 12:08:06.475000,18.475,6,BFW,,,,,,,,,,,,,0.5669824086603518,,,,computer,4
341,341,2012-08-16 12:07:57.250000,2012-08-16 12:08:15.725000,18.475,6,BFW,,,,,,,,,,,,,1.0,,,,computer,4
342,342,2012-08-16 12:08:06.500000,2012-08-16 12:08:24.975000,18.475,6,BFW,,,,,,,,,,,,,1.0,,,,computer,4
343,343,2012-08-16 12:08:15.750000,2012-08-16 12:08:34.225000,18.475,6,BFW,,,,,,,,,,,,,1.0,,,,rest,-1
344,344,2012-08-16 12:08:25,2012-08-16 12:08:43.475000,18.475,6,BFW,,,,,,,,,,,,,1.0,,,,computer,4
345,345,2012-08-16 12:08:34.250000,2012-08-16 12:08:52.725000,18.475,6,BFW,,,,,,,,,,,,,1.0,,,,computer,4
346,346,2012-08-16 12:08:43.500000,2012-08-16 12:09:01.975000,18.475,6,BFW,,,,,,,,,,,,,1.0,,,,computer,4
347,347,2012-08-16 12:08:52.750000,2012-08-16 12:09:11.225000,18.475,6,BFW,,,,,,,,,,,,,1.0,,,,computer,4
348,348,2012-08-16 12:09:02,2012-08-16 12:09:20.475000,18.475,6,BFW,,,,,,,,,,,,,1.0,,,,computer,4
349,349,2012-08-16 12:09:11.250000,2012-08-16 12:09:29.725000,18.475,6,BFW,,,,,,,,,,,,,1.0,,,,rest,-1
350,350,2012-08-16 12:09:20.500000,2012-08-16 12:09:38.975000,18.475,6,BFW,,,,,,,,,,,,,1.0,,,,computer,4
351,351,2012-08-16 12:09:29.750000,2012-08-16 12:09:48.225000,18.475,6,BFW,,,,,,,,,,,,,0.9336941813261163,,,,computer,4
352,352,2012-08-16 12:09:39,2012-08-16 12:09:57.475000,18.475,6,BFW,,,,,,,,,,,,,0.6752368064952639,,,,computer,4
353,353,2012-08-16 12:09:48.250000,2012-08-16 12:10:06.725000,18.475,6,BFW,,,,,,,,,,,,,0.7428958051420839,,,,computer,4
354,354,2012-08-16 12:09:57.500000,2012-08-16 12:10:15.975000,18.475,6,BFW,,,,,,,,,,,,,1.0,,,,computer,4
355,355,2012-08-16 12:10:06.750000,2012-08-16 12:10:25.225000,18.475,6,BFW,,,,,,,,,,,,,1.0,,,,computer,4
356,356,2012-08-16 12:10:16,2012-08-16 12:10:34.475000,18.475,6,BFW,,,,,,,,,,,,,1.0,,,,rest,-1
357,357,2012-08-16 12:10:25.250000,2012-08-16 12:10:43.725000,18.475,6,BFW,,,,,,,,,,,,,1.0,,,,computer,4
358,358,2012-08-16 12:10:34.500000,2012-08-16 12:10:52.975000,18.475,6,BFW,,,,,,,,,,,,,0.7307171853856562,,,,computer,4
359,359,2012-08-16 12:10:43.750000,2012-08-16 12:11:02.225000,18.475,6,BFW,,,,,,,,,,,,,0.23004059539918809,,,,others,0
360,360,2012-08-16 12:10:53,2012-08-16 12:11:11.475000,18.475,6,BFW,,,,,,,,,,,,,,,,,others,0
361,361,2012-08-16 12:11:02.250000,2012-08-16 12:11:20.725000,18.475,6,BFW,,,,,,,,,,,,,,,,,rest,-1
362,362,2012-08-16 12:11:11.500000,2012-08-16 12:11:29.975000,18.475,6,BFW,,,,,,,,,,,,,,,,,rest,-1
363,363,2012-08-16 12:11:20.750000,2012-08-16 12:11:39.225000,18.475,6,BFW,,,,,,,,,,,,,,,,,rest,-1
364,364,2012-08-16 12:11:30,2012-08-16 12:11:48.475000,18.475,6,BFW,,,,,,,,,,,,,0.24221921515561565,,,,rest,-1
365,365,2012-08-16 12:11:39.250000,2012-08-16 12:11:57.725000,18.475,6,BFW,,,,,,,,,,,,,0.7428958051420839,,,,rest,-1
366,366,2012-08-16 12:11:48.500000,2012-08-16 12:12:06.975000,18.475,6,BFW,,,,,,,,,,,,,1.0,,,,computer,4
367,367,2012-08-16 12:11:57.750000,2012-08-16 12:12:16.225000,18.475,6,BFW,,,,,,,,,,,,0.3369418132611637,1.0,,,0.3369418132611637,computer,4
368,368,2012-08-16 12:12:07,2012-08-16 12:12:25.475000,18.475,6,BFW,,,,,,,,,,,,0.8376184032476318,1.0,,,0.8376184032476318,computer,4
369,369,2012-08-16 12:12:16.250000,2012-08-16 12:12:34.725000,18.475,6,BFW,0.019148936170212766,0.012178619756427604,0.0,18.0,left-puff,,,,,,,1.0,1.0,,,1.0,computer,4
370,370,2012-08-16 12:12:25.500000,2012-08-16 12:12:43.975000,18.475,6,BFW,0.8063829787234043,0.5128552097428958,0.0,18.0,left-puff,,,,,,,1.0,1.0,,,1.0,puff,9
371,371,2012-08-16 12:12:34.750000,2012-08-16 12:12:53.225000,18.475,6,BFW,0.9787234042553191,0.6224627875507442,0.0,18.0,left-puff,,,,,,,1.0,1.0,,,1.0,puff,9
372,372,2012-08-16 12:12:44,2012-08-16 12:13:02.475000,18.475,6,BFW,0.19148936170212766,0.12178619756427604,0.0,18.0,left-puff,,,,,,,1.0,1.0,,,1.0,computer,4
373,373,2012-08-16 12:12:53.250000,2012-08-16 12:13:11.725000,18.475,6,BFW,,,,,,,,,,,,1.0,1.0,,,1.0,computer,4
374,374,2012-08-16 12:13:02.500000,2012-08-16 12:13:20.975000,18.475,6,BFW,0.184375,0.07983761840324763,1.0,19.0,left-puff,,,,,,,1.0,1.0,,,1.0,computer,4
375,375,2012-08-16 12:13:11.750000,2012-08-16 12:13:30.225000,18.475,6,BFW,1.0,0.4330175913396481,1.0,19.0,left-puff,,,,,,,1.0,1.0,,,1.0,puff,9
376,376,2012-08-16 12:13:21,2012-08-16 12:13:39.475000,18.475,6,BFW,0.8125,0.35182679296346414,1.0,19.0,left-puff,,,,,,,1.0,1.0,,,1.0,puff,9
377,377,2012-08-16 12:13:30.250000,2012-08-16 12:13:48.725000,18.475,6,BFW,,,,,,,,,,,,1.0,1.0,,,1.0,computer,4
378,378,2012-08-16 12:13:39.500000,2012-08-16 12:13:57.975000,18.475,6,BFW,,,,,,,,,,,,1.0,1.0,,,1.0,rest,-1
379,379,2012-08-16 12:13:48.750000,2012-08-16 12:14:07.225000,18.475,6,BFW,0.63,0.25575101488497964,1.0,20.0,left-puff,,,,,,,1.0,1.0,,,1.0,puff,9
380,380,2012-08-16 12:13:58,2012-08-16 12:14:16.475000,18.475,6,BFW,1.0,0.40595399188092013,1.0,20.0,left-puff,,,,,,,1.0,1.0,,,1.0,puff,9
381,381,2012-08-16 12:14:07.250000,2012-08-16 12:14:25.725000,18.475,6,BFW,0.36666666666666664,0.14884979702300405,1.0,20.0,left-puff,,,,,,,1.0,1.0,,,1.0,puff,9
382,382,2012-08-16 12:14:16.500000,2012-08-16 12:14:34.975000,18.475,6,BFW,0.225,0.13396481732070364,0.0,21.0,left-puff,,,,0.37889039242219213,,,1.0,0.6211096075778078,,,1.0,drinking,8
383,383,2012-08-16 12:14:25.750000,2012-08-16 12:14:44.225000,18.475,6,BFW,1.0,0.5953991880920162,0.0,21.0,left-puff,,,,0.37889039242219213,,,1.0,0.6211096075778078,,,1.0,puff,9
384,384,2012-08-16 12:14:35,2012-08-16 12:14:53.475000,18.475,6,BFW,0.7727272727272727,0.46008119079837617,0.0,21.0,left-puff,,,,,,,1.0,0.6495263870094722,,,0.6495263870094722,puff,9
385,385,2012-08-16 12:14:44.250000,2012-08-16 12:15:02.725000,18.475,6,BFW,,,,,,,,,,,,1.0,0.14884979702300405,,,0.14884979702300405,others,0
386,386,2012-08-16 12:14:53.500000,2012-08-16 12:15:11.975000,18.475,6,BFW,0.746875,0.3234100135317997,1.0,22.0,right-puff,,,,,,,1.0,,,,,puff,9
387,387,2012-08-16 12:15:02.750000,2012-08-16 12:15:21.225000,18.475,6,BFW,1.0,0.4330175913396481,1.0,22.0,right-puff,,,,,,,1.0,,,,,puff,9
388,388,2012-08-16 12:15:12,2012-08-16 12:15:30.475000,18.475,6,BFW,0.25,0.10825439783491203,1.0,22.0,right-puff,,,,,,,1.0,,,,,others,0
389,389,2012-08-16 12:15:21.250000,2012-08-16 12:15:39.725000,18.475,6,BFW,0.33799999999999997,0.22868741542625165,0.0,23.0,left-puff,,,,,,,1.0,,0.25575101488497964,,0.25575101488497964,puff,9
390,390,2012-08-16 12:15:30.500000,2012-08-16 12:15:48.975000,18.475,6,BFW,1.0,0.6765899864682002,0.0,23.0,left-puff,,,,,,,1.0,,0.7564276048714478,,0.7564276048714478,puff,9
391,391,2012-08-16 12:15:39.750000,2012-08-16 12:15:58.225000,18.475,6,BFW,0.66,0.44654939106901215,0.0,23.0,left-puff,,,,,,,1.0,,1.0,,1.0,puff,9
392,392,2012-08-16 12:15:49,2012-08-16 12:16:07.475000,18.475,6,BFW,,,,,,,,,,,,1.0,,1.0,,1.0,rest,-1
393,393,2012-08-16 12:15:58.250000,2012-08-16 12:16:16.725000,18.475,6,BFW,,,,,,,,,,,,1.0,,1.0,,1.0,phone,3
394,394,2012-08-16 12:16:07.500000,2012-08-16 12:16:25.975000,18.475,6,BFW,,,,,,,,,,,,1.0,,1.0,,1.0,phone,3
395,395,2012-08-16 12:16:16.750000,2012-08-16 12:16:35.225000,18.475,6,BFW,,,,,,,,,,,,1.0,,1.0,,1.0,rest,-1
396,396,2012-08-16 12:16:26,2012-08-16 12:16:44.475000,18.475,6,BFW,,,,,,,,,,,,1.0,,1.0,,1.0,rest,-1
397,397,2012-08-16 12:16:35.250000,2012-08-16 12:16:53.725000,18.475,6,BFW,,,,,,,,,,,,1.0,,1.0,,1.0,phone,3
398,398,2012-08-16 12:16:44.500000,2012-08-16 12:17:02.975000,18.475,6,BFW,,,,,,,,,,,,1.0,,1.0,,1.0,phone,3
399,399,2012-08-16 12:16:53.750000,2012-08-16 12:17:12.225000,18.475,6,BFW,,,,,,,,,,,,1.0,,1.0,,1.0,phone,3
400,400,2012-08-16 12:17:03,2012-08-16 12:17:21.475000,18.475,6,BFW,0.11470588235294117,0.052774018944519614,0.0,24.0,left-puff,,,,,,,1.0,,1.0,,1.0,phone,3
401,401,2012-08-16 12:17:12.250000,2012-08-16 12:17:30.725000,18.475,6,BFW,1.0,0.46008119079837617,0.0,24.0,left-puff,,,,,,,1.0,,1.0,,1.0,puff,9
402,402,2012-08-16 12:17:21.500000,2012-08-16 12:17:39.975000,18.475,6,BFW,0.8823529411764706,0.40595399188092013,0.0,24.0,left-puff,,,,,,,1.0,,1.0,,1.0,puff,9
403,403,2012-08-16 12:17:30.750000,2012-08-16 12:17:49.225000,18.475,6,BFW,,,,,,,,,,,,1.0,,1.0,,1.0,phone,3
404,404,2012-08-16 12:17:40,2012-08-16 12:17:58.475000,18.475,6,BFW,,,,,,,,,,,,1.0,,1.0,,1.0,rest,-1
405,405,2012-08-16 12:17:49.250000,2012-08-16 12:18:07.725000,18.475,6,BFW,,,,,,,,,,,,1.0,,1.0,,1.0,rest,-1
406,406,2012-08-16 12:17:58.500000,2012-08-16 12:18:16.975000,18.475,6,BFW,,,,,,,,,,,,1.0,,1.0,,1.0,rest,-1
407,407,2012-08-16 12:18:07.750000,2012-08-16 12:18:26.225000,18.475,6,BFW,,,,,,,,,,,,1.0,,1.0,,1.0,rest,-1
408,408,2012-08-16 12:18:17,2012-08-16 12:18:35.475000,18.475,6,BFW,0.35000000000000003,0.16102841677943167,0.0,25.0,left-puff,,,,,,,1.0,,1.0,,1.0,puff,9
409,409,2012-08-16 12:18:26.250000,2012-08-16 12:18:44.725000,18.475,6,BFW,1.0,0.46008119079837617,0.0,25.0,left-puff,,,,,,,1.0,,1.0,,1.0,puff,9
410,410,2012-08-16 12:18:35.500000,2012-08-16 12:18:53.975000,18.475,6,BFW,0.6470588235294118,0.2976995940460081,0.0,25.0,left-puff,,,,,,,1.0,,1.0,,1.0,puff,9
411,411,2012-08-16 12:18:44.750000,2012-08-16 12:19:03.225000,18.475,6,BFW,,,,,,,,,,,,1.0,,1.0,,1.0,rest,-1
412,412,2012-08-16 12:18:54,2012-08-16 12:19:12.475000,18.475,6,BFW,,,,,,,,,,,,1.0,,1.0,,1.0,rest,-1
413,413,2012-08-16 12:19:03.250000,2012-08-16 12:19:21.725000,18.475,6,BFW,1.0,0.21650879566982406,0.0,26.0,left-puff,,,,,,,1.0,,1.0,,1.0,puff,9
414,414,2012-08-16 12:19:12.500000,2012-08-16 12:19:30.975000,18.475,6,BFW,1.0,0.21650879566982406,0.0,26.0,left-puff,,,,,,,1.0,,1.0,,1.0,puff,9
415,415,2012-08-16 12:19:21.750000,2012-08-16 12:19:40.225000,18.475,6,BFW,,,,,,,,,,,,1.0,,1.0,,1.0,rest,-1
416,416,2012-08-16 12:19:31,2012-08-16 12:19:49.475000,18.475,6,BFW,,,,,,,,,,,,1.0,,1.0,,1.0,phone,3
417,417,2012-08-16 12:19:40.250000,2012-08-16 12:19:58.725000,18.475,6,BFW,0.8038461538461538,0.2828146143437077,0.0,27.0,left-puff,,,,,,,1.0,,0.6359945872801082,,0.6359945872801082,puff,9
418,418,2012-08-16 12:19:49.500000,2012-08-16 12:20:07.975000,18.475,6,BFW,1.15,0.4046008119079837,0.0,27.0,left-puff,,,,,,,1.0,,0.13531799729364005,,0.13531799729364005,puff,9
419,419,2012-08-16 12:19:58.750000,2012-08-16 12:20:17.225000,18.475,6,BFW,0.9615384615384616,0.3382949932341001,0.0,27.0,left-puff,,,,,,,1.0,,,,,puff,9
420,420,2012-08-16 12:20:08,2012-08-16 12:20:26.475000,18.475,6,BFW,0.8,0.21650879566982406,0.0,28.0,left-puff,,,,,,,0.5412719891745602,,,,,puff,9
421,421,2012-08-16 12:20:17.250000,2012-08-16 12:20:35.725000,18.475,6,BFW,,,,,,,,,,,,0.04059539918809201,,,,,others,0
422,422,2012-08-16 12:20:26.500000,2012-08-16 12:20:44.975000,18.475,6,BFW,,,,,,,,,,,,,,,,,others,0
423,423,2012-08-16 12:20:35.750000,2012-08-16 12:20:54.225000,18.475,6,BFW,,,,,,,,,0.12043301759133965,,,,,,,,others,0
424,424,2012-08-16 12:20:45,2012-08-16 12:21:03.475000,18.475,6,BFW,,,,,,,,,0.16238159675236805,,,,,,,,others,0
425,425,2012-08-16 12:20:54.250000,2012-08-16 12:21:12.725000,18.475,6,BFW,,,,,,,,,0.04059539918809201,,,,,,,,others,0
426,426,2012-08-16 12:21:03.500000,2012-08-16 12:21:21.975000,18.475,6,BFW,,,,,,,,,,,,,,,,,others,0
427,427,2012-08-16 12:21:12.750000,2012-08-16 12:21:31.225000,18.475,6,BFW,,,,,,,,,,,,,,,,,others,0
428,428,2012-08-16 12:21:22,2012-08-16 12:21:40.475000,18.475,6,BFW,,,,,,,,,,,,,,,,,rest,-1
429,429,2012-08-16 12:21:31.250000,2012-08-16 12:21:49.725000,18.475,6,BFW,,,,,,,,,,,,,,,,,others,0
430,430,2012-08-16 12:21:40.500000,2012-08-16 12:21:58.975000,18.475,6,BFW,,,,,,,,,,,,,,,,,others,0
431,431,2012-08-16 12:21:49.750000,2012-08-16 12:22:08.225000,18.475,6,BFW,,,,,,,,,,,,,,,,,others,0
432,432,2012-08-16 12:21:59,2012-08-16 12:22:17.475000,18.475,6,BFW,,,,,,,,,,,,,,,,,others,0
433,433,2012-08-16 12:22:08.250000,2012-08-16 12:22:26.725000,18.475,6,BFW,,,,,,,,,,,,,,,,,others,0
434,434,2012-08-16 12:22:17.500000,2012-08-16 12:22:35.975000,18.475,6,BFW,,,,,,,,,,,,,,,,,others,0
435,435,2012-08-16 12:22:26.750000,2012-08-16 12:22:45.225000,18.475,6,BFW,,,,,,,,,,,,,,,,,others,0
436,436,2012-08-16 12:22:36,2012-08-16 12:22:54.475000,18.475,6,BFW,,,,,,,,,,,,,,,,,others,0
437,437,2012-08-16 12:22:45.250000,2012-08-16 12:23:03.725000,18.475,6,BFW,,,,,,,,,,,,,,,,,others,0
438,438,2012-08-16 12:22:54.500000,2012-08-16 12:23:12.975000,18.475,6,BFW,,,,,,,,,,,,,,,,,others,0
439,439,2012-08-16 12:23:03.750000,2012-08-16 12:23:22.225000,18.475,6,BFW,,,,,,,,,,,,,,,,,others,0
440,440,2012-08-16 12:23:13,2012-08-16 12:23:31.475000,18.475,6,BFW,,,,,,,,,,,,,,,,,others,0
441,441,2012-08-16 12:23:22.250000,2012-08-16 12:23:40.725000,18.475,6,BFW,,,,,,,,,,,,,,,,,others,0
442,442,2012-08-16 12:23:31.500000,2012-08-16 12:23:49.975000,18.475,6,BFW,,,,,,,,,,,,,,,,,rest,-1
443,443,2012-08-16 12:23:40.750000,2012-08-16 12:23:59.225000,18.475,6,BFW,,,,,,,,,,,,,,,,,others,0
444,444,2012-08-16 12:23:50,2012-08-16 12:24:08.475000,18.475,6,BFW,,,,,,,0.18809201623815966,,,,,,,,,,others,0
445,445,2012-08-16 12:23:59.250000,2012-08-16 12:24:17.725000,18.475,6,BFW,,,,,,,0.6887686062246278,,,,,,,,,,talking,5
446,446,2012-08-16 12:24:08.500000,2012-08-16 12:24:26.975000,18.475,6,BFW,,,,,,,1.0,,,,,,,,,,talking,5
447,447,2012-08-16 12:24:17.750000,2012-08-16 12:24:36.225000,18.475,6,BFW,,,,,,,0.5548037889039242,,,,,,,,,,talking,5
448,448,2012-08-16 12:24:27,2012-08-16 12:24:45.475000,18.475,6,BFW,,,,,,,0.054127198917456015,,,,,,,,,,others,0
449,449,2012-08-16 12:24:36.250000,2012-08-16 12:24:54.725000,18.475,6,BFW,,,,,,,,,0.3098782138024357,,,,,,,,drinking,8
450,450,2012-08-16 12:24:45.500000,2012-08-16 12:25:03.975000,18.475,6,BFW,,,,,,,,,0.8105548037889039,,,,,,,,drinking,8
451,451,2012-08-16 12:24:54.750000,2012-08-16 12:25:13.225000,18.475,6,BFW,,,,,,,,,1.0,,,,,,,,rest,-1
452,452,2012-08-16 12:25:04,2012-08-16 12:25:22.475000,18.475,6,BFW,,,,,,,,,0.5412719891745602,,,,,,,,drinking,8
453,453,2012-08-16 12:25:13.250000,2012-08-16 12:25:31.725000,18.475,6,BFW,,,,,,,,,0.2571041948579161,,,,,,,,drinking,8
454,454,2012-08-16 12:25:22.500000,2012-08-16 12:25:40.975000,18.475,6,BFW,,,,,,,,,0.21650879566982406,,,,,,,,others,0
455,455,2012-08-16 12:25:31.750000,2012-08-16 12:25:50.225000,18.475,6,BFW,,,,,,,,,,,,,,,,,others,0
456,456,2012-08-16 12:25:41,2012-08-16 12:25:59.475000,18.475,6,BFW,,,,,,,,,,,,,,,,,others,0
457,457,2012-08-16 12:25:50.250000,2012-08-16 12:26:08.725000,18.475,6,BFW,,,,,,,,,,,,,,,,,rest,-1
458,458,2012-08-16 12:25:59.500000,2012-08-16 12:26:17.975000,18.475,6,BFW,,,,,,,,,,,,,,,,,others,0
459,459,2012-08-16 12:26:08.750000,2012-08-16 12:26:27.225000,18.475,6,BFW,,,,,,,,,,,,,,,,,others,0
460,460,2012-08-16 12:26:18,2012-08-16 12:26:36.475000,18.475,6,BFW,,,,,,,,,,,,,,,,,others,0
461,461,2012-08-16 12:26:27.250000,2012-08-16 12:26:45.725000,18.475,6,BFW,,,,,,,,,0.054127198917456015,,,,,,,,others,0
462,462,2012-08-16 12:26:36.500000,2012-08-16 12:26:54.975000,18.475,6,BFW,,,,,,,,,0.054127198917456015,,,,,,,,others,0
463,463,2012-08-16 12:26:45.750000,2012-08-16 12:27:04.225000,18.475,6,BFW,,,,,,,,,,,,,,,,,others,0
464,464,2012-08-16 12:26:55,2012-08-16 12:27:13.475000,18.475,6,BFW,,,,,,,,,,,,,,,,,rest,-1
465,465,2012-08-16 12:27:04.250000,2012-08-16 12:27:22.725000,18.475,6,BFW,,,,,,,,,,,,,,,,,rest,-1
466,466,2012-08-16 12:27:13.500000,2012-08-16 12:27:31.975000,18.475,6,BFW,,,,,,,,,,,,,,,,,rest,-1
467,467,2012-08-16 12:27:22.750000,2012-08-16 12:27:41.225000,18.475,6,BFW,,,,,,,,,,,,,,,,,others,0
468,468,2012-08-16 12:27:32,2012-08-16 12:27:50.475000,18.475,6,BFW,,,,,,,,,,,,,,,,,others,0
469,469,2012-08-16 12:27:41.250000,2012-08-16 12:27:59.725000,18.475,6,BFW,,,,,,,,,,,,,,,,,others,0
470,470,2012-08-16 12:27:50.500000,2012-08-16 12:28:08.975000,18.475,6,BFW,,,,,,,,,,,,,,,,,others,0
471,471,2012-08-16 12:27:59.750000,2012-08-16 12:28:18.225000,18.475,6,BFW,,,,,,,,,,,,,,,,,others,0
472,472,2012-08-16 12:28:09,2012-08-16 12:28:27.475000,18.475,6,BFW,,,,,,,,,,,,,,,,,others,0
473,473,2012-08-16 12:28:18.250000,2012-08-16 12:28:36.725000,18.475,6,BFW,,,,,,,,,,,,,,,,,others,0
474,474,2012-08-16 12:28:27.500000,2012-08-16 12:28:45.975000,18.475,6,BFW,,,,,,,,,,,,,,,,,others,0
475,475,2012-08-16 12:28:36.750000,2012-08-16 12:28:55.225000,18.475,6,BFW,,,,,,,,,0.012178619756427604,,,,,,,,others,0
476,476,2012-08-16 12:28:46,2012-08-16 12:29:04.475000,18.475,6,BFW,,,,,,,,,0.2706359945872801,,,,,,,,drinking,8
477,477,2012-08-16 12:28:55.250000,2012-08-16 12:29:13.725000,18.475,6,BFW,,,,,,,,,0.2571041948579161,,,,,,,,drinking,8
478,478,2012-08-16 12:29:04.500000,2012-08-16 12:29:22.975000,18.475,6,BFW,,,,,,,,,,,,,,,,,others,0
479,479,2012-08-16 12:29:13.750000,2012-08-16 12:29:32.225000,18.475,6,BFW,,,,,,,,,,,,,,,,,rest,-1
480,480,2012-08-16 12:29:23,2012-08-16 12:29:41.475000,18.475,6,BFW,,,,,,,,,,,,,,,,,rest,-1
481,481,2012-08-16 12:29:32.250000,2012-08-16 12:29:50.725000,18.475,6,BFW,,,,,,,,,,,,,,,,,others,0
482,482,2012-08-16 12:29:41.500000,2012-08-16 12:29:59.975000,18.475,6,BFW,,,,,,,,,,,,,,,,,others,0
483,483,2012-08-16 12:29:50.750000,2012-08-16 12:30:09.225000,18.475,6,BFW,,,,,,,,,,,,,,,,,others,0
484,484,2012-08-16 12:30:00,2012-08-16 12:30:18.475000,18.475,6,BFW,,,,,,,,,,,,,,,,,others,0
485,485,2012-08-16 12:30:09.250000,2012-08-16 12:30:27.725000,18.475,6,BFW,,,,,,,,,0.054127198917456015,,,,,,,,others,0
486,486,2012-08-16 12:30:18.500000,2012-08-16 12:30:36.975000,18.475,6,BFW,,,,,,,,,0.054127198917456015,,,,,,,,others,0
487,487,2012-08-16 12:30:27.750000,2012-08-16 12:30:46.225000,18.475,6,BFW,,,,,,,,,,,,,,,,,others,0
488,488,2012-08-16 12:30:37,2012-08-16 12:30:55.475000,18.475,6,BFW,,,,,,,,,,,,,,,,,others,0
489,489,2012-08-16 12:30:46.250000,2012-08-16 12:31:04.725000,18.475,6,BFW,,,,,,,,,,,,,,,,,others,0
490,490,2012-08-16 12:30:55.500000,2012-08-16 12:31:13.975000,18.475,6,BFW,,,,,,,,,,,,,,,,,others,0
491,491,2012-08-16 12:31:04.750000,2012-08-16 12:31:23.225000,18.475,6,BFW,,,,,,,,,0.012178619756427604,,,,,,,,others,0
492,492,2012-08-16 12:31:14,2012-08-16 12:31:32.475000,18.475,6,BFW,,,,,,,,,0.5128552097428958,,,,,,,,drinking,8
493,493,2012-08-16 12:31:23.250000,2012-08-16 12:31:41.725000,18.475,6,BFW,,,,,,,,,1.0,,,,,,,,drinking,8
494,494,2012-08-16 12:31:32.500000,2012-08-16 12:31:50.975000,18.475,6,BFW,,,,,,,,,1.0,,,,,,,,rest,-1
495,495,2012-08-16 12:31:41.750000,2012-08-16 12:32:00.225000,18.475,6,BFW,,,,,,,,,0.8254397834912043,,,,,,,,drinking,8
496,496,2012-08-16 12:31:51,2012-08-16 12:32:09.475000,18.475,6,BFW,,,,,,,,,0.3247631935047361,,,,,,,,drinking,8
497,497,2012-08-16 12:32:00.250000,2012-08-16 12:32:18.725000,18.475,6,BFW,,,,,,,,,,,,,,,,,others,0
498,498,2012-08-16 12:32:09.500000,2012-08-16 12:32:27.975000,18.475,6,BFW,,,,,,,,,,,,,,,,,others,0
499,499,2012-08-16 12:32:18.750000,2012-08-16 12:32:37.225000,18.475,6,BFW,,,,,,,,,,,,,,,,,others,0
500,500,2012-08-16 12:32:28,2012-08-16 12:32:46.475000,18.475,6,BFW,,,,,,,,,0.054127198917456015,,,,,,,,others,0
501,501,2012-08-16 12:32:37.250000,2012-08-16 12:32:55.725000,18.475,6,BFW,,,,,,,,,0.054127198917456015,,,,,,0.03924221921515561,,others,0
502,502,2012-08-16 12:32:46.500000,2012-08-16 12:33:04.975000,18.475,6,BFW,,,,,,,,,,,,,,,0.5399188092016237,,walking,1
503,503,2012-08-16 12:32:55.750000,2012-08-16 12:33:14.225000,18.475,6,BFW,,,,,,,,,,,,,,,1.0,,walking,1
504,504,2012-08-16 12:33:05,2012-08-16 12:33:23.475000,18.475,6,BFW,,,,,,,,,,,,,,,1.0,,walking,1
505,505,2012-08-16 12:33:14.250000,2012-08-16 12:33:32.725000,18.475,6,BFW,,,,,,,,,,,,,,,1.0,,walking,1
506,506,2012-08-16 12:33:23.500000,2012-08-16 12:33:41.975000,18.475,6,BFW,,,,,,,,,,,,,,,1.0,,walking,1
507,507,2012-08-16 12:33:32.750000,2012-08-16 12:33:51.225000,18.475,6,BFW,,,,,,,,,,,,,,,1.0,,walking,1
508,508,2012-08-16 12:33:42,2012-08-16 12:34:00.475000,18.475,6,BFW,,,,,,,,,,,,,,,1.0,,walking,1
509,509,2012-08-16 12:33:51.250000,2012-08-16 12:34:09.725000,18.475,6,BFW,,,,,,,,,,,,,,,1.0,,walking,1
510,510,2012-08-16 12:34:00.500000,2012-08-16 12:34:18.975000,18.475,6,BFW,,,,,,,,,,,,,,,1.0,,walking,1
511,511,2012-08-16 12:34:09.750000,2012-08-16 12:34:28.225000,18.475,6,BFW,,,,,,,,,,,,,,,1.0,,walking,1
512,512,2012-08-16 12:34:19,2012-08-16 12:34:37.475000,18.475,6,BFW,,,,,,,,,,,,,,,1.0,,walking,1
513,513,2012-08-16 12:34:28.250000,2012-08-16 12:34:46.725000,18.475,6,BFW,,,,,,,,,,,,,,,1.0,,walking,1
514,514,2012-08-16 12:34:37.500000,2012-08-16 12:34:55.975000,18.475,6,BFW,,,,,,,,,,,,,,,1.0,,walking,1
515,515,2012-08-16 12:34:46.750000,2012-08-16 12:35:05.225000,18.475,6,BFW,,,,,,,,,,,,,,,1.0,,walking,1
516,516,2012-08-16 12:34:56,2012-08-16 12:35:14.475000,18.475,6,BFW,,,,,,,,,,,,,,,1.0,,walking,1
517,517,2012-08-16 12:35:05.250000,2012-08-16 12:35:23.725000,18.475,6,BFW,,,,,,,,,,,,,,,1.0,,walking,1
518,518,2012-08-16 12:35:14.500000,2012-08-16 12:35:32.975000,18.475,6,BFW,,,,,,,,,,,,,,,0.6224627875507442,,walking,1
519,519,2012-08-16 12:35:23.750000,2012-08-16 12:35:42.225000,18.475,6,BFW,,,,,,,,,,,,,,,0.12178619756427604,,others,0
520,520,2012-08-16 12:35:33,2012-08-16 12:35:51.475000,18.475,6,BFW,,,,,,,,,,,,,,,,,others,0
521,521,2012-08-16 12:35:42.250000,2012-08-16 12:36:00.725000,18.475,6,BFW,,,,,,,,,,,,,,,,,others,0
522,522,2012-08-16 12:35:51.500000,2012-08-16 12:36:09.975000,18.475,6,BFW,,,,,,,,,,,,,,,,,others,0
523,523,2012-08-16 12:36:00.750000,2012-08-16 12:36:19.225000,18.475,6,BFW,,,,,,,,,,,,,,,,,others,0
524,524,2012-08-16 12:36:10,2012-08-16 12:36:28.475000,18.475,6,BFW,,,,,,,,,,,,,,,,,rest,-1
525,525,2012-08-16 12:36:19.250000,2012-08-16 12:36:37.725000,18.475,6,BFW,,,,,,,,,0.3098782138024357,,,,,,,,drinking,8
526,526,2012-08-16 12:36:28.500000,2012-08-16 12:36:46.975000,18.475,6,BFW,,,,,,,,,0.8105548037889039,,,,,,,,drinking,8
527,527,2012-08-16 12:36:37.750000,2012-08-16 12:36:56.225000,18.475,6,BFW,,,,,,,,,1.0,,,,,,,,drinking,8
528,528,2012-08-16 12:36:47,2012-08-16 12:37:05.475000,18.475,6,BFW,,,,,,,,,1.0,,,,,,,,drinking,8
529,529,2012-08-16 12:36:56.250000,2012-08-16 12:37:14.725000,18.475,6,BFW,,,,,,,,,1.0,,,,,,,,rest,-1
530,530,2012-08-16 12:37:05.500000,2012-08-16 12:37:23.975000,18.475,6,BFW,,,,,,,,,1.0,,,,,,,,drinking,8
531,531,2012-08-16 12:37:14.750000,2012-08-16 12:37:33.225000,18.475,6,BFW,,,,,,,,,1.0,,,,,,,,drinking,8
532,532,2012-08-16 12:37:24,2012-08-16 12:37:42.475000,18.475,6,BFW,,,,,,,,,1.0,,,,,,,,rest,-1
533,533,2012-08-16 12:37:33.250000,2012-08-16 12:37:51.725000,18.475,6,BFW,,,,,,,,,0.7983761840324762,,,,,,,,drinking,8
534,534,2012-08-16 12:37:42.500000,2012-08-16 12:38:00.975000,18.475,6,BFW,,,,,,,,,0.2976995940460081,,,,,,,,drinking,8
535,535,2012-08-16 12:37:51.750000,2012-08-16 12:38:10.225000,18.475,6,BFW,,,,,,,,,,,,,,,,,others,0
536,536,2012-08-16 12:38:01,2012-08-16 12:38:19.475000,18.475,6,BFW,,,,,,,,,,,,,,,,,others,0
537,537,2012-08-16 12:38:10.250000,2012-08-16 12:38:28.725000,18.475,6,BFW,,,,,,,,,,,,,,,,,others,0
538,538,2012-08-16 12:38:19.500000,2012-08-16 12:38:37.975000,18.475,6,BFW,,,,,,,,,,,,,,,,,others,0
539,539,2012-08-16 12:38:28.750000,2012-08-16 12:38:47.225000,18.475,6,BFW,,,,,,,,,,,,,,,,,others,0
540,540,2012-08-16 12:38:38,2012-08-16 12:38:56.475000,18.475,6,BFW,,,,,,,,,,,,,,,,,others,0
541,541,2012-08-16 12:38:47.250000,2012-08-16 12:39:05.725000,18.475,6,BFW,,,,,,,,,,,,,,,,,others,0
542,542,2012-08-16 12:38:56.500000,2012-08-16 12:39:14.975000,18.475,6,BFW,,,,,,,,,,,,,,,,,others,0
543,543,2012-08-16 12:39:05.750000,2012-08-16 12:39:24.225000,18.475,6,BFW,,,,,,,,,,,,,,,,,others,0
544,544,2012-08-16 12:39:15,2012-08-16 12:39:33.475000,18.475,6,BFW,,,,,,,,,,,,,,,,,others,0
545,545,2012-08-16 12:39:24.250000,2012-08-16 12:39:42.725000,18.475,6,BFW,,,,,,,,,,,,,,,,,rest,-1
546,546,2012-08-16 12:39:33.500000,2012-08-16 12:39:51.975000,18.475,6,BFW,,,,,,,,,,,,,,,,,rest,-1
547,547,2012-08-16 12:39:42.750000,2012-08-16 12:40:01.225000,18.475,6,BFW,,,,,,,,,,,,,,,,,others,0
548,548,2012-08-16 12:39:52,2012-08-16 12:40:10.475000,18.475,6,BFW,,,,,,,,,,,,,,,,,others,0
549,549,2012-08-16 12:40:01.250000,2012-08-16 12:40:19.725000,18.475,6,BFW,,,,,,,,,,,,,,,,,others,0
550,550,2012-08-16 12:40:10.500000,2012-08-16 12:40:28.975000,18.475,6,BFW,,,,,,,,,,,,,,,,,others,0
551,551,2012-08-16 12:40:19.750000,2012-08-16 12:40:38.225000,18.475,6,BFW,,,,,,,,,,,,,,,,,others,0
552,552,2012-08-16 12:40:29,2012-08-16 12:40:47.475000,18.475,6,BFW,,,,,,,,,,,,,,,,,rest,-1
553,553,2012-08-16 12:40:38.250000,2012-08-16 12:40:56.725000,18.475,6,BFW,,,,,,,,,,,,,,,,,others,0
554,554,2012-08-16 12:40:47.500000,2012-08-16 12:41:05.975000,18.475,6,BFW,,,,,,,,,,,,,,,,,others,0
555,555,2012-08-16 12:40:56.750000,2012-08-16 12:41:15.225000,18.475,6,BFW,,,,,,,,,,,,,,,,,rest,-1
556,556,2012-08-16 12:41:06,2012-08-16 12:41:24.475000,18.475,6,BFW,,,,,,,,,,,,,,,,,rest,-1
557,557,2012-08-16 12:41:15.250000,2012-08-16 12:41:33.725000,18.475,6,BFW,,,,,,,,,,,,,,,,,others,0
558,558,2012-08-16 12:41:24.500000,2012-08-16 12:41:42.975000,18.475,6,BFW,,,,,,,,,,,,,,,,,others,0
559,559,2012-08-16 12:41:33.750000,2012-08-16 12:41:52.225000,18.475,6,BFW,,,,,,,,,,,,,,,,,rest,-1
560,560,2012-08-16 12:41:43,2012-08-16 12:42:01.475000,18.475,6,BFW,,,,,,,,,,,,,,,,,others,0
561,561,2012-08-16 12:41:52.250000,2012-08-16 12:42:10.725000,18.475,6,BFW,,,,,,,,,,,,,,,,,others,0
562,562,2012-08-16 12:42:01.500000,2012-08-16 12:42:19.975000,18.475,6,BFW,,,,,,,,,,,,,,,,,others,0
563,563,2012-08-16 12:42:10.750000,2012-08-16 12:42:29.225000,18.475,6,BFW,,,,,,,,,,,,,,,,,rest,-1
564,564,2012-08-16 12:42:20,2012-08-16 12:42:38.475000,18.475,6,BFW,,,,,,,,,,,,,,,,,others,0
565,565,2012-08-16 12:42:29.250000,2012-08-16 12:42:47.725000,18.475,6,BFW,,,,,,,,,,,,,,,,,others,0
566,566,2012-08-16 12:42:38.500000,2012-08-16 12:42:56.975000,18.475,6,BFW,,,,,,,,,,,,,,,,,others,0
567,567,2012-08-16 12:42:47.750000,2012-08-16 12:43:06.225000,18.475,6,BFW,,,,,,,,,,,,,,,,,others,0
568,568,2012-08-16 12:42:57,2012-08-16 12:43:15.475000,18.475,6,BFW,,,,,,,,,,,,,,,,,others,0
569,569,2012-08-16 12:43:06.250000,2012-08-16 12:43:24.725000,18.475,6,BFW,,,,,,,,,,,,,,,,,others,0
570,570,2012-08-16 12:43:15.500000,2012-08-16 12:43:33.975000,18.475,6,BFW,,,,,,,,,,,,,,,,,others,0
571,571,2012-08-16 12:43:24.750000,2012-08-16 12:43:43.225000,18.475,6,BFW,,,,,,,,,,,,,,,,,others,0
572,572,2012-08-16 12:43:34,2012-08-16 12:43:52.475000,18.475,6,BFW,,,,,,,,,,,,,,,,,others,0
573,573,2012-08-16 12:43:43.250000,2012-08-16 12:44:01.725000,18.475,6,BFW,,,,,,,,,,,,,,,,,others,0
574,574,2012-08-16 12:43:52.500000,2012-08-16 12:44:10.975000,18.475,6,BFW,,,,,,,,,,,,,,,,,others,0
575,575,2012-08-16 12:44:01.750000,2012-08-16 12:44:20.225000,18.475,6,BFW,,,,,,,,,0.21650879566982406,,,,,,,,others,0
576,576,2012-08-16 12:44:11,2012-08-16 12:44:29.475000,18.475,6,BFW,,,,,,,,,0.21650879566982406,,,,,,,,others,0
577,577,2012-08-16 12:44:20.250000,2012-08-16 12:44:38.725000,18.475,6,BFW,,,,,,,,,,,,,,,,,others,0
578,578,2012-08-16 12:44:29.500000,2012-08-16 12:44:47.975000,18.475,6,BFW,,,,,,,,,,,,,,,,,others,0
579,579,2012-08-16 12:44:38.750000,2012-08-16 12:44:57.225000,18.475,6,BFW,,,,,,,,,,,,,,,,,others,0
580,580,2012-08-16 12:44:48,2012-08-16 12:45:06.475000,18.475,6,BFW,,,,,,,,,,,,,,,,,others,0
581,581,2012-08-16 12:44:57.250000,2012-08-16 12:45:15.725000,18.475,6,BFW,,,,,,,,,,,,,,,,,others,0
582,582,2012-08-16 12:45:06.500000,2012-08-16 12:45:24.975000,18.475,6,BFW,,,,,,,,,,,,,,,,,others,0
583,583,2012-08-16 12:45:15.750000,2012-08-16 12:45:34.225000,18.475,6,BFW,,,,,,,,,,,,,,,,,others,0
584,584,2012-08-16 12:45:25,2012-08-16 12:45:43.475000,18.475,6,BFW,,,,,,,,,,,,,,,,,others,0
585,585,2012-08-16 12:45:34.250000,2012-08-16 12:45:52.725000,18.475,6,BFW,,,,,,,,,,,,,,,,,others,0
586,586,2012-08-16 12:45:43.500000,2012-08-16 12:46:01.975000,18.475,6,BFW,,,,,,,,,,,,,,,,,others,0
587,587,2012-08-16 12:45:52.750000,2012-08-16 12:46:11.225000,18.475,6,BFW,,,,,,,,,,,,,,,,,others,0
588,588,2012-08-16 12:46:02,2012-08-16 12:46:20.475000,18.475,6,BFW,,,,,,,,,,,,,,,,,others,0
589,589,2012-08-16 12:46:11.250000,2012-08-16 12:46:29.725000,18.475,6,BFW,,,,,,,,,,,,,,,,,others,0
590,590,2012-08-16 12:46:20.500000,2012-08-16 12:46:38.975000,18.475,6,BFW,,,,,,,,,,,,,,,,,others,0
591,591,2012-08-16 12:46:29.750000,2012-08-16 12:46:48.225000,18.475,6,BFW,,,,,,,,,,,,,,,,,others,0
592,592,2012-08-16 12:46:39,2012-08-16 12:46:57.475000,18.475,6,BFW,,,,,,,,,,,,,,,,,others,0
593,593,2012-08-16 12:46:48.250000,2012-08-16 12:47:06.725000,18.475,6,BFW,,,,,,,,,,,,,,,,,others,0
594,594,2012-08-16 12:46:57.500000,2012-08-16 12:47:15.975000,18.475,6,BFW,,,,,,,,,,,,,,,,,others,0
595,595,2012-08-16 12:47:06.750000,2012-08-16 12:47:25.225000,18.475,6,BFW,,,,,,,,,,,,,,,,,others,0
596,596,2012-08-16 12:47:16,2012-08-16 12:47:34.475000,18.475,6,BFW,,,,,,,,,,,,,,,,,others,0
597,597,2012-08-16 12:47:25.250000,2012-08-16 12:47:43.725000,18.475,6,BFW,,,,,,,,,,,,,,,,,others,0
598,598,2012-08-16 12:47:34.500000,2012-08-16 12:47:52.975000,18.475,6,BFW,,,,,,,,,,,,,,,,,others,0
599,599,2012-08-16 12:47:43.750000,2012-08-16 12:48:02.225000,18.475,6,BFW,,,,,,,,,,,,,,,,,others,0
600,600,2012-08-16 12:47:53,2012-08-16 12:48:11.475000,18.475,6,BFW,,,,,,,,,,,,,,,,,others,0
601,601,2012-08-16 12:48:02.250000,2012-08-16 12:48:20.725000,18.475,6,BFW,,,,,,,,,,,,,,,,,others,0
602,602,2012-08-16 12:48:11.500000,2012-08-16 12:48:29.975000,18.475,6,BFW,,,,,,,,,,,,,,,,,others,0
603,603,2012-08-16 12:48:20.750000,2012-08-16 12:48:39.225000,18.475,6,BFW,,,,,,,,,,,,,,,,,others,0
604,604,2012-08-16 12:48:30,2012-08-16 12:48:48.475000,18.475,6,BFW,,,,,,,,,,,,,,,,,others,0
605,605,2012-08-16 12:48:39.250000,2012-08-16 12:48:57.725000,18.475,6,BFW,,,,,,,,,,,,,,,,,others,0
606,606,2012-08-16 12:48:48.500000,2012-08-16 12:49:06.975000,18.475,6,BFW,,,,,,,,,,,,,,,,,others,0
607,607,2012-08-16 12:48:57.750000,2012-08-16 12:49:16.225000,18.475,6,BFW,,,,,,,,,,,,,,,,,others,0
608,608,2012-08-16 12:49:07,2012-08-16 12:49:25.475000,18.475,6,BFW,,,,,,,,,,,,0.29634641407307166,,,,,others,0
609,609,2012-08-16 12:49:16.250000,2012-08-16 12:49:34.725000,18.475,6,BFW,0.5863636363636364,0.17456021650879566,1.0,29.0,left-puff,,,,,,,0.7970230040595399,,,,,puff,9
610,610,2012-08-16 12:49:25.500000,2012-08-16 12:49:43.975000,18.475,6,BFW,1.0,0.2976995940460081,1.0,29.0,left-puff,,,,,,,1.0,,,,,puff,9
611,611,2012-08-16 12:49:34.750000,2012-08-16 12:49:53.225000,18.475,6,BFW,0.4090909090909091,0.12178619756427604,1.0,29.0,left-puff,,,,,,,1.0,,,,,puff,9
612,612,2012-08-16 12:49:44,2012-08-16 12:50:02.475000,18.475,6,BFW,1.0,0.2706359945872801,1.0,30.0,left-puff,,,,0.10825439783491203,,,1.0,,,,0.10825439783491203,puff,9
613,613,2012-08-16 12:49:53.250000,2012-08-16 12:50:11.725000,18.475,6,BFW,1.0,0.2706359945872801,1.0,30.0,left-puff,,,,0.10825439783491203,,,1.0,,,0.20162381596752366,0.3098782138024357,puff,9
614,614,2012-08-16 12:50:02.500000,2012-08-16 12:50:20.975000,18.475,6,BFW,0.6318181818181818,0.18809201623815966,1.0,31.0,right-puff,,,,,,,1.0,,,0.7023004059539918,0.7023004059539918,puff,9
615,615,2012-08-16 12:50:11.750000,2012-08-16 12:50:30.225000,18.475,6,BFW,1.0,0.2976995940460081,1.0,31.0,right-puff,,,,,,,1.0,,,1.0,1.0,puff,9
616,616,2012-08-16 12:50:21,2012-08-16 12:50:39.475000,18.475,6,BFW,0.36363636363636365,0.10825439783491203,1.0,31.0,right-puff,,,,,,,1.0,,,1.0,1.0,puff,9
617,617,2012-08-16 12:50:30.250000,2012-08-16 12:50:48.725000,18.475,6,BFW,,,,,,,,,,,,1.0,,,0.7442489851150202,0.7442489851150202,walking,1
618,618,2012-08-16 12:50:39.500000,2012-08-16 12:50:57.975000,18.475,6,BFW,,,,,,,,,,,,1.0,,,0.24357239512855208,0.24357239512855208,others,0
619,619,2012-08-16 12:50:48.750000,2012-08-16 12:51:07.225000,18.475,6,BFW,,,,,,,,,,,,1.0,,,0.3369418132611637,0.3369418132611637,walking,1
620,620,2012-08-16 12:50:58,2012-08-16 12:51:16.475000,18.475,6,BFW,,,,,,,,,,,,1.0,,,0.8376184032476318,0.8376184032476318,walking,1
621,621,2012-08-16 12:51:07.250000,2012-08-16 12:51:25.725000,18.475,6,BFW,1.0,0.35182679296346414,1.0,32.0,right-puff,0.47225981055480376,,,,,,1.0,,,0.5277401894451962,1.0,puff,9
622,622,2012-08-16 12:51:16.500000,2012-08-16 12:51:34.975000,18.475,6,BFW,1.0,0.35182679296346414,1.0,32.0,right-puff,0.972936400541272,,,,,,1.0,,,0.027063599458728008,1.0,puff,9
623,623,2012-08-16 12:51:25.750000,2012-08-16 12:51:44.225000,18.475,6,BFW,0.45416666666666666,0.14749661705006764,1.0,33.0,right-puff,0.8376184032476318,,,0.16238159675236805,,,1.0,,,,1.0,puff,9
624,624,2012-08-16 12:51:35,2012-08-16 12:51:53.475000,18.475,6,BFW,1.0,0.3247631935047361,1.0,33.0,right-puff,0.8376184032476318,,,0.16238159675236805,,,1.0,,,,1.0,puff,9
625,625,2012-08-16 12:51:44.250000,2012-08-16 12:52:02.725000,18.475,6,BFW,0.7458333333333332,0.24221921515561565,1.0,33.0,right-puff,1.0,,,,,,1.0,,,,1.0,puff,9
626,626,2012-08-16 12:51:53.500000,2012-08-16 12:52:11.975000,18.475,6,BFW,1.0,0.2976995940460081,1.0,34.0,right-puff,1.0,,,,,,1.0,,,,1.0,puff,9
627,627,2012-08-16 12:52:02.750000,2012-08-16 12:52:21.225000,18.475,6,BFW,0.7727272727272727,0.23004059539918809,1.0,34.0,right-puff,0.9878213802435724,,,,,,1.0,,,,0.9878213802435724,puff,9
628,628,2012-08-16 12:52:12,2012-08-16 12:52:30.475000,18.475,6,BFW,,,,,,0.48714479025710417,,,,,,1.0,,,0.24221921515561565,0.7293640054127198,in car,7
629,629,2012-08-16 12:52:21.250000,2012-08-16 12:52:39.725000,18.475,6,BFW,,,,,,,,,,,,1.0,,,0.7428958051420839,0.7428958051420839,walking,1
630,630,2012-08-16 12:52:30.500000,2012-08-16 12:52:48.975000,18.475,6,BFW,,,,,,,,,,,,1.0,,,1.0,1.0,walking,1
631,631,2012-08-16 12:52:39.750000,2012-08-16 12:52:58.225000,18.475,6,BFW,,,,,,,,,,,,1.0,,,1.0,1.0,walking,1
632,632,2012-08-16 12:52:49,2012-08-16 12:53:07.475000,18.475,6,BFW,1.0,0.2976995940460081,0.0,35.0,left-puff,,,,,,,1.0,,,1.0,1.0,puff,9
633,633,2012-08-16 12:52:58.250000,2012-08-16 12:53:16,17.75,6,BFW,1.0,0.30985915492957744,0.0,35.0,left-puff,,,,,,,1.0,,,1.0,1.0,puff,9
634,634,2012-08-16 12:53:07.500000,2012-08-16 12:53:16,8.5,6,BFW,,,,,,,,,,,,1.0,,,1.0,1.0,rest,-1
