segment,STARTTIME,ENDTIME,seg duration,session,sensor,inside puff/puff duration,inside puff/segment duration,prototypical?,puff index,puff side,car percentage,talk percentage,unknown percentage,drinking percentage,reading percentage,eating percentage,smoking percentage,computer percentage,phone percentage,walking percentage,superposition percentage,name,target
0,2012-05-03 11:12:42,2012-05-03 11:13:16.975000,34.975,5,NDW,1.0,0.08577555396711936,0.0,0.0,left-puff,,,,,,,0.5997140814867763,,,,,puff,9
1,2012-05-03 11:12:59.500000,2012-05-03 11:13:34.475000,34.975,5,NDW,0.6666666666666666,0.057183702644746245,0.0,0.0,left-puff,,,,,,,1.0,,,,,puff,9
2,2012-05-03 11:13:17,2012-05-03 11:13:51.975000,34.975,5,NDW,,,,,,,,,,,,1.0,,,,,others,0
3,2012-05-03 11:13:34.500000,2012-05-03 11:14:09.475000,34.975,5,NDW,,,,,,,,,,,,1.0,,,,,others,0
4,2012-05-03 11:13:52,2012-05-03 11:14:26.975000,34.975,5,NDW,,,,,,,0.22802001429592564,,,,,1.0,,,,0.22802001429592564,others,0
5,2012-05-03 11:14:09.500000,2012-05-03 11:14:44.475000,34.975,5,NDW,,,,,,,0.7283774124374554,,,,,1.0,,,,0.7283774124374554,talking,5
6,2012-05-03 11:14:27,2012-05-03 11:15:01.975000,34.975,5,NDW,,,,,,,1.0,,,,,1.0,,,,1.0,talking,5
7,2012-05-03 11:14:44.500000,2012-05-03 11:15:19.475000,34.975,5,NDW,,,,,,,1.0,,,,,1.0,,,,1.0,talking,5
8,2012-05-03 11:15:02,2012-05-03 11:15:36.975000,34.975,5,NDW,,,,,,,1.0,,,,,1.0,,,,1.0,talking,5
9,2012-05-03 11:15:19.500000,2012-05-03 11:15:54.475000,34.975,5,NDW,,,,,,,1.0,,,,,1.0,,,,1.0,talking,5
10,2012-05-03 11:15:37,2012-05-03 11:16:11.975000,34.975,5,NDW,,,,,,,1.0,,,,,1.0,,,,1.0,talking,5
11,2012-05-03 11:15:54.500000,2012-05-03 11:16:29.475000,34.975,5,NDW,,,,,,,1.0,,,,,1.0,,,,1.0,talking,5
12,2012-05-03 11:16:12,2012-05-03 11:16:46.975000,34.975,5,NDW,,,,,,,1.0,,,,,1.0,,,,1.0,talking,5
13,2012-05-03 11:16:29.500000,2012-05-03 11:17:04.475000,34.975,5,NDW,,,,,,,1.0,,,,,1.0,,,,1.0,talking,5
14,2012-05-03 11:16:47,2012-05-03 11:17:21.975000,34.975,5,NDW,,,,,,,1.0,,,,,1.0,,,,1.0,talking,5
15,2012-05-03 11:17:04.500000,2012-05-03 11:17:39.475000,34.975,5,NDW,,,,,,,1.0,,,,,1.0,,,,1.0,talking,5
16,2012-05-03 11:17:22,2012-05-03 11:17:56.975000,34.975,5,NDW,,,,,,,1.0,,,,,1.0,,,,1.0,talking,5
17,2012-05-03 11:17:39.500000,2012-05-03 11:18:14.475000,34.975,5,NDW,,,,,,,1.0,,,,,1.0,,,,1.0,talking,5
18,2012-05-03 11:17:57,2012-05-03 11:18:31.975000,34.975,5,NDW,,,,,,,1.0,,,,,1.0,,,,1.0,talking,5
19,2012-05-03 11:18:14.500000,2012-05-03 11:18:49.475000,34.975,5,NDW,,,,,,,1.0,,,,,1.0,,,,1.0,talking,5
20,2012-05-03 11:18:32,2012-05-03 11:19:06.975000,34.975,5,NDW,,,,,,,1.0,,,,,1.0,,,,1.0,talking,5
21,2012-05-03 11:18:49.500000,2012-05-03 11:19:24.475000,34.975,5,NDW,,,,,,,1.0,,,,,0.6719085060757684,,,,0.6719085060757684,talking,5
22,2012-05-03 11:19:07,2012-05-03 11:19:41.975000,34.975,5,NDW,,,,,,,1.0,,,,,0.17155110793423872,,,,0.17155110793423872,talking,5
23,2012-05-03 11:19:24.500000,2012-05-03 11:19:59.475000,34.975,5,NDW,,,,,,,0.9292351679771265,,,,,,,0.07076483202287348,,,talking,5
24,2012-05-03 11:19:42,2012-05-03 11:20:16.975000,34.975,5,NDW,,,,,,,0.42887776983559683,,,,,,,0.5711222301644031,,,talking,5
25,2012-05-03 11:19:59.500000,2012-05-03 11:20:34.475000,34.975,5,NDW,,,,,,,,,,,,,,1.0,,,phone,3
26,2012-05-03 11:20:17,2012-05-03 11:20:51.975000,34.975,5,NDW,,,,,,,,,,,,,,1.0,,,phone,3
27,2012-05-03 11:20:34.500000,2012-05-03 11:21:09.475000,34.975,5,NDW,,,,,,,,,,,,,,1.0,,,phone,3
28,2012-05-03 11:20:52,2012-05-03 11:21:26.975000,34.975,5,NDW,,,,,,,,,,,,,,1.0,,,phone,3
29,2012-05-03 11:21:09.500000,2012-05-03 11:21:44.475000,34.975,5,NDW,,,,,,,,,,,,,,0.814867762687634,,,phone,3
30,2012-05-03 11:21:27,2012-05-03 11:22:01.975000,34.975,5,NDW,,,,,,,0.37097927090779126,,,,,,,0.31451036454610437,,,talking,5
31,2012-05-03 11:21:44.500000,2012-05-03 11:22:19.475000,34.975,5,NDW,,,,,,,0.8713366690493209,,,,,,,,,,talking,5
32,2012-05-03 11:22:02,2012-05-03 11:22:36.975000,34.975,5,NDW,,,,,,,1.0,,,,,,,,,,talking,5
33,2012-05-03 11:22:19.500000,2012-05-03 11:22:54.475000,34.975,5,NDW,,,,,,,1.0,,,,,,,,,,talking,5
34,2012-05-03 11:22:37,2012-05-03 11:23:11.975000,34.975,5,NDW,,,,,,,1.0,,,,,,,,,,talking,5
35,2012-05-03 11:22:54.500000,2012-05-03 11:23:29.475000,34.975,5,NDW,,,,,,,1.0,,,,,,,,,,talking,5
36,2012-05-03 11:23:12,2012-05-03 11:23:46.975000,34.975,5,NDW,,,,,,,1.0,,,,,,,,,,talking,5
37,2012-05-03 11:23:29.500000,2012-05-03 11:24:04.475000,34.975,5,NDW,,,,,,,1.0,,,,,,,,,,talking,5
38,2012-05-03 11:23:47,2012-05-03 11:24:21.975000,34.975,5,NDW,,,,,,,1.0,,,,,,,,,,talking,5
39,2012-05-03 11:24:04.500000,2012-05-03 11:24:39.475000,34.975,5,NDW,,,,,,,1.0,,,,,,,,,,talking,5
40,2012-05-03 11:24:22,2012-05-03 11:24:56.975000,34.975,5,NDW,,,,,,,1.0,,,,,,,,,,talking,5
41,2012-05-03 11:24:39.500000,2012-05-03 11:25:14.475000,34.975,5,NDW,,,,,,,1.0,,,,,,,,,,talking,5
42,2012-05-03 11:24:57,2012-05-03 11:25:31.975000,34.975,5,NDW,1.0,0.12866333095067906,1.0,11.0,left-puff,,1.0,,,,,0.34238741958541813,,,,0.34238741958541813,puff,9
43,2012-05-03 11:25:14.500000,2012-05-03 11:25:49.475000,34.975,5,NDW,1.0,0.12866333095067906,1.0,11.0,left-puff,,1.0,,,,,0.8427448177269479,,,,0.8427448177269479,puff,9
44,2012-05-03 11:25:32,2012-05-03 11:26:06.975000,34.975,5,NDW,1.0,0.12866333095067906,1.0,12.0,left-puff,,1.0,,,,,1.0,,,,1.0,puff,9
45,2012-05-03 11:25:49.500000,2012-05-03 11:26:24.475000,34.975,5,NDW,1.0,0.12866333095067906,1.0,12.0,left-puff,,1.0,,,,,1.0,,,,1.0,puff,9
46,2012-05-03 11:26:07,2012-05-03 11:26:41.975000,34.975,5,NDW,1.0,0.12866333095067906,0.0,13.0,left-puff,,1.0,,,,,1.0,,,,1.0,puff,9
47,2012-05-03 11:26:24.500000,2012-05-03 11:26:59.475000,34.975,5,NDW,1.0,0.12866333095067906,0.0,13.0,left-puff,,1.0,,,,,1.0,,,,1.0,puff,9
48,2012-05-03 11:26:42,2012-05-03 11:27:16.975000,34.975,5,NDW,,,,,,,1.0,,,,,1.0,,,,1.0,talking,5
49,2012-05-03 11:26:59.500000,2012-05-03 11:27:34.475000,34.975,5,NDW,,,,,,,1.0,,,,,1.0,,,,1.0,talking,5
50,2012-05-03 11:27:17,2012-05-03 11:27:51.975000,34.975,5,NDW,,,,,,,1.0,,,,,1.0,,,,1.0,talking,5
51,2012-05-03 11:27:34.500000,2012-05-03 11:28:09.475000,34.975,5,NDW,,,,,,,1.0,,,,,1.0,,,,1.0,talking,5
52,2012-05-03 11:27:52,2012-05-03 11:28:26.975000,34.975,5,NDW,,,,,,,1.0,,,,,1.0,,,,1.0,talking,5
53,2012-05-03 11:28:09.500000,2012-05-03 11:28:44.475000,34.975,5,NDW,,,,,,,1.0,,,,,1.0,,,,1.0,talking,5
54,2012-05-03 11:28:27,2012-05-03 11:29:01.975000,34.975,5,NDW,,,,,,,1.0,,,,,1.0,,,,1.0,talking,5
55,2012-05-03 11:28:44.500000,2012-05-03 11:29:19.475000,34.975,5,NDW,,,,,,,1.0,,,,,1.0,,,,1.0,talking,5
56,2012-05-03 11:29:02,2012-05-03 11:29:36.975000,34.975,5,NDW,,,,,,,1.0,,,,,1.0,,,,1.0,talking,5
57,2012-05-03 11:29:19.500000,2012-05-03 11:29:54.475000,34.975,5,NDW,,,,,,,1.0,,,,,1.0,,,,1.0,talking,5
58,2012-05-03 11:29:37,2012-05-03 11:30:11.975000,34.975,5,NDW,,,,,,,0.8863473909935669,,0.11365260900643316,,,1.0,,,,1.0,talking,5
59,2012-05-03 11:29:54.500000,2012-05-03 11:30:29.475000,34.975,5,NDW,,,,,,,0.38598999285203717,,0.3716940671908506,,,1.0,,,,0.7576840600428878,drinking,8
60,2012-05-03 11:30:12,2012-05-03 11:30:46.975000,34.975,5,NDW,,,,,,,,,0.2573266619013581,,,1.0,,,,0.2573266619013581,drinking,8
61,2012-05-03 11:30:29.500000,2012-05-03 11:31:04.475000,34.975,5,NDW,,,,,,,,,,,,1.0,,,,,others,0
62,2012-05-03 11:30:47,2012-05-03 11:31:21.975000,34.975,5,NDW,,,,,,,,,,,,1.0,,,,,others,0
63,2012-05-03 11:31:04.500000,2012-05-03 11:31:39.475000,34.975,5,NDW,,,,,,,,,,,,1.0,,,,,others,0
64,2012-05-03 11:31:22,2012-05-03 11:31:56.975000,34.975,5,NDW,,,,,,,,,,,,1.0,,,,,others,0
65,2012-05-03 11:31:39.500000,2012-05-03 11:32:14.475000,34.975,5,NDW,,,,,,,0.15654038598999284,,,,,1.0,,,,0.15654038598999284,others,0
66,2012-05-03 11:31:57,2012-05-03 11:32:31.975000,34.975,5,NDW,,,,,,,0.6568977841315226,,,,,1.0,,,,0.6568977841315226,talking,5
67,2012-05-03 11:32:14.500000,2012-05-03 11:32:49.475000,34.975,5,NDW,,,,,,,1.0,,,,,1.0,,,,1.0,talking,5
68,2012-05-03 11:32:32,2012-05-03 11:33:06.975000,34.975,5,NDW,,,,,,,1.0,,,,,1.0,,,,1.0,talking,5
69,2012-05-03 11:32:49.500000,2012-05-03 11:33:24.475000,34.975,5,NDW,,,,,,,1.0,,,,,1.0,,,,1.0,talking,5
70,2012-05-03 11:33:07,2012-05-03 11:33:41.975000,34.975,5,NDW,,,,,,,1.0,,,,,1.0,,,,1.0,talking,5
71,2012-05-03 11:33:24.500000,2012-05-03 11:33:59.475000,34.975,5,NDW,,,,,,,1.0,,,,,0.9292351679771265,,,,0.9292351679771265,talking,5
72,2012-05-03 11:33:42,2012-05-03 11:34:16.975000,34.975,5,NDW,,,,,,,1.0,,,,,0.42887776983559683,,,,0.42887776983559683,talking,5
73,2012-05-03 11:33:59.500000,2012-05-03 11:34:34.475000,34.975,5,NDW,,,,,,,1.0,,,,,,,,,,talking,5
74,2012-05-03 11:34:17,2012-05-03 11:34:51.975000,34.975,5,NDW,,,,,,,1.0,,,,,,,,,,talking,5
75,2012-05-03 11:34:34.500000,2012-05-03 11:35:09.475000,34.975,5,NDW,,,,,,,1.0,,,,,,,,,,talking,5
76,2012-05-03 11:34:52,2012-05-03 11:35:26.975000,34.975,5,NDW,,,,,,,1.0,,,,,,,,,,talking,5
77,2012-05-03 11:35:09.500000,2012-05-03 11:35:44.475000,34.975,5,NDW,,,,,,,1.0,,,,,,,,,,talking,5
78,2012-05-03 11:35:27,2012-05-03 11:36:01.975000,34.975,5,NDW,,,,,,,1.0,,,,,,,,,,talking,5
79,2012-05-03 11:35:44.500000,2012-05-03 11:36:19.475000,34.975,5,NDW,,,,,,,1.0,,,,,,,,,,talking,5
80,2012-05-03 11:36:02,2012-05-03 11:36:36.975000,34.975,5,NDW,,,,,,,1.0,,,,,,,,,,talking,5
81,2012-05-03 11:36:19.500000,2012-05-03 11:36:54.475000,34.975,5,NDW,,,,,,,1.0,,,,,,,,,,talking,5
82,2012-05-03 11:36:37,2012-05-03 11:37:11.975000,34.975,5,NDW,,,,,,,1.0,,,,,,,,,,talking,5
83,2012-05-03 11:36:54.500000,2012-05-03 11:37:29.475000,34.975,5,NDW,,,,,,,1.0,,,,,,,,,,talking,5
84,2012-05-03 11:37:12,2012-05-03 11:37:46.975000,34.975,5,NDW,,,,,,,1.0,,,,,,,,,,talking,5
85,2012-05-03 11:37:29.500000,2012-05-03 11:38:04.475000,34.975,5,NDW,,,,,,,1.0,,,,,,,,,,talking,5
86,2012-05-03 11:37:47,2012-05-03 11:38:21.975000,34.975,5,NDW,,,,,,,1.0,,,,,,,,,,talking,5
87,2012-05-03 11:38:04.500000,2012-05-03 11:38:39.475000,34.975,5,NDW,,,,,,,1.0,,,,,,,,,,talking,5
88,2012-05-03 11:38:22,2012-05-03 11:38:56.975000,34.975,5,NDW,,,,,,,1.0,,,,,,,,,,talking,5
89,2012-05-03 11:38:39.500000,2012-05-03 11:39:14.475000,34.975,5,NDW,,,,,,,1.0,,,,,,,,,,talking,5
90,2012-05-03 11:38:57,2012-05-03 11:39:31.975000,34.975,5,NDW,,,,,,,1.0,,,,,,,,,,talking,5
91,2012-05-03 11:39:14.500000,2012-05-03 11:39:49.475000,34.975,5,NDW,,,,,,,1.0,,,,,,,,,,talking,5
92,2012-05-03 11:39:32,2012-05-03 11:40:06.975000,34.975,5,NDW,,,,,,,1.0,,,,,,,,,,talking,5
93,2012-05-03 11:39:49.500000,2012-05-03 11:40:24.475000,34.975,5,NDW,,,,,,,1.0,,,,,,,,,,talking,5
94,2012-05-03 11:40:07,2012-05-03 11:40:41.975000,34.975,5,NDW,,,,,,,1.0,,,,,,,,,,talking,5
95,2012-05-03 11:40:24.500000,2012-05-03 11:40:59.475000,34.975,5,NDW,,,,,,,1.0,,,,,,,,,,talking,5
96,2012-05-03 11:40:42,2012-05-03 11:41:16.975000,34.975,5,NDW,,,,,,,1.0,,,,,,,,,,talking,5
97,2012-05-03 11:40:59.500000,2012-05-03 11:41:34.475000,34.975,5,NDW,,,,,,,1.0,,,,,,,,,,talking,5
98,2012-05-03 11:41:17,2012-05-03 11:41:51.975000,34.975,5,NDW,,,,,,,1.0,,,,,,,,,,talking,5
99,2012-05-03 11:41:34.500000,2012-05-03 11:42:09.475000,34.975,5,NDW,,,,,,,1.0,,,,,,,,,,talking,5
100,2012-05-03 11:41:52,2012-05-03 11:42:26.975000,34.975,5,NDW,,,,,,,0.9721229449606862,,0.027877055039313793,,,,,,,,talking,5
101,2012-05-03 11:42:09.500000,2012-05-03 11:42:44.475000,34.975,5,NDW,,,,,,,0.4717655468191565,,0.5282344531808435,,,,,,,,drinking,8
102,2012-05-03 11:42:27,2012-05-03 11:43:01.975000,34.975,5,NDW,,,,,,,,,0.5432451751250893,,,,,,,,drinking,8
103,2012-05-03 11:42:44.500000,2012-05-03 11:43:19.475000,34.975,5,NDW,,,,,,,0.013581129378127232,,0.04288777698355968,,,,,,,,others,0
104,2012-05-03 11:43:02,2012-05-03 11:43:36.975000,34.975,5,NDW,,,,,,,0.513938527519657,,,,,,,,,,talking,5
105,2012-05-03 11:43:19.500000,2012-05-03 11:43:54.475000,34.975,5,NDW,,,,,,,1.0,,,,,,,,,,talking,5
106,2012-05-03 11:43:37,2012-05-03 11:44:11.975000,34.975,5,NDW,,,,,,,1.0,,,,,,,,,,talking,5
107,2012-05-03 11:43:54.500000,2012-05-03 11:44:29.475000,34.975,5,NDW,,,,,,,1.0,,,,,,,,,,talking,5
108,2012-05-03 11:44:12,2012-05-03 11:44:46.975000,34.975,5,NDW,,,,,,,1.0,,,,,,,,,,talking,5
109,2012-05-03 11:44:29.500000,2012-05-03 11:45:04.475000,34.975,5,NDW,,,,,,,1.0,,,,,,,,,,talking,5
110,2012-05-03 11:44:47,2012-05-03 11:45:21.975000,34.975,5,NDW,,,,,,,1.0,,,,,,,,,,talking,5
111,2012-05-03 11:45:04.500000,2012-05-03 11:45:39.475000,34.975,5,NDW,,,,,,,1.0,,,,,,,,,,talking,5
112,2012-05-03 11:45:22,2012-05-03 11:45:56.975000,34.975,5,NDW,,,,,,,1.0,,,,,,,,,,talking,5
113,2012-05-03 11:45:39.500000,2012-05-03 11:46:14.475000,34.975,5,NDW,,,,,,,1.0,,,,,,,,,,talking,5
114,2012-05-03 11:45:57,2012-05-03 11:46:31.975000,34.975,5,NDW,,,,,,,1.0,,,,,,,,,,talking,5
115,2012-05-03 11:46:14.500000,2012-05-03 11:46:49.475000,34.975,5,NDW,,,,,,,1.0,,,,,,,,,,talking,5
116,2012-05-03 11:46:32,2012-05-03 11:47:06.975000,34.975,5,NDW,,,,,,,1.0,,,,,,,,,,talking,5
117,2012-05-03 11:46:49.500000,2012-05-03 11:47:24.475000,34.975,5,NDW,,,,,,,1.0,,,,,,,,,,talking,5
118,2012-05-03 11:47:07,2012-05-03 11:47:41.975000,34.975,5,NDW,,,,,,,1.0,,,,,,,,,,talking,5
119,2012-05-03 11:47:24.500000,2012-05-03 11:47:59.475000,34.975,5,NDW,,,,,,,1.0,,,,,,,,,,talking,5
120,2012-05-03 11:47:42,2012-05-03 11:48:16.975000,34.975,5,NDW,,,,,,,1.0,,,,,,,,,,talking,5
121,2012-05-03 11:47:59.500000,2012-05-03 11:48:34.475000,34.975,5,NDW,,,,,,,1.0,,,,,,,,,,talking,5
122,2012-05-03 11:48:17,2012-05-03 11:48:51.975000,34.975,5,NDW,,,,,,,1.0,,,,,,,,,,talking,5
123,2012-05-03 11:48:34.500000,2012-05-03 11:49:09.475000,34.975,5,NDW,,,,,,,0.5289492494639028,,,,,,,,0.013581129378127232,,talking,5
124,2012-05-03 11:48:52,2012-05-03 11:49:26.975000,34.975,5,NDW,,,,,,,0.028591851322373123,,,,,,,,0.513938527519657,,walking,1
125,2012-05-03 11:49:09.500000,2012-05-03 11:49:44.475000,34.975,5,NDW,,,,,,,,,,,,,,,0.9142244460328807,,walking,1
126,2012-05-03 11:49:27,2012-05-03 11:50:01.975000,34.975,5,NDW,,,,,,,,,,,,,,,0.5432451751250893,,walking,1
127,2012-05-03 11:49:44.500000,2012-05-03 11:50:19.475000,34.975,5,NDW,,,,,,,,,,,,,,,0.12866333095067906,,others,0
128,2012-05-03 11:50:02,2012-05-03 11:50:36.975000,34.975,5,NDW,,,,,,,,,,,,,,,,,others,0
129,2012-05-03 11:50:19.500000,2012-05-03 11:50:54.475000,34.975,5,NDW,,,,,,,,,,,,,,,,,rest,-1
130,2012-05-03 11:50:37,2012-05-03 11:51:11.975000,34.975,5,NDW,,,,,,,,,,,,,,,,,rest,-1
131,2012-05-03 11:50:54.500000,2012-05-03 11:51:29.475000,34.975,5,NDW,,,,,,,,,,,,,,,,,rest,-1
132,2012-05-03 11:51:12,2012-05-03 11:51:46.975000,34.975,5,NDW,,,,,,,,,,,,,,,,,rest,-1
133,2012-05-03 11:51:29.500000,2012-05-03 11:52:04.475000,34.975,5,NDW,,,,,,,,,,,,,,,,,rest,-1
134,2012-05-03 11:51:47,2012-05-03 11:52:21.975000,34.975,5,NDW,,,,,,,,,,,,,,,,,others,0
135,2012-05-03 11:52:04.500000,2012-05-03 11:52:39.475000,34.975,5,NDW,,,,,,,,,,,,,,,,,others,0
136,2012-05-03 11:52:22,2012-05-03 11:52:56.975000,34.975,5,NDW,,,,,,,,,,,,,,,,,others,0
137,2012-05-03 11:52:39.500000,2012-05-03 11:53:14.475000,34.975,5,NDW,,,,,,,,,,,,,,,,,others,0
138,2012-05-03 11:52:57,2012-05-03 11:53:31.975000,34.975,5,NDW,,,,,,,,,,,,,,,,,others,0
139,2012-05-03 11:53:14.500000,2012-05-03 11:53:49.475000,34.975,5,NDW,,,,,,,,0.0993566833452466,,,,,,,0.28591851322373124,,others,0
140,2012-05-03 11:53:32,2012-05-03 11:54:06.975000,34.975,5,NDW,,,,,,,,0.5997140814867763,,,,,,,0.28591851322373124,,others,0
141,2012-05-03 11:53:49.500000,2012-05-03 11:54:24.475000,34.975,5,NDW,,,,,,,,1.0,,,,,,,,,others,0
142,2012-05-03 11:54:07,2012-05-03 11:54:41.975000,34.975,5,NDW,,,,,,,,0.8291636883488206,,,,,,,0.22802001429592564,,others,0
143,2012-05-03 11:54:24.500000,2012-05-03 11:54:59.475000,34.975,5,NDW,,,,,,,,0.3288062902072909,,,,,,,0.7283774124374554,,walking,1
144,2012-05-03 11:54:42,2012-05-03 11:55:16.975000,34.975,5,NDW,,,,,,,,,,,,,,,0.7147962830593281,,walking,1
145,2012-05-03 11:54:59.500000,2012-05-03 11:55:34.475000,34.975,5,NDW,,,,,,,,,,,,,,,0.21443888491779842,,others,0
146,2012-05-03 11:55:17,2012-05-03 11:55:51.975000,34.975,5,NDW,,,,,,,,,,,,,,,,,others,0
147,2012-05-03 11:55:34.500000,2012-05-03 11:56:09.475000,34.975,5,NDW,,,,,,,,,,,,,,,,,others,0
148,2012-05-03 11:55:52,2012-05-03 11:56:26.975000,34.975,5,NDW,,,,,,,0.11365260900643316,,,,,,,,,,others,0
149,2012-05-03 11:56:09.500000,2012-05-03 11:56:44.475000,34.975,5,NDW,,,,,,,0.6004288777698356,,,,,,,,,,talking,5
150,2012-05-03 11:56:27,2012-05-03 11:57:01.975000,34.975,5,NDW,,,,,,,0.4860614724803431,,,,,,,,,,talking,5
151,2012-05-03 11:56:44.500000,2012-05-03 11:57:19.475000,34.975,5,NDW,,,,,,,,,,,,,,,,,others,0
152,2012-05-03 11:57:02,2012-05-03 11:57:36.975000,34.975,5,NDW,,,,,,,,,0.17155110793423872,,,,,,,,others,0
153,2012-05-03 11:57:19.500000,2012-05-03 11:57:54.475000,34.975,5,NDW,,,,,,,,0.11436740528949249,0.17155110793423872,,,,,,,,others,0
154,2012-05-03 11:57:37,2012-05-03 11:58:11.975000,34.975,5,NDW,,,,,,,,0.11436740528949249,,,,,,,,,others,0
155,2012-05-03 11:57:54.500000,2012-05-03 11:58:29.475000,34.975,5,NDW,,,,,,,,,,,,,,,,,others,0
156,2012-05-03 11:58:12,2012-05-03 11:58:46.975000,34.975,5,NDW,,,,,,,,,,,,,,,,,others,0
157,2012-05-03 11:58:29.500000,2012-05-03 11:59:04.475000,34.975,5,NDW,,,,,,,0.04217298070050036,,,,,,,,,,others,0
158,2012-05-03 11:58:47,2012-05-03 11:59:21.975000,34.975,5,NDW,,,,,,,0.54253037884203,,,,,,,,,,talking,5
159,2012-05-03 11:59:04.500000,2012-05-03 11:59:39.475000,34.975,5,NDW,,,,,,,1.0,,,,,,,,,,talking,5
160,2012-05-03 11:59:22,2012-05-03 11:59:56.975000,34.975,5,NDW,,,,,,,1.0,,,,,,,,,,talking,5
161,2012-05-03 11:59:39.500000,2012-05-03 12:00:14.475000,34.975,5,NDW,,,,,,,1.0,,,,,,,,,,talking,5
162,2012-05-03 11:59:57,2012-05-03 12:00:31.975000,34.975,5,NDW,,,,,,,1.0,,,,,,,,,,talking,5
163,2012-05-03 12:00:14.500000,2012-05-03 12:00:49.475000,34.975,5,NDW,,,,,,,0.5289492494639028,,0.08577555396711936,,,,,,,,talking,5
164,2012-05-03 12:00:32,2012-05-03 12:01:06.975000,34.975,5,NDW,,,,,,,0.513938527519657,,0.08577555396711936,,,,,,,,rest,-1
165,2012-05-03 12:00:49.500000,2012-05-03 12:01:24.475000,34.975,5,NDW,,,,,,,0.9857040743388135,,,,,,,,,,rest,-1
166,2012-05-03 12:01:07,2012-05-03 12:01:41.975000,34.975,5,NDW,,,,,,,1.0,,,,,,,,,,talking,5
167,2012-05-03 12:01:24.500000,2012-05-03 12:01:59.475000,34.975,5,NDW,,,,,,,1.0,,,,,,,,,,talking,5
168,2012-05-03 12:01:42,2012-05-03 12:02:16.975000,34.975,5,NDW,,,,,,,1.0,,,,,,,,,,talking,5
169,2012-05-03 12:01:59.500000,2012-05-03 12:02:34.475000,34.975,5,NDW,,,,,,,1.0,,,,,,,,,,talking,5
170,2012-05-03 12:02:17,2012-05-03 12:02:51.975000,34.975,5,NDW,,,,,,,1.0,,,,,,,,,,talking,5
171,2012-05-03 12:02:34.500000,2012-05-03 12:03:09.475000,34.975,5,NDW,,,,,,,1.0,,,,,,,,,,talking,5
172,2012-05-03 12:02:52,2012-05-03 12:03:26.975000,34.975,5,NDW,,,,,,,1.0,,,,,,,,,,talking,5
173,2012-05-03 12:03:09.500000,2012-05-03 12:03:44.475000,34.975,5,NDW,,,,,,,1.0,,,,,,,,,,talking,5
174,2012-05-03 12:03:27,2012-05-03 12:04:01.975000,34.975,5,NDW,,,,,,,1.0,,,,,,,,,,talking,5
175,2012-05-03 12:03:44.500000,2012-05-03 12:04:19.475000,34.975,5,NDW,,,,,,,1.0,,,,,,,,,,talking,5
176,2012-05-03 12:04:02,2012-05-03 12:04:36.975000,34.975,5,NDW,,,,,,,1.0,,,,,,,,,,talking,5
177,2012-05-03 12:04:19.500000,2012-05-03 12:04:54.475000,34.975,5,NDW,,,,,,,1.0,,,,,,,,,,talking,5
178,2012-05-03 12:04:37,2012-05-03 12:05:11.975000,34.975,5,NDW,,,,,,,1.0,,,,,,,,,,talking,5
179,2012-05-03 12:04:54.500000,2012-05-03 12:05:29.475000,34.975,5,NDW,,,,,,,1.0,,,,,,,,,,talking,5
180,2012-05-03 12:05:12,2012-05-03 12:05:46.975000,34.975,5,NDW,1.0,0.21443888491779842,0.0,22.0,left-puff,,0.7147962830593281,,,,,0.34238741958541813,,,,0.057183702644746245,puff,9
181,2012-05-03 12:05:29.500000,2012-05-03 12:06:04.475000,34.975,5,NDW,1.0,0.21443888491779842,0.0,22.0,left-puff,,0.21443888491779842,,,,,0.8427448177269479,,,,0.057183702644746245,puff,9
182,2012-05-03 12:05:47,2012-05-03 12:06:21.975000,34.975,5,NDW,,,,,,,,,,,,1.0,,,,,others,0
183,2012-05-03 12:06:04.500000,2012-05-03 12:06:39.475000,34.975,5,NDW,,,,,,,,,,,,1.0,,,,,others,0
184,2012-05-03 12:06:22,2012-05-03 12:06:56.975000,34.975,5,NDW,,,,,,,,,,,,1.0,,,,,others,0
185,2012-05-03 12:06:39.500000,2012-05-03 12:07:14.475000,34.975,5,NDW,,,,,,,,,,,,1.0,,,,,others,0
186,2012-05-03 12:06:57,2012-05-03 12:07:31.975000,34.975,5,NDW,,,,,,,,,,,,1.0,,,,,others,0
187,2012-05-03 12:07:14.500000,2012-05-03 12:07:49.475000,34.975,5,NDW,,,,,,,,,,,,1.0,,,,,others,0
188,2012-05-03 12:07:32,2012-05-03 12:08:06.975000,34.975,5,NDW,,,,,,,,,,,,1.0,,,,,others,0
189,2012-05-03 12:07:49.500000,2012-05-03 12:08:24.475000,34.975,5,NDW,,,,,,,,,0.04217298070050036,,,1.0,,,,0.04217298070050036,others,0
190,2012-05-03 12:08:07,2012-05-03 12:08:41.975000,34.975,5,NDW,,,,,,,,,0.54253037884203,,,1.0,,,,0.54253037884203,drinking,8
191,2012-05-03 12:08:24.500000,2012-05-03 12:08:59.475000,34.975,5,NDW,,,,,,,,,1.0,,,1.0,,,,1.0,drinking,8
192,2012-05-03 12:08:42,2012-05-03 12:09:16.975000,34.975,5,NDW,,,,,,,,,1.0,,,1.0,,,,1.0,drinking,8
193,2012-05-03 12:08:59.500000,2012-05-03 12:09:34.475000,34.975,5,NDW,,,,,,,,,0.9006433166547534,,,1.0,,,,0.9006433166547534,drinking,8
194,2012-05-03 12:09:17,2012-05-03 12:09:51.975000,34.975,5,NDW,,,,,,,,,0.4002859185132237,,,1.0,,,,0.4002859185132237,drinking,8
195,2012-05-03 12:09:34.500000,2012-05-03 12:10:09.475000,34.975,5,NDW,,,,,,,,,,,,1.0,,,,,others,0
196,2012-05-03 12:09:52,2012-05-03 12:10:26.975000,34.975,5,NDW,,,,,,,,,,,,1.0,,,,,others,0
197,2012-05-03 12:10:09.500000,2012-05-03 12:10:44.475000,34.975,5,NDW,1.0,0.14295925661186562,1.0,27.0,left-puff,,,,,,,1.0,,,,,puff,9
198,2012-05-03 12:10:27,2012-05-03 12:11:01.975000,34.975,5,NDW,1.0,0.14295925661186562,1.0,27.0,left-puff,,,,,,,1.0,,,,,puff,9
199,2012-05-03 12:10:44.500000,2012-05-03 12:11:19.475000,34.975,5,NDW,,,,,,,,,,,0.1279485346676197,1.0,,,,0.1279485346676197,others,0
200,2012-05-03 12:11:02,2012-05-03 12:11:36.975000,34.975,5,NDW,,,,,,,,,,,0.6283059328091494,0.5432451751250893,,,,0.17155110793423872,eating,2
201,2012-05-03 12:11:19.500000,2012-05-03 12:11:54.475000,34.975,5,NDW,,,,,,,,,,,1.0,0.04288777698355968,,,,0.04288777698355968,eating,2
202,2012-05-03 12:11:37,2012-05-03 12:12:11.975000,34.975,5,NDW,,,,,,,,,,,1.0,,,,,,eating,2
203,2012-05-03 12:11:54.500000,2012-05-03 12:12:29.475000,34.975,5,NDW,,,,,,,,,,,1.0,,,,,,eating,2
204,2012-05-03 12:12:12,2012-05-03 12:12:46.975000,34.975,5,NDW,,,,,,,,,,,1.0,,,,,,eating,2
205,2012-05-03 12:12:29.500000,2012-05-03 12:13:04.475000,34.975,5,NDW,,,,,,,,,,,1.0,,,,,,eating,2
206,2012-05-03 12:12:47,2012-05-03 12:13:21.975000,34.975,5,NDW,,,,,,,,,,,1.0,,,,,,eating,2
207,2012-05-03 12:13:04.500000,2012-05-03 12:13:39.475000,34.975,5,NDW,,,,,,,,,,,1.0,,,,,,eating,2
208,2012-05-03 12:13:22,2012-05-03 12:13:56.975000,34.975,5,NDW,,,,,,,,,,,1.0,,,,,,eating,2
209,2012-05-03 12:13:39.500000,2012-05-03 12:14:14.475000,34.975,5,NDW,,,,,,,,,,,1.0,,,,,,eating,2
210,2012-05-03 12:13:57,2012-05-03 12:14:31.975000,34.975,5,NDW,,,,,,,,,,,1.0,,,,,,eating,2
211,2012-05-03 12:14:14.500000,2012-05-03 12:14:49.475000,34.975,5,NDW,,,,,,,,,,,1.0,,,,,,eating,2
212,2012-05-03 12:14:32,2012-05-03 12:15:06.975000,34.975,5,NDW,,,,,,,,,,,1.0,,,,,,eating,2
213,2012-05-03 12:14:49.500000,2012-05-03 12:15:24.475000,34.975,5,NDW,,,,,,,,,,,1.0,,,,,,eating,2
214,2012-05-03 12:15:07,2012-05-03 12:15:41.975000,34.975,5,NDW,,,,,,,,,,,1.0,,,,,,eating,2
215,2012-05-03 12:15:24.500000,2012-05-03 12:15:59.475000,34.975,5,NDW,,,,,,,,,,,1.0,,,,,,eating,2
216,2012-05-03 12:15:42,2012-05-03 12:16:16.975000,34.975,5,NDW,,,,,,,,,,,1.0,,,,,,eating,2
217,2012-05-03 12:15:59.500000,2012-05-03 12:16:34.475000,34.975,5,NDW,,,,,,,,,,,1.0,,,,,,eating,2
218,2012-05-03 12:16:17,2012-05-03 12:16:51.975000,34.975,5,NDW,,,,,,,,,,,1.0,,,,,,eating,2
219,2012-05-03 12:16:34.500000,2012-05-03 12:17:09.475000,34.975,5,NDW,,,,,,,,,,,1.0,,,,,,eating,2
220,2012-05-03 12:16:52,2012-05-03 12:17:26.975000,34.975,5,NDW,,,,,,,,,,,1.0,,,,,,eating,2
221,2012-05-03 12:17:09.500000,2012-05-03 12:17:44.475000,34.975,5,NDW,,,,,,,,,,,1.0,,,,,,eating,2
222,2012-05-03 12:17:27,2012-05-03 12:18:01.975000,34.975,5,NDW,,,,,,,,,,,1.0,,,,,,eating,2
223,2012-05-03 12:17:44.500000,2012-05-03 12:18:19.475000,34.975,5,NDW,,,,,,,,,,,1.0,,,,,,eating,2
224,2012-05-03 12:18:02,2012-05-03 12:18:36.975000,34.975,5,NDW,,,,,,,,,0.17155110793423872,,0.8284488920657612,,,,,,eating,2
225,2012-05-03 12:18:19.500000,2012-05-03 12:18:54.475000,34.975,5,NDW,,,,,,,,,0.17155110793423872,,0.8284488920657612,,,,,,eating,2
226,2012-05-03 12:18:37,2012-05-03 12:19:11.975000,34.975,5,NDW,,,,,,,,,,,1.0,,,,,,eating,2
227,2012-05-03 12:18:54.500000,2012-05-03 12:19:29.475000,34.975,5,NDW,,,,,,,,,,,1.0,,,,,,eating,2
228,2012-05-03 12:19:12,2012-05-03 12:19:46.975000,34.975,5,NDW,,,,,,,,,,,1.0,,,,,,eating,2
229,2012-05-03 12:19:29.500000,2012-05-03 12:20:04.475000,34.975,5,NDW,,,,,,,,,,,1.0,,,,,,eating,2
230,2012-05-03 12:19:47,2012-05-03 12:20:21.975000,34.975,5,NDW,,,,,,,,,,,1.0,,,,,,eating,2
231,2012-05-03 12:20:04.500000,2012-05-03 12:20:39.475000,34.975,5,NDW,,,,,,,,,,,1.0,,,,,,eating,2
232,2012-05-03 12:20:22,2012-05-03 12:20:56.975000,34.975,5,NDW,,,,,,,,,,,1.0,,,,,,eating,2
233,2012-05-03 12:20:39.500000,2012-05-03 12:21:14.475000,34.975,5,NDW,,,,,,,,,,,1.0,,,,,,eating,2
234,2012-05-03 12:20:57,2012-05-03 12:21:31.975000,34.975,5,NDW,,,,,,,,,,,1.0,,,,,,eating,2
235,2012-05-03 12:21:14.500000,2012-05-03 12:21:49.475000,34.975,5,NDW,,,,,,,,,,,1.0,,,,,,eating,2
236,2012-05-03 12:21:32,2012-05-03 12:22:06.975000,34.975,5,NDW,,,,,,,,,,,1.0,,,,,,eating,2
237,2012-05-03 12:21:49.500000,2012-05-03 12:22:24.475000,34.975,5,NDW,,,,,,,,,,,1.0,,,,,,eating,2
238,2012-05-03 12:22:07,2012-05-03 12:22:41.975000,34.975,5,NDW,,,,,,,,,,,1.0,,,,,,eating,2
239,2012-05-03 12:22:24.500000,2012-05-03 12:22:59.475000,34.975,5,NDW,,,,,,,,,,,1.0,,,,,,eating,2
240,2012-05-03 12:22:42,2012-05-03 12:23:16.975000,34.975,5,NDW,,,,,,,,,,,1.0,,,,,,eating,2
241,2012-05-03 12:22:59.500000,2012-05-03 12:23:34.475000,34.975,5,NDW,,,,,,,,0.35668334524660467,,,0.6433166547533953,,,,,,eating,2
242,2012-05-03 12:23:17,2012-05-03 12:23:51.975000,34.975,5,NDW,,,,,,,,0.8570407433881344,,,0.14295925661186562,,,,,,others,0
243,2012-05-03 12:23:34.500000,2012-05-03 12:24:09.475000,34.975,5,NDW,,,,,,,,0.7290922087205146,,,,0.2423159399571122,,,,,others,0
244,2012-05-03 12:23:52,2012-05-03 12:24:26.975000,34.975,5,NDW,,,,,,,,0.22873481057898498,,,,0.7426733380986419,,,,,others,0
245,2012-05-03 12:24:09.500000,2012-05-03 12:24:44.475000,34.975,5,NDW,,,,,,,,,,,,1.0,,,,,others,0
246,2012-05-03 12:24:27,2012-05-03 12:25:01.975000,34.975,5,NDW,,,,,,,,,,,,1.0,,,,,others,0
247,2012-05-03 12:24:44.500000,2012-05-03 12:25:19.475000,34.975,5,NDW,,,,,,,,,,,,1.0,,,,,others,0
248,2012-05-03 12:25:02,2012-05-03 12:25:36.975000,34.975,5,NDW,,,,,,,,,,,,1.0,,,,,others,0
249,2012-05-03 12:25:19.500000,2012-05-03 12:25:54.475000,34.975,5,NDW,,,,,,,,,,,,1.0,,,,,others,0
250,2012-05-03 12:25:37,2012-05-03 12:26:11.975000,34.975,5,NDW,,,,,,,,,,,,1.0,,,,,others,0
251,2012-05-03 12:25:54.500000,2012-05-03 12:26:29.475000,34.975,5,NDW,,,,,,,,,,,,1.0,,,,,others,0
252,2012-05-03 12:26:12,2012-05-03 12:26:46.975000,34.975,5,NDW,,,,,,,,,,,,1.0,0.1994281629735525,,,0.1994281629735525,others,0
253,2012-05-03 12:26:29.500000,2012-05-03 12:27:04.475000,34.975,5,NDW,,,,,,,,,,,,1.0,0.6997855611150822,,,0.6997855611150822,computer,4
254,2012-05-03 12:26:47,2012-05-03 12:27:21.975000,34.975,5,NDW,,,,,,,,,,,,1.0,1.0,,,1.0,computer,4
255,2012-05-03 12:27:04.500000,2012-05-03 12:27:39.475000,34.975,5,NDW,,,,,,,,,,,,1.0,1.0,,,1.0,rest,-1
256,2012-05-03 12:27:22,2012-05-03 12:27:56.975000,34.975,5,NDW,,,,,,,,,,,,1.0,0.9149392423159399,0.08506075768406005,,1.0,computer,4
257,2012-05-03 12:27:39.500000,2012-05-03 12:28:14.475000,34.975,5,NDW,,,,,,,,,,,,1.0,0.5997140814867763,0.4002859185132237,,1.0,computer,4
258,2012-05-03 12:27:57,2012-05-03 12:28:31.975000,34.975,5,NDW,,,,,,,,,,,,1.0,0.6854896354538956,0.31451036454610437,,1.0,computer,4
259,2012-05-03 12:28:14.500000,2012-05-03 12:28:49.475000,34.975,5,NDW,,,,,,,,,,,,1.0,1.0,,,1.0,computer,4
260,2012-05-03 12:28:32,2012-05-03 12:29:06.975000,34.975,5,NDW,,,,,,,,,,,,1.0,0.7433881343817011,0.25661186561829874,,1.0,computer,4
261,2012-05-03 12:28:49.500000,2012-05-03 12:29:24.475000,34.975,5,NDW,1.0,0.11436740528949249,1.0,32.0,left-puff,,,,,,,1.0,0.513938527519657,0.4860614724803431,,1.0,puff,9
262,2012-05-03 12:29:07,2012-05-03 12:29:41.975000,34.975,5,NDW,1.0,0.11436740528949249,1.0,32.0,left-puff,,,,,,,1.0,0.7712651894210151,0.22873481057898498,,1.0,puff,9
263,2012-05-03 12:29:24.500000,2012-05-03 12:29:59.475000,34.975,5,NDW,1.0,0.12151536812008577,1.0,33.0,left-puff,,,,,,,1.0,1.0,,,1.0,puff,9
264,2012-05-03 12:29:42,2012-05-03 12:30:16.975000,34.975,5,NDW,1.0,0.12151536812008577,1.0,33.0,left-puff,,,,,,,1.0,1.0,,,1.0,puff,9
265,2012-05-03 12:29:59.500000,2012-05-03 12:30:34.475000,34.975,5,NDW,,,,,,,,,,,,1.0,1.0,,,1.0,rest,-1
266,2012-05-03 12:30:17,2012-05-03 12:30:51.975000,34.975,5,NDW,,,,,,,,,,,,1.0,1.0,,,1.0,rest,-1
267,2012-05-03 12:30:34.500000,2012-05-03 12:31:09.475000,34.975,5,NDW,,,,,,,,,,,,1.0,1.0,,,1.0,rest,-1
268,2012-05-03 12:30:52,2012-05-03 12:31:26.975000,34.975,5,NDW,1.0,0.14295925661186562,1.0,34.0,left-puff,,,,,,,1.0,1.0,,,1.0,puff,9
269,2012-05-03 12:31:09.500000,2012-05-03 12:31:44.475000,34.975,5,NDW,1.8,0.2573266619013581,1.0,34.0,left-puff,,,,,,,1.0,1.0,,,1.0,puff,9
270,2012-05-03 12:31:27,2012-05-03 12:32:01.975000,34.975,5,NDW,1.0,0.11436740528949249,1.0,35.0,left-puff,,,,,,,1.0,1.0,,,1.0,puff,9
271,2012-05-03 12:31:44.500000,2012-05-03 12:32:19.475000,34.975,5,NDW,1.0,0.10007147962830593,1.0,36.0,left-puff,,,,,,,0.9864188706218727,1.0,,,0.9864188706218727,puff,9
272,2012-05-03 12:32:02,2012-05-03 12:32:36.975000,34.975,5,NDW,1.0,0.10007147962830593,1.0,36.0,left-puff,,,,,,,0.4860614724803431,1.0,,,0.4860614724803431,puff,9
273,2012-05-03 12:32:19.500000,2012-05-03 12:32:54.475000,34.975,5,NDW,,,,,,,,,,,,,1.0,,,,rest,-1
274,2012-05-03 12:32:37,2012-05-03 12:33:11.975000,34.975,5,NDW,,,,,,,,,,,,,1.0,,,,rest,-1
275,2012-05-03 12:32:54.500000,2012-05-03 12:33:29.475000,34.975,5,NDW,,,,,,,,,,,,,1.0,,,,computer,4
276,2012-05-03 12:33:12,2012-05-03 12:33:46.975000,34.975,5,NDW,,,,,,,,,,,,,1.0,,,,computer,4
277,2012-05-03 12:33:29.500000,2012-05-03 12:34:04.475000,34.975,5,NDW,,,,,,,,,,,,,1.0,,,,computer,4
278,2012-05-03 12:33:47,2012-05-03 12:34:21.975000,34.975,5,NDW,,,,,,,,,,,,,1.0,,,,computer,4
279,2012-05-03 12:34:04.500000,2012-05-03 12:34:39.475000,34.975,5,NDW,,,,,,,,,,,,,1.0,,,,computer,4
280,2012-05-03 12:34:22,2012-05-03 12:34:56.975000,34.975,5,NDW,,,,,,,,,,,,,1.0,,,,computer,4
281,2012-05-03 12:34:39.500000,2012-05-03 12:35:14.475000,34.975,5,NDW,,,,,,,,,,,,,1.0,,,,computer,4
282,2012-05-03 12:34:57,2012-05-03 12:35:31.975000,34.975,5,NDW,,,,,,,,,,,,,1.0,,,,computer,4
283,2012-05-03 12:35:14.500000,2012-05-03 12:35:49.475000,34.975,5,NDW,,,,,,,,,,,,,1.0,,,,computer,4
284,2012-05-03 12:35:32,2012-05-03 12:36:06.975000,34.975,5,NDW,,,,,,,,,,,,,1.0,,,,computer,4
285,2012-05-03 12:35:49.500000,2012-05-03 12:36:24.475000,34.975,5,NDW,,,,,,,,,,,,,1.0,,,,computer,4
286,2012-05-03 12:36:07,2012-05-03 12:36:41.975000,34.975,5,NDW,,,,,,,,,,,,,1.0,,,,computer,4
287,2012-05-03 12:36:24.500000,2012-05-03 12:36:59.475000,34.975,5,NDW,,,,,,,,,,,,,1.0,,,,rest,-1
288,2012-05-03 12:36:42,2012-05-03 12:37:16.975000,34.975,5,NDW,,,,,,,,,,,,,1.0,,,,rest,-1
289,2012-05-03 12:36:59.500000,2012-05-03 12:37:34.475000,34.975,5,NDW,,,,,,,,,,,,,1.0,,,,rest,-1
290,2012-05-03 12:37:17,2012-05-03 12:37:51.975000,34.975,5,NDW,,,,,,,,,,,,,1.0,,,,rest,-1
291,2012-05-03 12:37:34.500000,2012-05-03 12:38:09.475000,34.975,5,NDW,,,,,,,,,,,,,1.0,,,,rest,-1
292,2012-05-03 12:37:52,2012-05-03 12:38:26.975000,34.975,5,NDW,,,,,,,,,,,,,1.0,,,,computer,4
293,2012-05-03 12:38:09.500000,2012-05-03 12:38:44.475000,34.975,5,NDW,,,,,,,,,0.17155110793423872,,,,0.7576840600428878,,,,computer,4
294,2012-05-03 12:38:27,2012-05-03 12:39:01.975000,34.975,5,NDW,0.5900000000000001,0.04217298070050036,0.0,37.0,left-puff,,0.45675482487491065,,0.17155110793423872,,,0.37097927090779126,0.2573266619013581,,,0.37097927090779126,puff,9
295,2012-05-03 12:38:44.500000,2012-05-03 12:39:19.475000,34.975,5,NDW,2.09,0.14939242315939955,0.0,37.0,left-puff,,0.8863473909935669,,,,,0.8713366690493209,,0.07076483202287348,,0.8713366690493209,puff,9
296,2012-05-03 12:39:02,2012-05-03 12:39:36.975000,34.975,5,NDW,2.9,0.20729092208720515,0.0,37.0,left-puff,,0.42887776983559683,,,,,1.0,,0.5711222301644031,,1.0,puff,9
297,2012-05-03 12:39:19.500000,2012-05-03 12:39:54.475000,34.975,5,NDW,1.12,0.20014295925661185,1.0,38.0,left-puff,,,,,,,1.0,,1.0,,1.0,puff,9
298,2012-05-03 12:39:37,2012-05-03 12:40:11.975000,34.975,5,NDW,1.0,0.10007147962830593,1.0,39.0,left-puff,,,,,,,1.0,,1.0,,1.0,puff,9
299,2012-05-03 12:39:54.500000,2012-05-03 12:40:29.475000,34.975,5,NDW,,,,,,,,,,,,1.0,,1.0,,1.0,phone,3
300,2012-05-03 12:40:12,2012-05-03 12:40:46.975000,34.975,5,NDW,,,,,,,,,,,,1.0,,1.0,,1.0,phone,3
301,2012-05-03 12:40:29.500000,2012-05-03 12:41:04.475000,34.975,5,NDW,1.0,0.10007147962830593,0.0,40.0,left-puff,,,,,,,1.0,,1.0,,1.0,puff,9
302,2012-05-03 12:40:47,2012-05-03 12:41:21.975000,34.975,5,NDW,1.0,0.10007147962830593,0.0,40.0,left-puff,,,,,,,1.0,,1.0,,1.0,puff,9
303,2012-05-03 12:41:04.500000,2012-05-03 12:41:39.475000,34.975,5,NDW,,,,,,,,,,,,1.0,,0.5997140814867763,,0.5997140814867763,phone,3
304,2012-05-03 12:41:22,2012-05-03 12:41:56.975000,34.975,5,NDW,,,,,,,,,,,,1.0,,0.5997140814867763,,0.5997140814867763,phone,3
305,2012-05-03 12:41:39.500000,2012-05-03 12:42:14.475000,34.975,5,NDW,0.9075757575757576,0.4281629735525375,0.0,41.0,left-puff,,,,,,,1.0,,1.0,,1.0,puff,9
306,2012-05-03 12:41:57,2012-05-03 12:42:31.975000,34.975,5,NDW,1.0,0.4717655468191565,0.0,41.0,left-puff,,,,,,,1.0,,1.0,,1.0,puff,9
307,2012-05-03 12:42:14.500000,2012-05-03 12:42:49.475000,34.975,5,NDW,0.5151515151515151,0.24303073624017155,0.0,41.0,left-puff,,,,,,,1.0,,1.0,,1.0,puff,9
308,2012-05-03 12:42:32,2012-05-03 12:43:06.975000,34.975,5,NDW,1.0,0.20014295925661185,1.0,42.0,left-puff,,,,,,,1.0,,1.0,,1.0,puff,9
309,2012-05-03 12:42:49.500000,2012-05-03 12:43:24.475000,34.975,5,NDW,,,,,,,,,,,,1.0,,1.0,,1.0,rest,-1
310,2012-05-03 12:43:07,2012-05-03 12:43:41.975000,34.975,5,NDW,0.5791666666666667,0.0993566833452466,1.0,43.0,left-puff,,,,,,,1.0,,1.0,,1.0,puff,9
311,2012-05-03 12:43:24.500000,2012-05-03 12:43:59.475000,34.975,5,NDW,1.0,0.17155110793423872,1.0,43.0,left-puff,,,,,,,1.0,,0.9864188706218727,,0.9864188706218727,puff,9
312,2012-05-03 12:43:42,2012-05-03 12:44:16.975000,34.975,5,NDW,0.4166666666666667,0.07147962830593281,1.0,43.0,left-puff,,,,,,,1.0,,0.4860614724803431,,0.4860614724803431,puff,9
313,2012-05-03 12:43:59.500000,2012-05-03 12:44:34.475000,34.975,5,NDW,,,,,,,,,,,,1.0,,,0.27090779127948533,0.27090779127948533,others,0
314,2012-05-03 12:44:17,2012-05-03 12:44:51.975000,34.975,5,NDW,,,,,,,,,,,,1.0,,,0.7712651894210151,0.7712651894210151,walking,1
315,2012-05-03 12:44:34.500000,2012-05-03 12:45:09.475000,34.975,5,NDW,,,,,,,,,,,,1.0,,,1.0,1.0,walking,1
316,2012-05-03 12:44:52,2012-05-03 12:45:26.975000,34.975,5,NDW,,,,,,,,,,,,0.6290207290922087,,,1.0,0.6290207290922087,walking,1
317,2012-05-03 12:45:09.500000,2012-05-03 12:45:44.475000,34.975,5,NDW,,,,,,,,0.21372408863473907,,,,0.12866333095067906,,,0.814867762687634,0.12866333095067906,walking,1
318,2012-05-03 12:45:27,2012-05-03 12:46:01.975000,34.975,5,NDW,,,,,,,,0.7140814867762688,,,,,,,0.31451036454610437,,walking,1
319,2012-05-03 12:45:44.500000,2012-05-03 12:46:19.475000,34.975,5,NDW,,,,,,,,1.0,,,,,,,,,others,0
320,2012-05-03 12:46:02,2012-05-03 12:46:36.975000,34.975,5,NDW,,,,,,,,1.0,,,,,,,,,others,0
321,2012-05-03 12:46:19.500000,2012-05-03 12:46:54.475000,34.975,5,NDW,,,,,,,,1.0,,,,,,,,,others,0
322,2012-05-03 12:46:37,2012-05-03 12:47:11.975000,34.975,5,NDW,,,,,,,,1.0,,,,,,,,,others,0
323,2012-05-03 12:46:54.500000,2012-05-03 12:47:29.475000,34.975,5,NDW,,,,,,,,1.0,,,,,,,,,others,0
324,2012-05-03 12:47:12,2012-05-03 12:47:46.975000,34.975,5,NDW,,,,,,,,1.0,,,,,,,,,others,0
325,2012-05-03 12:47:29.500000,2012-05-03 12:48:04.475000,34.975,5,NDW,,,,,,,,1.0,,,,,,,,,others,0
326,2012-05-03 12:47:47,2012-05-03 12:48:21.975000,34.975,5,NDW,,,,,,,,1.0,,,,,,,,,others,0
327,2012-05-03 12:48:04.500000,2012-05-03 12:48:39.475000,34.975,5,NDW,,,,,,,,1.0,,,,,,,,,others,0
328,2012-05-03 12:48:22,2012-05-03 12:48:56.975000,34.975,5,NDW,,,,,,,,1.0,,,,,,,,,others,0
329,2012-05-03 12:48:39.500000,2012-05-03 12:49:14.475000,34.975,5,NDW,,,,,,,,1.0,,,,,,,,,others,0
330,2012-05-03 12:48:57,2012-05-03 12:49:31.975000,34.975,5,NDW,,,,,,,,0.6004288777698356,,,,,,0.313795568263045,,,phone,3
331,2012-05-03 12:49:14.500000,2012-05-03 12:49:49.475000,34.975,5,NDW,,,,,,,,0.10007147962830593,,,,,,0.8141529664045747,,,phone,3
332,2012-05-03 12:49:32,2012-05-03 12:50:06.975000,34.975,5,NDW,,,,,,,,,,,,,,1.0,,,phone,3
333,2012-05-03 12:49:49.500000,2012-05-03 12:50:24.475000,34.975,5,NDW,,,,,,,,,,,,,,1.0,,,phone,3
334,2012-05-03 12:50:07,2012-05-03 12:50:41.975000,34.975,5,NDW,,,,,,,,,,,,,,0.8577555396711937,,,phone,3
335,2012-05-03 12:50:24.500000,2012-05-03 12:50:59.475000,34.975,5,NDW,,,,,,,,,,,,,,0.35739814152966404,,,phone,3
336,2012-05-03 12:50:42,2012-05-03 12:51:16.975000,34.975,5,NDW,,,,,,,,,,,,,,,,,others,0
337,2012-05-03 12:50:59.500000,2012-05-03 12:51:34.475000,34.975,5,NDW,,,,,,,,,,,,,,,,,others,0
338,2012-05-03 12:51:17,2012-05-03 12:51:51.975000,34.975,5,NDW,,,,,,,,,0.057183702644746245,,,,,,,,others,0
339,2012-05-03 12:51:34.500000,2012-05-03 12:52:09.475000,34.975,5,NDW,,,,,,,,,0.057183702644746245,,,,,,,,others,0
340,2012-05-03 12:51:52,2012-05-03 12:52:26.975000,34.975,5,NDW,,,,,,,,,,,,,,,,,others,0
341,2012-05-03 12:52:09.500000,2012-05-03 12:52:44.475000,34.975,5,NDW,,,,,,,,,,,,,,,,,others,0
342,2012-05-03 12:52:27,2012-05-03 12:53:01.975000,34.975,5,NDW,,,,,,,,,,,,,,,,,others,0
343,2012-05-03 12:52:44.500000,2012-05-03 12:53:19.475000,34.975,5,NDW,,,,,,,,,,,,,,,,,others,0
344,2012-05-03 12:53:02,2012-05-03 12:53:36.975000,34.975,5,NDW,,,,,,,,,,,,,,,,,others,0
345,2012-05-03 12:53:19.500000,2012-05-03 12:53:54.475000,34.975,5,NDW,,,,,,,,,,,,,,,,,others,0
346,2012-05-03 12:53:37,2012-05-03 12:54:11.975000,34.975,5,NDW,,,,,,,,,,,,,,,,,others,0
347,2012-05-03 12:53:54.500000,2012-05-03 12:54:29.475000,34.975,5,NDW,,,,,,,,,,,,,,,,,others,0
348,2012-05-03 12:54:12,2012-05-03 12:54:46.975000,34.975,5,NDW,,,,,,,,,,,,,,,,,others,0
349,2012-05-03 12:54:29.500000,2012-05-03 12:55:04.475000,34.975,5,NDW,,,,,,,,,,,,,,,,,others,0
350,2012-05-03 12:54:47,2012-05-03 12:55:21.975000,34.975,5,NDW,,,,,,,,,,,,,,0.25661186561829874,,,others,0
351,2012-05-03 12:55:04.500000,2012-05-03 12:55:39.475000,34.975,5,NDW,,,,,,,,,,,,0.15654038598999284,,0.7569692637598284,,0.15654038598999284,phone,3
352,2012-05-03 12:55:22,2012-05-03 12:55:56.975000,34.975,5,NDW,0.6583333333333333,0.05646890636168692,1.0,49.0,left-puff,,,,,,,0.6568977841315226,,1.0,,0.6568977841315226,puff,9
353,2012-05-03 12:55:39.500000,2012-05-03 12:56:14.475000,34.975,5,NDW,1.0,0.08577555396711936,1.0,49.0,left-puff,,,,,,,1.0,,1.0,,1.0,puff,9
354,2012-05-03 12:55:57,2012-05-03 12:56:31.975000,34.975,5,NDW,0.3333333333333333,0.028591851322373123,1.0,49.0,left-puff,,,,,,,1.0,,1.0,,1.0,puff,9
355,2012-05-03 12:56:14.500000,2012-05-03 12:56:49.475000,34.975,5,NDW,,,,,,,,,,,,1.0,,0.5003573981415297,,0.5003573981415297,phone,3
356,2012-05-03 12:56:32,2012-05-03 12:57:06.975000,34.975,5,NDW,,,,,,,,,,,,1.0,,,,,others,0
357,2012-05-03 12:56:49.500000,2012-05-03 12:57:24.475000,34.975,5,NDW,,,,,,,,,,,,1.0,,,,,others,0
358,2012-05-03 12:57:07,2012-05-03 12:57:41.975000,34.975,5,NDW,,,,,,,,,,,,1.0,,,,,others,0
359,2012-05-03 12:57:24.500000,2012-05-03 12:57:59.475000,34.975,5,NDW,,,,,,,,,,,,1.0,,,,,others,0
360,2012-05-03 12:57:42,2012-05-03 12:58:16.975000,34.975,5,NDW,,,,,,,,,,,,1.0,,,,,others,0
361,2012-05-03 12:57:59.500000,2012-05-03 12:58:34.475000,34.975,5,NDW,,,,,,,,,,,,1.0,,,,,others,0
362,2012-05-03 12:58:17,2012-05-03 12:58:51.975000,34.975,5,NDW,,,,,,,,,,,,1.0,,,,,others,0
363,2012-05-03 12:58:34.500000,2012-05-03 12:59:09.475000,34.975,5,NDW,,,,,,,,,,,,1.0,,0.2423159399571122,,0.2423159399571122,others,0
364,2012-05-03 12:58:52,2012-05-03 12:59:26.975000,34.975,5,NDW,1.0,0.12151536812008577,1.0,53.0,left-puff,,,,,,,1.0,,0.7426733380986419,,0.7426733380986419,puff,9
365,2012-05-03 12:59:09.500000,2012-05-03 12:59:44.475000,34.975,5,NDW,1.0,0.12151536812008577,1.0,53.0,left-puff,,,,,,,1.0,,1.0,,1.0,puff,9
366,2012-05-03 12:59:27,2012-05-03 13:00:01.975000,34.975,5,NDW,,,,,,,,,,,,1.0,,1.0,,1.0,phone,3
367,2012-05-03 12:59:44.500000,2012-05-03 13:00:19.475000,34.975,5,NDW,0.6318181818181818,0.0993566833452466,1.0,54.0,left-puff,,,,,,,1.0,,1.0,,1.0,puff,9
368,2012-05-03 13:00:02,2012-05-03 13:00:36.975000,34.975,5,NDW,1.0,0.15725518227305219,1.0,54.0,left-puff,,,,,,,1.0,,1.0,,1.0,puff,9
369,2012-05-03 13:00:19.500000,2012-05-03 13:00:54.475000,34.975,5,NDW,0.36363636363636365,0.057183702644746245,1.0,54.0,left-puff,,,,,,,1.0,,1.0,,1.0,puff,9
370,2012-05-03 13:00:37,2012-05-03 13:01:11.975000,34.975,5,NDW,,,,,,,,,,,,1.0,,1.0,,1.0,phone,3
371,2012-05-03 13:00:54.500000,2012-05-03 13:01:29.475000,34.975,5,NDW,,,,,,,,,,,,1.0,,1.0,,1.0,phone,3
372,2012-05-03 13:01:12,2012-05-03 13:01:46.975000,34.975,5,NDW,,,,,,,,,,,,1.0,,1.0,,1.0,phone,3
373,2012-05-03 13:01:29.500000,2012-05-03 13:02:04.475000,34.975,5,NDW,1.7777777777777777,0.22873481057898498,1.0,55.0,left-puff,,,,,,,1.0,,1.0,,1.0,puff,9
374,2012-05-03 13:01:47,2012-05-03 13:02:21.975000,34.975,5,NDW,1.7777777777777777,0.22873481057898498,1.0,55.0,left-puff,,,,,,,0.5146533238027162,,1.0,,0.5146533238027162,puff,9
375,2012-05-03 13:02:04.500000,2012-05-03 13:02:39.475000,34.975,5,NDW,,,,,,,,,,,,0.014295925661186561,,1.0,,0.014295925661186561,phone,3
376,2012-05-03 13:02:22,2012-05-03 13:02:56.975000,34.975,5,NDW,,,,,,,,,,,,,,1.0,,,phone,3
377,2012-05-03 13:02:39.500000,2012-05-03 13:03:14.475000,34.975,5,NDW,,,,,,,,,,,,,,1.0,,,phone,3
378,2012-05-03 13:02:57,2012-05-03 13:03:31.975000,34.975,5,NDW,,,,,,,,,,,,,,1.0,,,phone,3
379,2012-05-03 13:03:14.500000,2012-05-03 13:03:49.475000,34.975,5,NDW,,,,,,,,,,,,,,1.0,,,phone,3
380,2012-05-03 13:03:32,2012-05-03 13:04:06.975000,34.975,5,NDW,,,,,,,,,,,,,,1.0,,,phone,3
381,2012-05-03 13:03:49.500000,2012-05-03 13:04:24.475000,34.975,5,NDW,,,,,,,,,,,,,,1.0,,,phone,3
382,2012-05-03 13:04:07,2012-05-03 13:04:41.975000,34.975,5,NDW,,,,,,,,,,,,,,1.0,,,phone,3
383,2012-05-03 13:04:24.500000,2012-05-03 13:04:59.475000,34.975,5,NDW,,,,,,,,,,,,,,1.0,,,phone,3
384,2012-05-03 13:04:42,2012-05-03 13:05:16.975000,34.975,5,NDW,,,,,,,,,,,,,,1.0,,,phone,3
385,2012-05-03 13:04:59.500000,2012-05-03 13:05:34.475000,34.975,5,NDW,,,,,,,,,,,,,,1.0,,,phone,3
386,2012-05-03 13:05:17,2012-05-03 13:05:51.975000,34.975,5,NDW,,,,,,,,,,,,,,1.0,,,phone,3
387,2012-05-03 13:05:34.500000,2012-05-03 13:06:09.475000,34.975,5,NDW,,,,,,,,,,,,,,1.0,,,phone,3
388,2012-05-03 13:05:52,2012-05-03 13:06:26.975000,34.975,5,NDW,,,,,,,,,,,,,,1.0,,,phone,3
389,2012-05-03 13:06:09.500000,2012-05-03 13:06:44.475000,34.975,5,NDW,,,,,,,,,,,,,,1.0,,,phone,3
390,2012-05-03 13:06:27,2012-05-03 13:07:01.975000,34.975,5,NDW,,,,,,,,,,,,,,1.0,,,phone,3
391,2012-05-03 13:06:44.500000,2012-05-03 13:07:19.475000,34.975,5,NDW,,,,,,,,,,,,,,1.0,,,phone,3
392,2012-05-03 13:07:02,2012-05-03 13:07:36.975000,34.975,5,NDW,,,,,,,,,,,,,,1.0,,,phone,3
393,2012-05-03 13:07:19.500000,2012-05-03 13:07:54.475000,34.975,5,NDW,,,,,,,,,,,,,,1.0,,,phone,3
394,2012-05-03 13:07:37,2012-05-03 13:08:11.975000,34.975,5,NDW,,,,,,,,,,,,,,1.0,,,phone,3
395,2012-05-03 13:07:54.500000,2012-05-03 13:08:29.475000,34.975,5,NDW,,,,,,,,,,,,,,1.0,,,phone,3
396,2012-05-03 13:08:12,2012-05-03 13:08:46.975000,34.975,5,NDW,,,,,,,,,,,,,,1.0,,,phone,3
397,2012-05-03 13:08:29.500000,2012-05-03 13:09:04.475000,34.975,5,NDW,,,,,,,,,,,,,,1.0,,,phone,3
398,2012-05-03 13:08:47,2012-05-03 13:09:21.975000,34.975,5,NDW,,,,,,,,,,,,,,1.0,,,phone,3
399,2012-05-03 13:09:04.500000,2012-05-03 13:09:30,25.5,5,NDW,,,,,,,,,,,,,,1.0,,,rest,-1
400,2012-05-03 13:09:22,2012-05-03 13:09:30,8.0,5,NDW,,,,,,,,,,,,,,1.0,,,rest,-1
