segment,STARTTIME,ENDTIME,seg duration,session,sensor,inside puff/puff duration,inside puff/segment duration,prototypical?,puff index,puff side,car percentage,talk percentage,unknown percentage,drinking percentage,reading percentage,eating percentage,smoking percentage,computer percentage,phone percentage,walking percentage,superposition percentage,name,target
0,2012-08-16 11:15:23,2012-08-16 11:15:57.975000,34.975,6,NDW,,,,,,,,,0.31451036454610437,,,,,,0.4281629735525375,,drinking,8
1,2012-08-16 11:15:40.500000,2012-08-16 11:16:15.475000,34.975,6,NDW,,,,,,,,,,,,,,,0.9285203716940672,,walking,1
2,2012-08-16 11:15:58,2012-08-16 11:16:32.975000,34.975,6,NDW,,,,,,,,,,,,,,,0.9149392423159399,,walking,1
3,2012-08-16 11:16:15.500000,2012-08-16 11:16:50.475000,34.975,6,NDW,,,,,,,,,,,0.21372408863473907,,,,0.4145818441744103,,walking,1
4,2012-08-16 11:16:33,2012-08-16 11:17:07.975000,34.975,6,NDW,,,,,,,,,,,0.7140814867762688,,,,,,eating,2
5,2012-08-16 11:16:50.500000,2012-08-16 11:17:25.475000,34.975,6,NDW,,,,,,,,,,,1.0,,,,,,eating,2
6,2012-08-16 11:17:08,2012-08-16 11:17:42.975000,34.975,6,NDW,,,,,,,,,,,1.0,,,,,,eating,2
7,2012-08-16 11:17:25.500000,2012-08-16 11:18:00.475000,34.975,6,NDW,,,,,,,,,,,1.0,,,,,,eating,2
8,2012-08-16 11:17:43,2012-08-16 11:18:17.975000,34.975,6,NDW,,,,,,,,,,,1.0,,,,,,eating,2
9,2012-08-16 11:18:00.500000,2012-08-16 11:18:35.475000,34.975,6,NDW,,,,,,,,,,,1.0,,,,,,eating,2
10,2012-08-16 11:18:18,2012-08-16 11:18:52.975000,34.975,6,NDW,,,,,,,,,,,1.0,,,,,,eating,2
11,2012-08-16 11:18:35.500000,2012-08-16 11:19:10.475000,34.975,6,NDW,,,,,,,,,,,1.0,,,,,,eating,2
12,2012-08-16 11:18:53,2012-08-16 11:19:27.975000,34.975,6,NDW,,,,,,,,,,,1.0,,,,,,eating,2
13,2012-08-16 11:19:10.500000,2012-08-16 11:19:45.475000,34.975,6,NDW,,,,,,,,,,,1.0,,,,,,eating,2
14,2012-08-16 11:19:28,2012-08-16 11:20:02.975000,34.975,6,NDW,,,,,,,,,,,1.0,,,,,,eating,2
15,2012-08-16 11:19:45.500000,2012-08-16 11:20:20.475000,34.975,6,NDW,,,,,,,,,,,1.0,,,,,,rest,-1
16,2012-08-16 11:20:03,2012-08-16 11:20:37.975000,34.975,6,NDW,,,,,,,,,,,1.0,,,,,,rest,-1
17,2012-08-16 11:20:20.500000,2012-08-16 11:20:55.475000,34.975,6,NDW,,,,,,,,,,,1.0,,,,,,eating,2
18,2012-08-16 11:20:38,2012-08-16 11:21:12.975000,34.975,6,NDW,,,,,,,,,,,1.0,,,,,,eating,2
19,2012-08-16 11:20:55.500000,2012-08-16 11:21:30.475000,34.975,6,NDW,,,,,,,,,,,1.0,,,,,,rest,-1
20,2012-08-16 11:21:13,2012-08-16 11:21:47.975000,34.975,6,NDW,,,,,,,,,,,1.0,,,,,,eating,2
21,2012-08-16 11:21:30.500000,2012-08-16 11:22:05.475000,34.975,6,NDW,,,,,,,,,,,1.0,,,,,,eating,2
22,2012-08-16 11:21:48,2012-08-16 11:22:22.975000,34.975,6,NDW,,,,,,,,,,,1.0,,,,,,rest,-1
23,2012-08-16 11:22:05.500000,2012-08-16 11:22:40.475000,34.975,6,NDW,,,,,,,,,,,1.0,,,,,,eating,2
24,2012-08-16 11:22:23,2012-08-16 11:22:57.975000,34.975,6,NDW,,,,,,,,,,,1.0,,,,,,eating,2
25,2012-08-16 11:22:40.500000,2012-08-16 11:23:15.475000,34.975,6,NDW,,,,,,,,,,,1.0,,,,,,eating,2
26,2012-08-16 11:22:58,2012-08-16 11:23:32.975000,34.975,6,NDW,,,,,,,,,,,1.0,,,,,,eating,2
27,2012-08-16 11:23:15.500000,2012-08-16 11:23:50.475000,34.975,6,NDW,,,,,,,,,,,1.0,,,,,,eating,2
28,2012-08-16 11:23:33,2012-08-16 11:24:07.975000,34.975,6,NDW,,,,,,,,,,,1.0,,,,,,eating,2
29,2012-08-16 11:23:50.500000,2012-08-16 11:24:25.475000,34.975,6,NDW,,,,,,,,,,,1.0,,,,,,eating,2
30,2012-08-16 11:24:08,2012-08-16 11:24:42.975000,34.975,6,NDW,,,,,,,,,,,1.0,,,,,,eating,2
31,2012-08-16 11:24:25.500000,2012-08-16 11:25:00.475000,34.975,6,NDW,,,,,,,,,,,1.0,,,,,,eating,2
32,2012-08-16 11:24:43,2012-08-16 11:25:17.975000,34.975,6,NDW,,,,,,,,,,,1.0,,,,,,eating,2
33,2012-08-16 11:25:00.500000,2012-08-16 11:25:35.475000,34.975,6,NDW,,,,,,,,,,,1.0,,,,,,eating,2
34,2012-08-16 11:25:18,2012-08-16 11:25:52.975000,34.975,6,NDW,,,,,,,,,,,1.0,,,,,,rest,-1
35,2012-08-16 11:25:35.500000,2012-08-16 11:26:10.475000,34.975,6,NDW,,,,,,,,,,,1.0,,,,,,eating,2
36,2012-08-16 11:25:53,2012-08-16 11:26:27.975000,34.975,6,NDW,,,,,,,,,,,1.0,,,,,,eating,2
37,2012-08-16 11:26:10.500000,2012-08-16 11:26:45.475000,34.975,6,NDW,,,,,,,,,,,1.0,,,,,,eating,2
38,2012-08-16 11:26:28,2012-08-16 11:27:02.975000,34.975,6,NDW,,,,,,,,,,,1.0,,,,,,eating,2
39,2012-08-16 11:26:45.500000,2012-08-16 11:27:20.475000,34.975,6,NDW,,,,,,,,,,,0.8720514653323802,0.18513223731236597,,,,0.057183702644746245,eating,2
40,2012-08-16 11:27:03,2012-08-16 11:27:37.975000,34.975,6,NDW,,,,,,,,,,,0.3716940671908506,0.6854896354538956,,,,0.057183702644746245,eating,2
41,2012-08-16 11:27:20.500000,2012-08-16 11:27:55.475000,34.975,6,NDW,,,,,,,,,,,,1.0,,,,,others,0
42,2012-08-16 11:27:38,2012-08-16 11:28:12.975000,34.975,6,NDW,,,,,,,,,,,,1.0,,,,,others,0
43,2012-08-16 11:27:55.500000,2012-08-16 11:28:30.475000,34.975,6,NDW,,,,,,,,,,,,1.0,,,,,others,0
44,2012-08-16 11:28:13,2012-08-16 11:28:47.975000,34.975,6,NDW,,,,,,,,,,,,1.0,,,,,rest,-1
45,2012-08-16 11:28:30.500000,2012-08-16 11:29:05.475000,34.975,6,NDW,,,,,,,,,,,,1.0,,,,,rest,-1
46,2012-08-16 11:28:48,2012-08-16 11:29:22.975000,34.975,6,NDW,,,,,,,,,,,,1.0,,,,,rest,-1
47,2012-08-16 11:29:05.500000,2012-08-16 11:29:40.475000,34.975,6,NDW,,,,,,,,,,,,1.0,,,,,others,0
48,2012-08-16 11:29:23,2012-08-16 11:29:57.975000,34.975,6,NDW,,,,,,,,,,,,1.0,,,,,others,0
49,2012-08-16 11:29:40.500000,2012-08-16 11:30:15.475000,34.975,6,NDW,,,,,,,,,,,,1.0,,,,,others,0
50,2012-08-16 11:29:58,2012-08-16 11:30:32.975000,34.975,6,NDW,,,,,,,,,,,,1.0,,,,,others,0
51,2012-08-16 11:30:15.500000,2012-08-16 11:30:50.475000,34.975,6,NDW,,,,,,,,,,,,1.0,,,,,others,0
52,2012-08-16 11:30:33,2012-08-16 11:31:07.975000,34.975,6,NDW,,,,,,,,,,,,1.0,,,,,others,0
53,2012-08-16 11:30:50.500000,2012-08-16 11:31:25.475000,34.975,6,NDW,,,,,,,0.47105075053609724,,,,,1.0,,,,0.47105075053609724,talking,5
54,2012-08-16 11:31:08,2012-08-16 11:31:42.975000,34.975,6,NDW,,,,,,,0.6004288777698356,,,,,1.0,,,,0.6004288777698356,talking,5
55,2012-08-16 11:31:25.500000,2012-08-16 11:32:00.475000,34.975,6,NDW,,,,,,,0.12866333095067906,,0.21372408863473907,,,1.0,,,,0.34238741958541813,others,0
56,2012-08-16 11:31:43,2012-08-16 11:32:17.975000,34.975,6,NDW,,,,,,,,,0.7140814867762688,,,1.0,,,,0.7140814867762688,drinking,8
57,2012-08-16 11:32:00.500000,2012-08-16 11:32:35.475000,34.975,6,NDW,,,,,,,,,1.0,,,1.0,,,,1.0,drinking,8
58,2012-08-16 11:32:18,2012-08-16 11:32:52.975000,34.975,6,NDW,,,,,,,,,1.0,,,1.0,,,,1.0,rest,-1
59,2012-08-16 11:32:35.500000,2012-08-16 11:33:10.475000,34.975,6,NDW,,,,,,,,,1.0,,,1.0,,,,1.0,rest,-1
60,2012-08-16 11:32:53,2012-08-16 11:33:27.975000,34.975,6,NDW,,,,,,,,,0.6290207290922087,,,1.0,,,,0.6290207290922087,rest,-1
61,2012-08-16 11:33:10.500000,2012-08-16 11:33:45.475000,34.975,6,NDW,,,,,,,,,0.12866333095067906,,,1.0,,,,0.12866333095067906,others,0
62,2012-08-16 11:33:28,2012-08-16 11:34:02.975000,34.975,6,NDW,,,,,,,,,,,,0.8291636883488206,,,,,others,0
63,2012-08-16 11:33:45.500000,2012-08-16 11:34:20.475000,34.975,6,NDW,,,,,,,,,0.27090779127948533,,,0.3288062902072909,,,,,drinking,8
64,2012-08-16 11:34:03,2012-08-16 11:34:37.975000,34.975,6,NDW,,,,,,,,,0.7712651894210151,,,,,,,,drinking,8
65,2012-08-16 11:34:20.500000,2012-08-16 11:34:55.475000,34.975,6,NDW,,,,,,,,,0.8434596140100071,,,,,,,,drinking,8
66,2012-08-16 11:34:38,2012-08-16 11:35:12.975000,34.975,6,NDW,,,,,,,,,0.4281629735525375,,,,,,,,drinking,8
67,2012-08-16 11:34:55.500000,2012-08-16 11:35:30.475000,34.975,6,NDW,,,,,,,,,0.5854181558255898,,,,,,,,drinking,8
68,2012-08-16 11:35:13,2012-08-16 11:35:47.975000,34.975,6,NDW,,,,,,,,,0.7433881343817011,,,,,,,,drinking,8
69,2012-08-16 11:35:30.500000,2012-08-16 11:36:05.475000,34.975,6,NDW,,,,,,,,,0.24303073624017155,,,,,,,,others,0
70,2012-08-16 11:35:48,2012-08-16 11:36:22.975000,34.975,6,NDW,,,,,,,,,,,,,,,,,rest,-1
71,2012-08-16 11:36:05.500000,2012-08-16 11:36:40.475000,34.975,6,NDW,,,,,,,,,0.34310221586847744,,,,,,,,drinking,8
72,2012-08-16 11:36:23,2012-08-16 11:36:57.975000,34.975,6,NDW,,,,,,,,,0.34310221586847744,,,,,,,,drinking,8
73,2012-08-16 11:36:40.500000,2012-08-16 11:37:15.475000,34.975,6,NDW,,,,,,,,,0.08577555396711936,,,,,,,,others,0
74,2012-08-16 11:36:58,2012-08-16 11:37:32.975000,34.975,6,NDW,,,,,,,,,0.08577555396711936,,,,,,,,others,0
75,2012-08-16 11:37:15.500000,2012-08-16 11:37:50.475000,34.975,6,NDW,,,,,,,,,,,,,,,,,others,0
76,2012-08-16 11:37:33,2012-08-16 11:38:07.975000,34.975,6,NDW,,,,,,,,,,,,,,,,,others,0
77,2012-08-16 11:37:50.500000,2012-08-16 11:38:25.475000,34.975,6,NDW,,,,,,,,,,,,,,,,,others,0
78,2012-08-16 11:38:08,2012-08-16 11:38:42.975000,34.975,6,NDW,,,,,,,,,,,,,,,,,others,0
79,2012-08-16 11:38:25.500000,2012-08-16 11:39:00.475000,34.975,6,NDW,,,,,,,,,,,,,,,0.47105075053609724,,walking,1
80,2012-08-16 11:38:43,2012-08-16 11:39:17.975000,34.975,6,NDW,,,,,,,,,,,,,,,0.9714081486776269,,walking,1
81,2012-08-16 11:39:00.500000,2012-08-16 11:39:35.475000,34.975,6,NDW,,,,,,,,,,,,,,,1.0,,walking,1
82,2012-08-16 11:39:18,2012-08-16 11:39:52.975000,34.975,6,NDW,,,,,,,,,,,,,,,1.0,,walking,1
83,2012-08-16 11:39:35.500000,2012-08-16 11:40:10.475000,34.975,6,NDW,,,,,,,,,,,,,,,1.0,,walking,1
84,2012-08-16 11:39:53,2012-08-16 11:40:27.975000,34.975,6,NDW,,,,,,,,,,,,,,,1.0,,walking,1
85,2012-08-16 11:40:10.500000,2012-08-16 11:40:45.475000,34.975,6,NDW,,,,,,,,,,,,,,,1.0,,walking,1
86,2012-08-16 11:40:28,2012-08-16 11:41:02.975000,34.975,6,NDW,,,,,,,,,,,,,,,1.0,,walking,1
87,2012-08-16 11:40:45.500000,2012-08-16 11:41:20.475000,34.975,6,NDW,,,,,,,,,,,,,,,1.0,,walking,1
88,2012-08-16 11:41:03,2012-08-16 11:41:37.975000,34.975,6,NDW,,,,,,,,,,,,,,,0.6004288777698356,,walking,1
89,2012-08-16 11:41:20.500000,2012-08-16 11:41:55.475000,34.975,6,NDW,,,,,,,,,,,,,,,0.10007147962830593,,others,0
90,2012-08-16 11:41:38,2012-08-16 11:42:12.975000,34.975,6,NDW,,,,,,,,,,,,,,,,,others,0
91,2012-08-16 11:41:55.500000,2012-08-16 11:42:30.475000,34.975,6,NDW,,,,,,,,,0.2423159399571122,,,,,,,,others,0
92,2012-08-16 11:42:13,2012-08-16 11:42:47.975000,34.975,6,NDW,,,,,,,,,0.2573266619013581,,,,,,,,drinking,8
93,2012-08-16 11:42:30.500000,2012-08-16 11:43:05.475000,34.975,6,NDW,,,,,,,,,0.014295925661186561,,,,,,,,others,0
94,2012-08-16 11:42:48,2012-08-16 11:43:22.975000,34.975,6,NDW,,,,,,,,,,,,,,,,,others,0
95,2012-08-16 11:43:05.500000,2012-08-16 11:43:40.475000,34.975,6,NDW,,,,,,,,,0.3280914939242316,,,,,,,,drinking,8
96,2012-08-16 11:43:23,2012-08-16 11:43:57.975000,34.975,6,NDW,,,,,,,,,0.8284488920657612,,,,,,,,drinking,8
97,2012-08-16 11:43:40.500000,2012-08-16 11:44:15.475000,34.975,6,NDW,,,,,,,,,0.9578270192994996,,,,,,,,drinking,8
98,2012-08-16 11:43:58,2012-08-16 11:44:32.975000,34.975,6,NDW,,,,,,,,,0.45746962115796996,,,,,,,,drinking,8
99,2012-08-16 11:44:15.500000,2012-08-16 11:44:50.475000,34.975,6,NDW,,,,,,,,,,,,,,,,,others,0
100,2012-08-16 11:44:33,2012-08-16 11:45:07.975000,34.975,6,NDW,,,,,,,,,,,,,,,,,others,0
101,2012-08-16 11:44:50.500000,2012-08-16 11:45:25.475000,34.975,6,NDW,,,,,,,,,,,,,,,,,others,0
102,2012-08-16 11:45:08,2012-08-16 11:45:42.975000,34.975,6,NDW,,,,,,,,,,,,,,,,,others,0
103,2012-08-16 11:45:25.500000,2012-08-16 11:46:00.475000,34.975,6,NDW,,,,,,,,,,,,,,,,,others,0
104,2012-08-16 11:45:43,2012-08-16 11:46:17.975000,34.975,6,NDW,,,,,,,,,,,,,,,,,others,0
105,2012-08-16 11:46:00.500000,2012-08-16 11:46:35.475000,34.975,6,NDW,,,,,,,,,,,,,,,,,others,0
106,2012-08-16 11:46:18,2012-08-16 11:46:52.975000,34.975,6,NDW,,,,,,,,,,,,,,,,,others,0
107,2012-08-16 11:46:35.500000,2012-08-16 11:47:10.475000,34.975,6,NDW,,,,,,,,,,,,,,,,,others,0
108,2012-08-16 11:46:53,2012-08-16 11:47:27.975000,34.975,6,NDW,,,,,,,,,,,,,,,,,others,0
109,2012-08-16 11:47:10.500000,2012-08-16 11:47:45.475000,34.975,6,NDW,,,,,,,,,,,,0.3280914939242316,,,,,others,0
110,2012-08-16 11:47:28,2012-08-16 11:48:02.975000,34.975,6,NDW,,,,,,,,,0.14295925661186562,,,0.8284488920657612,,,,0.14295925661186562,others,0
111,2012-08-16 11:47:45.500000,2012-08-16 11:48:20.475000,34.975,6,NDW,,,,,,,,,0.14295925661186562,,,1.0,,,,0.14295925661186562,others,0
112,2012-08-16 11:48:03,2012-08-16 11:48:37.975000,34.975,6,NDW,,,,,,,,,,,,1.0,,,,,rest,-1
113,2012-08-16 11:48:20.500000,2012-08-16 11:48:55.475000,34.975,6,NDW,,,,,,,,,0.44245889921372406,,,1.0,,,,0.44245889921372406,drinking,8
114,2012-08-16 11:48:38,2012-08-16 11:49:12.975000,34.975,6,NDW,,,,,,,,,0.5718370264474625,,,1.0,,,,0.5718370264474625,drinking,8
115,2012-08-16 11:48:55.500000,2012-08-16 11:49:30.475000,34.975,6,NDW,,,,,,,,,0.12866333095067906,,,1.0,,,,0.12866333095067906,others,0
116,2012-08-16 11:49:13,2012-08-16 11:49:47.975000,34.975,6,NDW,,,,,,,0.08506075768406005,,,,,1.0,,,,0.08506075768406005,others,0
117,2012-08-16 11:49:30.500000,2012-08-16 11:50:05.475000,34.975,6,NDW,,,,,,,0.31451036454610437,,,,,1.0,,,,0.31451036454610437,talking,5
118,2012-08-16 11:49:48,2012-08-16 11:50:22.975000,34.975,6,NDW,,,,,,,0.22873481057898498,,,,,1.0,,,,0.22873481057898498,others,0
119,2012-08-16 11:50:05.500000,2012-08-16 11:50:40.475000,34.975,6,NDW,,,,,,,,,,,,1.0,,,,,others,0
120,2012-08-16 11:50:23,2012-08-16 11:50:57.975000,34.975,6,NDW,,,,,,,,,0.313795568263045,,,1.0,,,,0.313795568263045,drinking,8
121,2012-08-16 11:50:40.500000,2012-08-16 11:51:15.475000,34.975,6,NDW,,,,,,,,,0.31451036454610437,,,1.0,,,,0.31451036454610437,drinking,8
122,2012-08-16 11:50:58,2012-08-16 11:51:32.975000,34.975,6,NDW,,,,,,,,,,,,1.0,,,,,rest,-1
123,2012-08-16 11:51:15.500000,2012-08-16 11:51:50.475000,34.975,6,NDW,,,,,,,,,,,,1.0,,,,,rest,-1
124,2012-08-16 11:51:33,2012-08-16 11:52:07.975000,34.975,6,NDW,,,,,,,,,,,,1.0,,,,,others,0
125,2012-08-16 11:51:50.500000,2012-08-16 11:52:25.475000,34.975,6,NDW,,,,,,,,,0.0993566833452466,,,1.0,,,,0.0993566833452466,others,0
126,2012-08-16 11:52:08,2012-08-16 11:52:42.975000,34.975,6,NDW,,,,,,,,,0.14295925661186562,,,1.0,,,,0.14295925661186562,others,0
127,2012-08-16 11:52:25.500000,2012-08-16 11:53:00.475000,34.975,6,NDW,,,,,,,,,0.04288777698355968,,,1.0,,,,0.04288777698355968,others,0
128,2012-08-16 11:52:43,2012-08-16 11:53:17.975000,34.975,6,NDW,,,,,,,,,,,,1.0,,,,,others,0
129,2012-08-16 11:53:00.500000,2012-08-16 11:53:35.475000,34.975,6,NDW,,,,,,,,,,,,0.9864188706218727,,,,,others,0
130,2012-08-16 11:53:18,2012-08-16 11:53:52.975000,34.975,6,NDW,,,,,,,,,,,,0.4860614724803431,,,,,others,0
131,2012-08-16 11:53:35.500000,2012-08-16 11:54:10.475000,34.975,6,NDW,,,,,,,,,,,,,,,,,others,0
132,2012-08-16 11:53:53,2012-08-16 11:54:27.975000,34.975,6,NDW,,,,,,,,,,,,,,,,,others,0
133,2012-08-16 11:54:10.500000,2012-08-16 11:54:45.475000,34.975,6,NDW,,,,,,,,,0.3852751965689778,,,,,,,,drinking,8
134,2012-08-16 11:54:28,2012-08-16 11:55:02.975000,34.975,6,NDW,,,,,,,,,0.8856325947105075,,,,,,,,drinking,8
135,2012-08-16 11:54:45.500000,2012-08-16 11:55:20.475000,34.975,6,NDW,,,,,,,,,1.0,,,,,,,,drinking,8
136,2012-08-16 11:55:03,2012-08-16 11:55:37.975000,34.975,6,NDW,,,,,,,,,1.0,,,,,,,,drinking,8
137,2012-08-16 11:55:20.500000,2012-08-16 11:55:55.475000,34.975,6,NDW,,,,,,,,,1.0,,,,,,,,drinking,8
138,2012-08-16 11:55:38,2012-08-16 11:56:12.975000,34.975,6,NDW,,,,,,,,,1.0,,,,,,,,drinking,8
139,2012-08-16 11:55:55.500000,2012-08-16 11:56:30.475000,34.975,6,NDW,,,,,,,,,0.6147248034310221,,,,,,,,drinking,8
140,2012-08-16 11:56:13,2012-08-16 11:56:47.975000,34.975,6,NDW,,,,,,,,,0.11436740528949249,,,,,,,,others,0
141,2012-08-16 11:56:30.500000,2012-08-16 11:57:05.475000,34.975,6,NDW,,,,,,,,,,,,,,,,,others,0
142,2012-08-16 11:56:48,2012-08-16 11:57:22.975000,34.975,6,NDW,,,,,,,,,,,,,,,,,rest,-1
143,2012-08-16 11:57:05.500000,2012-08-16 11:57:40.475000,34.975,6,NDW,,,,,,,,,,,,,,,,,rest,-1
144,2012-08-16 11:57:23,2012-08-16 11:57:57.975000,34.975,6,NDW,,,,,,,,,,,,,,,,,rest,-1
145,2012-08-16 11:57:40.500000,2012-08-16 11:58:15.475000,34.975,6,NDW,,,,,,,,,0.17155110793423872,,,,,,,,rest,-1
146,2012-08-16 11:57:58,2012-08-16 11:58:32.975000,34.975,6,NDW,,,,,,,,,0.17155110793423872,,,,,,,,rest,-1
147,2012-08-16 11:58:15.500000,2012-08-16 11:58:50.475000,34.975,6,NDW,,,,,,,,,,,,,,,,,rest,-1
148,2012-08-16 11:58:33,2012-08-16 11:59:07.975000,34.975,6,NDW,,,,,,,,,,,,,,,,,rest,-1
149,2012-08-16 11:58:50.500000,2012-08-16 11:59:25.475000,34.975,6,NDW,,,,,,,,,,,,,,,,,others,0
150,2012-08-16 11:59:08,2012-08-16 11:59:42.975000,34.975,6,NDW,,,,,,,,,,,,,,,,,others,0
151,2012-08-16 11:59:25.500000,2012-08-16 12:00:00.475000,34.975,6,NDW,,,,,,,,,,,,,,,,,others,0
152,2012-08-16 11:59:43,2012-08-16 12:00:17.975000,34.975,6,NDW,,,,,,,,,,,,,,,,,rest,-1
153,2012-08-16 12:00:00.500000,2012-08-16 12:00:35.475000,34.975,6,NDW,,,,,,,,,,,,,,,,,others,0
154,2012-08-16 12:00:18,2012-08-16 12:00:52.975000,34.975,6,NDW,,,,,,,,,,,,,,,,,others,0
155,2012-08-16 12:00:35.500000,2012-08-16 12:01:10.475000,34.975,6,NDW,,,,,,,,,,,,,,,,,rest,-1
156,2012-08-16 12:00:53,2012-08-16 12:01:27.975000,34.975,6,NDW,,,,,,,,,,,,,,,,,rest,-1
157,2012-08-16 12:01:10.500000,2012-08-16 12:01:45.475000,34.975,6,NDW,,,,,,,,,,,,,,,,,others,0
158,2012-08-16 12:01:28,2012-08-16 12:02:02.975000,34.975,6,NDW,,,,,,,,,,,,,,,,,others,0
159,2012-08-16 12:01:45.500000,2012-08-16 12:02:20.475000,34.975,6,NDW,,,,,,,,,,,,,,,,,others,0
160,2012-08-16 12:02:03,2012-08-16 12:02:37.975000,34.975,6,NDW,,,,,,,,,,,,,,,,,others,0
161,2012-08-16 12:02:20.500000,2012-08-16 12:02:55.475000,34.975,6,NDW,,,,,,,,,0.18513223731236597,,,,,,,,others,0
162,2012-08-16 12:02:38,2012-08-16 12:03:12.975000,34.975,6,NDW,,,,,,,,,0.42887776983559683,,,,,,,,drinking,8
163,2012-08-16 12:02:55.500000,2012-08-16 12:03:30.475000,34.975,6,NDW,,,,,,,,,0.24303073624017155,,,,,,,,others,0
164,2012-08-16 12:03:13,2012-08-16 12:03:47.975000,34.975,6,NDW,,,,,,,,,,,,,,,,,others,0
165,2012-08-16 12:03:30.500000,2012-08-16 12:04:05.475000,34.975,6,NDW,,,,,,,,,,,,,,,,,others,0
166,2012-08-16 12:03:48,2012-08-16 12:04:22.975000,34.975,6,NDW,,,,,,,,,,,,,,,,,rest,-1
167,2012-08-16 12:04:05.500000,2012-08-16 12:04:40.475000,34.975,6,NDW,,,,,,,,,,,,,,,,,others,0
168,2012-08-16 12:04:23,2012-08-16 12:04:57.975000,34.975,6,NDW,,,,,,,,,,,,,,,,,others,0
169,2012-08-16 12:04:40.500000,2012-08-16 12:05:15.475000,34.975,6,NDW,,,,,,,,,,,,,,,,,others,0
170,2012-08-16 12:04:58,2012-08-16 12:05:32.975000,34.975,6,NDW,,,,,,,,,,,,,,,,,others,0
171,2012-08-16 12:05:15.500000,2012-08-16 12:05:50.475000,34.975,6,NDW,,,,,,,,,,,,,,,,,others,0
172,2012-08-16 12:05:33,2012-08-16 12:06:07.975000,34.975,6,NDW,,,,,,,,,0.11436740528949249,,,,,,,,others,0
173,2012-08-16 12:05:50.500000,2012-08-16 12:06:25.475000,34.975,6,NDW,,,,,,,,,0.11436740528949249,,,,,,,,rest,-1
174,2012-08-16 12:06:08,2012-08-16 12:06:42.975000,34.975,6,NDW,,,,,,,,,,,,,,,,,others,0
175,2012-08-16 12:06:25.500000,2012-08-16 12:07:00.475000,34.975,6,NDW,,,,,,,,,,,,,,,,,others,0
176,2012-08-16 12:06:43,2012-08-16 12:07:17.975000,34.975,6,NDW,,,,,,,,,,,,,,,,,others,0
177,2012-08-16 12:07:00.500000,2012-08-16 12:07:35.475000,34.975,6,NDW,,,,,,,,,,,,,,,,,others,0
178,2012-08-16 12:07:18,2012-08-16 12:07:52.975000,34.975,6,NDW,,,,,,,,,,,,,,,,,others,0
179,2012-08-16 12:07:35.500000,2012-08-16 12:08:10.475000,34.975,6,NDW,,,,,,,,,,,,,0.4138670478913509,,,,computer,4
180,2012-08-16 12:07:53,2012-08-16 12:08:27.975000,34.975,6,NDW,,,,,,,,,,,,,0.9142244460328807,,,,computer,4
181,2012-08-16 12:08:10.500000,2012-08-16 12:08:45.475000,34.975,6,NDW,,,,,,,,,,,,,1.0,,,,computer,4
182,2012-08-16 12:08:28,2012-08-16 12:09:02.975000,34.975,6,NDW,,,,,,,,,,,,,1.0,,,,computer,4
183,2012-08-16 12:08:45.500000,2012-08-16 12:09:20.475000,34.975,6,NDW,,,,,,,,,,,,,1.0,,,,computer,4
184,2012-08-16 12:09:03,2012-08-16 12:09:37.975000,34.975,6,NDW,,,,,,,,,,,,,1.0,,,,computer,4
185,2012-08-16 12:09:20.500000,2012-08-16 12:09:55.475000,34.975,6,NDW,,,,,,,,,,,,,0.8284488920657612,,,,computer,4
186,2012-08-16 12:09:38,2012-08-16 12:10:12.975000,34.975,6,NDW,,,,,,,,,,,,,0.8284488920657612,,,,computer,4
187,2012-08-16 12:09:55.500000,2012-08-16 12:10:30.475000,34.975,6,NDW,,,,,,,,,,,,,1.0,,,,computer,4
188,2012-08-16 12:10:13,2012-08-16 12:10:47.975000,34.975,6,NDW,,,,,,,,,,,,,1.0,,,,computer,4
189,2012-08-16 12:10:30.500000,2012-08-16 12:11:05.475000,34.975,6,NDW,,,,,,,,,,,,,0.5003573981415297,,,,computer,4
190,2012-08-16 12:10:48,2012-08-16 12:11:22.975000,34.975,6,NDW,,,,,,,,,,,,,,,,,others,0
191,2012-08-16 12:11:05.500000,2012-08-16 12:11:40.475000,34.975,6,NDW,,,,,,,,,,,,,,,,,rest,-1
192,2012-08-16 12:11:23,2012-08-16 12:11:57.975000,34.975,6,NDW,,,,,,,,,,,,,0.3995711222301644,,,,rest,-1
193,2012-08-16 12:11:40.500000,2012-08-16 12:12:15.475000,34.975,6,NDW,,,,,,,,,,,,0.15654038598999284,0.899928520371694,,,0.15654038598999284,computer,4
194,2012-08-16 12:11:58,2012-08-16 12:12:32.975000,34.975,6,NDW,,,,,,,,,,,,0.6568977841315226,1.0,,,0.6568977841315226,computer,4
195,2012-08-16 12:12:15.500000,2012-08-16 12:12:50.475000,34.975,6,NDW,1.0,0.3359542530378842,0.0,18.0,left-puff,,,,,,,1.0,1.0,,,1.0,puff,9
196,2012-08-16 12:12:33,2012-08-16 12:13:07.975000,34.975,6,NDW,1.0,0.3359542530378842,0.0,18.0,left-puff,,,,,,,1.0,1.0,,,1.0,puff,9
197,2012-08-16 12:12:50.500000,2012-08-16 12:13:25.475000,34.975,6,NDW,0.746875,0.1708363116511794,1.0,19.0,left-puff,,,,,,,1.0,1.0,,,1.0,puff,9
198,2012-08-16 12:13:08,2012-08-16 12:13:42.975000,34.975,6,NDW,1.0,0.22873481057898498,1.0,19.0,left-puff,,,,,,,1.0,1.0,,,1.0,puff,9
199,2012-08-16 12:13:25.500000,2012-08-16 12:14:00.475000,34.975,6,NDW,0.25,0.057183702644746245,1.0,19.0,left-puff,,,,,,,1.0,1.0,,,1.0,computer,4
200,2012-08-16 12:13:43,2012-08-16 12:14:17.975000,34.975,6,NDW,1.0,0.21443888491779842,1.0,20.0,left-puff,,,,,,,1.0,1.0,,,1.0,puff,9
201,2012-08-16 12:14:00.500000,2012-08-16 12:14:35.475000,34.975,6,NDW,1.3966666666666667,0.29949964260185846,1.0,20.0,left-puff,,,,0.20014295925661185,,,1.0,0.7998570407433881,,,1.0,puff,9
202,2012-08-16 12:14:18,2012-08-16 12:14:52.975000,34.975,6,NDW,1.0,0.31451036454610437,0.0,21.0,left-puff,,,,0.20014295925661185,,,1.0,0.6290207290922087,,,0.8291636883488206,puff,9
203,2012-08-16 12:14:35.500000,2012-08-16 12:15:10.475000,34.975,6,NDW,0.7272727272727273,0.22873481057898498,0.0,21.0,left-puff,,,,,,,1.0,0.3288062902072909,,,0.3288062902072909,puff,9
204,2012-08-16 12:14:53,2012-08-16 12:15:27.975000,34.975,6,NDW,,,,,,,,,,,,1.0,,,,,others,0
205,2012-08-16 12:15:10.500000,2012-08-16 12:15:45.475000,34.975,6,NDW,0.7979999999999999,0.28520371694067187,0.0,23.0,left-puff,,,,,,,1.0,,0.29949964260185846,,0.29949964260185846,puff,9
206,2012-08-16 12:15:28,2012-08-16 12:16:02.975000,34.975,6,NDW,1.0,0.35739814152966404,0.0,23.0,left-puff,,,,,,,1.0,,0.7998570407433881,,0.7998570407433881,puff,9
207,2012-08-16 12:15:45.500000,2012-08-16 12:16:20.475000,34.975,6,NDW,0.2,0.07147962830593281,0.0,23.0,left-puff,,,,,,,1.0,,1.0,,1.0,phone,3
208,2012-08-16 12:16:03,2012-08-16 12:16:37.975000,34.975,6,NDW,,,,,,,,,,,,1.0,,1.0,,1.0,rest,-1
209,2012-08-16 12:16:20.500000,2012-08-16 12:16:55.475000,34.975,6,NDW,,,,,,,,,,,,1.0,,1.0,,1.0,rest,-1
210,2012-08-16 12:16:38,2012-08-16 12:17:12.975000,34.975,6,NDW,,,,,,,,,,,,1.0,,1.0,,1.0,phone,3
211,2012-08-16 12:16:55.500000,2012-08-16 12:17:30.475000,34.975,6,NDW,1.0,0.24303073624017155,0.0,24.0,left-puff,,,,,,,1.0,,1.0,,1.0,puff,9
212,2012-08-16 12:17:13,2012-08-16 12:17:47.975000,34.975,6,NDW,1.0,0.24303073624017155,0.0,24.0,left-puff,,,,,,,1.0,,1.0,,1.0,puff,9
213,2012-08-16 12:17:30.500000,2012-08-16 12:18:05.475000,34.975,6,NDW,,,,,,,,,,,,1.0,,1.0,,1.0,rest,-1
214,2012-08-16 12:17:48,2012-08-16 12:18:22.975000,34.975,6,NDW,,,,,,,,,,,,1.0,,1.0,,1.0,rest,-1
215,2012-08-16 12:18:05.500000,2012-08-16 12:18:40.475000,34.975,6,NDW,0.9382352941176471,0.22802001429592564,0.0,25.0,left-puff,,,,,,,1.0,,1.0,,1.0,puff,9
216,2012-08-16 12:18:23,2012-08-16 12:18:57.975000,34.975,6,NDW,1.0,0.24303073624017155,0.0,25.0,left-puff,,,,,,,1.0,,1.0,,1.0,puff,9
217,2012-08-16 12:18:40.500000,2012-08-16 12:19:15.475000,34.975,6,NDW,0.2323529411764706,0.05646890636168692,0.0,25.0,left-puff,,,,,,,1.0,,1.0,,1.0,phone,3
218,2012-08-16 12:18:58,2012-08-16 12:19:32.975000,34.975,6,NDW,1.0,0.11436740528949249,0.0,26.0,left-puff,,,,,,,1.0,,1.0,,1.0,puff,9
219,2012-08-16 12:19:15.500000,2012-08-16 12:19:50.475000,34.975,6,NDW,0.625,0.07147962830593281,0.0,26.0,left-puff,,,,,,,1.0,,1.0,,1.0,puff,9
220,2012-08-16 12:19:33,2012-08-16 12:20:07.975000,34.975,6,NDW,1.15,0.21372408863473907,0.0,27.0,left-puff,,,,,,,1.0,,0.5432451751250893,,0.5432451751250893,puff,9
221,2012-08-16 12:19:50.500000,2012-08-16 12:20:25.475000,34.975,6,NDW,1.7692307692307692,0.3288062902072909,0.0,27.0,left-puff,,,,,,,0.7862759113652609,,0.04288777698355968,,0.04288777698355968,puff,9
222,2012-08-16 12:20:08,2012-08-16 12:20:42.975000,34.975,6,NDW,0.8,0.11436740528949249,0.0,28.0,left-puff,,,,,,,0.28591851322373124,,,,,puff,9
223,2012-08-16 12:20:25.500000,2012-08-16 12:21:00.475000,34.975,6,NDW,,,,,,,,,0.08577555396711936,,,,,,,,others,0
224,2012-08-16 12:20:43,2012-08-16 12:21:17.975000,34.975,6,NDW,,,,,,,,,0.08577555396711936,,,,,,,,others,0
225,2012-08-16 12:21:00.500000,2012-08-16 12:21:35.475000,34.975,6,NDW,,,,,,,,,,,,,,,,,others,0
226,2012-08-16 12:21:18,2012-08-16 12:21:52.975000,34.975,6,NDW,,,,,,,,,,,,,,,,,others,0
227,2012-08-16 12:21:35.500000,2012-08-16 12:22:10.475000,34.975,6,NDW,,,,,,,,,,,,,,,,,others,0
228,2012-08-16 12:21:53,2012-08-16 12:22:27.975000,34.975,6,NDW,,,,,,,,,,,,,,,,,others,0
229,2012-08-16 12:22:10.500000,2012-08-16 12:22:45.475000,34.975,6,NDW,,,,,,,,,,,,,,,,,others,0
230,2012-08-16 12:22:28,2012-08-16 12:23:02.975000,34.975,6,NDW,,,,,,,,,,,,,,,,,others,0
231,2012-08-16 12:22:45.500000,2012-08-16 12:23:20.475000,34.975,6,NDW,,,,,,,,,,,,,,,,,others,0
232,2012-08-16 12:23:03,2012-08-16 12:23:37.975000,34.975,6,NDW,,,,,,,,,,,,,,,,,others,0
233,2012-08-16 12:23:20.500000,2012-08-16 12:23:55.475000,34.975,6,NDW,,,,,,,,,,,,,,,,,rest,-1
234,2012-08-16 12:23:38,2012-08-16 12:24:12.975000,34.975,6,NDW,,,,,,,0.22802001429592564,,,,,,,,,,others,0
235,2012-08-16 12:23:55.500000,2012-08-16 12:24:30.475000,34.975,6,NDW,,,,,,,0.6576125804145818,,,,,,,,,,talking,5
236,2012-08-16 12:24:13,2012-08-16 12:24:47.975000,34.975,6,NDW,,,,,,,0.42887776983559683,,,,,,,,,,talking,5
237,2012-08-16 12:24:30.500000,2012-08-16 12:25:05.475000,34.975,6,NDW,,,,,,,,,0.47105075053609724,,,,,,,,drinking,8
238,2012-08-16 12:24:48,2012-08-16 12:25:22.975000,34.975,6,NDW,,,,,,,,,0.7147962830593281,,,,,,,,rest,-1
239,2012-08-16 12:25:05.500000,2012-08-16 12:25:40.475000,34.975,6,NDW,,,,,,,,,0.35739814152966404,,,,,,,,drinking,8
240,2012-08-16 12:25:23,2012-08-16 12:25:57.975000,34.975,6,NDW,,,,,,,,,0.11436740528949249,,,,,,,,others,0
241,2012-08-16 12:25:40.500000,2012-08-16 12:26:15.475000,34.975,6,NDW,,,,,,,,,,,,,,,,,others,0
242,2012-08-16 12:25:58,2012-08-16 12:26:32.975000,34.975,6,NDW,,,,,,,,,,,,,,,,,others,0
243,2012-08-16 12:26:15.500000,2012-08-16 12:26:50.475000,34.975,6,NDW,,,,,,,,,0.028591851322373123,,,,,,,,others,0
244,2012-08-16 12:26:33,2012-08-16 12:27:07.975000,34.975,6,NDW,,,,,,,,,0.028591851322373123,,,,,,,,others,0
245,2012-08-16 12:26:50.500000,2012-08-16 12:27:25.475000,34.975,6,NDW,,,,,,,,,,,,,,,,,rest,-1
246,2012-08-16 12:27:08,2012-08-16 12:27:42.975000,34.975,6,NDW,,,,,,,,,,,,,,,,,others,0
247,2012-08-16 12:27:25.500000,2012-08-16 12:28:00.475000,34.975,6,NDW,,,,,,,,,,,,,,,,,others,0
248,2012-08-16 12:27:43,2012-08-16 12:28:17.975000,34.975,6,NDW,,,,,,,,,,,,,,,,,others,0
249,2012-08-16 12:28:00.500000,2012-08-16 12:28:35.475000,34.975,6,NDW,,,,,,,,,,,,,,,,,others,0
250,2012-08-16 12:28:18,2012-08-16 12:28:52.975000,34.975,6,NDW,,,,,,,,,,,,,,,,,others,0
251,2012-08-16 12:28:35.500000,2012-08-16 12:29:10.475000,34.975,6,NDW,,,,,,,,,0.14295925661186562,,,,,,,,others,0
252,2012-08-16 12:28:53,2012-08-16 12:29:27.975000,34.975,6,NDW,,,,,,,,,0.14295925661186562,,,,,,,,others,0
253,2012-08-16 12:29:10.500000,2012-08-16 12:29:45.475000,34.975,6,NDW,,,,,,,,,,,,,,,,,others,0
254,2012-08-16 12:29:28,2012-08-16 12:30:02.975000,34.975,6,NDW,,,,,,,,,,,,,,,,,others,0
255,2012-08-16 12:29:45.500000,2012-08-16 12:30:20.475000,34.975,6,NDW,,,,,,,,,0.013581129378127232,,,,,,,,others,0
256,2012-08-16 12:30:03,2012-08-16 12:30:37.975000,34.975,6,NDW,,,,,,,,,0.028591851322373123,,,,,,,,others,0
257,2012-08-16 12:30:20.500000,2012-08-16 12:30:55.475000,34.975,6,NDW,,,,,,,,,0.014295925661186561,,,,,,,,others,0
258,2012-08-16 12:30:38,2012-08-16 12:31:12.975000,34.975,6,NDW,,,,,,,,,,,,,,,,,others,0
259,2012-08-16 12:30:55.500000,2012-08-16 12:31:30.475000,34.975,6,NDW,,,,,,,,,0.21372408863473907,,,,,,,,others,0
260,2012-08-16 12:31:13,2012-08-16 12:31:47.975000,34.975,6,NDW,,,,,,,,,0.7140814867762688,,,,,,,,drinking,8
261,2012-08-16 12:31:30.500000,2012-08-16 12:32:05.475000,34.975,6,NDW,,,,,,,,,0.7576840600428878,,,,,,,,drinking,8
262,2012-08-16 12:31:48,2012-08-16 12:32:22.975000,34.975,6,NDW,,,,,,,,,0.2573266619013581,,,,,,,,drinking,8
263,2012-08-16 12:32:05.500000,2012-08-16 12:32:40.475000,34.975,6,NDW,,,,,,,,,,,,,,,,,others,0
264,2012-08-16 12:32:23,2012-08-16 12:32:57.975000,34.975,6,NDW,,,,,,,,,0.028591851322373123,,,,,,0.08506075768406005,,others,0
265,2012-08-16 12:32:40.500000,2012-08-16 12:33:15.475000,34.975,6,NDW,,,,,,,,,0.028591851322373123,,,,,,0.5854181558255898,,walking,1
266,2012-08-16 12:32:58,2012-08-16 12:33:32.975000,34.975,6,NDW,,,,,,,,,,,,,,,1.0,,walking,1
267,2012-08-16 12:33:15.500000,2012-08-16 12:33:50.475000,34.975,6,NDW,,,,,,,,,,,,,,,1.0,,walking,1
268,2012-08-16 12:33:33,2012-08-16 12:34:07.975000,34.975,6,NDW,,,,,,,,,,,,,,,1.0,,walking,1
269,2012-08-16 12:33:50.500000,2012-08-16 12:34:25.475000,34.975,6,NDW,,,,,,,,,,,,,,,1.0,,rest,-1
270,2012-08-16 12:34:08,2012-08-16 12:34:42.975000,34.975,6,NDW,,,,,,,,,,,,,,,1.0,,rest,-1
271,2012-08-16 12:34:25.500000,2012-08-16 12:35:00.475000,34.975,6,NDW,,,,,,,,,,,,,,,1.0,,rest,-1
272,2012-08-16 12:34:43,2012-08-16 12:35:17.975000,34.975,6,NDW,,,,,,,,,,,,,,,1.0,,walking,1
273,2012-08-16 12:35:00.500000,2012-08-16 12:35:35.475000,34.975,6,NDW,,,,,,,,,,,,,,,0.7290922087205146,,walking,1
274,2012-08-16 12:35:18,2012-08-16 12:35:52.975000,34.975,6,NDW,,,,,,,,,,,,,,,0.22873481057898498,,others,0
275,2012-08-16 12:35:35.500000,2012-08-16 12:36:10.475000,34.975,6,NDW,,,,,,,,,,,,,,,,,others,0
276,2012-08-16 12:35:53,2012-08-16 12:36:27.975000,34.975,6,NDW,,,,,,,,,,,,,,,,,others,0
277,2012-08-16 12:36:10.500000,2012-08-16 12:36:45.475000,34.975,6,NDW,,,,,,,,,0.3852751965689778,,,,,,,,rest,-1
278,2012-08-16 12:36:28,2012-08-16 12:37:02.975000,34.975,6,NDW,,,,,,,,,0.8856325947105075,,,,,,,,drinking,8
279,2012-08-16 12:36:45.500000,2012-08-16 12:37:20.475000,34.975,6,NDW,,,,,,,,,1.0,,,,,,,,drinking,8
280,2012-08-16 12:37:03,2012-08-16 12:37:37.975000,34.975,6,NDW,,,,,,,,,1.0,,,,,,,,rest,-1
281,2012-08-16 12:37:20.500000,2012-08-16 12:37:55.475000,34.975,6,NDW,,,,,,,,,0.7862759113652609,,,,,,,,rest,-1
282,2012-08-16 12:37:38,2012-08-16 12:38:12.975000,34.975,6,NDW,,,,,,,,,0.28591851322373124,,,,,,,,drinking,8
283,2012-08-16 12:37:55.500000,2012-08-16 12:38:30.475000,34.975,6,NDW,,,,,,,,,,,,,,,,,others,0
284,2012-08-16 12:38:13,2012-08-16 12:38:47.975000,34.975,6,NDW,,,,,,,,,,,,,,,,,others,0
285,2012-08-16 12:38:30.500000,2012-08-16 12:39:05.475000,34.975,6,NDW,,,,,,,,,,,,,,,,,others,0
286,2012-08-16 12:38:48,2012-08-16 12:39:22.975000,34.975,6,NDW,,,,,,,,,,,,,,,,,others,0
287,2012-08-16 12:39:05.500000,2012-08-16 12:39:40.475000,34.975,6,NDW,,,,,,,,,,,,,,,,,rest,-1
288,2012-08-16 12:39:23,2012-08-16 12:39:57.975000,34.975,6,NDW,,,,,,,,,,,,,,,,,rest,-1
289,2012-08-16 12:39:40.500000,2012-08-16 12:40:15.475000,34.975,6,NDW,,,,,,,,,,,,,,,,,others,0
290,2012-08-16 12:39:58,2012-08-16 12:40:32.975000,34.975,6,NDW,,,,,,,,,,,,,,,,,others,0
291,2012-08-16 12:40:15.500000,2012-08-16 12:40:50.475000,34.975,6,NDW,,,,,,,,,,,,,,,,,others,0
292,2012-08-16 12:40:33,2012-08-16 12:41:07.975000,34.975,6,NDW,,,,,,,,,,,,,,,,,others,0
293,2012-08-16 12:40:50.500000,2012-08-16 12:41:25.475000,34.975,6,NDW,,,,,,,,,,,,,,,,,others,0
294,2012-08-16 12:41:08,2012-08-16 12:41:42.975000,34.975,6,NDW,,,,,,,,,,,,,,,,,others,0
295,2012-08-16 12:41:25.500000,2012-08-16 12:42:00.475000,34.975,6,NDW,,,,,,,,,,,,,,,,,others,0
296,2012-08-16 12:41:43,2012-08-16 12:42:17.975000,34.975,6,NDW,,,,,,,,,,,,,,,,,others,0
297,2012-08-16 12:42:00.500000,2012-08-16 12:42:35.475000,34.975,6,NDW,,,,,,,,,,,,,,,,,others,0
298,2012-08-16 12:42:18,2012-08-16 12:42:52.975000,34.975,6,NDW,,,,,,,,,,,,,,,,,rest,-1
299,2012-08-16 12:42:35.500000,2012-08-16 12:43:10.475000,34.975,6,NDW,,,,,,,,,,,,,,,,,others,0
300,2012-08-16 12:42:53,2012-08-16 12:43:27.975000,34.975,6,NDW,,,,,,,,,,,,,,,,,others,0
301,2012-08-16 12:43:10.500000,2012-08-16 12:43:45.475000,34.975,6,NDW,,,,,,,,,,,,,,,,,others,0
302,2012-08-16 12:43:28,2012-08-16 12:44:02.975000,34.975,6,NDW,,,,,,,,,,,,,,,,,others,0
303,2012-08-16 12:43:45.500000,2012-08-16 12:44:20.475000,34.975,6,NDW,,,,,,,,,0.11436740528949249,,,,,,,,others,0
304,2012-08-16 12:44:03,2012-08-16 12:44:37.975000,34.975,6,NDW,,,,,,,,,0.11436740528949249,,,,,,,,others,0
305,2012-08-16 12:44:20.500000,2012-08-16 12:44:55.475000,34.975,6,NDW,,,,,,,,,,,,,,,,,others,0
306,2012-08-16 12:44:38,2012-08-16 12:45:12.975000,34.975,6,NDW,,,,,,,,,,,,,,,,,others,0
307,2012-08-16 12:44:55.500000,2012-08-16 12:45:30.475000,34.975,6,NDW,,,,,,,,,,,,,,,,,others,0
308,2012-08-16 12:45:13,2012-08-16 12:45:47.975000,34.975,6,NDW,,,,,,,,,,,,,,,,,others,0
309,2012-08-16 12:45:30.500000,2012-08-16 12:46:05.475000,34.975,6,NDW,,,,,,,,,,,,,,,,,others,0
310,2012-08-16 12:45:48,2012-08-16 12:46:22.975000,34.975,6,NDW,,,,,,,,,,,,,,,,,others,0
311,2012-08-16 12:46:05.500000,2012-08-16 12:46:40.475000,34.975,6,NDW,,,,,,,,,,,,,,,,,others,0
312,2012-08-16 12:46:23,2012-08-16 12:46:57.975000,34.975,6,NDW,,,,,,,,,,,,,,,,,others,0
313,2012-08-16 12:46:40.500000,2012-08-16 12:47:15.475000,34.975,6,NDW,,,,,,,,,,,,,,,,,rest,-1
314,2012-08-16 12:46:58,2012-08-16 12:47:32.975000,34.975,6,NDW,,,,,,,,,,,,,,,,,rest,-1
315,2012-08-16 12:47:15.500000,2012-08-16 12:47:50.475000,34.975,6,NDW,,,,,,,,,,,,,,,,,rest,-1
316,2012-08-16 12:47:33,2012-08-16 12:48:07.975000,34.975,6,NDW,,,,,,,,,,,,,,,,,others,0
317,2012-08-16 12:47:50.500000,2012-08-16 12:48:25.475000,34.975,6,NDW,,,,,,,,,,,,,,,,,others,0
318,2012-08-16 12:48:08,2012-08-16 12:48:42.975000,34.975,6,NDW,,,,,,,,,,,,,,,,,others,0
319,2012-08-16 12:48:25.500000,2012-08-16 12:49:00.475000,34.975,6,NDW,,,,,,,,,,,,,,,,,others,0
320,2012-08-16 12:48:43,2012-08-16 12:49:17.975000,34.975,6,NDW,,,,,,,,,,,,,,,,,others,0
321,2012-08-16 12:49:00.500000,2012-08-16 12:49:35.475000,34.975,6,NDW,0.7227272727272728,0.11365260900643316,1.0,29.0,left-puff,,,,,,,0.44245889921372406,,,,,puff,9
322,2012-08-16 12:49:18,2012-08-16 12:49:52.975000,34.975,6,NDW,1.0,0.15725518227305219,1.0,29.0,left-puff,,,,,,,0.9428162973552537,,,,,puff,9
323,2012-08-16 12:49:35.500000,2012-08-16 12:50:10.475000,34.975,6,NDW,1.1818181818181819,0.1858470335954253,1.0,29.0,left-puff,,,,0.057183702644746245,,,1.0,,,0.07076483202287348,0.1279485346676197,puff,9
324,2012-08-16 12:49:53,2012-08-16 12:50:27.975000,34.975,6,NDW,1.0,0.14295925661186562,1.0,30.0,left-puff,,,,0.057183702644746245,,,1.0,,,0.5711222301644031,0.6283059328091494,puff,9
325,2012-08-16 12:50:10.500000,2012-08-16 12:50:45.475000,34.975,6,NDW,,,,,,,,,,,,1.0,,,0.9578270192994996,0.9578270192994996,walking,1
326,2012-08-16 12:50:28,2012-08-16 12:51:02.975000,34.975,6,NDW,,,,,,,,,,,,1.0,,,0.513938527519657,0.513938527519657,walking,1
327,2012-08-16 12:50:45.500000,2012-08-16 12:51:20.475000,34.975,6,NDW,,,,,,0.0993566833452466,,,,,,1.0,,,0.45746962115796996,0.5568263045032166,walking,1
328,2012-08-16 12:51:03,2012-08-16 12:51:37.975000,34.975,6,NDW,,,,,,0.5718370264474625,,,0.027877055039313793,,,1.0,,,0.4002859185132237,1.0,in car,7
329,2012-08-16 12:51:20.500000,2012-08-16 12:51:55.475000,34.975,6,NDW,,,,,,0.9142244460328807,,,0.08577555396711936,,,1.0,,,,1.0,rest,-1
330,2012-08-16 12:51:38,2012-08-16 12:52:12.975000,34.975,6,NDW,,,,,,0.9428162973552537,,,0.057183702644746245,,,1.0,,,,1.0,in car,7
331,2012-08-16 12:51:55.500000,2012-08-16 12:52:30.475000,34.975,6,NDW,,,,,,0.7290922087205146,,,,,,1.0,,,0.1279485346676197,0.8570407433881344,in car,7
332,2012-08-16 12:52:13,2012-08-16 12:52:47.975000,34.975,6,NDW,,,,,,0.22873481057898498,,,,,,1.0,,,0.6283059328091494,0.8570407433881344,walking,1
333,2012-08-16 12:52:30.500000,2012-08-16 12:53:05.475000,34.975,6,NDW,0.9045454545454544,0.14224446032880628,0.0,35.0,left-puff,,,,,,,1.0,,,1.0,1.0,puff,9
334,2012-08-16 12:52:48,2012-08-16 12:53:16,28.0,6,NDW,1.0,0.19642857142857142,0.0,35.0,left-puff,,,,,,,1.0,,,1.0,1.0,puff,9
335,2012-08-16 12:53:05.500000,2012-08-16 12:53:16,10.5,6,NDW,0.09090909090909091,0.047619047619047616,0.0,35.0,left-puff,,,,,,,1.0,,,1.0,1.0,rest,-1
