STARTTIME,ENDTIME,COLOR,posture,activity,smoking,puffing
2011-11-30 12:15:18,2011-11-30 12:15:18,,,,not-smoking,no-puff
2011-11-30 12:15:18,2011-11-30 12:15:18,,sitting,,,no-puff
2011-11-30 12:15:18,2011-11-30 12:15:18,,,eating-a-meal,,no-puff
2011-11-30 12:21:20,2011-11-30 12:21:20,,,,not-smoking,no-puff
2011-11-30 12:21:20,2011-11-30 12:21:22,,sitting,,not-smoking,no-puff
2011-11-30 12:21:22,2011-11-30 12:21:57,,sitting,reading-paper,not-smoking,no-puff
2011-11-30 12:21:57,2011-11-30 12:25:15,,sitting,,not-smoking,no-puff
2011-11-30 12:25:15,2011-11-30 12:25:21,,sitting,unknown-activity,not-smoking,no-puff
2011-11-30 12:25:21,2011-11-30 12:25:27,,sitting,unknown-activity,smoking,no-puff
2011-11-30 12:25:27,2011-11-30 12:25:32,,sitting,unknown-activity,smoking,right-puff
2011-11-30 12:25:32,2011-11-30 12:25:33,,sitting,unknown-activity,smoking,no-puff
2011-11-30 12:25:33,2011-11-30 12:25:36,,sitting,unknown-activity,smoking,right-puff
2011-11-30 12:25:36,2011-11-30 12:25:41,,sitting,unknown-activity,smoking,no-puff
2011-11-30 12:25:41,2011-11-30 12:25:44,,sitting,unknown-activity,smoking,right-puff
2011-11-30 12:25:44,2011-11-30 12:25:50,,sitting,unknown-activity,smoking,no-puff
2011-11-30 12:25:50,2011-11-30 12:25:53,,sitting,unknown-activity,smoking,right-puff
2011-11-30 12:25:53,2011-11-30 12:25:59,,sitting,unknown-activity,smoking,no-puff
2011-11-30 12:25:59,2011-11-30 12:26:01,,sitting,unknown-activity,smoking,right-puff
2011-11-30 12:26:01,2011-11-30 12:26:02,,sitting,unknown-activity,smoking,no-puff
2011-11-30 12:26:02,2011-11-30 12:26:05,,sitting,unknown-activity,smoking,right-puff
2011-11-30 12:26:05,2011-11-30 12:26:10,,sitting,unknown-activity,smoking,no-puff
2011-11-30 12:26:10,2011-11-30 12:26:12,,sitting,unknown-activity,smoking,right-puff
2011-11-30 12:26:12,2011-11-30 12:26:16,,sitting,unknown-activity,smoking,no-puff
2011-11-30 12:26:16,2011-11-30 12:26:19,,sitting,unknown-activity,smoking,right-puff
2011-11-30 12:26:19,2011-11-30 12:26:37,,sitting,unknown-activity,smoking,no-puff
2011-11-30 12:26:37,2011-11-30 12:26:39,,sitting,unknown-activity,smoking,right-puff
2011-11-30 12:26:39,2011-11-30 12:26:58,,sitting,unknown-activity,smoking,no-puff
2011-11-30 12:26:58,2011-11-30 12:27:18,,sitting,,smoking,no-puff
2011-11-30 12:27:18,2011-11-30 12:27:21,,sitting,,smoking,right-puff
2011-11-30 12:27:21,2011-11-30 12:27:28,,sitting,,smoking,no-puff
2011-11-30 12:27:28,2011-11-30 12:27:29,,sitting,,smoking,right-puff
2011-11-30 12:27:29,2011-11-30 12:27:35,,sitting,,smoking,no-puff
2011-11-30 12:27:35,2011-11-30 12:27:37,,sitting,,smoking,right-puff
2011-11-30 12:27:37,2011-11-30 12:27:49,,sitting,,smoking,no-puff
2011-11-30 12:27:49,2011-11-30 12:28:19,,sitting,,not-smoking,no-puff
2011-11-30 12:28:19,2011-11-30 12:28:21,,sitting,unknown-activity,not-smoking,no-puff
2011-11-30 12:28:21,2011-11-30 12:29:28,,sitting,,not-smoking,no-puff
2011-11-30 12:29:28,2011-11-30 12:29:36,,sitting,drinking-beverage,not-smoking,no-puff
2011-11-30 12:29:36,2011-11-30 12:32:58,,sitting,unknown-activity,not-smoking,no-puff
2011-11-30 12:32:58,2011-11-30 12:33:07,,sitting,drinking-beverage,not-smoking,no-puff
2011-11-30 12:33:07,2011-11-30 12:33:30,,sitting,,not-smoking,no-puff
2011-11-30 12:33:30,2011-11-30 12:33:38,,sitting,drinking-beverage,not-smoking,no-puff
2011-11-30 12:33:38,2011-11-30 12:33:52,,sitting,,not-smoking,no-puff
2011-11-30 12:33:52,2011-11-30 12:33:57,,sitting,,smoking,no-puff
2011-11-30 12:33:57,2011-11-30 12:33:58,,sitting,,smoking,left-puff
2011-11-30 12:33:58,2011-11-30 12:34:06,,sitting,drinking-beverage,smoking,left-puff
2011-11-30 12:34:06,2011-11-30 12:34:19,,sitting,drinking-beverage,smoking,no-puff
2011-11-30 12:34:19,2011-11-30 12:34:25,,sitting,drinking-beverage,smoking,left-puff
2011-11-30 12:34:25,2011-11-30 12:34:29,,sitting,drinking-beverage,smoking,no-puff
2011-11-30 12:34:29,2011-11-30 12:34:30,,sitting,drinking-beverage,smoking,left-puff
2011-11-30 12:34:30,2011-11-30 12:34:52,,sitting,drinking-beverage,smoking,no-puff
2011-11-30 12:34:52,2011-11-30 12:34:55,,sitting,drinking-beverage,smoking,left-puff
2011-11-30 12:34:55,2011-11-30 12:35:30,,sitting,drinking-beverage,smoking,no-puff
2011-11-30 12:35:30,2011-11-30 12:35:32,,sitting,drinking-beverage,smoking,left-puff
2011-11-30 12:35:32,2011-11-30 12:36:18,,sitting,drinking-beverage,smoking,no-puff
2011-11-30 12:36:18,2011-11-30 12:36:20,,sitting,drinking-beverage,smoking,left-puff
2011-11-30 12:36:20,2011-11-30 12:36:34,,sitting,drinking-beverage,smoking,no-puff
2011-11-30 12:36:34,2011-11-30 12:36:36,,sitting,drinking-beverage,smoking,left-puff
2011-11-30 12:36:36,2011-11-30 12:37:02,,sitting,drinking-beverage,smoking,no-puff
2011-11-30 12:37:02,2011-11-30 12:37:59,,sitting,drinking-beverage,not-smoking,no-puff
2011-11-30 12:37:59,2011-11-30 12:38:40,,sitting,,not-smoking,no-puff
2011-11-30 12:38:40,2011-11-30 12:38:44,,sitting,drinking-beverage,not-smoking,no-puff
2011-11-30 12:38:44,2011-11-30 12:39:34,,sitting,,not-smoking,no-puff
2011-11-30 12:39:34,2011-11-30 12:44:32,,sitting,eating-a-meal,not-smoking,no-puff
2011-11-30 12:44:32,2011-11-30 12:44:36,,sitting,unknown-activity,not-smoking,no-puff
2011-11-30 12:44:36,2011-11-30 12:49:22,,sitting,eating-a-meal,not-smoking,no-puff
2011-11-30 12:49:22,2011-11-30 12:49:37,,sitting,drinking-beverage,not-smoking,no-puff
2011-11-30 12:49:37,2011-11-30 12:49:40,,sitting,,not-smoking,no-puff
2011-11-30 12:49:40,2011-11-30 12:49:44,,sitting,,smoking,no-puff
2011-11-30 12:49:44,2011-11-30 12:49:52,,sitting,eating-a-meal,smoking,no-puff
2011-11-30 12:49:52,2011-11-30 12:49:53,,sitting,eating-a-meal,smoking,right-puff
2011-11-30 12:49:53,2011-11-30 12:50:08,,sitting,eating-a-meal,smoking,no-puff
2011-11-30 12:50:08,2011-11-30 12:50:11,,sitting,eating-a-meal,smoking,right-puff
2011-11-30 12:50:11,2011-11-30 12:50:14,,sitting,eating-a-meal,smoking,no-puff
2011-11-30 12:50:14,2011-11-30 12:50:24,,sitting,eating-a-meal,smoking,right-puff
2011-11-30 12:50:24,2011-11-30 12:50:27,,sitting,eating-a-meal,smoking,no-puff
2011-11-30 12:50:27,2011-11-30 12:50:28,,sitting,eating-a-meal,smoking,right-puff
2011-11-30 12:50:28,2011-11-30 12:50:33,,sitting,eating-a-meal,smoking,no-puff
2011-11-30 12:50:33,2011-11-30 12:50:42,,sitting,eating-a-meal,smoking,right-puff
2011-11-30 12:50:42,2011-11-30 12:50:48,,sitting,eating-a-meal,smoking,no-puff
2011-11-30 12:50:48,2011-11-30 12:50:55,,sitting,talking,smoking,no-puff
2011-11-30 12:50:55,2011-11-30 12:50:56,,sitting,talking,smoking,right-puff
2011-11-30 12:50:56,2011-11-30 12:51:05,,sitting,talking,smoking,no-puff
2011-11-30 12:51:05,2011-11-30 12:51:07,,sitting,talking,smoking,right-puff
2011-11-30 12:51:07,2011-11-30 12:51:13,,sitting,talking,smoking,no-puff
2011-11-30 12:51:13,2011-11-30 12:52:09,,sitting,eating-a-meal,smoking,no-puff
2011-11-30 12:52:09,2011-11-30 12:52:10,,sitting,eating-a-meal,smoking,right-puff
2011-11-30 12:52:10,2011-11-30 12:52:10,,sitting,eating-a-meal,smoking,no-puff
2011-11-30 12:52:10,2011-11-30 12:52:12,,sitting,eating-a-meal,smoking,right-puff
2011-11-30 12:52:12,2011-11-30 12:52:14,,sitting,eating-a-meal,smoking,no-puff
2011-11-30 12:52:14,2011-11-30 12:52:16,,sitting,eating-a-meal,smoking,right-puff
2011-11-30 12:52:16,2011-11-30 12:52:18,,sitting,eating-a-meal,smoking,left-puff
2011-11-30 12:52:18,2011-11-30 12:52:21,,sitting,eating-a-meal,smoking,no-puff
2011-11-30 12:52:21,2011-11-30 12:52:45,,sitting,drinking-beverage,smoking,no-puff
2011-11-30 12:52:45,2011-11-30 12:52:54,,sitting,,smoking,no-puff
2011-11-30 12:52:54,2011-11-30 12:52:58,,sitting,,smoking,right-puff
2011-11-30 12:52:58,2011-11-30 12:53:10,,sitting,,smoking,no-puff
2011-11-30 12:53:10,2011-11-30 12:53:12,,sitting,,smoking,right-puff
2011-11-30 12:53:12,2011-11-30 12:53:34,,sitting,,smoking,no-puff
2011-11-30 12:53:34,2011-11-30 12:53:37,,sitting,,smoking,right-puff
2011-11-30 12:53:37,2011-11-30 12:53:44,,sitting,,smoking,no-puff
2011-11-30 12:53:44,2011-11-30 12:53:45,,sitting,,smoking,right-puff
2011-11-30 12:53:45,2011-11-30 12:53:53,,sitting,,smoking,no-puff
2011-11-30 12:53:53,2011-11-30 12:53:55,,sitting,,smoking,right-puff
2011-11-30 12:53:55,2011-11-30 12:54:18,,sitting,,smoking,no-puff
2011-11-30 12:54:18,2011-11-30 12:54:24,,sitting,,smoking,right-puff
2011-11-30 12:54:24,2011-11-30 12:54:41,,sitting,,smoking,no-puff
2011-11-30 12:54:41,2011-11-30 12:54:44,,sitting,,smoking,right-puff
2011-11-30 12:54:44,2011-11-30 12:54:48,,sitting,,smoking,no-puff
2011-11-30 12:54:48,2011-11-30 12:54:49,,sitting,,smoking,right-puff
2011-11-30 12:54:49,2011-11-30 12:55:11,,sitting,,smoking,no-puff
2011-11-30 12:55:11,2011-11-30 12:55:12,,sitting,,smoking,right-puff
2011-11-30 12:55:12,2011-11-30 12:55:20,,sitting,,smoking,no-puff
2011-11-30 12:55:20,2011-11-30 12:55:23,,sitting,,not-smoking,no-puff
2011-11-30 12:55:23,2011-11-30 12:55:28,,sitting,drinking-beverage,not-smoking,no-puff
2011-11-30 12:55:28,2011-11-30 12:56:30,,sitting,,not-smoking,no-puff
2011-11-30 12:56:30,2011-11-30 12:57:26,,sitting,talking,not-smoking,no-puff
2011-11-30 12:57:26,2011-11-30 12:57:33,,sitting,drinking-beverage,not-smoking,no-puff
2011-11-30 12:57:33,2011-11-30 12:57:39,,sitting,,not-smoking,no-puff
2011-11-30 12:57:39,2011-11-30 12:58:16,,sitting,talking,not-smoking,no-puff
2011-11-30 12:58:16,2011-11-30 12:58:50,,sitting,drinking-beverage,not-smoking,no-puff
2011-11-30 12:58:50,2011-11-30 12:58:54,,sitting,,not-smoking,no-puff
2011-11-30 12:58:54,2011-11-30 12:59:05,,sitting,unknown-activity,not-smoking,no-puff
2011-11-30 12:59:05,2011-11-30 12:59:34,,sitting,,not-smoking,no-puff
2011-11-30 12:59:34,2011-11-30 12:59:38,,sitting,drinking-beverage,not-smoking,no-puff
2011-11-30 12:59:38,2011-11-30 13:00:35,,sitting,,not-smoking,no-puff
2011-11-30 13:00:35,2011-11-30 13:00:42,,sitting,,smoking,no-puff
2011-11-30 13:00:42,2011-11-30 13:00:46,,sitting,,smoking,right-puff
2011-11-30 13:00:46,2011-11-30 13:00:53,,sitting,,smoking,no-puff
2011-11-30 13:00:53,2011-11-30 13:00:56,,sitting,unknown-activity,smoking,no-puff
2011-11-30 13:00:56,2011-11-30 13:01:29,,sitting,unknown-activity,smoking,right-puff
2011-11-30 13:01:29,2011-11-30 13:01:47,,sitting,unknown-activity,smoking,no-puff
2011-11-30 13:01:47,2011-11-30 13:02:05,,sitting,,smoking,no-puff
2011-11-30 13:02:05,2011-11-30 13:02:05,,sitting,,smoking,right-puff
2011-11-30 13:02:05,2011-11-30 13:02:18,,sitting,,smoking,no-puff
2011-11-30 13:02:18,2011-11-30 13:02:22,,sitting,,smoking,right-puff
2011-11-30 13:02:22,2011-11-30 13:02:23,,sitting,,smoking,left-puff
2011-11-30 13:02:23,2011-11-30 13:02:26,,sitting,,smoking,no-puff
2011-11-30 13:02:26,2011-11-30 13:02:28,,sitting,,smoking,left-puff
2011-11-30 13:02:28,2011-11-30 13:02:29,,sitting,,smoking,right-puff
2011-11-30 13:02:29,2011-11-30 13:02:32,,sitting,,smoking,no-puff
2011-11-30 13:02:32,2011-11-30 13:02:43,,sitting,drinking-beverage,smoking,no-puff
2011-11-30 13:02:43,2011-11-30 13:02:46,,sitting,drinking-beverage,smoking,left-puff
2011-11-30 13:02:46,2011-11-30 13:02:50,,sitting,drinking-beverage,smoking,no-puff
2011-11-30 13:02:50,2011-11-30 13:02:53,,sitting,drinking-beverage,smoking,left-puff
2011-11-30 13:02:53,2011-11-30 13:02:57,,sitting,drinking-beverage,smoking,no-puff
2011-11-30 13:02:57,2011-11-30 13:03:02,,sitting,drinking-beverage,smoking,right-puff
2011-11-30 13:03:02,2011-11-30 13:03:03,,sitting,drinking-beverage,smoking,left-puff
2011-11-30 13:03:03,2011-11-30 13:03:11,,sitting,drinking-beverage,smoking,no-puff
2011-11-30 13:03:11,2011-11-30 13:05:03,,sitting,reading-paper,smoking,no-puff
2011-11-30 13:05:03,2011-11-30 13:05:08,,sitting,reading-paper,smoking,left-puff
2011-11-30 13:05:08,2011-11-30 13:05:21,,sitting,reading-paper,smoking,no-puff
2011-11-30 13:05:21,2011-11-30 13:05:30,,sitting,talking,smoking,no-puff
2011-11-30 13:05:30,2011-11-30 13:05:34,,sitting,reading-paper,smoking,no-puff
2011-11-30 13:05:34,2011-11-30 13:05:41,,sitting,talking,smoking,no-puff
2011-11-30 13:05:41,2011-11-30 13:05:42,,sitting,talking,smoking,left-puff
2011-11-30 13:05:42,2011-11-30 13:06:26,,sitting,talking,smoking,no-puff
2011-11-30 13:06:26,2011-11-30 13:06:32,,sitting,talking,smoking,left-puff
2011-11-30 13:06:32,2011-11-30 13:06:33,,sitting,talking,smoking,no-puff
2011-11-30 13:06:33,2011-11-30 13:06:34,,sitting,talking,smoking,left-puff
2011-11-30 13:06:34,2011-11-30 13:06:36,,sitting,talking,smoking,no-puff
2011-11-30 13:06:36,2011-11-30 13:06:38,,sitting,talking,not-smoking,no-puff
2011-11-30 13:06:38,2011-11-30 13:07:44,,sitting,,not-smoking,no-puff
2011-11-30 13:07:44,2011-11-30 13:08:18,,sitting,talking,not-smoking,no-puff
2011-11-30 13:08:18,2011-11-30 13:08:29,,sitting,drinking-beverage,not-smoking,no-puff
2011-11-30 13:08:29,2011-11-30 13:09:39,,sitting,,not-smoking,no-puff
2011-11-30 13:09:39,2011-11-30 13:27:25,,,,,
2011-11-30 13:27:25,2011-11-30 13:28:33,,sitting,,not-smoking,no-puff
2011-11-30 13:28:33,2011-11-30 13:29:03,,sitting,drinking-beverage,not-smoking,no-puff
2011-11-30 13:29:03,2011-11-30 13:29:22,,sitting,,not-smoking,no-puff
2011-11-30 13:29:22,2011-11-30 13:29:59,,sitting,unknown-activity,not-smoking,no-puff
2011-11-30 13:29:59,2011-11-30 13:30:00,,sitting,,not-smoking,no-puff
2011-11-30 13:30:00,2011-11-30 13:30:10,,sitting,unknown-activity,not-smoking,no-puff
2011-11-30 13:30:10,2011-11-30 13:30:26,,sitting,,not-smoking,no-puff
2011-11-30 13:30:26,2011-11-30 13:30:48,,sitting,reading-paper,not-smoking,no-puff
2011-11-30 13:30:48,2011-11-30 13:30:51,,sitting,,not-smoking,no-puff
2011-11-30 13:30:51,2011-11-30 13:30:54,,sitting,unknown-activity,not-smoking,no-puff
2011-11-30 13:30:54,2011-11-30 13:30:58,,sitting,,not-smoking,no-puff
2011-11-30 13:30:58,2011-11-30 13:31:33,,sitting,,smoking,no-puff
2011-11-30 13:31:33,2011-11-30 13:31:41,,sitting,unknown-activity,smoking,no-puff
2011-11-30 13:31:41,2011-11-30 13:33:12,,sitting,unknown-activity,not-smoking,no-puff
2011-11-30 13:33:12,2011-11-30 13:33:17,,sitting,drinking-beverage,not-smoking,no-puff
2011-11-30 13:33:17,2011-11-30 13:33:28,,sitting,,not-smoking,no-puff
2011-11-30 13:33:28,2011-11-30 13:33:35,,sitting,,smoking,no-puff
2011-11-30 13:33:35,2011-11-30 13:33:37,,sitting,,smoking,right-puff
2011-11-30 13:33:37,2011-11-30 13:33:44,,sitting,,smoking,no-puff
2011-11-30 13:33:44,2011-11-30 13:33:48,,sitting,,smoking,right-puff
2011-11-30 13:33:48,2011-11-30 13:33:52,,sitting,,smoking,no-puff
2011-11-30 13:33:52,2011-11-30 13:33:56,,sitting,,smoking,right-puff
2011-11-30 13:33:56,2011-11-30 13:34:02,,sitting,,smoking,no-puff
2011-11-30 13:34:02,2011-11-30 13:34:07,,sitting,,smoking,right-puff
2011-11-30 13:34:07,2011-11-30 13:34:13,,sitting,,smoking,no-puff
2011-11-30 13:34:13,2011-11-30 13:34:15,,sitting,drinking-beverage,smoking,no-puff
2011-11-30 13:34:15,2011-11-30 13:34:15,,sitting,,smoking,no-puff
2011-11-30 13:34:15,2011-11-30 13:34:29,,sitting,,smoking,right-puff
2011-11-30 13:34:29,2011-11-30 13:34:50,,sitting,unknown-activity,smoking,right-puff
2011-11-30 13:34:50,2011-11-30 13:35:06,,sitting,unknown-activity,smoking,no-puff
2011-11-30 13:35:06,2011-11-30 13:35:10,,sitting,drinking-beverage,smoking,no-puff
2011-11-30 13:35:10,2011-11-30 13:35:12,,sitting,,smoking,no-puff
2011-11-30 13:35:12,2011-11-30 13:35:17,,sitting,,smoking,left-puff
2011-11-30 13:35:17,2011-11-30 13:35:19,,sitting,unknown-activity,smoking,left-puff
2011-11-30 13:35:19,2011-11-30 13:35:24,,sitting,unknown-activity,smoking,no-puff
2011-11-30 13:35:24,2011-11-30 13:35:28,,sitting,,smoking,no-puff
2011-11-30 13:35:28,2011-11-30 13:35:39,,sitting,drinking-beverage,smoking,no-puff
2011-11-30 13:35:39,2011-11-30 13:35:42,,sitting,drinking-beverage,smoking,left-puff
2011-11-30 13:35:42,2011-11-30 13:35:43,,sitting,using-computer,smoking,left-puff
2011-11-30 13:35:43,2011-11-30 13:35:44,,sitting,using-phone,smoking,left-puff
2011-11-30 13:35:44,2011-11-30 13:36:03,,sitting,using-phone,smoking,no-puff
2011-11-30 13:36:03,2011-11-30 13:36:05,,sitting,using-phone,smoking,left-puff
2011-11-30 13:36:05,2011-11-30 13:36:08,,sitting,using-phone,smoking,no-puff
2011-11-30 13:36:08,2011-11-30 13:36:11,,sitting,drinking-beverage,smoking,no-puff
2011-11-30 13:36:11,2011-11-30 13:36:15,,sitting,using-phone,smoking,no-puff
2011-11-30 13:36:15,2011-11-30 13:36:18,,sitting,using-phone,smoking,left-puff
2011-11-30 13:36:18,2011-11-30 13:36:31,,sitting,using-phone,smoking,no-puff
2011-11-30 13:36:31,2011-11-30 13:36:42,,sitting,using-phone,smoking,left-puff
2011-11-30 13:36:42,2011-11-30 13:36:48,,sitting,using-phone,smoking,no-puff
2011-11-30 13:36:48,2011-11-30 13:36:57,,sitting,,smoking,no-puff
2011-11-30 13:36:57,2011-11-30 13:36:59,,sitting,,smoking,left-puff
2011-11-30 13:36:59,2011-11-30 13:37:09,,sitting,,smoking,no-puff
2011-11-30 13:37:09,2011-11-30 13:37:10,,sitting,,smoking,left-puff
2011-11-30 13:37:10,2011-11-30 13:37:15,,sitting,,smoking,no-puff
2011-11-30 13:37:15,2011-11-30 13:37:22,,sitting,drinking-beverage,smoking,no-puff
2011-11-30 13:37:22,2011-11-30 13:37:25,,sitting,,smoking,no-puff
2011-11-30 13:37:25,2011-11-30 13:37:26,,sitting,,smoking,left-puff
2011-11-30 13:37:26,2011-11-30 13:37:28,,sitting,,smoking,no-puff
2011-11-30 13:37:28,2011-11-30 13:38:14,,sitting,using-phone,smoking,no-puff
2011-11-30 13:38:14,2011-11-30 13:38:19,,sitting,using-phone,smoking,left-puff
2011-11-30 13:38:19,2011-11-30 13:38:34,,sitting,using-phone,smoking,no-puff
2011-11-30 13:38:34,2011-11-30 13:38:35,,sitting,using-phone,smoking,left-puff
2011-11-30 13:38:35,2011-11-30 13:39:33,,sitting,using-phone,smoking,no-puff
2011-11-30 13:39:33,2011-11-30 13:39:51,,sitting,using-phone,smoking,left-puff
2011-11-30 13:39:51,2011-11-30 13:40:14,,sitting,using-phone,smoking,no-puff
2011-11-30 13:40:14,2011-11-30 13:40:14,,sitting,,smoking,no-puff
2011-11-30 13:40:14,2011-11-30 13:40:16,,sitting,,smoking,left-puff
2011-11-30 13:40:16,2011-11-30 13:40:19,,sitting,,smoking,no-puff
2011-11-30 13:40:19,2011-11-30 13:40:20,,sitting,,smoking,left-puff
2011-11-30 13:40:20,2011-11-30 13:40:23,,sitting,,smoking,no-puff
2011-11-30 13:40:23,2011-11-30 13:40:24,,sitting,using-computer,smoking,no-puff
2011-11-30 13:40:24,2011-11-30 13:40:29,,sitting,drinking-beverage,smoking,no-puff
2011-11-30 13:40:29,2011-11-30 13:40:44,,sitting,,smoking,no-puff
2011-11-30 13:40:44,2011-11-30 13:40:48,,sitting,drinking-beverage,smoking,no-puff
2011-11-30 13:40:48,2011-11-30 13:40:49,,sitting,,smoking,no-puff
2011-11-30 13:40:49,2011-11-30 13:40:54,,sitting,,not-smoking,no-puff
2011-11-30 13:40:54,2011-11-30 13:45:21,,sitting,using-phone,not-smoking,no-puff
2011-11-30 13:45:21,2011-11-30 13:45:55,,sitting,using-phone,smoking,no-puff
2011-11-30 13:45:55,2011-11-30 13:45:59,,sitting,using-phone,smoking,left-puff
2011-11-30 13:45:59,2011-11-30 13:46:09,,sitting,using-phone,smoking,no-puff
2011-11-30 13:46:09,2011-11-30 13:46:11,,sitting,using-phone,smoking,left-puff
2011-11-30 13:46:11,2011-11-30 13:46:12,,sitting,using-phone,smoking,no-puff
2011-11-30 13:46:12,2011-11-30 13:46:17,,sitting,drinking-beverage,smoking,no-puff
2011-11-30 13:46:17,2011-11-30 13:46:28,,sitting,using-phone,smoking,no-puff
2011-11-30 13:46:28,2011-11-30 13:46:30,,sitting,using-phone,smoking,left-puff
2011-11-30 13:46:30,2011-11-30 13:46:57,,sitting,using-phone,smoking,no-puff
2011-11-30 13:46:57,2011-11-30 13:46:58,,sitting,using-phone,smoking,left-puff
2011-11-30 13:46:58,2011-11-30 13:47:16,,sitting,using-phone,smoking,no-puff
2011-11-30 13:47:16,2011-11-30 13:47:18,,sitting,using-phone,smoking,left-puff
2011-11-30 13:47:18,2011-11-30 13:48:48,,sitting,using-phone,smoking,no-puff
2011-11-30 13:48:48,2011-11-30 13:48:49,,sitting,using-phone,smoking,left-puff
2011-11-30 13:48:49,2011-11-30 13:50:51,,sitting,using-phone,smoking,no-puff
2011-11-30 13:50:51,2011-11-30 13:51:05,,sitting,talking,smoking,no-puff
2011-11-30 13:51:05,2011-11-30 13:51:07,,sitting,unknown-activity,smoking,no-puff
2011-11-30 13:51:07,2011-11-30 13:51:27,,sitting,talking,smoking,no-puff
2011-11-30 13:51:27,2011-11-30 13:51:29,,sitting,talking,smoking,left-puff
2011-11-30 13:51:29,2011-11-30 13:51:38,,sitting,talking,smoking,no-puff
2011-11-30 13:51:38,2011-11-30 13:51:48,,sitting,drinking-beverage,smoking,no-puff
2011-11-30 13:51:48,2011-11-30 13:51:52,,sitting,,smoking,no-puff
2011-11-30 13:51:52,2011-11-30 13:51:58,,sitting,,smoking,left-puff
2011-11-30 13:51:58,2011-11-30 13:52:03,,sitting,,smoking,no-puff
2011-11-30 13:52:03,2011-11-30 13:52:05,,sitting,talking,smoking,no-puff
2011-11-30 13:52:05,2011-11-30 13:52:08,,sitting,talking,smoking,left-puff
2011-11-30 13:52:08,2011-11-30 13:52:14,,sitting,talking,smoking,no-puff
2011-11-30 13:52:14,2011-11-30 13:52:15,,sitting,talking,smoking,left-puff
2011-11-30 13:52:15,2011-11-30 13:52:25,,sitting,talking,smoking,no-puff
2011-11-30 13:52:25,2011-11-30 13:52:28,,sitting,drinking-beverage,smoking,no-puff
2011-11-30 13:52:28,2011-11-30 13:52:41,,sitting,,smoking,no-puff
2011-11-30 13:52:41,2011-11-30 13:52:47,,sitting,,smoking,left-puff
2011-11-30 13:52:47,2011-11-30 13:52:56,,sitting,,smoking,no-puff
2011-11-30 13:52:56,2011-11-30 13:52:57,,sitting,,smoking,left-puff
2011-11-30 13:52:57,2011-11-30 13:53:07,,sitting,,smoking,no-puff
2011-11-30 13:53:07,2011-11-30 13:53:08,,sitting,drinking-beverage,smoking,no-puff
2011-11-30 13:53:08,2011-11-30 13:53:38,,sitting,,smoking,no-puff
2011-11-30 13:53:38,2011-11-30 13:53:39,,sitting,,smoking,left-puff
2011-11-30 13:53:39,2011-11-30 13:53:46,,sitting,using-computer,smoking,left-puff
2011-11-30 13:53:46,2011-11-30 13:53:49,,sitting,using-computer,smoking,no-puff
2011-11-30 13:53:49,2011-11-30 13:53:52,,sitting,using-computer,smoking,right-puff
2011-11-30 13:53:52,2011-11-30 13:53:53,,sitting,using-computer,smoking,no-puff
2011-11-30 13:53:53,2011-11-30 13:53:53,,sitting,using-computer,smoking,right-puff
2011-11-30 13:53:53,2011-11-30 13:54:02,,sitting,using-computer,smoking,no-puff
2011-11-30 13:54:02,2011-11-30 13:54:03,,sitting,using-computer,smoking,right-puff
2011-11-30 13:54:03,2011-11-30 13:54:05,,sitting,using-computer,smoking,no-puff
2011-11-30 13:54:05,2011-11-30 13:54:07,,sitting,using-computer,smoking,right-puff
2011-11-30 13:54:07,2011-11-30 13:54:09,,sitting,using-computer,smoking,no-puff
2011-11-30 13:54:09,2011-11-30 13:54:10,,sitting,using-computer,smoking,left-puff
2011-11-30 13:54:10,2011-11-30 13:54:22,,sitting,using-computer,smoking,no-puff
2011-11-30 13:54:22,2011-11-30 13:54:24,,sitting,using-computer,smoking,left-puff
2011-11-30 13:54:24,2011-11-30 13:54:54,,sitting,using-computer,smoking,no-puff
2011-11-30 13:54:54,2011-11-30 13:54:58,,sitting,using-computer,smoking,left-puff
2011-11-30 13:54:58,2011-11-30 13:54:59,,sitting,using-computer,smoking,no-puff
2011-11-30 13:54:59,2011-11-30 13:54:59,,sitting,using-computer,smoking,right-puff
2011-11-30 13:54:59,2011-11-30 13:55:50,,sitting,using-computer,smoking,no-puff
2011-11-30 13:55:50,2011-11-30 13:55:52,,sitting,using-computer,not-smoking,no-puff
2011-11-30 13:55:52,2011-11-30 13:56:32,,sitting,,not-smoking,no-puff
2011-11-30 13:56:32,2011-11-30 13:56:35,,sitting,using-phone,not-smoking,no-puff
2011-11-30 13:56:35,2011-11-30 13:56:42,,sitting,,not-smoking,no-puff
2011-11-30 13:56:42,2011-11-30 13:56:44,,sitting,unknown-activity,not-smoking,no-puff
2011-11-30 13:56:44,2011-11-30 13:56:59,,sitting,,not-smoking,no-puff
2011-11-30 13:56:59,2011-11-30 13:59:51,,sitting,reading-paper,not-smoking,no-puff
2011-11-30 13:59:51,2011-11-30 13:59:55,,sitting,unknown-activity,not-smoking,no-puff
2011-11-30 13:59:55,2011-11-30 13:59:56,,sitting,,not-smoking,no-puff
2011-11-30 13:59:56,2011-11-30 14:00:02,,sitting,drinking-beverage,not-smoking,no-puff
2011-11-30 14:00:02,2011-11-30 14:00:04,,sitting,,not-smoking,no-puff
2011-11-30 14:00:04,2011-11-30 14:00:07,,sitting,drinking-beverage,not-smoking,no-puff
2011-11-30 14:00:07,2011-11-30 14:01:54,,sitting,,not-smoking,no-puff
2011-11-30 14:01:54,2011-11-30 14:02:06,,sitting,drinking-beverage,not-smoking,no-puff
2011-11-30 14:02:06,2011-11-30 14:02:17,,sitting,,not-smoking,no-puff
2011-11-30 14:02:17,2011-11-30 14:02:20,,sitting,unknown-activity,not-smoking,no-puff
2011-11-30 14:02:20,2011-11-30 14:02:29,,sitting,,not-smoking,no-puff
2011-11-30 14:02:29,2011-11-30 14:02:32,,sitting,unknown-activity,not-smoking,no-puff
2011-11-30 14:02:32,2011-11-30 14:02:44,,sitting,,not-smoking,no-puff
2011-11-30 14:02:44,2011-11-30 14:02:54,,sitting,drinking-beverage,not-smoking,no-puff
2011-11-30 14:02:54,2011-11-30 14:03:00,,sitting,,not-smoking,no-puff
2011-11-30 14:03:00,2011-11-30 14:03:35,,sitting,talking,not-smoking,no-puff
2011-11-30 14:03:35,2011-11-30 14:03:36,,sitting,talking,smoking,no-puff
2011-11-30 14:03:36,2011-11-30 14:03:38,,sitting,,smoking,no-puff
2011-11-30 14:03:38,2011-11-30 14:04:09,,standing,,smoking,no-puff
2011-11-30 14:04:09,2011-11-30 14:04:13,,standing,,smoking,right-puff
2011-11-30 14:04:13,2011-11-30 14:04:21,,standing,,smoking,no-puff
2011-11-30 14:04:21,2011-11-30 14:04:24,,walking,,smoking,no-puff
2011-11-30 14:04:24,2011-11-30 14:04:25,,,,smoking,no-puff
2011-11-30 14:04:25,2011-11-30 14:04:31,,standing,,smoking,no-puff
2011-11-30 14:04:31,2011-11-30 14:04:34,,standing,,smoking,right-puff
2011-11-30 14:04:34,2011-11-30 14:04:50,,standing,,smoking,no-puff
2011-11-30 14:04:50,2011-11-30 14:04:54,,standing,talking,smoking,no-puff
2011-11-30 14:04:54,2011-11-30 14:04:56,,standing,talking,smoking,right-puff
2011-11-30 14:04:56,2011-11-30 14:04:58,,standing,talking,smoking,no-puff
2011-11-30 14:04:58,2011-11-30 14:05:01,,unknown-posture,talking,smoking,no-puff
2011-11-30 14:05:01,2011-11-30 14:05:03,,unknown-posture,talking,smoking,right-puff
2011-11-30 14:05:03,2011-11-30 14:05:05,,unknown-posture,talking,smoking,no-puff
2011-11-30 14:05:05,2011-11-30 14:05:20,,unknown-posture,,smoking,no-puff
2011-11-30 14:05:20,2011-11-30 14:05:22,,unknown-posture,,smoking,right-puff
2011-11-30 14:05:22,2011-11-30 14:05:37,,unknown-posture,,smoking,no-puff
2011-11-30 14:05:37,2011-11-30 14:05:47,,standing,,smoking,no-puff
2011-11-30 14:05:47,2011-11-30 14:05:49,,standing,,smoking,right-puff
2011-11-30 14:05:49,2011-11-30 14:05:58,,standing,,smoking,no-puff
2011-11-30 14:05:58,2011-11-30 14:06:00,,standing,,smoking,right-puff
2011-11-30 14:06:00,2011-11-30 14:06:01,,standing,,smoking,no-puff
2011-11-30 14:06:01,2011-11-30 14:06:04,,unknown-posture,,smoking,no-puff
2011-11-30 14:06:04,2011-11-30 14:06:17,,standing,,smoking,no-puff
2011-11-30 14:06:17,2011-11-30 14:06:19,,standing,,smoking,right-puff
2011-11-30 14:06:19,2011-11-30 14:06:34,,standing,,smoking,no-puff
2011-11-30 14:06:34,2011-11-30 14:06:36,,standing,,smoking,right-puff
2011-11-30 14:06:36,2011-11-30 14:06:37,,standing,,smoking,no-puff
2011-11-30 14:06:37,2011-11-30 14:06:45,,unknown-posture,,smoking,no-puff
2011-11-30 14:06:45,2011-11-30 14:06:47,,unknown-posture,,smoking,right-puff
2011-11-30 14:06:47,2011-11-30 14:06:57,,unknown-posture,,smoking,no-puff
2011-11-30 14:06:57,2011-11-30 14:06:58,,,,smoking,no-puff
2011-11-30 14:06:58,2011-11-30 14:07:02,,standing,,smoking,no-puff
2011-11-30 14:07:02,2011-11-30 14:07:12,,standing,,smoking,right-puff
2011-11-30 14:07:12,2011-11-30 14:07:15,,sitting,,smoking,right-puff
2011-11-30 14:07:15,2011-11-30 14:07:31,,sitting,,smoking,no-puff
2011-11-30 14:07:31,2011-11-30 14:07:31,,sitting,,smoking,right-puff
2011-11-30 14:07:31,2011-11-30 14:07:55,,sitting,,smoking,no-puff
2011-11-30 14:07:55,2011-11-30 14:08:03,,sitting,using-phone,smoking,no-puff
2011-11-30 14:08:03,2011-11-30 14:08:07,,sitting,using-phone,smoking,left-puff
2011-11-30 14:08:07,2011-11-30 14:10:08,,sitting,using-phone,smoking,no-puff
2011-11-30 14:10:08,2011-11-30 14:10:12,,sitting,using-phone,smoking,left-puff
2011-11-30 14:10:12,2011-11-30 14:11:14,,sitting,using-phone,smoking,no-puff
2011-11-30 14:11:14,2011-11-30 14:11:15,,sitting,using-phone,smoking,left-puff
2011-11-30 14:11:15,2011-11-30 14:12:17,,sitting,using-phone,smoking,no-puff
2011-11-30 14:12:17,2011-11-30 14:12:19,,sitting,using-phone,smoking,left-puff
2011-11-30 14:12:19,2011-11-30 14:12:39,,sitting,using-phone,smoking,no-puff
2011-11-30 14:12:39,2011-11-30 14:12:40,,sitting,using-phone,smoking,left-puff
2011-11-30 14:12:40,2011-11-30 14:15:32,,sitting,using-phone,smoking,no-puff
2011-11-30 14:15:32,2011-11-30 14:15:40,,sitting,using-phone,not-smoking,no-puff
2011-11-30 14:15:40,2011-11-30 14:15:50,,sitting,using-phone,smoking,no-puff
2011-11-30 14:15:50,2011-11-30 14:15:52,,sitting,using-phone,smoking,right-puff
2011-11-30 14:15:52,2011-11-30 14:15:57,,sitting,using-phone,smoking,no-puff
2011-11-30 14:15:57,2011-11-30 14:16:02,,sitting,using-phone,smoking,right-puff
2011-11-30 14:16:02,2011-11-30 14:16:03,,sitting,using-phone,smoking,left-puff
2011-11-30 14:16:03,2011-11-30 14:16:39,,sitting,using-phone,smoking,no-puff
2011-11-30 14:16:39,2011-11-30 14:16:40,,sitting,using-phone,smoking,left-puff
2011-11-30 14:16:40,2011-11-30 14:16:51,,sitting,using-phone,smoking,no-puff
2011-11-30 14:16:51,2011-11-30 14:16:53,,sitting,using-phone,smoking,left-puff
2011-11-30 14:16:53,2011-11-30 14:17:04,,sitting,using-phone,smoking,no-puff
2011-11-30 14:17:04,2011-11-30 14:17:06,,sitting,using-phone,smoking,left-puff
2011-11-30 14:17:06,2011-11-30 14:17:40,,sitting,using-phone,smoking,no-puff
2011-11-30 14:17:40,2011-11-30 14:18:02,,sitting,,smoking,no-puff
2011-11-30 14:18:02,2011-11-30 14:18:06,,sitting,,smoking,left-puff
2011-11-30 14:18:06,2011-11-30 14:18:07,,sitting,,smoking,no-puff
2011-11-30 14:18:07,2011-11-30 14:18:08,,sitting,,smoking,right-puff
2011-11-30 14:18:08,2011-11-30 14:18:13,,sitting,,smoking,no-puff
2011-11-30 14:18:13,2011-11-30 14:18:14,,sitting,,smoking,right-puff
2011-11-30 14:18:14,2011-11-30 14:18:21,,sitting,,smoking,no-puff
2011-11-30 14:18:21,2011-11-30 14:18:27,,sitting,,smoking,right-puff
2011-11-30 14:18:27,2011-11-30 14:18:56,,sitting,,smoking,no-puff
2011-11-30 14:18:56,2011-11-30 14:19:09,,sitting,drinking-beverage,smoking,no-puff
2011-11-30 14:19:09,2011-11-30 14:19:16,,sitting,drinking-beverage,smoking,right-puff
2011-11-30 14:19:16,2011-11-30 14:19:27,,sitting,drinking-beverage,smoking,no-puff
2011-11-30 14:19:27,2011-11-30 14:19:39,,sitting,,smoking,no-puff
2011-11-30 14:19:39,2011-11-30 14:19:40,,sitting,,smoking,right-puff
